<?xml version="1.0" encoding="UTF-8" standalone="no"?>
<!DOCTYPE svg PUBLIC "-//W3C//DTD SVG 1.1//EN"
 "http://www.w3.org/Graphics/SVG/1.1/DTD/svg11.dtd">
<!-- Generated by graphviz version 3.0.0 (20220226.1711)
 -->
<!-- Title: TorpedoMiniGameTests.TrapDisarming Pages: 1 -->
<svg width="331pt" height="66pt"
 viewBox="0.00 0.00 331.00 66.00" xmlns="http://www.w3.org/2000/svg" xmlns:xlink="http://www.w3.org/1999/xlink">
<g id="graph0" class="graph" transform="scale(1 1) rotate(0) translate(4 62)">
<title>TorpedoMiniGameTests.TrapDisarming</title>
<polygon fill="white" stroke="transparent" points="-4,4 -4,-62 327,-62 327,4 -4,4"/>
<!-- Node1 -->
<g id="node1" class="node">
<title>Node1</title>
<g id="a_node1"><a xlink:title=" ">
<polygon fill="#bfbfbf" stroke="black" points="0,-14 0,-44 141,-44 141,-14 0,-14"/>
<text text-anchor="start" x="8" y="-32" font-family="Helvetica,sans-Serif" font-size="10.00">TorpedoMiniGameTests.Trap</text>
<text text-anchor="middle" x="70.5" y="-21" font-family="Helvetica,sans-Serif" font-size="10.00">Disarming</text>
</a>
</g>
</g>
<!-- Node2 -->
<g id="node2" class="node">
<title>Node2</title>
<g id="a_node2"><a xlink:href="../../dd/df3/class_torpedo_minigame.html#a04b4be0f29ce245fa22e043a32fe724c" target="_top" xlink:title="gets if the trap is disarmed">
<polygon fill="white" stroke="black" points="179.5,-38.5 179.5,-57.5 320.5,-57.5 320.5,-38.5 179.5,-38.5"/>
<text text-anchor="middle" x="250" y="-45.5" font-family="Helvetica,sans-Serif" font-size="10.00">TorpedoMinigame.CheckWin</text>
</a>
</g>
</g>
<!-- Node1&#45;&gt;Node2 -->
<g id="edge1" class="edge">
<title>Node1&#45;&gt;Node2</title>
<path fill="none" stroke="midnightblue" d="M141.14,-36.45C150.34,-37.44 159.83,-38.46 169.19,-39.46"/>
<polygon fill="midnightblue" stroke="midnightblue" points="168.95,-42.95 179.27,-40.54 169.7,-35.99 168.95,-42.95"/>
</g>
<!-- Node3 -->
<g id="node3" class="node">
<title>Node3</title>
<g id="a_node3"><a xlink:href="../../dd/df3/class_torpedo_minigame.html#a1762f54d881bbb9942f0ff76d976be2e" target="_top" xlink:title="disarms the trap">
<polygon fill="white" stroke="black" points="177,-0.5 177,-19.5 323,-19.5 323,-0.5 177,-0.5"/>
<text text-anchor="middle" x="250" y="-7.5" font-family="Helvetica,sans-Serif" font-size="10.00">TorpedoMinigame.DisarmTrap</text>
</a>
</g>
</g>
<!-- Node1&#45;&gt;Node3 -->
<g id="edge2" class="edge">
<title>Node1&#45;&gt;Node3</title>
<path fill="none" stroke="midnightblue" d="M141.14,-21.55C149.59,-20.64 158.28,-19.71 166.88,-18.79"/>
<polygon fill="midnightblue" stroke="midnightblue" points="167.36,-22.26 176.93,-17.71 166.61,-15.3 167.36,-22.26"/>
</g>
</g>
</svg>
