<?xml version="1.0" encoding="UTF-8" standalone="no"?>
<!DOCTYPE svg PUBLIC "-//W3C//DTD SVG 1.1//EN"
 "http://www.w3.org/Graphics/SVG/1.1/DTD/svg11.dtd">
<!-- Generated by graphviz version 3.0.0 (20220226.1711)
 -->
<!-- Title: GameManager.AddBody Pages: 1 -->
<svg width="467pt" height="104pt"
 viewBox="0.00 0.00 467.00 104.00" xmlns="http://www.w3.org/2000/svg" xmlns:xlink="http://www.w3.org/1999/xlink">
<g id="graph0" class="graph" transform="scale(1 1) rotate(0) translate(4 100)">
<title>GameManager.AddBody</title>
<polygon fill="white" stroke="transparent" points="-4,4 -4,-100 463,-100 463,4 -4,4"/>
<!-- Node1 -->
<g id="node1" class="node">
<title>Node1</title>
<g id="a_node1"><a xlink:title="Will add a body to the list of bodies within the game manager.">
<polygon fill="#bfbfbf" stroke="black" points="0,-57.5 0,-76.5 123,-76.5 123,-57.5 0,-57.5"/>
<text text-anchor="middle" x="61.5" y="-64.5" font-family="Helvetica,sans-Serif" font-size="10.00">GameManager.AddBody</text>
</a>
</g>
</g>
<!-- Node2 -->
<g id="node2" class="node">
<title>Node2</title>
<g id="a_node2"><a xlink:href="../../d8/dfa/class_run_manager.html#a0eeaf6e2dd1aee01d5093b44bcbbb5eb" target="_top" xlink:title="Will add a body to the list of bodies within the game manager.">
<polygon fill="white" stroke="black" points="174,-76.5 174,-95.5 288,-95.5 288,-76.5 174,-76.5"/>
<text text-anchor="middle" x="231" y="-83.5" font-family="Helvetica,sans-Serif" font-size="10.00">RunManager.AddBody</text>
</a>
</g>
</g>
<!-- Node1&#45;&gt;Node2 -->
<g id="edge1" class="edge">
<title>Node1&#45;&gt;Node2</title>
<path fill="none" stroke="midnightblue" d="M123.45,-73.91C136.56,-75.4 150.49,-76.98 163.8,-78.49"/>
<polygon fill="midnightblue" stroke="midnightblue" points="163.5,-81.98 173.83,-79.63 164.29,-75.02 163.5,-81.98"/>
</g>
<!-- Node3 -->
<g id="node3" class="node">
<title>Node3</title>
<g id="a_node3"><a xlink:href="../../db/d69/class_inventory_bag.html#afb7c9cbbadfb64b2a444216ab16e6104" target="_top" xlink:title="This updates the bag to add in a new body that was just picked up then it updates the variable to cou...">
<polygon fill="white" stroke="black" points="159,-38.5 159,-57.5 303,-57.5 303,-38.5 159,-38.5"/>
<text text-anchor="middle" x="231" y="-45.5" font-family="Helvetica,sans-Serif" font-size="10.00">InventoryBag.UpdateInventory</text>
</a>
</g>
</g>
<!-- Node1&#45;&gt;Node3 -->
<g id="edge2" class="edge">
<title>Node1&#45;&gt;Node3</title>
<path fill="none" stroke="midnightblue" d="M123.45,-60.09C131.71,-59.15 140.31,-58.17 148.86,-57.2"/>
<polygon fill="midnightblue" stroke="midnightblue" points="149.32,-60.67 158.86,-56.07 148.53,-53.72 149.32,-60.67"/>
</g>
<!-- Node4 -->
<g id="node4" class="node">
<title>Node4</title>
<g id="a_node4"><a xlink:href="../../d8/dfa/class_run_manager.html#a9430e7b64dec87034c8dfa732281ae55" target="_top" xlink:title="Getter for the array of bodies that have been retrieved during the run.">
<polygon fill="white" stroke="black" points="339,-76.5 339,-95.5 459,-95.5 459,-76.5 339,-76.5"/>
<text text-anchor="middle" x="399" y="-83.5" font-family="Helvetica,sans-Serif" font-size="10.00">RunManager.GetBodies</text>
</a>
</g>
</g>
<!-- Node3&#45;&gt;Node4 -->
<g id="edge3" class="edge">
<title>Node3&#45;&gt;Node4</title>
<path fill="none" stroke="midnightblue" d="M273.89,-57.59C295.89,-62.63 323.05,-68.84 346.35,-74.18"/>
<polygon fill="midnightblue" stroke="midnightblue" points="345.88,-77.66 356.41,-76.48 347.45,-70.84 345.88,-77.66"/>
</g>
<!-- Node5 -->
<g id="node5" class="node">
<title>Node5</title>
<g id="a_node5"><a xlink:href="../../d0/dcb/class_body.html#a246a4048f0bf74cf0e396a3720e30f93" target="_top" xlink:title="Getter for the quality of the body.">
<polygon fill="white" stroke="black" points="356,-38.5 356,-57.5 442,-57.5 442,-38.5 356,-38.5"/>
<text text-anchor="middle" x="399" y="-45.5" font-family="Helvetica,sans-Serif" font-size="10.00">Body.GetDecay</text>
</a>
</g>
</g>
<!-- Node3&#45;&gt;Node5 -->
<g id="edge4" class="edge">
<title>Node3&#45;&gt;Node5</title>
<path fill="none" stroke="midnightblue" d="M303.36,-48C317.65,-48 332.4,-48 345.89,-48"/>
<polygon fill="midnightblue" stroke="midnightblue" points="345.92,-51.5 355.92,-48 345.92,-44.5 345.92,-51.5"/>
</g>
<!-- Node6 -->
<g id="node6" class="node">
<title>Node6</title>
<g id="a_node6"><a xlink:href="../../d0/dcb/class_body.html#a3473865f64494e89c1ec7877fd6ca8cf" target="_top" xlink:title="Getter for the body sprite&#39;s material.">
<polygon fill="white" stroke="black" points="353,-0.5 353,-19.5 445,-19.5 445,-0.5 353,-0.5"/>
<text text-anchor="middle" x="399" y="-7.5" font-family="Helvetica,sans-Serif" font-size="10.00">Body.GetMaterial</text>
</a>
</g>
</g>
<!-- Node3&#45;&gt;Node6 -->
<g id="edge5" class="edge">
<title>Node3&#45;&gt;Node6</title>
<path fill="none" stroke="midnightblue" d="M273.89,-38.41C295.89,-33.37 323.05,-27.16 346.35,-21.82"/>
<polygon fill="midnightblue" stroke="midnightblue" points="347.45,-25.16 356.41,-19.52 345.88,-18.34 347.45,-25.16"/>
</g>
</g>
</svg>
