<?xml version="1.0" encoding="UTF-8" standalone="no"?>
<!DOCTYPE svg PUBLIC "-//W3C//DTD SVG 1.1//EN"
 "http://www.w3.org/Graphics/SVG/1.1/DTD/svg11.dtd">
<!-- Generated by graphviz version 3.0.0 (20220226.1711)
 -->
<!-- Title: GameManager.EndRun Pages: 1 -->
<svg width="637pt" height="85pt"
 viewBox="0.00 0.00 637.00 85.00" xmlns="http://www.w3.org/2000/svg" xmlns:xlink="http://www.w3.org/1999/xlink">
<g id="graph0" class="graph" transform="scale(1 1) rotate(0) translate(4 81)">
<title>GameManager.EndRun</title>
<polygon fill="white" stroke="transparent" points="-4,4 -4,-81 633,-81 633,4 -4,4"/>
<!-- Node1 -->
<g id="node1" class="node">
<title>Node1</title>
<g id="a_node1"><a xlink:title="Will Take all the information from the run and commit it to the game manager. Then it will load back ...">
<polygon fill="#bfbfbf" stroke="black" points="511,-38.5 511,-57.5 629,-57.5 629,-38.5 511,-38.5"/>
<text text-anchor="middle" x="570" y="-45.5" font-family="Helvetica,sans-Serif" font-size="10.00">GameManager.EndRun</text>
</a>
</g>
</g>
<!-- Node2 -->
<g id="node2" class="node">
<title>Node2</title>
<g id="a_node2"><a xlink:href="../../d4/d9f/class_bribing_options.html#a7174aa8fd18c8c448f97c33c534b65d9" target="_top" xlink:title="Ends the current run, and causes other negative effects (to be added).">
<polygon fill="white" stroke="black" points="337,-57.5 337,-76.5 475,-76.5 475,-57.5 337,-57.5"/>
<text text-anchor="middle" x="406" y="-64.5" font-family="Helvetica,sans-Serif" font-size="10.00">BribingOptions.DeclineBribe</text>
</a>
</g>
</g>
<!-- Node1&#45;&gt;Node2 -->
<g id="edge1" class="edge">
<title>Node1&#45;&gt;Node2</title>
<path fill="none" stroke="midnightblue" d="M501.03,-55.97C492.46,-56.98 483.69,-58.01 475.12,-59.01"/>
<polygon fill="midnightblue" stroke="midnightblue" points="501.45,-59.45 510.97,-54.81 500.63,-52.49 501.45,-59.45"/>
</g>
<!-- Node3 -->
<g id="node3" class="node">
<title>Node3</title>
<g id="a_node3"><a xlink:href="../../d8/dfa/class_run_manager.html#a2bc2d034855ab311a5e558ab75e23014" target="_top" xlink:title="Coroutine that handles the logic of a timer. Parallel logic that will wait 1 second then increment th...">
<polygon fill="white" stroke="black" points="357,-19.5 357,-38.5 455,-38.5 455,-19.5 357,-19.5"/>
<text text-anchor="middle" x="406" y="-26.5" font-family="Helvetica,sans-Serif" font-size="10.00">RunManager.Timer</text>
</a>
</g>
</g>
<!-- Node1&#45;&gt;Node3 -->
<g id="edge2" class="edge">
<title>Node1&#45;&gt;Node3</title>
<path fill="none" stroke="midnightblue" d="M500.94,-40.02C485.51,-38.21 469.43,-36.32 455.02,-34.63"/>
<polygon fill="midnightblue" stroke="midnightblue" points="500.63,-43.51 510.97,-41.19 501.45,-36.55 500.63,-43.51"/>
</g>
<!-- Node4 -->
<g id="node4" class="node">
<title>Node4</title>
<g id="a_node4"><a xlink:href="../../d8/dfa/class_run_manager.html#a727f064f33d7216d62e533254bd01c9d" target="_top" xlink:title="When called the Timer coroutine will start. Will start the timer.">
<polygon fill="white" stroke="black" points="182,-19.5 182,-38.5 301,-38.5 301,-19.5 182,-19.5"/>
<text text-anchor="middle" x="241.5" y="-26.5" font-family="Helvetica,sans-Serif" font-size="10.00">RunManager.StartTimer</text>
</a>
</g>
</g>
<!-- Node3&#45;&gt;Node4 -->
<g id="edge3" class="edge">
<title>Node3&#45;&gt;Node4</title>
<path fill="none" stroke="midnightblue" d="M346.67,-29C331.91,-29 316.04,-29 301.26,-29"/>
<polygon fill="midnightblue" stroke="midnightblue" points="346.68,-32.5 356.68,-29 346.68,-25.5 346.68,-32.5"/>
</g>
<!-- Node5 -->
<g id="node5" class="node">
<title>Node5</title>
<g id="a_node5"><a xlink:href="../../d7/d75/class_u_i_manager.html#ab1cac3aa7b4461c2eee7859a9947c4ca" target="_top" xlink:title="When the player unpauses the game it adjusts the UI elements and unpauses the game">
<polygon fill="white" stroke="black" points="0,-38.5 0,-57.5 146,-57.5 146,-38.5 0,-38.5"/>
<text text-anchor="middle" x="73" y="-45.5" font-family="Helvetica,sans-Serif" font-size="10.00">UIManager.ExitedPauseMenu</text>
</a>
</g>
</g>
<!-- Node4&#45;&gt;Node5 -->
<g id="edge4" class="edge">
<title>Node4&#45;&gt;Node5</title>
<path fill="none" stroke="midnightblue" d="M171.66,-36.86C163.25,-37.82 154.64,-38.8 146.18,-39.76"/>
<polygon fill="midnightblue" stroke="midnightblue" points="172.26,-40.31 181.8,-35.7 171.47,-33.36 172.26,-40.31"/>
</g>
<!-- Node6 -->
<g id="node6" class="node">
<title>Node6</title>
<g id="a_node6"><a xlink:href="../../db/d10/class_game_manager.html#aa8a1297f6f46e8373ab85a62955a12da" target="_top" xlink:title="When called it will initialize the run variable, start the timer, and load the run and the correct UI...">
<polygon fill="white" stroke="black" points="12,-0.5 12,-19.5 134,-19.5 134,-0.5 12,-0.5"/>
<text text-anchor="middle" x="73" y="-7.5" font-family="Helvetica,sans-Serif" font-size="10.00">GameManager.StartRun</text>
</a>
</g>
</g>
<!-- Node4&#45;&gt;Node6 -->
<g id="edge5" class="edge">
<title>Node4&#45;&gt;Node6</title>
<path fill="none" stroke="midnightblue" d="M171.51,-21.13C159.11,-19.71 146.27,-18.25 134.14,-16.86"/>
<polygon fill="midnightblue" stroke="midnightblue" points="171.47,-24.64 181.8,-22.3 172.26,-17.69 171.47,-24.64"/>
</g>
</g>
</svg>
