<?xml version="1.0" encoding="UTF-8" standalone="no"?>
<!DOCTYPE svg PUBLIC "-//W3C//DTD SVG 1.1//EN"
 "http://www.w3.org/Graphics/SVG/1.1/DTD/svg11.dtd">
<!-- Generated by graphviz version 3.0.0 (20220226.1711)
 -->
<!-- Title: GameManager.ChangeScene Pages: 1 -->
<svg width="817pt" height="104pt"
 viewBox="0.00 0.00 817.00 104.00" xmlns="http://www.w3.org/2000/svg" xmlns:xlink="http://www.w3.org/1999/xlink">
<g id="graph0" class="graph" transform="scale(1 1) rotate(0) translate(4 100)">
<title>GameManager.ChangeScene</title>
<polygon fill="white" stroke="transparent" points="-4,4 -4,-100 813,-100 813,4 -4,4"/>
<!-- Node1 -->
<g id="node1" class="node">
<title>Node1</title>
<g id="a_node1"><a xlink:title="Can be passed either an int or the enum equivalent of the scene that is to be loaded">
<polygon fill="#bfbfbf" stroke="black" points="665,-19.5 665,-38.5 809,-38.5 809,-19.5 665,-19.5"/>
<text text-anchor="middle" x="737" y="-26.5" font-family="Helvetica,sans-Serif" font-size="10.00">GameManager.ChangeScene</text>
</a>
</g>
</g>
<!-- Node2 -->
<g id="node2" class="node">
<title>Node2</title>
<g id="a_node2"><a xlink:href="../../db/d10/class_game_manager.html#a2d951a59e3dcadf8b14e4ce6c37f061b" target="_top" xlink:title="Will Take all the information from the run and commit it to the game manager. Then it will load back ...">
<polygon fill="white" stroke="black" points="511,-38.5 511,-57.5 629,-57.5 629,-38.5 511,-38.5"/>
<text text-anchor="middle" x="570" y="-45.5" font-family="Helvetica,sans-Serif" font-size="10.00">GameManager.EndRun</text>
</a>
</g>
</g>
<!-- Node1&#45;&gt;Node2 -->
<g id="edge1" class="edge">
<title>Node1&#45;&gt;Node2</title>
<path fill="none" stroke="midnightblue" d="M654.54,-38.38C645.96,-39.37 637.36,-40.36 629.12,-41.31"/>
<polygon fill="midnightblue" stroke="midnightblue" points="655.05,-41.84 664.59,-37.22 654.25,-34.89 655.05,-41.84"/>
</g>
<!-- Node7 -->
<g id="node7" class="node">
<title>Node7</title>
<g id="a_node7"><a xlink:href="../../db/d10/class_game_manager.html#aa8a1297f6f46e8373ab85a62955a12da" target="_top" xlink:title="When called it will initialize the run variable, start the timer, and load the run and the correct UI...">
<polygon fill="white" stroke="black" points="12,-0.5 12,-19.5 134,-19.5 134,-0.5 12,-0.5"/>
<text text-anchor="middle" x="73" y="-7.5" font-family="Helvetica,sans-Serif" font-size="10.00">GameManager.StartRun</text>
</a>
</g>
</g>
<!-- Node1&#45;&gt;Node7 -->
<g id="edge7" class="edge">
<title>Node1&#45;&gt;Node7</title>
<path fill="none" stroke="midnightblue" d="M654.58,-26.66C519.78,-22.79 253.33,-15.15 134.11,-11.73"/>
<polygon fill="midnightblue" stroke="midnightblue" points="654.74,-30.17 664.84,-26.96 654.94,-23.17 654.74,-30.17"/>
</g>
<!-- Node3 -->
<g id="node3" class="node">
<title>Node3</title>
<g id="a_node3"><a xlink:href="../../d4/d9f/class_bribing_options.html#a7174aa8fd18c8c448f97c33c534b65d9" target="_top" xlink:title="Ends the current run, and causes other negative effects (to be added).">
<polygon fill="white" stroke="black" points="337,-76.5 337,-95.5 475,-95.5 475,-76.5 337,-76.5"/>
<text text-anchor="middle" x="406" y="-83.5" font-family="Helvetica,sans-Serif" font-size="10.00">BribingOptions.DeclineBribe</text>
</a>
</g>
</g>
<!-- Node2&#45;&gt;Node3 -->
<g id="edge2" class="edge">
<title>Node2&#45;&gt;Node3</title>
<path fill="none" stroke="midnightblue" d="M518.29,-59.9C495.51,-65.24 469.01,-71.45 447.59,-76.48"/>
<polygon fill="midnightblue" stroke="midnightblue" points="519.18,-63.28 528.12,-57.59 517.59,-56.47 519.18,-63.28"/>
</g>
<!-- Node4 -->
<g id="node4" class="node">
<title>Node4</title>
<g id="a_node4"><a xlink:href="../../d8/dfa/class_run_manager.html#a2bc2d034855ab311a5e558ab75e23014" target="_top" xlink:title="Coroutine that handles the logic of a timer. Parallel logic that will wait 1 second then increment th...">
<polygon fill="white" stroke="black" points="357,-38.5 357,-57.5 455,-57.5 455,-38.5 357,-38.5"/>
<text text-anchor="middle" x="406" y="-45.5" font-family="Helvetica,sans-Serif" font-size="10.00">RunManager.Timer</text>
</a>
</g>
</g>
<!-- Node2&#45;&gt;Node4 -->
<g id="edge3" class="edge">
<title>Node2&#45;&gt;Node4</title>
<path fill="none" stroke="midnightblue" d="M500.94,-48C485.51,-48 469.43,-48 455.02,-48"/>
<polygon fill="midnightblue" stroke="midnightblue" points="500.97,-51.5 510.97,-48 500.97,-44.5 500.97,-51.5"/>
</g>
<!-- Node5 -->
<g id="node5" class="node">
<title>Node5</title>
<g id="a_node5"><a xlink:href="../../d8/dfa/class_run_manager.html#a727f064f33d7216d62e533254bd01c9d" target="_top" xlink:title="When called the Timer coroutine will start. Will start the timer.">
<polygon fill="white" stroke="black" points="182,-38.5 182,-57.5 301,-57.5 301,-38.5 182,-38.5"/>
<text text-anchor="middle" x="241.5" y="-45.5" font-family="Helvetica,sans-Serif" font-size="10.00">RunManager.StartTimer</text>
</a>
</g>
</g>
<!-- Node4&#45;&gt;Node5 -->
<g id="edge4" class="edge">
<title>Node4&#45;&gt;Node5</title>
<path fill="none" stroke="midnightblue" d="M346.67,-48C331.91,-48 316.04,-48 301.26,-48"/>
<polygon fill="midnightblue" stroke="midnightblue" points="346.68,-51.5 356.68,-48 346.68,-44.5 346.68,-51.5"/>
</g>
<!-- Node6 -->
<g id="node6" class="node">
<title>Node6</title>
<g id="a_node6"><a xlink:href="../../d7/d75/class_u_i_manager.html#ab1cac3aa7b4461c2eee7859a9947c4ca" target="_top" xlink:title="When the player unpauses the game it adjusts the UI elements and unpauses the game">
<polygon fill="white" stroke="black" points="0,-38.5 0,-57.5 146,-57.5 146,-38.5 0,-38.5"/>
<text text-anchor="middle" x="73" y="-45.5" font-family="Helvetica,sans-Serif" font-size="10.00">UIManager.ExitedPauseMenu</text>
</a>
</g>
</g>
<!-- Node5&#45;&gt;Node6 -->
<g id="edge5" class="edge">
<title>Node5&#45;&gt;Node6</title>
<path fill="none" stroke="midnightblue" d="M171.66,-48C163.25,-48 154.64,-48 146.18,-48"/>
<polygon fill="midnightblue" stroke="midnightblue" points="171.8,-51.5 181.8,-48 171.8,-44.5 171.8,-51.5"/>
</g>
<!-- Node5&#45;&gt;Node7 -->
<g id="edge6" class="edge">
<title>Node5&#45;&gt;Node7</title>
<path fill="none" stroke="midnightblue" d="M188.69,-36.18C165.22,-30.82 137.83,-24.57 115.71,-19.52"/>
<polygon fill="midnightblue" stroke="midnightblue" points="187.96,-39.6 198.49,-38.41 189.51,-32.77 187.96,-39.6"/>
</g>
</g>
</svg>
