<?xml version="1.0" encoding="UTF-8" standalone="no"?>
<!DOCTYPE svg PUBLIC "-//W3C//DTD SVG 1.1//EN"
 "http://www.w3.org/Graphics/SVG/1.1/DTD/svg11.dtd">
<!-- Generated by graphviz version 3.0.0 (20220226.1711)
 -->
<!-- Title: Quest Pages: 1 -->
<svg width="433pt" height="117pt"
 viewBox="0.00 0.00 433.00 117.00" xmlns="http://www.w3.org/2000/svg" xmlns:xlink="http://www.w3.org/1999/xlink">
<g id="graph0" class="graph" transform="scale(1 1) rotate(0) translate(4 113)">
<title>Quest</title>
<polygon fill="white" stroke="transparent" points="-4,4 -4,-113 429,-113 429,4 -4,4"/>
<!-- Node1 -->
<g id="node1" class="node">
<title>Node1</title>
<g id="a_node1"><a xlink:title=" ">
<polygon fill="#bfbfbf" stroke="black" points="174.5,-0.5 174.5,-19.5 217.5,-19.5 217.5,-0.5 174.5,-0.5"/>
<text text-anchor="middle" x="196" y="-7.5" font-family="Helvetica,sans-Serif" font-size="10.00">Quest</text>
</a>
</g>
</g>
<!-- Node2 -->
<g id="node2" class="node">
<title>Node2</title>
<g id="a_node2"><a xlink:title=" ">
<polygon fill="white" stroke="black" points="0,-89.5 0,-108.5 58,-108.5 58,-89.5 0,-89.5"/>
<text text-anchor="middle" x="29" y="-96.5" font-family="Helvetica,sans-Serif" font-size="10.00">GoalType</text>
</a>
</g>
</g>
<!-- Node2&#45;&gt;Node1 -->
<g id="edge1" class="edge">
<title>Node2&#45;&gt;Node1</title>
<path fill="none" stroke="#9a32cd" stroke-dasharray="5,2" d="M42.16,-81.11C53.65,-67.51 71.49,-48.92 91,-38 117.44,-23.2 152.16,-16.33 174.28,-13.28"/>
<polygon fill="#9a32cd" stroke="#9a32cd" points="39.18,-79.23 35.58,-89.2 44.61,-83.65 39.18,-79.23"/>
<text text-anchor="middle" x="100.5" y="-52" font-family="Helvetica,sans-Serif" font-size="10.00"> Tag</text>
</g>
<!-- Node3 -->
<g id="node3" class="node">
<title>Node3</title>
<g id="a_node3"><a xlink:title=" ">
<polygon fill="white" stroke="black" points="76,-89.5 76,-108.5 146,-108.5 146,-89.5 76,-89.5"/>
<text text-anchor="middle" x="111" y="-96.5" font-family="Helvetica,sans-Serif" font-size="10.00">BodyQuality</text>
</a>
</g>
</g>
<!-- Node3&#45;&gt;Node1 -->
<g id="edge2" class="edge">
<title>Node3&#45;&gt;Node1</title>
<path fill="none" stroke="#9a32cd" stroke-dasharray="5,2" d="M112.82,-78.92C114.98,-65.95 119.69,-49.19 130,-38 141.58,-25.44 159.85,-18.57 174.24,-14.91"/>
<polygon fill="#9a32cd" stroke="#9a32cd" points="109.31,-78.73 111.51,-89.1 116.26,-79.63 109.31,-78.73"/>
<text text-anchor="middle" x="161" y="-52" font-family="Helvetica,sans-Serif" font-size="10.00"> _BodyQuality</text>
</g>
<!-- Node4 -->
<g id="node4" class="node">
<title>Node4</title>
<g id="a_node4"><a xlink:title=" ">
<polygon fill="white" stroke="black" points="178.5,-89.5 178.5,-108.5 213.5,-108.5 213.5,-89.5 178.5,-89.5"/>
<text text-anchor="middle" x="196" y="-96.5" font-family="Helvetica,sans-Serif" font-size="10.00">bool</text>
</a>
</g>
</g>
<!-- Node4&#45;&gt;Node1 -->
<g id="edge3" class="edge">
<title>Node4&#45;&gt;Node1</title>
<path fill="none" stroke="#9a32cd" stroke-dasharray="5,2" d="M196,-79.19C196,-60.74 196,-33.41 196,-19.62"/>
<polygon fill="#9a32cd" stroke="#9a32cd" points="192.5,-79.34 196,-89.34 199.5,-79.34 192.5,-79.34"/>
<text text-anchor="middle" x="228" y="-52" font-family="Helvetica,sans-Serif" font-size="10.00"> QuestIsActive</text>
</g>
<!-- Node5 -->
<g id="node5" class="node">
<title>Node5</title>
<g id="a_node5"><a xlink:title=" ">
<polygon fill="white" stroke="black" points="262.5,-89.5 262.5,-108.5 303.5,-108.5 303.5,-89.5 262.5,-89.5"/>
<text text-anchor="middle" x="283" y="-96.5" font-family="Helvetica,sans-Serif" font-size="10.00">string</text>
</a>
</g>
</g>
<!-- Node5&#45;&gt;Node1 -->
<g id="edge4" class="edge">
<title>Node5&#45;&gt;Node1</title>
<path fill="none" stroke="#9a32cd" stroke-dasharray="5,2" d="M280.12,-78.9C277.26,-65.92 271.69,-49.15 261,-38 249.42,-25.92 231.61,-19.03 217.57,-15.24"/>
<polygon fill="#9a32cd" stroke="#9a32cd" points="276.74,-79.88 281.99,-89.09 283.62,-78.62 276.74,-79.88"/>
<text text-anchor="middle" x="303" y="-57.5" font-family="Helvetica,sans-Serif" font-size="10.00"> Description</text>
<text text-anchor="middle" x="303" y="-46.5" font-family="Helvetica,sans-Serif" font-size="10.00">Title</text>
</g>
<!-- Node6 -->
<g id="node6" class="node">
<title>Node6</title>
<g id="a_node6"><a xlink:title=" ">
<polygon fill="white" stroke="black" points="343.5,-89.5 343.5,-108.5 372.5,-108.5 372.5,-89.5 343.5,-89.5"/>
<text text-anchor="middle" x="358" y="-96.5" font-family="Helvetica,sans-Serif" font-size="10.00">int</text>
</a>
</g>
</g>
<!-- Node6&#45;&gt;Node1 -->
<g id="edge5" class="edge">
<title>Node6&#45;&gt;Node1</title>
<path fill="none" stroke="#9a32cd" stroke-dasharray="5,2" d="M354.94,-78.99C351.76,-65.54 345.42,-48.16 333,-38 315.64,-23.81 251.82,-16.03 217.76,-12.8"/>
<polygon fill="#9a32cd" stroke="#9a32cd" points="351.56,-79.98 356.93,-89.12 358.43,-78.63 351.56,-79.98"/>
<text text-anchor="middle" x="388.5" y="-63" font-family="Helvetica,sans-Serif" font-size="10.00"> CurrentAmount</text>
<text text-anchor="middle" x="388.5" y="-52" font-family="Helvetica,sans-Serif" font-size="10.00">RequiredAmount</text>
<text text-anchor="middle" x="388.5" y="-41" font-family="Helvetica,sans-Serif" font-size="10.00">Reward</text>
</g>
</g>
</svg>
