<?xml version="1.0" encoding="UTF-8" standalone="no"?>
<!DOCTYPE svg PUBLIC "-//W3C//DTD SVG 1.1//EN"
 "http://www.w3.org/Graphics/SVG/1.1/DTD/svg11.dtd">
<!-- Generated by graphviz version 3.0.0 (20220226.1711)
 -->
<!-- Title: TripwireStartPointsDepricated Pages: 1 -->
<!--zoomable 219 -->
<svg id="main" version="1.1" xmlns="http://www.w3.org/2000/svg" xmlns:xlink="http://www.w3.org/1999/xlink" xml:space="preserve" onload="init(evt)">
<style type="text/css"><![CDATA[
.edge:hover path { stroke: red; }
.edge:hover polygon { stroke: red; fill: red; }
]]></style>
<script type="text/javascript"><![CDATA[
var edges = document.getElementsByTagName('g');
if (edges && edges.length) {
  for (var i=0;i<edges.length;i++) {
    if (edges[i].id.substr(0,4)=='edge') {
      edges[i].setAttribute('class','edge');
    }
  }
}
]]></script>
        <defs>
                <circle id="rim" cx="0" cy="0" r="7"/>
                <circle id="rim2" cx="0" cy="0" r="3.5"/>
                <g id="zoomPlus">
                        <use xlink:href="#rim" fill="#404040">
                                <set attributeName="fill" to="#808080" begin="zoomplus.mouseover" end="zoomplus.mouseout"/>
                        </use>
                        <path d="M-4,0h8M0,-4v8" fill="none" stroke="white" stroke-width="1.5" pointer-events="none"/>
                </g>
                <g id="zoomMin">
                        <use xlink:href="#rim" fill="#404040">
                                <set attributeName="fill" to="#808080" begin="zoomminus.mouseover" end="zoomminus.mouseout"/>
                        </use>
                        <path d="M-4,0h8" fill="none" stroke="white" stroke-width="1.5" pointer-events="none"/>
                </g>
                <g id="dirArrow">
                        <path fill="none" stroke="white" stroke-width="1.5" d="M0,-3.0v7 M-2.5,-0.5L0,-3.0L2.5,-0.5"/>
                </g>
               <g id="resetDef">
                       <use xlink:href="#rim2" fill="#404040">
                               <set attributeName="fill" to="#808080" begin="reset.mouseover" end="reset.mouseout"/>
                       </use>
               </g>
        </defs>

<script type="text/javascript">
var viewWidth = 747;
var viewHeight = 219;
var sectionId = 'dynsection-1';
</script>
<script xlink:href="../../svgpan.js"/>
<svg id="graph" class="graph">
<g id="viewport">
<title>TripwireStartPointsDepricated</title>
<polygon fill="white" stroke="transparent" points="-4,4 -4,-215 742.5,-215 742.5,4 -4,4"/>
<!-- Node1 -->
<g id="node1" class="node">
<title>Node1</title>
<g id="a_node1"><a xlink:title="handles the dragging of the lines in the tripwire minigame">
<polygon fill="#bfbfbf" stroke="black" points="392,-0.5 392,-19.5 537,-19.5 537,-0.5 392,-0.5"/>
<text text-anchor="middle" x="464.5" y="-7.5" font-family="Helvetica,sans-Serif" font-size="10.00">TripwireStartPointsDepricated</text>
</a>
</g>
</g>
<!-- Node2 -->
<g id="node2" class="node">
<title>Node2</title>
<g id="a_node2"><a xlink:href="../../da/d01/class_mono_behaviour.html" target="_top" xlink:title=" ">
<polygon fill="white" stroke="black" points="0,-191.5 0,-210.5 83,-210.5 83,-191.5 0,-191.5"/>
<text text-anchor="middle" x="41.5" y="-198.5" font-family="Helvetica,sans-Serif" font-size="10.00">MonoBehaviour</text>
</a>
</g>
</g>
<!-- Node2&#45;&gt;Node1 -->
<g id="edge1" class="edge">
<title>Node2&#45;&gt;Node1</title>
<path fill="none" stroke="midnightblue" d="M38.39,-180.92C37.15,-166.49 37.99,-147.01 48.5,-134 94.06,-77.61 306.32,-36.48 408.82,-19.54"/>
<polygon fill="midnightblue" stroke="midnightblue" points="34.96,-181.71 39.69,-191.19 41.91,-180.83 34.96,-181.71"/>
</g>
<!-- Node8 -->
<g id="node8" class="node">
<title>Node8</title>
<g id="a_node8"><a xlink:href="../../d4/d92/class_mini_game.html" target="_top" xlink:title="Base class for minigames">
<polygon fill="white" stroke="black" points="58,-134.5 58,-153.5 119,-153.5 119,-134.5 58,-134.5"/>
<text text-anchor="middle" x="88.5" y="-141.5" font-family="Helvetica,sans-Serif" font-size="10.00">MiniGame</text>
</a>
</g>
</g>
<!-- Node2&#45;&gt;Node8 -->
<g id="edge8" class="edge">
<title>Node2&#45;&gt;Node8</title>
<path fill="none" stroke="midnightblue" d="M55.57,-183.53C63.94,-173.74 74.23,-161.7 81.05,-153.71"/>
<polygon fill="midnightblue" stroke="midnightblue" points="52.68,-181.53 48.84,-191.41 58,-186.08 52.68,-181.53"/>
</g>
<!-- Node3 -->
<g id="node3" class="node">
<title>Node3</title>
<g id="a_node3"><a xlink:href="../../d0/d1f/class_i_drag_handler.html" target="_top" xlink:title=" ">
<polygon fill="white" stroke="black" points="377.5,-67.5 377.5,-86.5 449.5,-86.5 449.5,-67.5 377.5,-67.5"/>
<text text-anchor="middle" x="413.5" y="-74.5" font-family="Helvetica,sans-Serif" font-size="10.00">IDragHandler</text>
</a>
</g>
</g>
<!-- Node3&#45;&gt;Node1 -->
<g id="edge2" class="edge">
<title>Node3&#45;&gt;Node1</title>
<path fill="none" stroke="midnightblue" d="M426.63,-59.27C436.57,-46.6 449.83,-29.7 457.73,-19.63"/>
<polygon fill="midnightblue" stroke="midnightblue" points="423.8,-57.21 420.38,-67.23 429.3,-61.53 423.8,-57.21"/>
</g>
<!-- Node4 -->
<g id="node4" class="node">
<title>Node4</title>
<g id="a_node4"><a xlink:href="../../d9/d90/class_i_begin_drag_handler.html" target="_top" xlink:title=" ">
<polygon fill="white" stroke="black" points="468,-67.5 468,-86.5 565,-86.5 565,-67.5 468,-67.5"/>
<text text-anchor="middle" x="516.5" y="-74.5" font-family="Helvetica,sans-Serif" font-size="10.00">IBeginDragHandler</text>
</a>
</g>
</g>
<!-- Node4&#45;&gt;Node1 -->
<g id="edge3" class="edge">
<title>Node4&#45;&gt;Node1</title>
<path fill="none" stroke="midnightblue" d="M503.12,-59.27C492.98,-46.6 479.46,-29.7 471.4,-19.63"/>
<polygon fill="midnightblue" stroke="midnightblue" points="500.51,-61.61 509.49,-67.23 505.97,-57.24 500.51,-61.61"/>
</g>
<!-- Node5 -->
<g id="node5" class="node">
<title>Node5</title>
<g id="a_node5"><a xlink:href="../../dc/db1/class_i_end_drag_handler.html" target="_top" xlink:title=" ">
<polygon fill="white" stroke="black" points="583,-67.5 583,-86.5 672,-86.5 672,-67.5 583,-67.5"/>
<text text-anchor="middle" x="627.5" y="-74.5" font-family="Helvetica,sans-Serif" font-size="10.00">IEndDragHandler</text>
</a>
</g>
</g>
<!-- Node5&#45;&gt;Node1 -->
<g id="edge4" class="edge">
<title>Node5&#45;&gt;Node1</title>
<path fill="none" stroke="midnightblue" d="M596.42,-63.6C564.05,-50.7 514.22,-30.83 485.98,-19.56"/>
<polygon fill="midnightblue" stroke="midnightblue" points="595.27,-66.92 605.85,-67.37 597.86,-60.41 595.27,-66.92"/>
</g>
<!-- Node6 -->
<g id="node6" class="node">
<title>Node6</title>
<g id="a_node6"><a xlink:title=" ">
<polygon fill="white" stroke="black" points="690.5,-67.5 690.5,-86.5 738.5,-86.5 738.5,-67.5 690.5,-67.5"/>
<text text-anchor="middle" x="714.5" y="-74.5" font-family="Helvetica,sans-Serif" font-size="10.00">Canvas</text>
</a>
</g>
</g>
<!-- Node6&#45;&gt;Node1 -->
<g id="edge5" class="edge">
<title>Node6&#45;&gt;Node1</title>
<path fill="none" stroke="#9a32cd" stroke-dasharray="5,2" d="M680.44,-66.74C610.08,-48.11 539.18,-29.97 498.37,-19.59"/>
<polygon fill="#9a32cd" stroke="#9a32cd" points="679.8,-70.19 690.36,-69.38 681.59,-63.43 679.8,-70.19"/>
<text text-anchor="middle" x="627" y="-41" font-family="Helvetica,sans-Serif" font-size="10.00"> Canvas</text>
</g>
<!-- Node7 -->
<g id="node7" class="node">
<title>Node7</title>
<g id="a_node7"><a xlink:href="../../d3/d57/class_trip_wire_mini_game.html" target="_top" xlink:title="Controls the trip wire minigame, V2">
<polygon fill="white" stroke="black" points="262,-67.5 262,-86.5 359,-86.5 359,-67.5 262,-67.5"/>
<text text-anchor="middle" x="310.5" y="-74.5" font-family="Helvetica,sans-Serif" font-size="10.00">TripWireMiniGame</text>
</a>
</g>
</g>
<!-- Node7&#45;&gt;Node1 -->
<g id="edge6" class="edge">
<title>Node7&#45;&gt;Node1</title>
<path fill="none" stroke="#9a32cd" stroke-dasharray="5,2" d="M335.18,-62.64C349.86,-54.94 368.99,-45.37 386.5,-38 403.01,-31.05 421.99,-24.45 437.1,-19.51"/>
<polygon fill="#9a32cd" stroke="#9a32cd" points="333.43,-59.6 326.23,-67.38 336.7,-65.79 333.43,-59.6"/>
<text text-anchor="middle" x="409.5" y="-41" font-family="Helvetica,sans-Serif" font-size="10.00"> minigame</text>
</g>
<!-- Node8&#45;&gt;Node7 -->
<g id="edge7" class="edge">
<title>Node8&#45;&gt;Node7</title>
<path fill="none" stroke="midnightblue" d="M115.15,-130.1C132.8,-121.98 156.63,-111.78 178.5,-105 205.65,-96.58 236.76,-90.07 261.96,-85.56"/>
<polygon fill="midnightblue" stroke="midnightblue" points="113.61,-126.96 106.04,-134.37 116.58,-133.3 113.61,-126.96"/>
</g>
<!-- Node9 -->
<g id="node9" class="node">
<title>Node9</title>
<g id="a_node9"><a xlink:title=" ">
<polygon fill="white" stroke="black" points="137.5,-134.5 137.5,-153.5 217.5,-153.5 217.5,-134.5 137.5,-134.5"/>
<text text-anchor="middle" x="177.5" y="-141.5" font-family="Helvetica,sans-Serif" font-size="10.00">SphereCollider</text>
</a>
</g>
</g>
<!-- Node9&#45;&gt;Node7 -->
<g id="edge9" class="edge">
<title>Node9&#45;&gt;Node7</title>
<path fill="none" stroke="#9a32cd" stroke-dasharray="5,2" d="M178.92,-124.34C180.38,-117.4 183.17,-110 188.5,-105 199.22,-94.95 232.77,-87.97 261.98,-83.63"/>
<polygon fill="#9a32cd" stroke="#9a32cd" points="175.42,-124.1 177.58,-134.47 182.36,-125.02 175.42,-124.1"/>
<text text-anchor="middle" x="221" y="-108" font-family="Helvetica,sans-Serif" font-size="10.00"> MouseCollider</text>
</g>
<!-- Node10 -->
<g id="node10" class="node">
<title>Node10</title>
<g id="a_node10"><a xlink:title=" ">
<polygon fill="white" stroke="black" points="237,-134.5 237,-153.5 272,-153.5 272,-134.5 237,-134.5"/>
<text text-anchor="middle" x="254.5" y="-141.5" font-family="Helvetica,sans-Serif" font-size="10.00">bool</text>
</a>
</g>
</g>
<!-- Node10&#45;&gt;Node7 -->
<g id="edge10" class="edge">
<title>Node10&#45;&gt;Node7</title>
<path fill="none" stroke="#9a32cd" stroke-dasharray="5,2" d="M254.73,-124.16C255.6,-117.6 257.53,-110.51 261.5,-105 267.41,-96.81 276.6,-90.81 285.44,-86.59"/>
<polygon fill="#9a32cd" stroke="#9a32cd" points="251.22,-124.13 254.07,-134.34 258.21,-124.58 251.22,-124.13"/>
<text text-anchor="middle" x="296" y="-108" font-family="Helvetica,sans-Serif" font-size="10.00"> MousePressed</text>
</g>
<!-- Node11 -->
<g id="node11" class="node">
<title>Node11</title>
<g id="a_node11"><a xlink:title=" ">
<polygon fill="white" stroke="black" points="290.5,-134.5 290.5,-153.5 422.5,-153.5 422.5,-134.5 290.5,-134.5"/>
<text text-anchor="middle" x="356.5" y="-141.5" font-family="Helvetica,sans-Serif" font-size="10.00">List&lt; TripwireStartPoints &gt;</text>
</a>
</g>
</g>
<!-- Node11&#45;&gt;Node7 -->
<g id="edge11" class="edge">
<title>Node11&#45;&gt;Node7</title>
<path fill="none" stroke="#9a32cd" stroke-dasharray="5,2" d="M347.3,-125.41C343.6,-118.83 339.12,-111.39 334.5,-105 329.8,-98.49 323.8,-91.74 318.97,-86.62"/>
<polygon fill="#9a32cd" stroke="#9a32cd" points="344.24,-127.12 352.08,-134.24 350.39,-123.78 344.24,-127.12"/>
<text text-anchor="middle" x="374" y="-108" font-family="Helvetica,sans-Serif" font-size="10.00"> StartingPoints</text>
</g>
<!-- Node12 -->
<g id="node12" class="node">
<title>Node12</title>
<g id="a_node12"><a xlink:title=" ">
<polygon fill="white" stroke="black" points="441,-134.5 441,-153.5 518,-153.5 518,-134.5 441,-134.5"/>
<text text-anchor="middle" x="479.5" y="-141.5" font-family="Helvetica,sans-Serif" font-size="10.00">List&lt; Image &gt;</text>
</a>
</g>
</g>
<!-- Node12&#45;&gt;Node7 -->
<g id="edge12" class="edge">
<title>Node12&#45;&gt;Node7</title>
<path fill="none" stroke="#9a32cd" stroke-dasharray="5,2" d="M457.41,-129.05C444.19,-121.16 426.83,-111.59 410.5,-105 391.32,-97.26 369.19,-91.03 350.64,-86.51"/>
<polygon fill="#9a32cd" stroke="#9a32cd" points="455.87,-132.21 466.23,-134.43 459.51,-126.24 455.87,-132.21"/>
<text text-anchor="middle" x="461" y="-108" font-family="Helvetica,sans-Serif" font-size="10.00"> LineImages</text>
</g>
<!-- Node13 -->
<g id="node13" class="node">
<title>Node13</title>
<g id="a_node13"><a xlink:title=" ">
<polygon fill="white" stroke="black" points="536,-134.5 536,-153.5 571,-153.5 571,-134.5 536,-134.5"/>
<text text-anchor="middle" x="553.5" y="-141.5" font-family="Helvetica,sans-Serif" font-size="10.00">Text</text>
</a>
</g>
</g>
<!-- Node13&#45;&gt;Node7 -->
<g id="edge13" class="edge">
<title>Node13&#45;&gt;Node7</title>
<path fill="none" stroke="#9a32cd" stroke-dasharray="5,2" d="M534.19,-128.34C522.46,-120.17 506.82,-110.55 491.5,-105 439.55,-86.18 423.13,-95.24 368.5,-87 365.48,-86.54 362.37,-86.07 359.23,-85.59"/>
<polygon fill="#9a32cd" stroke="#9a32cd" points="532.18,-131.2 542.34,-134.21 536.28,-125.52 532.18,-131.2"/>
<text text-anchor="middle" x="541" y="-108" font-family="Helvetica,sans-Serif" font-size="10.00"> InstructText</text>
</g>
<!-- Node14 -->
<g id="node14" class="node">
<title>Node14</title>
<g id="a_node14"><a xlink:title=" ">
<polygon fill="white" stroke="black" points="617,-134.5 617,-153.5 646,-153.5 646,-134.5 617,-134.5"/>
<text text-anchor="middle" x="631.5" y="-141.5" font-family="Helvetica,sans-Serif" font-size="10.00">int</text>
</a>
</g>
</g>
<!-- Node14&#45;&gt;Node7 -->
<g id="edge14" class="edge">
<title>Node14&#45;&gt;Node7</title>
<path fill="none" stroke="#9a32cd" stroke-dasharray="5,2" d="M613.43,-128.06C602.33,-119.76 587.42,-110.11 572.5,-105 486.4,-75.5 458.85,-97.98 368.5,-87 365.47,-86.63 362.35,-86.23 359.2,-85.8"/>
<polygon fill="#9a32cd" stroke="#9a32cd" points="611.4,-130.92 621.44,-134.31 615.71,-125.4 611.4,-130.92"/>
<text text-anchor="middle" x="632.5" y="-108" font-family="Helvetica,sans-Serif" font-size="10.00"> CompletedWires</text>
</g>
</g>
</svg>
        <g id="navigator" transform="translate(0 0)" fill="#404254">
                <rect fill="#f2f5e9" fill-opacity="0.5" stroke="#606060" stroke-width=".5" x="0" y="0" width="60" height="60"/>
                <use id="zoomplus" xlink:href="#zoomPlus" x="17" y="9" onmousedown="handleZoom(evt,'in')"/>
                <use id="zoomminus" xlink:href="#zoomMin" x="42" y="9" onmousedown="handleZoom(evt,'out')"/>
                <use id="reset" xlink:href="#resetDef" x="30" y="36" onmousedown="handleReset()"/>
                <g id="arrowUp" xlink:href="#dirArrow" transform="translate(30 24)" onmousedown="handlePan(0,-1)">
                  <use xlink:href="#rim" fill="#404040">
                        <set attributeName="fill" to="#808080" begin="arrowUp.mouseover" end="arrowUp.mouseout"/>
                  </use>
                  <path fill="none" stroke="white" stroke-width="1.5" d="M0,-3.0v7 M-2.5,-0.5L0,-3.0L2.5,-0.5"/>
                </g>
                <g id="arrowRight" xlink:href="#dirArrow" transform="rotate(90) translate(36 -43)" onmousedown="handlePan(1,0)">
                  <use xlink:href="#rim" fill="#404040">
                        <set attributeName="fill" to="#808080" begin="arrowRight.mouseover" end="arrowRight.mouseout"/>
                  </use>
                  <path fill="none" stroke="white" stroke-width="1.5" d="M0,-3.0v7 M-2.5,-0.5L0,-3.0L2.5,-0.5"/>
                </g>
                <g id="arrowDown" xlink:href="#dirArrow" transform="rotate(180) translate(-30 -48)" onmousedown="handlePan(0,1)">
                  <use xlink:href="#rim" fill="#404040">
                        <set attributeName="fill" to="#808080" begin="arrowDown.mouseover" end="arrowDown.mouseout"/>
                  </use>
                  <path fill="none" stroke="white" stroke-width="1.5" d="M0,-3.0v7 M-2.5,-0.5L0,-3.0L2.5,-0.5"/>
                </g>
                <g id="arrowLeft" xlink:href="#dirArrow" transform="rotate(270) translate(-36 17)" onmousedown="handlePan(-1,0)">
                  <use xlink:href="#rim" fill="#404040">
                        <set attributeName="fill" to="#808080" begin="arrowLeft.mouseover" end="arrowLeft.mouseout"/>
                  </use>
                  <path fill="none" stroke="white" stroke-width="1.5" d="M0,-3.0v7 M-2.5,-0.5L0,-3.0L2.5,-0.5"/>
                </g>
        </g>
        <svg viewBox="0 0 15 15" width="100%" height="30px" preserveAspectRatio="xMaxYMin meet">
         <g id="arrow_out" transform="scale(0.3 0.3)">
          <a xlink:href="class_tripwire_start_points_depricated__coll__graph_org.svg" target="_base">
           <rect id="button" ry="5" rx="5" y="6" x="6" height="38" width="38"
                fill="#f2f5e9" fill-opacity="0.5" stroke="#606060" stroke-width="1.0"/>
           <path id="arrow"
             d="M 11.500037,31.436501 C 11.940474,20.09759 22.043105,11.32322 32.158766,21.979434 L 37.068811,17.246167 C 37.068811,17.246167 37.088388,32 37.088388,32 L 22.160133,31.978069 C 22.160133,31.978069 26.997745,27.140456 26.997745,27.140456 C 18.528582,18.264221 13.291696,25.230495 11.500037,31.436501 z"
             style="fill:#404040;"/>
          </a>
         </g>
        </svg>
</svg>
