<?xml version="1.0" encoding="UTF-8" standalone="no"?>
<!DOCTYPE svg PUBLIC "-//W3C//DTD SVG 1.1//EN"
 "http://www.w3.org/Graphics/SVG/1.1/DTD/svg11.dtd">
<!-- Generated by graphviz version 3.0.0 (20220226.1711)
 -->
<!-- Title: Save.SaveToJson Pages: 1 -->
<svg width="315pt" height="218pt"
 viewBox="0.00 0.00 315.00 218.00" xmlns="http://www.w3.org/2000/svg" xmlns:xlink="http://www.w3.org/1999/xlink">
<g id="graph0" class="graph" transform="scale(1 1) rotate(0) translate(4 214)">
<title>Save.SaveToJson</title>
<polygon fill="white" stroke="transparent" points="-4,4 -4,-214 311,-214 311,4 -4,4"/>
<!-- Node1 -->
<g id="node1" class="node">
<title>Node1</title>
<g id="a_node1"><a xlink:title=" ">
<polygon fill="#bfbfbf" stroke="black" points="0,-95.5 0,-114.5 92,-114.5 92,-95.5 0,-95.5"/>
<text text-anchor="middle" x="46" y="-102.5" font-family="Helvetica,sans-Serif" font-size="10.00">Save.SaveToJson</text>
</a>
</g>
</g>
<!-- Node2 -->
<g id="node2" class="node">
<title>Node2</title>
<g id="a_node2"><a xlink:href="../../da/d9d/class_upgrade_manager.html#a6f2ae92a405e6f8d85ccff0c4d5f7783" target="_top" xlink:title="Will take the current objects information and convert it into a Upgrades object">
<polygon fill="white" stroke="black" points="155,-190.5 155,-209.5 280,-209.5 280,-190.5 155,-190.5"/>
<text text-anchor="middle" x="217.5" y="-197.5" font-family="Helvetica,sans-Serif" font-size="10.00">UpgradeManager.Convert</text>
</a>
</g>
</g>
<!-- Node1&#45;&gt;Node2 -->
<g id="edge1" class="edge">
<title>Node1&#45;&gt;Node2</title>
<path fill="none" stroke="midnightblue" d="M54.31,-114.68C67.26,-131.08 95.89,-164.18 128,-181 133.48,-183.87 139.37,-186.31 145.41,-188.38"/>
<polygon fill="midnightblue" stroke="midnightblue" points="144.41,-191.73 154.99,-191.34 146.47,-185.04 144.41,-191.73"/>
</g>
<!-- Node3 -->
<g id="node3" class="node">
<title>Node3</title>
<g id="a_node3"><a xlink:href="../../db/d10/class_game_manager.html#a73ddb1f69404b9fffdde52a186533302" target="_top" xlink:title="A getter for the collection of bodies">
<polygon fill="white" stroke="black" points="135.5,-152.5 135.5,-171.5 299.5,-171.5 299.5,-152.5 135.5,-152.5"/>
<text text-anchor="middle" x="217.5" y="-159.5" font-family="Helvetica,sans-Serif" font-size="10.00">GameManager.GetBodyCollection</text>
</a>
</g>
</g>
<!-- Node1&#45;&gt;Node3 -->
<g id="edge2" class="edge">
<title>Node1&#45;&gt;Node3</title>
<path fill="none" stroke="midnightblue" d="M64.53,-114.65C80.62,-123.16 105.33,-135.36 128,-143 135.92,-145.67 144.37,-148.05 152.79,-150.15"/>
<polygon fill="midnightblue" stroke="midnightblue" points="152.08,-153.58 162.62,-152.48 153.7,-146.76 152.08,-153.58"/>
</g>
<!-- Node4 -->
<g id="node4" class="node">
<title>Node4</title>
<g id="a_node4"><a xlink:href="../../db/d10/class_game_manager.html#ab5da814aae54d4bceb91cac7f7290b4b" target="_top" xlink:title="Will return the current money/currency that the player has.">
<polygon fill="white" stroke="black" points="153.5,-114.5 153.5,-133.5 281.5,-133.5 281.5,-114.5 153.5,-114.5"/>
<text text-anchor="middle" x="217.5" y="-121.5" font-family="Helvetica,sans-Serif" font-size="10.00">GameManager.GetMoney</text>
</a>
</g>
</g>
<!-- Node1&#45;&gt;Node4 -->
<g id="edge3" class="edge">
<title>Node1&#45;&gt;Node4</title>
<path fill="none" stroke="midnightblue" d="M92.42,-110.09C108.08,-111.85 126.04,-113.86 143.34,-115.8"/>
<polygon fill="midnightblue" stroke="midnightblue" points="143.1,-119.29 153.43,-116.93 143.88,-112.34 143.1,-119.29"/>
</g>
<!-- Node5 -->
<g id="node5" class="node">
<title>Node5</title>
<g id="a_node5"><a xlink:href="../../db/d10/class_game_manager.html#ae9c1d96d5383443af62010d365ba1791" target="_top" xlink:title="Will get the money cap for the player">
<polygon fill="white" stroke="black" points="144.5,-76.5 144.5,-95.5 290.5,-95.5 290.5,-76.5 144.5,-76.5"/>
<text text-anchor="middle" x="217.5" y="-83.5" font-family="Helvetica,sans-Serif" font-size="10.00">GameManager.GetMoneyCap</text>
</a>
</g>
</g>
<!-- Node1&#45;&gt;Node5 -->
<g id="edge4" class="edge">
<title>Node1&#45;&gt;Node5</title>
<path fill="none" stroke="midnightblue" d="M92.42,-99.91C105.41,-98.45 119.98,-96.82 134.45,-95.2"/>
<polygon fill="midnightblue" stroke="midnightblue" points="134.87,-98.67 144.42,-94.08 134.1,-91.72 134.87,-98.67"/>
</g>
<!-- Node6 -->
<g id="node6" class="node">
<title>Node6</title>
<g id="a_node6"><a xlink:href="../../da/d2a/class_quest_manager.html#a59f02a1d7e809ebcba03f8eb0b53979d" target="_top" xlink:title="Getter to retrieve the guest list">
<polygon fill="white" stroke="black" points="152,-38.5 152,-57.5 283,-57.5 283,-38.5 152,-38.5"/>
<text text-anchor="middle" x="217.5" y="-45.5" font-family="Helvetica,sans-Serif" font-size="10.00">QuestManager.GetQuests</text>
</a>
</g>
</g>
<!-- Node1&#45;&gt;Node6 -->
<g id="edge5" class="edge">
<title>Node1&#45;&gt;Node6</title>
<path fill="none" stroke="midnightblue" d="M64.53,-95.35C80.62,-86.84 105.33,-74.64 128,-67 135.92,-64.33 144.37,-61.95 152.79,-59.85"/>
<polygon fill="midnightblue" stroke="midnightblue" points="153.7,-63.24 162.62,-57.52 152.08,-56.42 153.7,-63.24"/>
</g>
<!-- Node7 -->
<g id="node7" class="node">
<title>Node7</title>
<g id="a_node7"><a xlink:href="../../db/d10/class_game_manager.html#a6de115ce968a13d0a7c2c50078516e07" target="_top" xlink:title="Gets the Treasure collection">
<polygon fill="white" stroke="black" points="128,-0.5 128,-19.5 307,-19.5 307,-0.5 128,-0.5"/>
<text text-anchor="middle" x="217.5" y="-7.5" font-family="Helvetica,sans-Serif" font-size="10.00">GameManager.GetTreasureCollection</text>
</a>
</g>
</g>
<!-- Node1&#45;&gt;Node7 -->
<g id="edge6" class="edge">
<title>Node1&#45;&gt;Node7</title>
<path fill="none" stroke="midnightblue" d="M54.31,-95.32C67.26,-78.92 95.89,-45.82 128,-29 132.5,-26.64 137.27,-24.58 142.17,-22.77"/>
<polygon fill="midnightblue" stroke="midnightblue" points="143.34,-26.07 151.73,-19.6 141.13,-19.43 143.34,-26.07"/>
</g>
</g>
</svg>
