<?xml version="1.0" encoding="UTF-8" standalone="no"?>
<!DOCTYPE svg PUBLIC "-//W3C//DTD SVG 1.1//EN"
 "http://www.w3.org/Graphics/SVG/1.1/DTD/svg11.dtd">
<!-- Generated by graphviz version 3.0.0 (20220226.1711)
 -->
<!-- Title: TripwireStartPoints.OnEndDrag Pages: 1 -->
<svg width="527pt" height="28pt"
 viewBox="0.00 0.00 527.00 28.00" xmlns="http://www.w3.org/2000/svg" xmlns:xlink="http://www.w3.org/1999/xlink">
<g id="graph0" class="graph" transform="scale(1 1) rotate(0) translate(4 24)">
<title>TripwireStartPoints.OnEndDrag</title>
<polygon fill="white" stroke="transparent" points="-4,4 -4,-24 523,-24 523,4 -4,4"/>
<!-- Node1 -->
<g id="node1" class="node">
<title>Node1</title>
<g id="a_node1"><a xlink:title="resets position of line when drag is released">
<polygon fill="#bfbfbf" stroke="black" points="0,-0.5 0,-19.5 152,-19.5 152,-0.5 0,-0.5"/>
<text text-anchor="middle" x="76" y="-7.5" font-family="Helvetica,sans-Serif" font-size="10.00">TripwireStartPoints.OnEndDrag</text>
</a>
</g>
</g>
<!-- Node2 -->
<g id="node2" class="node">
<title>Node2</title>
<g id="a_node2"><a xlink:href="../../d3/d57/class_trip_wire_mini_game.html#a76af88f846573b67dfda166d638d86c4" target="_top" xlink:title="moves collider based on given positions">
<polygon fill="white" stroke="black" points="188,-0.5 188,-19.5 328,-19.5 328,-0.5 188,-0.5"/>
<text text-anchor="middle" x="258" y="-7.5" font-family="Helvetica,sans-Serif" font-size="10.00">TripWireMiniGame.MoveLine</text>
</a>
</g>
</g>
<!-- Node1&#45;&gt;Node2 -->
<g id="edge1" class="edge">
<title>Node1&#45;&gt;Node2</title>
<path fill="none" stroke="midnightblue" d="M152.03,-10C160.47,-10 169.08,-10 177.57,-10"/>
<polygon fill="midnightblue" stroke="midnightblue" points="177.84,-13.5 187.84,-10 177.84,-6.5 177.84,-13.5"/>
</g>
<!-- Node3 -->
<g id="node3" class="node">
<title>Node3</title>
<g id="a_node3"><a xlink:href="../../d3/d57/class_trip_wire_mini_game.html#af037826b70ef4d8fb2706b5904697029" target="_top" xlink:title="moves collider based on given positions">
<polygon fill="white" stroke="black" points="364,-0.5 364,-19.5 519,-19.5 519,-0.5 364,-0.5"/>
<text text-anchor="middle" x="441.5" y="-7.5" font-family="Helvetica,sans-Serif" font-size="10.00">TripWireMiniGame.MoveCollider</text>
</a>
</g>
</g>
<!-- Node2&#45;&gt;Node3 -->
<g id="edge2" class="edge">
<title>Node2&#45;&gt;Node3</title>
<path fill="none" stroke="midnightblue" d="M328.14,-10C336.56,-10 345.25,-10 353.89,-10"/>
<polygon fill="midnightblue" stroke="midnightblue" points="353.98,-13.5 363.98,-10 353.98,-6.5 353.98,-13.5"/>
</g>
</g>
</svg>
