<?xml version="1.0" encoding="UTF-8" standalone="no"?>
<!DOCTYPE svg PUBLIC "-//W3C//DTD SVG 1.1//EN"
 "http://www.w3.org/Graphics/SVG/1.1/DTD/svg11.dtd">
<!-- Generated by graphviz version 3.0.0 (20220226.1711)
 -->
<!-- Title: BribingOptions.DeclineBribe Pages: 1 -->
<!--zoomable 218 -->
<svg id="main" version="1.1" xmlns="http://www.w3.org/2000/svg" xmlns:xlink="http://www.w3.org/1999/xlink" xml:space="preserve" onload="init(evt)">
<style type="text/css"><![CDATA[
.edge:hover path { stroke: red; }
.edge:hover polygon { stroke: red; fill: red; }
]]></style>
<script type="text/javascript"><![CDATA[
var edges = document.getElementsByTagName('g');
if (edges && edges.length) {
  for (var i=0;i<edges.length;i++) {
    if (edges[i].id.substr(0,4)=='edge') {
      edges[i].setAttribute('class','edge');
    }
  }
}
]]></script>
        <defs>
                <circle id="rim" cx="0" cy="0" r="7"/>
                <circle id="rim2" cx="0" cy="0" r="3.5"/>
                <g id="zoomPlus">
                        <use xlink:href="#rim" fill="#404040">
                                <set attributeName="fill" to="#808080" begin="zoomplus.mouseover" end="zoomplus.mouseout"/>
                        </use>
                        <path d="M-4,0h8M0,-4v8" fill="none" stroke="white" stroke-width="1.5" pointer-events="none"/>
                </g>
                <g id="zoomMin">
                        <use xlink:href="#rim" fill="#404040">
                                <set attributeName="fill" to="#808080" begin="zoomminus.mouseover" end="zoomminus.mouseout"/>
                        </use>
                        <path d="M-4,0h8" fill="none" stroke="white" stroke-width="1.5" pointer-events="none"/>
                </g>
                <g id="dirArrow">
                        <path fill="none" stroke="white" stroke-width="1.5" d="M0,-3.0v7 M-2.5,-0.5L0,-3.0L2.5,-0.5"/>
                </g>
               <g id="resetDef">
                       <use xlink:href="#rim2" fill="#404040">
                               <set attributeName="fill" to="#808080" begin="reset.mouseover" end="reset.mouseout"/>
                       </use>
               </g>
        </defs>

<script type="text/javascript">
var viewWidth = 831;
var viewHeight = 218;
var sectionId = 'dynsection-3';
</script>
<script xlink:href="../../svgpan.js"/>
<svg id="graph" class="graph">
<g id="viewport">
<title>BribingOptions.DeclineBribe</title>
<polygon fill="white" stroke="transparent" points="-4,4 -4,-214 827,-214 827,4 -4,4"/>
<!-- Node1 -->
<g id="node1" class="node">
<title>Node1</title>
<g id="a_node1"><a xlink:title="Ends the current run, and causes other negative effects (to be added).">
<polygon fill="#bfbfbf" stroke="black" points="0,-95.5 0,-114.5 138,-114.5 138,-95.5 0,-95.5"/>
<text text-anchor="middle" x="69" y="-102.5" font-family="Helvetica,sans-Serif" font-size="10.00">BribingOptions.DeclineBribe</text>
</a>
</g>
</g>
<!-- Node2 -->
<g id="node2" class="node">
<title>Node2</title>
<g id="a_node2"><a xlink:href="../../d7/d75/class_u_i_manager.html#a17806b23ba774855b49f980ad6ed919e" target="_top" xlink:title="Disables the dialogue box.">
<polygon fill="white" stroke="black" points="174.5,-133.5 174.5,-152.5 310.5,-152.5 310.5,-133.5 174.5,-133.5"/>
<text text-anchor="middle" x="242.5" y="-140.5" font-family="Helvetica,sans-Serif" font-size="10.00">UIManager.DialogueDisable</text>
</a>
</g>
</g>
<!-- Node1&#45;&gt;Node2 -->
<g id="edge1" class="edge">
<title>Node1&#45;&gt;Node2</title>
<path fill="none" stroke="midnightblue" d="M113.28,-114.59C136.11,-119.65 164.32,-125.9 188.46,-131.25"/>
<polygon fill="midnightblue" stroke="midnightblue" points="188.01,-134.73 198.53,-133.48 189.53,-127.9 188.01,-134.73"/>
</g>
<!-- Node3 -->
<g id="node3" class="node">
<title>Node3</title>
<g id="a_node3"><a xlink:href="../../db/d10/class_game_manager.html#a2d951a59e3dcadf8b14e4ce6c37f061b" target="_top" xlink:title="Will Take all the information from the run and commit it to the game manager. Then it will load back ...">
<polygon fill="white" stroke="black" points="183.5,-95.5 183.5,-114.5 301.5,-114.5 301.5,-95.5 183.5,-95.5"/>
<text text-anchor="middle" x="242.5" y="-102.5" font-family="Helvetica,sans-Serif" font-size="10.00">GameManager.EndRun</text>
</a>
</g>
</g>
<!-- Node1&#45;&gt;Node3 -->
<g id="edge2" class="edge">
<title>Node1&#45;&gt;Node3</title>
<path fill="none" stroke="midnightblue" d="M138.27,-105C149.83,-105 161.84,-105 173.39,-105"/>
<polygon fill="midnightblue" stroke="midnightblue" points="173.41,-108.5 183.41,-105 173.41,-101.5 173.41,-108.5"/>
</g>
<!-- Node12 -->
<g id="node12" class="node">
<title>Node12</title>
<g id="a_node12"><a xlink:href="../../d7/d75/class_u_i_manager.html#ab72b2166c138224d4b01c1ec03e64231" target="_top" xlink:title="Sets the enabled of the guard&#39;s bribe option buttons to the passed in value.">
<polygon fill="white" stroke="black" points="174,-57.5 174,-76.5 311,-76.5 311,-57.5 174,-57.5"/>
<text text-anchor="middle" x="242.5" y="-64.5" font-family="Helvetica,sans-Serif" font-size="10.00">UIManager.SetBribeOptions</text>
</a>
</g>
</g>
<!-- Node1&#45;&gt;Node12 -->
<g id="edge11" class="edge">
<title>Node1&#45;&gt;Node12</title>
<path fill="none" stroke="midnightblue" d="M113.28,-95.41C136.11,-90.35 164.32,-84.1 188.46,-78.75"/>
<polygon fill="midnightblue" stroke="midnightblue" points="189.53,-82.1 198.53,-76.52 188.01,-75.27 189.53,-82.1"/>
</g>
<!-- Node4 -->
<g id="node4" class="node">
<title>Node4</title>
<g id="a_node4"><a xlink:href="../../db/d10/class_game_manager.html#aba8967781cc5100e8dcbd6affeb89dfe" target="_top" xlink:title="Can be passed either an int or the enum equivalent of the scene that is to be loaded">
<polygon fill="white" stroke="black" points="347,-190.5 347,-209.5 491,-209.5 491,-190.5 347,-190.5"/>
<text text-anchor="middle" x="419" y="-197.5" font-family="Helvetica,sans-Serif" font-size="10.00">GameManager.ChangeScene</text>
</a>
</g>
</g>
<!-- Node3&#45;&gt;Node4 -->
<g id="edge3" class="edge">
<title>Node3&#45;&gt;Node4</title>
<path fill="none" stroke="midnightblue" d="M293.76,-114.62C299.9,-117.07 305.83,-120.14 311,-124 335.02,-141.92 322.87,-163.24 347,-181 349.54,-182.87 352.25,-184.55 355.07,-186.07"/>
<polygon fill="midnightblue" stroke="midnightblue" points="353.87,-189.37 364.41,-190.38 356.8,-183.01 353.87,-189.37"/>
</g>
<!-- Node7 -->
<g id="node7" class="node">
<title>Node7</title>
<g id="a_node7"><a xlink:href="../../d7/d75/class_u_i_manager.html#a4c6a01720e4aacea7bcb39d8eeaa004c" target="_top" xlink:title="Disables the stealth border element in the scene">
<polygon fill="white" stroke="black" points="354.5,-152.5 354.5,-171.5 483.5,-171.5 483.5,-152.5 354.5,-152.5"/>
<text text-anchor="middle" x="419" y="-159.5" font-family="Helvetica,sans-Serif" font-size="10.00">UIManager.DisableStealth</text>
</a>
</g>
</g>
<!-- Node3&#45;&gt;Node7 -->
<g id="edge6" class="edge">
<title>Node3&#45;&gt;Node7</title>
<path fill="none" stroke="midnightblue" d="M282.87,-114.57C292.22,-117.26 302.07,-120.43 311,-124 327.8,-130.71 330.16,-136.4 347,-143 353.23,-145.44 359.88,-147.68 366.52,-149.69"/>
<polygon fill="midnightblue" stroke="midnightblue" points="365.62,-153.08 376.2,-152.48 367.56,-146.35 365.62,-153.08"/>
</g>
<!-- Node8 -->
<g id="node8" class="node">
<title>Node8</title>
<g id="a_node8"><a xlink:href="../../d8/dfa/class_run_manager.html#a9430e7b64dec87034c8dfa732281ae55" target="_top" xlink:title="Getter for the array of bodies that have been retrieved during the run.">
<polygon fill="white" stroke="black" points="359,-114.5 359,-133.5 479,-133.5 479,-114.5 359,-114.5"/>
<text text-anchor="middle" x="419" y="-121.5" font-family="Helvetica,sans-Serif" font-size="10.00">RunManager.GetBodies</text>
</a>
</g>
</g>
<!-- Node3&#45;&gt;Node8 -->
<g id="edge7" class="edge">
<title>Node3&#45;&gt;Node8</title>
<path fill="none" stroke="midnightblue" d="M301.61,-111.33C316.73,-112.97 333.18,-114.76 348.82,-116.47"/>
<polygon fill="midnightblue" stroke="midnightblue" points="348.64,-119.97 358.96,-117.57 349.39,-113.01 348.64,-119.97"/>
</g>
<!-- Node9 -->
<g id="node9" class="node">
<title>Node9</title>
<g id="a_node9"><a xlink:href="../../db/d10/class_game_manager.html#a50e2a15e87d37c37784d563682dd9d82" target="_top" xlink:title="Will take all the bodies from the run and add it to the total bodies that the player has.">
<polygon fill="white" stroke="black" points="349,-76.5 349,-95.5 489,-95.5 489,-76.5 349,-76.5"/>
<text text-anchor="middle" x="419" y="-83.5" font-family="Helvetica,sans-Serif" font-size="10.00">GameManager.MergeBodies</text>
</a>
</g>
</g>
<!-- Node3&#45;&gt;Node9 -->
<g id="edge8" class="edge">
<title>Node3&#45;&gt;Node9</title>
<path fill="none" stroke="midnightblue" d="M301.61,-98.67C313.58,-97.37 326.37,-95.98 338.94,-94.61"/>
<polygon fill="midnightblue" stroke="midnightblue" points="339.39,-98.08 348.95,-93.52 338.63,-91.12 339.39,-98.08"/>
</g>
<!-- Node10 -->
<g id="node10" class="node">
<title>Node10</title>
<g id="a_node10"><a xlink:href="../../db/daa/class_stealth_manager.html#a4733a03e09c7c985c3501de5ae2c6de8" target="_top" xlink:title="resets alert level to zero">
<polygon fill="white" stroke="black" points="355,-38.5 355,-57.5 483,-57.5 483,-38.5 355,-38.5"/>
<text text-anchor="middle" x="419" y="-45.5" font-family="Helvetica,sans-Serif" font-size="10.00">StealthManager.RestAlert</text>
</a>
</g>
</g>
<!-- Node3&#45;&gt;Node10 -->
<g id="edge9" class="edge">
<title>Node3&#45;&gt;Node10</title>
<path fill="none" stroke="midnightblue" d="M282.87,-95.43C292.22,-92.74 302.07,-89.57 311,-86 327.8,-79.29 330.16,-73.6 347,-67 353.23,-64.56 359.88,-62.32 366.52,-60.31"/>
<polygon fill="midnightblue" stroke="midnightblue" points="367.56,-63.65 376.2,-57.52 365.62,-56.92 367.56,-63.65"/>
</g>
<!-- Node11 -->
<g id="node11" class="node">
<title>Node11</title>
<g id="a_node11"><a xlink:href="../../d8/dfa/class_run_manager.html#ae21e37639830483de497c1de601a0146" target="_top" xlink:title="When called it will stop the Timer coroutine. Will stop the timer.">
<polygon fill="white" stroke="black" points="359.5,-0.5 359.5,-19.5 478.5,-19.5 478.5,-0.5 359.5,-0.5"/>
<text text-anchor="middle" x="419" y="-7.5" font-family="Helvetica,sans-Serif" font-size="10.00">RunManager.StopTimer</text>
</a>
</g>
</g>
<!-- Node3&#45;&gt;Node11 -->
<g id="edge10" class="edge">
<title>Node3&#45;&gt;Node11</title>
<path fill="none" stroke="midnightblue" d="M293.76,-95.38C299.9,-92.93 305.83,-89.86 311,-86 335.02,-68.08 322.87,-46.76 347,-29 349.54,-27.13 352.25,-25.45 355.07,-23.93"/>
<polygon fill="midnightblue" stroke="midnightblue" points="356.8,-26.99 364.41,-19.62 353.87,-20.63 356.8,-26.99"/>
</g>
<!-- Node5 -->
<g id="node5" class="node">
<title>Node5</title>
<g id="a_node5"><a xlink:href="../../d5/d86/class_scene_controller.html#ae54dc1c703eecb27d3e8a55a23f80e22" target="_top" xlink:title="Takes a Scene by name then loads it according the int value of the Scene num">
<polygon fill="white" stroke="black" points="527,-190.5 527,-209.5 676,-209.5 676,-190.5 527,-190.5"/>
<text text-anchor="middle" x="601.5" y="-197.5" font-family="Helvetica,sans-Serif" font-size="10.00">SceneController.ChangeScene</text>
</a>
</g>
</g>
<!-- Node4&#45;&gt;Node5 -->
<g id="edge4" class="edge">
<title>Node4&#45;&gt;Node5</title>
<path fill="none" stroke="midnightblue" d="M491.08,-200C499.52,-200 508.19,-200 516.78,-200"/>
<polygon fill="midnightblue" stroke="midnightblue" points="516.81,-203.5 526.81,-200 516.81,-196.5 516.81,-203.5"/>
</g>
<!-- Node6 -->
<g id="node6" class="node">
<title>Node6</title>
<g id="a_node6"><a xlink:href="../../d6/db5/class_scene.html#a81de283590b01cfea421f5c60993efd0" target="_top" xlink:title=" ">
<polygon fill="white" stroke="black" points="712,-190.5 712,-209.5 823,-209.5 823,-190.5 712,-190.5"/>
<text text-anchor="middle" x="767.5" y="-197.5" font-family="Helvetica,sans-Serif" font-size="10.00">Scene.EnumToScene</text>
</a>
</g>
</g>
<!-- Node5&#45;&gt;Node6 -->
<g id="edge5" class="edge">
<title>Node5&#45;&gt;Node6</title>
<path fill="none" stroke="midnightblue" d="M676.34,-200C684.81,-200 693.39,-200 701.72,-200"/>
<polygon fill="midnightblue" stroke="midnightblue" points="701.73,-203.5 711.73,-200 701.73,-196.5 701.73,-203.5"/>
</g>
</g>
</svg>
        <g id="navigator" transform="translate(0 0)" fill="#404254">
                <rect fill="#f2f5e9" fill-opacity="0.5" stroke="#606060" stroke-width=".5" x="0" y="0" width="60" height="60"/>
                <use id="zoomplus" xlink:href="#zoomPlus" x="17" y="9" onmousedown="handleZoom(evt,'in')"/>
                <use id="zoomminus" xlink:href="#zoomMin" x="42" y="9" onmousedown="handleZoom(evt,'out')"/>
                <use id="reset" xlink:href="#resetDef" x="30" y="36" onmousedown="handleReset()"/>
                <g id="arrowUp" xlink:href="#dirArrow" transform="translate(30 24)" onmousedown="handlePan(0,-1)">
                  <use xlink:href="#rim" fill="#404040">
                        <set attributeName="fill" to="#808080" begin="arrowUp.mouseover" end="arrowUp.mouseout"/>
                  </use>
                  <path fill="none" stroke="white" stroke-width="1.5" d="M0,-3.0v7 M-2.5,-0.5L0,-3.0L2.5,-0.5"/>
                </g>
                <g id="arrowRight" xlink:href="#dirArrow" transform="rotate(90) translate(36 -43)" onmousedown="handlePan(1,0)">
                  <use xlink:href="#rim" fill="#404040">
                        <set attributeName="fill" to="#808080" begin="arrowRight.mouseover" end="arrowRight.mouseout"/>
                  </use>
                  <path fill="none" stroke="white" stroke-width="1.5" d="M0,-3.0v7 M-2.5,-0.5L0,-3.0L2.5,-0.5"/>
                </g>
                <g id="arrowDown" xlink:href="#dirArrow" transform="rotate(180) translate(-30 -48)" onmousedown="handlePan(0,1)">
                  <use xlink:href="#rim" fill="#404040">
                        <set attributeName="fill" to="#808080" begin="arrowDown.mouseover" end="arrowDown.mouseout"/>
                  </use>
                  <path fill="none" stroke="white" stroke-width="1.5" d="M0,-3.0v7 M-2.5,-0.5L0,-3.0L2.5,-0.5"/>
                </g>
                <g id="arrowLeft" xlink:href="#dirArrow" transform="rotate(270) translate(-36 17)" onmousedown="handlePan(-1,0)">
                  <use xlink:href="#rim" fill="#404040">
                        <set attributeName="fill" to="#808080" begin="arrowLeft.mouseover" end="arrowLeft.mouseout"/>
                  </use>
                  <path fill="none" stroke="white" stroke-width="1.5" d="M0,-3.0v7 M-2.5,-0.5L0,-3.0L2.5,-0.5"/>
                </g>
        </g>
        <svg viewBox="0 0 15 15" width="100%" height="30px" preserveAspectRatio="xMaxYMin meet">
         <g id="arrow_out" transform="scale(0.3 0.3)">
          <a xlink:href="class_bribing_options_a7174aa8fd18c8c448f97c33c534b65d9_cgraph_org.svg" target="_base">
           <rect id="button" ry="5" rx="5" y="6" x="6" height="38" width="38"
                fill="#f2f5e9" fill-opacity="0.5" stroke="#606060" stroke-width="1.0"/>
           <path id="arrow"
             d="M 11.500037,31.436501 C 11.940474,20.09759 22.043105,11.32322 32.158766,21.979434 L 37.068811,17.246167 C 37.068811,17.246167 37.088388,32 37.088388,32 L 22.160133,31.978069 C 22.160133,31.978069 26.997745,27.140456 26.997745,27.140456 C 18.528582,18.264221 13.291696,25.230495 11.500037,31.436501 z"
             style="fill:#404040;"/>
          </a>
         </g>
        </svg>
</svg>
