<?xml version="1.0" encoding="UTF-8" standalone="no"?>
<!DOCTYPE svg PUBLIC "-//W3C//DTD SVG 1.1//EN"
 "http://www.w3.org/Graphics/SVG/1.1/DTD/svg11.dtd">
<!-- Generated by graphviz version 3.0.0 (20220226.1711)
 -->
<!-- Title: C:/Users/BoehmZachary/Documents/graveRobber450/Assets/Scripts Pages: 1 -->
<!--zoomable 111 -->
<svg id="main" version="1.1" xmlns="http://www.w3.org/2000/svg" xmlns:xlink="http://www.w3.org/1999/xlink" xml:space="preserve" onload="init(evt)">
<style type="text/css"><![CDATA[
.edge:hover path { stroke: red; }
.edge:hover polygon { stroke: red; fill: red; }
]]></style>
<script type="text/javascript"><![CDATA[
var edges = document.getElementsByTagName('g');
if (edges && edges.length) {
  for (var i=0;i<edges.length;i++) {
    if (edges[i].id.substr(0,4)=='edge') {
      edges[i].setAttribute('class','edge');
    }
  }
}
]]></script>
        <defs>
                <circle id="rim" cx="0" cy="0" r="7"/>
                <circle id="rim2" cx="0" cy="0" r="3.5"/>
                <g id="zoomPlus">
                        <use xlink:href="#rim" fill="#404040">
                                <set attributeName="fill" to="#808080" begin="zoomplus.mouseover" end="zoomplus.mouseout"/>
                        </use>
                        <path d="M-4,0h8M0,-4v8" fill="none" stroke="white" stroke-width="1.5" pointer-events="none"/>
                </g>
                <g id="zoomMin">
                        <use xlink:href="#rim" fill="#404040">
                                <set attributeName="fill" to="#808080" begin="zoomminus.mouseover" end="zoomminus.mouseout"/>
                        </use>
                        <path d="M-4,0h8" fill="none" stroke="white" stroke-width="1.5" pointer-events="none"/>
                </g>
                <g id="dirArrow">
                        <path fill="none" stroke="white" stroke-width="1.5" d="M0,-3.0v7 M-2.5,-0.5L0,-3.0L2.5,-0.5"/>
                </g>
               <g id="resetDef">
                       <use xlink:href="#rim2" fill="#404040">
                               <set attributeName="fill" to="#808080" begin="reset.mouseover" end="reset.mouseout"/>
                       </use>
               </g>
        </defs>

<script type="text/javascript">
var viewWidth = 1194;
var viewHeight = 111;
var sectionId = 'dynsection-0';
</script>
<script xlink:href="svgpan.js"/>
<svg id="graph" class="graph">
<g id="viewport">
<title>C:/Users/BoehmZachary/Documents/graveRobber450/Assets/Scripts</title>
<polygon fill="white" stroke="transparent" points="-4,4 -4,-107 1190,-107 1190,4 -4,4"/>
<g id="clust1" class="cluster">
<title>clusterdir_85daf4293f4d4af51b9b2a7902696a46</title>
<g id="a_clust1"><a xlink:href="dir_85daf4293f4d4af51b9b2a7902696a46.html" target="_top" xlink:title="Assets">
<polygon fill="#edf0f7" stroke="#7f7f7f" stroke-dasharray="5,2" points="8,-8 8,-95 1178,-95 1178,-8 8,-8"/>
<text text-anchor="middle" x="593" y="-83" font-family="Helvetica,sans-Serif" font-size="10.00">Assets</text>
</a>
</g>
</g>
<g id="clust2" class="cluster">
<title>clusterdir_09b07c80473e61d4ad544e3b525d75e0</title>
<g id="a_clust2"><a xlink:href="dir_09b07c80473e61d4ad544e3b525d75e0.html" target="_top">
<polygon fill="#edf0f7" stroke="#404040" stroke-width="2" points="16,-16 16,-68 1170,-68 1170,-16 16,-16"/>
</a>
</g>
</g>
<!-- dir_09b07c80473e61d4ad544e3b525d75e0 -->
<g id="node1" class="node">
<title>dir_09b07c80473e61d4ad544e3b525d75e0</title>
<text text-anchor="middle" x="1135" y="-39.5" font-family="Helvetica,sans-Serif" font-size="10.00">Scripts</text>
</g>
<!-- dir_a69591023df33cf82368e210442c0bae -->
<g id="node2" class="node">
<title>dir_a69591023df33cf82368e210442c0bae</title>
<g id="a_node2"><a xlink:href="dir_a69591023df33cf82368e210442c0bae.html" target="_top" xlink:title="Courtyard">
<polygon fill="#a2b4d6" stroke="#404040" points="1089.5,-60 1030.5,-60 1030.5,-24 1089.5,-24 1089.5,-60"/>
<text text-anchor="middle" x="1060" y="-39.5" font-family="Helvetica,sans-Serif" font-size="10.00">Courtyard</text>
</a>
</g>
</g>
<!-- dir_535de8c41ae1bf96025e6113dd9971cc -->
<g id="node3" class="node">
<title>dir_535de8c41ae1bf96025e6113dd9971cc</title>
<g id="a_node3"><a xlink:href="dir_535de8c41ae1bf96025e6113dd9971cc.html" target="_top" xlink:title="Dialogue">
<polygon fill="#a2b4d6" stroke="#404040" points="1012,-60 958,-60 958,-24 1012,-24 1012,-60"/>
<text text-anchor="middle" x="985" y="-39.5" font-family="Helvetica,sans-Serif" font-size="10.00">Dialogue</text>
</a>
</g>
</g>
<!-- dir_61965bdb59d07c91c6a7466028f6cecb -->
<g id="node4" class="node">
<title>dir_61965bdb59d07c91c6a7466028f6cecb</title>
<g id="a_node4"><a xlink:href="dir_61965bdb59d07c91c6a7466028f6cecb.html" target="_top" xlink:title="Gameplay">
<polygon fill="#a2b4d6" stroke="#404040" points="939.5,-60 878.5,-60 878.5,-24 939.5,-24 939.5,-60"/>
<text text-anchor="middle" x="909" y="-39.5" font-family="Helvetica,sans-Serif" font-size="10.00">Gameplay</text>
</a>
</g>
</g>
<!-- dir_6ccb2318c3baba90046cab27aebb522b -->
<g id="node5" class="node">
<title>dir_6ccb2318c3baba90046cab27aebb522b</title>
<g id="a_node5"><a xlink:href="dir_6ccb2318c3baba90046cab27aebb522b.html" target="_top" xlink:title="Grave_Digging">
<polygon fill="#a2b4d6" stroke="#404040" points="860.5,-60 781.5,-60 781.5,-24 860.5,-24 860.5,-60"/>
<text text-anchor="middle" x="821" y="-39.5" font-family="Helvetica,sans-Serif" font-size="10.00">Grave_Digging</text>
</a>
</g>
</g>
<!-- dir_512ba98ec66841fa6d02d5d3fe57bbbc -->
<g id="node6" class="node">
<title>dir_512ba98ec66841fa6d02d5d3fe57bbbc</title>
<g id="a_node6"><a xlink:href="dir_512ba98ec66841fa6d02d5d3fe57bbbc.html" target="_top" xlink:title="Managers">
<polygon fill="#a2b4d6" stroke="#404040" points="763.5,-60 704.5,-60 704.5,-24 763.5,-24 763.5,-60"/>
<text text-anchor="middle" x="734" y="-39.5" font-family="Helvetica,sans-Serif" font-size="10.00">Managers</text>
</a>
</g>
</g>
<!-- dir_06e7d0c1aad7ca5043401834b7f8ca2a -->
<g id="node7" class="node">
<title>dir_06e7d0c1aad7ca5043401834b7f8ca2a</title>
<g id="a_node7"><a xlink:href="dir_06e7d0c1aad7ca5043401834b7f8ca2a.html" target="_top" xlink:title="Map Gen">
<polygon fill="#a2b4d6" stroke="#404040" points="686,-60 630,-60 630,-24 686,-24 686,-60"/>
<text text-anchor="middle" x="658" y="-39.5" font-family="Helvetica,sans-Serif" font-size="10.00">Map Gen</text>
</a>
</g>
</g>
<!-- dir_a0ba8e98b2d4186c2b7b2d11b94dd670 -->
<g id="node8" class="node">
<title>dir_a0ba8e98b2d4186c2b7b2d11b94dd670</title>
<g id="a_node8"><a xlink:href="dir_a0ba8e98b2d4186c2b7b2d11b94dd670.html" target="_top" xlink:title="MiniGames">
<polygon fill="#a2b4d6" stroke="#404040" points="612,-60 546,-60 546,-24 612,-24 612,-60"/>
<text text-anchor="middle" x="579" y="-39.5" font-family="Helvetica,sans-Serif" font-size="10.00">MiniGames</text>
</a>
</g>
</g>
<!-- dir_03d89e9f8844b16df259de4879c312f9 -->
<g id="node9" class="node">
<title>dir_03d89e9f8844b16df259de4879c312f9</title>
<g id="a_node9"><a xlink:href="dir_03d89e9f8844b16df259de4879c312f9.html" target="_top" xlink:title="NavMeshComponents">
<polygon fill="#a2b4d6" stroke="#404040" points="527.5,-60 416.5,-60 416.5,-24 527.5,-24 527.5,-60"/>
<text text-anchor="middle" x="472" y="-39.5" font-family="Helvetica,sans-Serif" font-size="10.00">NavMeshComponents</text>
</a>
</g>
</g>
<!-- dir_dbaac062b286188dae1d2fe38ab49cdb -->
<g id="node10" class="node">
<title>dir_dbaac062b286188dae1d2fe38ab49cdb</title>
<g id="a_node10"><a xlink:href="dir_dbaac062b286188dae1d2fe38ab49cdb.html" target="_top" xlink:title="Quest">
<polygon fill="#a2b4d6" stroke="#404040" points="398,-60 344,-60 344,-24 398,-24 398,-60"/>
<text text-anchor="middle" x="371" y="-39.5" font-family="Helvetica,sans-Serif" font-size="10.00">Quest</text>
</a>
</g>
</g>
<!-- dir_340bb4d1e1bfc960d353b985041b7d56 -->
<g id="node11" class="node">
<title>dir_340bb4d1e1bfc960d353b985041b7d56</title>
<g id="a_node11"><a xlink:href="dir_340bb4d1e1bfc960d353b985041b7d56.html" target="_top" xlink:title="Tests">
<polygon fill="#a2b4d6" stroke="#404040" points="326,-60 272,-60 272,-24 326,-24 326,-60"/>
<text text-anchor="middle" x="299" y="-39.5" font-family="Helvetica,sans-Serif" font-size="10.00">Tests</text>
</a>
</g>
</g>
<!-- dir_4cf8b4ff073deaf9ef9a854c4cca8e89 -->
<g id="node12" class="node">
<title>dir_4cf8b4ff073deaf9ef9a854c4cca8e89</title>
<g id="a_node12"><a xlink:href="dir_4cf8b4ff073deaf9ef9a854c4cca8e89.html" target="_top" xlink:title="Tools">
<polygon fill="#a2b4d6" stroke="#404040" points="254,-60 200,-60 200,-24 254,-24 254,-60"/>
<text text-anchor="middle" x="227" y="-39.5" font-family="Helvetica,sans-Serif" font-size="10.00">Tools</text>
</a>
</g>
</g>
<!-- dir_1df75ba64ac932a83d4b9bf5ec9fbc6e -->
<g id="node13" class="node">
<title>dir_1df75ba64ac932a83d4b9bf5ec9fbc6e</title>
<g id="a_node13"><a xlink:href="dir_1df75ba64ac932a83d4b9bf5ec9fbc6e.html" target="_top" xlink:title="Tutorial">
<polygon fill="#a2b4d6" stroke="#404040" points="182,-60 128,-60 128,-24 182,-24 182,-60"/>
<text text-anchor="middle" x="155" y="-39.5" font-family="Helvetica,sans-Serif" font-size="10.00">Tutorial</text>
</a>
</g>
</g>
<!-- dir_3d92420e50e2e3ce18e291be0a1a9b0d -->
<g id="node14" class="node">
<title>dir_3d92420e50e2e3ce18e291be0a1a9b0d</title>
<g id="a_node14"><a xlink:href="dir_3d92420e50e2e3ce18e291be0a1a9b0d.html" target="_top" xlink:title="UpgradeSystem">
<polygon fill="#a2b4d6" stroke="#404040" points="110,-60 24,-60 24,-24 110,-24 110,-60"/>
<text text-anchor="middle" x="67" y="-39.5" font-family="Helvetica,sans-Serif" font-size="10.00">UpgradeSystem</text>
</a>
</g>
</g>
</g>
</svg>
        <g id="navigator" transform="translate(0 0)" fill="#404254">
                <rect fill="#f2f5e9" fill-opacity="0.5" stroke="#606060" stroke-width=".5" x="0" y="0" width="60" height="60"/>
                <use id="zoomplus" xlink:href="#zoomPlus" x="17" y="9" onmousedown="handleZoom(evt,'in')"/>
                <use id="zoomminus" xlink:href="#zoomMin" x="42" y="9" onmousedown="handleZoom(evt,'out')"/>
                <use id="reset" xlink:href="#resetDef" x="30" y="36" onmousedown="handleReset()"/>
                <g id="arrowUp" xlink:href="#dirArrow" transform="translate(30 24)" onmousedown="handlePan(0,-1)">
                  <use xlink:href="#rim" fill="#404040">
                        <set attributeName="fill" to="#808080" begin="arrowUp.mouseover" end="arrowUp.mouseout"/>
                  </use>
                  <path fill="none" stroke="white" stroke-width="1.5" d="M0,-3.0v7 M-2.5,-0.5L0,-3.0L2.5,-0.5"/>
                </g>
                <g id="arrowRight" xlink:href="#dirArrow" transform="rotate(90) translate(36 -43)" onmousedown="handlePan(1,0)">
                  <use xlink:href="#rim" fill="#404040">
                        <set attributeName="fill" to="#808080" begin="arrowRight.mouseover" end="arrowRight.mouseout"/>
                  </use>
                  <path fill="none" stroke="white" stroke-width="1.5" d="M0,-3.0v7 M-2.5,-0.5L0,-3.0L2.5,-0.5"/>
                </g>
                <g id="arrowDown" xlink:href="#dirArrow" transform="rotate(180) translate(-30 -48)" onmousedown="handlePan(0,1)">
                  <use xlink:href="#rim" fill="#404040">
                        <set attributeName="fill" to="#808080" begin="arrowDown.mouseover" end="arrowDown.mouseout"/>
                  </use>
                  <path fill="none" stroke="white" stroke-width="1.5" d="M0,-3.0v7 M-2.5,-0.5L0,-3.0L2.5,-0.5"/>
                </g>
                <g id="arrowLeft" xlink:href="#dirArrow" transform="rotate(270) translate(-36 17)" onmousedown="handlePan(-1,0)">
                  <use xlink:href="#rim" fill="#404040">
                        <set attributeName="fill" to="#808080" begin="arrowLeft.mouseover" end="arrowLeft.mouseout"/>
                  </use>
                  <path fill="none" stroke="white" stroke-width="1.5" d="M0,-3.0v7 M-2.5,-0.5L0,-3.0L2.5,-0.5"/>
                </g>
        </g>
        <svg viewBox="0 0 15 15" width="100%" height="30px" preserveAspectRatio="xMaxYMin meet">
         <g id="arrow_out" transform="scale(0.3 0.3)">
          <a xlink:href="dir_09b07c80473e61d4ad544e3b525d75e0_dep_org.svg" target="_base">
           <rect id="button" ry="5" rx="5" y="6" x="6" height="38" width="38"
                fill="#f2f5e9" fill-opacity="0.5" stroke="#606060" stroke-width="1.0"/>
           <path id="arrow"
             d="M 11.500037,31.436501 C 11.940474,20.09759 22.043105,11.32322 32.158766,21.979434 L 37.068811,17.246167 C 37.068811,17.246167 37.088388,32 37.088388,32 L 22.160133,31.978069 C 22.160133,31.978069 26.997745,27.140456 26.997745,27.140456 C 18.528582,18.264221 13.291696,25.230495 11.500037,31.436501 z"
             style="fill:#404040;"/>
          </a>
         </g>
        </svg>
</svg>
