<?xml version="1.0" encoding="UTF-8" standalone="no"?>
<!DOCTYPE svg PUBLIC "-//W3C//DTD SVG 1.1//EN"
 "http://www.w3.org/Graphics/SVG/1.1/DTD/svg11.dtd">
<!-- Generated by graphviz version 3.0.0 (20220226.1711)
 -->
<!-- Title: C:/Users/BoehmZachary/Documents/graveRobber450/Assets/Scripts/Gameplay Pages: 1 -->
<svg width="102pt" height="95pt"
 viewBox="0.00 0.00 102.00 95.00" xmlns="http://www.w3.org/2000/svg" xmlns:xlink="http://www.w3.org/1999/xlink">
<g id="graph0" class="graph" transform="scale(1 1) rotate(0) translate(4 91)">
<title>C:/Users/BoehmZachary/Documents/graveRobber450/Assets/Scripts/Gameplay</title>
<polygon fill="white" stroke="transparent" points="-4,4 -4,-91 98,-91 98,4 -4,4"/>
<g id="clust1" class="cluster">
<title>clusterdir_09b07c80473e61d4ad544e3b525d75e0</title>
<g id="a_clust1"><a xlink:href="dir_09b07c80473e61d4ad544e3b525d75e0.html" target="_top" xlink:title="Scripts">
<polygon fill="#edf0f7" stroke="#7f7f7f" stroke-dasharray="5,2" points="8,-8 8,-79 86,-79 86,-8 8,-8"/>
<text text-anchor="middle" x="47" y="-67" font-family="Helvetica,sans-Serif" font-size="10.00">Scripts</text>
</a>
</g>
</g>
<!-- dir_61965bdb59d07c91c6a7466028f6cecb -->
<g id="node1" class="node">
<title>dir_61965bdb59d07c91c6a7466028f6cecb</title>
<g id="a_node1"><a xlink:href="dir_61965bdb59d07c91c6a7466028f6cecb.html" target="_top" xlink:title="Gameplay">
<polygon fill="#edf0f7" stroke="#404040" stroke-width="2" points="77.5,-52 16.5,-52 16.5,-16 77.5,-16 77.5,-52"/>
<text text-anchor="middle" x="47" y="-31.5" font-family="Helvetica,sans-Serif" font-size="10.00">Gameplay</text>
</a>
</g>
</g>
</g>
</svg>
