<?xml version="1.0" encoding="UTF-8" standalone="no"?>
<!DOCTYPE svg PUBLIC "-//W3C//DTD SVG 1.1//EN"
 "http://www.w3.org/Graphics/SVG/1.1/DTD/svg11.dtd">
<!-- Generated by graphviz version 3.0.0 (20220226.1711)
 -->
<!-- Title: Body.GetMaterial Pages: 1 -->
<!--zoomable 195 -->
<svg id="main" version="1.1" xmlns="http://www.w3.org/2000/svg" xmlns:xlink="http://www.w3.org/1999/xlink" xml:space="preserve" onload="init(evt)">
<style type="text/css"><![CDATA[
.edge:hover path { stroke: red; }
.edge:hover polygon { stroke: red; fill: red; }
]]></style>
<script type="text/javascript"><![CDATA[
var edges = document.getElementsByTagName('g');
if (edges && edges.length) {
  for (var i=0;i<edges.length;i++) {
    if (edges[i].id.substr(0,4)=='edge') {
      edges[i].setAttribute('class','edge');
    }
  }
}
]]></script>
        <defs>
                <circle id="rim" cx="0" cy="0" r="7"/>
                <circle id="rim2" cx="0" cy="0" r="3.5"/>
                <g id="zoomPlus">
                        <use xlink:href="#rim" fill="#404040">
                                <set attributeName="fill" to="#808080" begin="zoomplus.mouseover" end="zoomplus.mouseout"/>
                        </use>
                        <path d="M-4,0h8M0,-4v8" fill="none" stroke="white" stroke-width="1.5" pointer-events="none"/>
                </g>
                <g id="zoomMin">
                        <use xlink:href="#rim" fill="#404040">
                                <set attributeName="fill" to="#808080" begin="zoomminus.mouseover" end="zoomminus.mouseout"/>
                        </use>
                        <path d="M-4,0h8" fill="none" stroke="white" stroke-width="1.5" pointer-events="none"/>
                </g>
                <g id="dirArrow">
                        <path fill="none" stroke="white" stroke-width="1.5" d="M0,-3.0v7 M-2.5,-0.5L0,-3.0L2.5,-0.5"/>
                </g>
               <g id="resetDef">
                       <use xlink:href="#rim2" fill="#404040">
                               <set attributeName="fill" to="#808080" begin="reset.mouseover" end="reset.mouseout"/>
                       </use>
               </g>
        </defs>

<script type="text/javascript">
var viewWidth = 1385;
var viewHeight = 195;
var sectionId = 'dynsection-3';
</script>
<script xlink:href="../../svgpan.js"/>
<svg id="graph" class="graph">
<g id="viewport">
<title>Body.GetMaterial</title>
<polygon fill="white" stroke="transparent" points="-4,4 -4,-191 1381,-191 1381,4 -4,4"/>
<!-- Node1 -->
<g id="node1" class="node">
<title>Node1</title>
<g id="a_node1"><a xlink:title="Getter for the body sprite&#39;s material.">
<polygon fill="#bfbfbf" stroke="black" points="1285,-42 1285,-61 1377,-61 1377,-42 1285,-42"/>
<text text-anchor="middle" x="1331" y="-49" font-family="Helvetica,sans-Serif" font-size="10.00">Body.GetMaterial</text>
</a>
</g>
</g>
<!-- Node2 -->
<g id="node2" class="node">
<title>Node2</title>
<g id="a_node2"><a xlink:href="../../db/d69/class_inventory_bag.html#af4c1ed3c7e8359dba77f3f825893aa74" target="_top" xlink:title="Dynamically generates the bag to include the size of the current body bag and then update to keep any...">
<polygon fill="white" stroke="black" points="1120.5,-61 1120.5,-80 1233.5,-80 1233.5,-61 1120.5,-61"/>
<text text-anchor="middle" x="1177" y="-68" font-family="Helvetica,sans-Serif" font-size="10.00">InventoryBag.Populate</text>
</a>
</g>
</g>
<!-- Node1&#45;&gt;Node2 -->
<g id="edge1" class="edge">
<title>Node1&#45;&gt;Node2</title>
<path fill="none" stroke="midnightblue" d="M1274.75,-58.41C1261.32,-60.08 1246.96,-61.88 1233.51,-63.56"/>
<polygon fill="midnightblue" stroke="midnightblue" points="1275.32,-61.86 1284.81,-57.15 1274.45,-54.92 1275.32,-61.86"/>
</g>
<!-- Node13 -->
<g id="node13" class="node">
<title>Node13</title>
<g id="a_node13"><a xlink:href="../../db/d69/class_inventory_bag.html#afb7c9cbbadfb64b2a444216ab16e6104" target="_top" xlink:title="This updates the bag to add in a new body that was just picked up then it updates the variable to cou...">
<polygon fill="white" stroke="black" points="1105,-23 1105,-42 1249,-42 1249,-23 1105,-23"/>
<text text-anchor="middle" x="1177" y="-30" font-family="Helvetica,sans-Serif" font-size="10.00">InventoryBag.UpdateInventory</text>
</a>
</g>
</g>
<!-- Node1&#45;&gt;Node13 -->
<g id="edge16" class="edge">
<title>Node1&#45;&gt;Node13</title>
<path fill="none" stroke="midnightblue" d="M1274.85,-44.61C1266.52,-43.57 1257.83,-42.48 1249.22,-41.4"/>
<polygon fill="midnightblue" stroke="midnightblue" points="1274.45,-48.08 1284.81,-45.85 1275.32,-41.14 1274.45,-48.08"/>
</g>
<!-- Node3 -->
<g id="node3" class="node">
<title>Node3</title>
<g id="a_node3"><a xlink:href="../../da/d9d/class_upgrade_manager.html#ace07916b537615eeb092432d31b9bb81" target="_top" xlink:title="Upgrades the body bag level to the given level">
<polygon fill="white" stroke="black" points="900,-61 900,-80 1069,-80 1069,-61 900,-61"/>
<text text-anchor="middle" x="984.5" y="-68" font-family="Helvetica,sans-Serif" font-size="10.00">UpgradeManager.UpgradeBodyBag</text>
</a>
</g>
</g>
<!-- Node2&#45;&gt;Node3 -->
<g id="edge2" class="edge">
<title>Node2&#45;&gt;Node3</title>
<path fill="none" stroke="midnightblue" d="M1110.02,-70.5C1096.84,-70.5 1082.84,-70.5 1069.16,-70.5"/>
<polygon fill="midnightblue" stroke="midnightblue" points="1110.39,-74 1120.39,-70.5 1110.39,-67 1110.39,-74"/>
</g>
<!-- Node4 -->
<g id="node4" class="node">
<title>Node4</title>
<g id="a_node4"><a xlink:href="../../db/dac/class_selling_screen_script.html#a1d94ae7dd2d5fc4611c0c25b428276ab" target="_top" xlink:title="Sets up the buy screen for the body bag upgrades">
<polygon fill="white" stroke="black" points="721,-99.5 721,-129.5 864,-129.5 864,-99.5 721,-99.5"/>
<text text-anchor="start" x="729" y="-117.5" font-family="Helvetica,sans-Serif" font-size="10.00">SellingScreenScript.Body</text>
<text text-anchor="middle" x="792.5" y="-106.5" font-family="Helvetica,sans-Serif" font-size="10.00">BagBuyUpgradeScreenSetup</text>
</a>
</g>
</g>
<!-- Node3&#45;&gt;Node4 -->
<g id="edge3" class="edge">
<title>Node3&#45;&gt;Node4</title>
<path fill="none" stroke="midnightblue" d="M932.49,-82.31C909.76,-87.58 882.72,-93.84 858.55,-99.43"/>
<polygon fill="midnightblue" stroke="midnightblue" points="933.32,-85.71 942.27,-80.05 931.74,-78.89 933.32,-85.71"/>
</g>
<!-- Node5 -->
<g id="node5" class="node">
<title>Node5</title>
<g id="a_node5"><a xlink:href="../../db/dac/class_selling_screen_script.html#a7be5423228e510781538a465d01cb007" target="_top" xlink:title="Sets up the buying screen for a specific item">
<polygon fill="white" stroke="black" points="554,-99.5 554,-129.5 685,-129.5 685,-99.5 554,-99.5"/>
<text text-anchor="start" x="562" y="-117.5" font-family="Helvetica,sans-Serif" font-size="10.00">SellingScreenScript.Setup</text>
<text text-anchor="middle" x="619.5" y="-106.5" font-family="Helvetica,sans-Serif" font-size="10.00">Screen</text>
</a>
</g>
</g>
<!-- Node4&#45;&gt;Node5 -->
<g id="edge4" class="edge">
<title>Node4&#45;&gt;Node5</title>
<path fill="none" stroke="midnightblue" d="M710.87,-114.5C702.24,-114.5 693.53,-114.5 685.12,-114.5"/>
<polygon fill="midnightblue" stroke="midnightblue" points="710.96,-118 720.96,-114.5 710.96,-111 710.96,-118"/>
</g>
<!-- Node6 -->
<g id="node6" class="node">
<title>Node6</title>
<g id="a_node6"><a xlink:href="../../db/dac/class_selling_screen_script.html#a6f3a5794037efbc23910df86b380077f" target="_top" xlink:title="Updates the screen after a change">
<polygon fill="white" stroke="black" points="382,-55.5 382,-85.5 518,-85.5 518,-55.5 382,-55.5"/>
<text text-anchor="start" x="390" y="-73.5" font-family="Helvetica,sans-Serif" font-size="10.00">SellingScreenScript.Update</text>
<text text-anchor="middle" x="450" y="-62.5" font-family="Helvetica,sans-Serif" font-size="10.00">Screen</text>
</a>
</g>
</g>
<!-- Node5&#45;&gt;Node6 -->
<g id="edge5" class="edge">
<title>Node5&#45;&gt;Node6</title>
<path fill="none" stroke="midnightblue" d="M551.52,-96.91C537.17,-93.14 522.14,-89.19 508.2,-85.53"/>
<polygon fill="midnightblue" stroke="midnightblue" points="550.76,-100.33 561.32,-99.48 552.54,-93.55 550.76,-100.33"/>
</g>
<!-- Node6&#45;&gt;Node3 -->
<g id="edge6" class="edge">
<title>Node6&#45;&gt;Node3</title>
<path fill="none" stroke="midnightblue" d="M528.51,-70.5C627.42,-70.5 797.87,-70.5 899.71,-70.5"/>
<polygon fill="midnightblue" stroke="midnightblue" points="528.28,-67 518.28,-70.5 528.28,-74 528.28,-67"/>
</g>
<!-- Node7 -->
<g id="node7" class="node">
<title>Node7</title>
<g id="a_node7"><a xlink:href="../../da/d9d/class_upgrade_manager.html#ae480ebe9e6b219adb20e0b410bc69cc7" target="_top" xlink:title="Upgrades the boltcutters level to the given level">
<polygon fill="white" stroke="black" points="194,-55.5 194,-85.5 340,-85.5 340,-55.5 194,-55.5"/>
<text text-anchor="start" x="202" y="-73.5" font-family="Helvetica,sans-Serif" font-size="10.00">UpgradeManager.UpgradeBolt</text>
<text text-anchor="middle" x="267" y="-62.5" font-family="Helvetica,sans-Serif" font-size="10.00">Cutter</text>
</a>
</g>
</g>
<!-- Node6&#45;&gt;Node7 -->
<g id="edge7" class="edge">
<title>Node6&#45;&gt;Node7</title>
<path fill="none" stroke="midnightblue" d="M371.55,-70.5C361.15,-70.5 350.51,-70.5 340.19,-70.5"/>
<polygon fill="midnightblue" stroke="midnightblue" points="371.86,-74 381.86,-70.5 371.86,-67 371.86,-74"/>
</g>
<!-- Node9 -->
<g id="node9" class="node">
<title>Node9</title>
<g id="a_node9"><a xlink:href="../../da/d9d/class_upgrade_manager.html#aebf049454001984ca3ac1fe79c851d2d" target="_top" xlink:title="Upgrades the shoes level to the given level">
<polygon fill="white" stroke="black" points="188.5,-143 188.5,-162 345.5,-162 345.5,-143 188.5,-143"/>
<text text-anchor="middle" x="267" y="-150" font-family="Helvetica,sans-Serif" font-size="10.00">UpgradeManager.UpgradeShoes</text>
</a>
</g>
</g>
<!-- Node6&#45;&gt;Node9 -->
<g id="edge10" class="edge">
<title>Node6&#45;&gt;Node9</title>
<path fill="none" stroke="midnightblue" d="M406.3,-89.84C369.43,-106.55 317.71,-129.98 289.11,-142.94"/>
<polygon fill="midnightblue" stroke="midnightblue" points="408.14,-92.85 415.8,-85.54 405.25,-86.48 408.14,-92.85"/>
</g>
<!-- Node11 -->
<g id="node11" class="node">
<title>Node11</title>
<g id="a_node11"><a xlink:href="../../da/d9d/class_upgrade_manager.html#a366539e3c1c5a211c0ec5cac77ccbd58" target="_top" xlink:title="Upgrades the shovel level to the given level">
<polygon fill="white" stroke="black" points="188,-17 188,-36 346,-36 346,-17 188,-17"/>
<text text-anchor="middle" x="267" y="-24" font-family="Helvetica,sans-Serif" font-size="10.00">UpgradeManager.UpgradeShovel</text>
</a>
</g>
</g>
<!-- Node6&#45;&gt;Node11 -->
<g id="edge13" class="edge">
<title>Node6&#45;&gt;Node11</title>
<path fill="none" stroke="midnightblue" d="M377.44,-53.1C353.48,-47.28 327.67,-41 307.13,-36.01"/>
<polygon fill="midnightblue" stroke="midnightblue" points="376.67,-56.52 387.22,-55.48 378.33,-49.72 376.67,-56.52"/>
</g>
<!-- Node8 -->
<g id="node8" class="node">
<title>Node8</title>
<g id="a_node8"><a xlink:href="../../db/dac/class_selling_screen_script.html#a6f21d721a89c56c7039d62ce65f63f19" target="_top" xlink:title="Sets up the buy screen for the boltcutter upgrades">
<polygon fill="white" stroke="black" points="0,-65.5 0,-95.5 152,-95.5 152,-65.5 0,-65.5"/>
<text text-anchor="start" x="8" y="-83.5" font-family="Helvetica,sans-Serif" font-size="10.00">SellingScreenScript.Bolt</text>
<text text-anchor="middle" x="76" y="-72.5" font-family="Helvetica,sans-Serif" font-size="10.00">CutterBuyUpgradeScreenSetup</text>
</a>
</g>
</g>
<!-- Node7&#45;&gt;Node8 -->
<g id="edge8" class="edge">
<title>Node7&#45;&gt;Node8</title>
<path fill="none" stroke="midnightblue" d="M183.72,-74.85C173.19,-75.41 162.45,-75.98 152.04,-76.53"/>
<polygon fill="midnightblue" stroke="midnightblue" points="183.94,-78.35 193.74,-74.32 183.57,-71.36 183.94,-78.35"/>
</g>
<!-- Node8&#45;&gt;Node5 -->
<g id="edge9" class="edge">
<title>Node8&#45;&gt;Node5</title>
<path fill="none" stroke="midnightblue" d="M162.28,-92.82C170.96,-93.83 179.65,-94.75 188,-95.5 317.47,-107.08 469.5,-111.69 553.83,-113.46"/>
<polygon fill="midnightblue" stroke="midnightblue" points="162.48,-89.31 152.13,-91.59 161.64,-96.26 162.48,-89.31"/>
</g>
<!-- Node10 -->
<g id="node10" class="node">
<title>Node10</title>
<g id="a_node10"><a xlink:href="../../db/dac/class_selling_screen_script.html#a9646ff5a19f1ba8a96f70ba33b46598d" target="_top" xlink:title="Sets up the buy screen for the shoe upgrades.">
<polygon fill="white" stroke="black" points="9.5,-156.5 9.5,-186.5 142.5,-186.5 142.5,-156.5 9.5,-156.5"/>
<text text-anchor="start" x="17.5" y="-174.5" font-family="Helvetica,sans-Serif" font-size="10.00">SellingScreenScript.Shoes</text>
<text text-anchor="middle" x="76" y="-163.5" font-family="Helvetica,sans-Serif" font-size="10.00">BuyUpgradeScreenSetup</text>
</a>
</g>
</g>
<!-- Node9&#45;&gt;Node10 -->
<g id="edge11" class="edge">
<title>Node9&#45;&gt;Node10</title>
<path fill="none" stroke="midnightblue" d="M178.28,-161.32C166.29,-162.52 154.15,-163.74 142.64,-164.9"/>
<polygon fill="midnightblue" stroke="midnightblue" points="178.71,-164.79 188.31,-160.31 178.01,-157.83 178.71,-164.79"/>
</g>
<!-- Node10&#45;&gt;Node5 -->
<g id="edge12" class="edge">
<title>Node10&#45;&gt;Node5</title>
<path fill="none" stroke="midnightblue" d="M152.88,-175.66C206.88,-177.6 281.08,-178.22 346,-171.5 422.32,-163.6 508.77,-143.58 563.45,-129.51"/>
<polygon fill="midnightblue" stroke="midnightblue" points="152.82,-172.15 142.7,-175.26 152.56,-179.15 152.82,-172.15"/>
</g>
<!-- Node12 -->
<g id="node12" class="node">
<title>Node12</title>
<g id="a_node12"><a xlink:href="../../db/dac/class_selling_screen_script.html#a3fa55c056600239b67876cea7b018479" target="_top" xlink:title="Sets up the buy screen for the shovel upgrades">
<polygon fill="white" stroke="black" points="9,-0.5 9,-30.5 143,-30.5 143,-0.5 9,-0.5"/>
<text text-anchor="start" x="17" y="-18.5" font-family="Helvetica,sans-Serif" font-size="10.00">SellingScreenScript.Shovel</text>
<text text-anchor="middle" x="76" y="-7.5" font-family="Helvetica,sans-Serif" font-size="10.00">BuyUpgradeScreenSetup</text>
</a>
</g>
</g>
<!-- Node11&#45;&gt;Node12 -->
<g id="edge14" class="edge">
<title>Node11&#45;&gt;Node12</title>
<path fill="none" stroke="midnightblue" d="M177.62,-21.36C166.02,-20.68 154.29,-20 143.15,-19.35"/>
<polygon fill="midnightblue" stroke="midnightblue" points="177.58,-24.86 187.76,-21.95 177.98,-17.87 177.58,-24.86"/>
</g>
<!-- Node12&#45;&gt;Node5 -->
<g id="edge15" class="edge">
<title>Node12&#45;&gt;Node5</title>
<path fill="none" stroke="midnightblue" d="M153.59,-5.68C244.53,2.66 398.87,6.21 518,-45.5 549.64,-59.24 581.74,-83.45 600.88,-99.24"/>
<polygon fill="midnightblue" stroke="midnightblue" points="152.99,-2.22 143.37,-6.66 153.66,-9.19 152.99,-2.22"/>
</g>
<!-- Node14 -->
<g id="node14" class="node">
<title>Node14</title>
<g id="a_node14"><a xlink:href="../../db/d10/class_game_manager.html#aaae83c96c1ffed3f53283178d37195b6" target="_top" xlink:title="Will add a body to the list of bodies within the game manager.">
<polygon fill="white" stroke="black" points="923,-23 923,-42 1046,-42 1046,-23 923,-23"/>
<text text-anchor="middle" x="984.5" y="-30" font-family="Helvetica,sans-Serif" font-size="10.00">GameManager.AddBody</text>
</a>
</g>
</g>
<!-- Node13&#45;&gt;Node14 -->
<g id="edge17" class="edge">
<title>Node13&#45;&gt;Node14</title>
<path fill="none" stroke="midnightblue" d="M1094.71,-32.5C1078.38,-32.5 1061.49,-32.5 1046.01,-32.5"/>
<polygon fill="midnightblue" stroke="midnightblue" points="1094.79,-36 1104.79,-32.5 1094.79,-29 1094.79,-36"/>
</g>
<!-- Node15 -->
<g id="node15" class="node">
<title>Node15</title>
<g id="a_node15"><a xlink:href="../../da/d83/class_grave_info_refactor.html#a51b5d4b740c5da7a8e212288a28c68bc" target="_top" xlink:title="grabs the body from the grave and adds it to the game manager, then it calles empty grave to clean up...">
<polygon fill="white" stroke="black" points="723,-23 723,-42 862,-42 862,-23 723,-23"/>
<text text-anchor="middle" x="792.5" y="-30" font-family="Helvetica,sans-Serif" font-size="10.00">GraveInfoRefactor.GrabBody</text>
</a>
</g>
</g>
<!-- Node14&#45;&gt;Node15 -->
<g id="edge18" class="edge">
<title>Node14&#45;&gt;Node15</title>
<path fill="none" stroke="midnightblue" d="M912.72,-32.5C896.18,-32.5 878.59,-32.5 862.15,-32.5"/>
<polygon fill="midnightblue" stroke="midnightblue" points="912.86,-36 922.86,-32.5 912.86,-29 912.86,-36"/>
</g>
<!-- Node16 -->
<g id="node16" class="node">
<title>Node16</title>
<g id="a_node16"><a xlink:href="../../da/d83/class_grave_info_refactor.html#a413583b66e49d5e54f395f1746c8ac98" target="_top" xlink:title="This is how you interact with the grave it flips a bool true to allow you to interact with the traps">
<polygon fill="white" stroke="black" points="556.5,-23 556.5,-42 682.5,-42 682.5,-23 556.5,-23"/>
<text text-anchor="middle" x="619.5" y="-30" font-family="Helvetica,sans-Serif" font-size="10.00">GraveInfoRefactor.Update</text>
</a>
</g>
</g>
<!-- Node15&#45;&gt;Node16 -->
<g id="edge19" class="edge">
<title>Node15&#45;&gt;Node16</title>
<path fill="none" stroke="midnightblue" d="M712.88,-32.5C702.77,-32.5 692.52,-32.5 682.72,-32.5"/>
<polygon fill="midnightblue" stroke="midnightblue" points="712.93,-36 722.93,-32.5 712.93,-29 712.93,-36"/>
</g>
</g>
</svg>
        <g id="navigator" transform="translate(0 0)" fill="#404254">
                <rect fill="#f2f5e9" fill-opacity="0.5" stroke="#606060" stroke-width=".5" x="0" y="0" width="60" height="60"/>
                <use id="zoomplus" xlink:href="#zoomPlus" x="17" y="9" onmousedown="handleZoom(evt,'in')"/>
                <use id="zoomminus" xlink:href="#zoomMin" x="42" y="9" onmousedown="handleZoom(evt,'out')"/>
                <use id="reset" xlink:href="#resetDef" x="30" y="36" onmousedown="handleReset()"/>
                <g id="arrowUp" xlink:href="#dirArrow" transform="translate(30 24)" onmousedown="handlePan(0,-1)">
                  <use xlink:href="#rim" fill="#404040">
                        <set attributeName="fill" to="#808080" begin="arrowUp.mouseover" end="arrowUp.mouseout"/>
                  </use>
                  <path fill="none" stroke="white" stroke-width="1.5" d="M0,-3.0v7 M-2.5,-0.5L0,-3.0L2.5,-0.5"/>
                </g>
                <g id="arrowRight" xlink:href="#dirArrow" transform="rotate(90) translate(36 -43)" onmousedown="handlePan(1,0)">
                  <use xlink:href="#rim" fill="#404040">
                        <set attributeName="fill" to="#808080" begin="arrowRight.mouseover" end="arrowRight.mouseout"/>
                  </use>
                  <path fill="none" stroke="white" stroke-width="1.5" d="M0,-3.0v7 M-2.5,-0.5L0,-3.0L2.5,-0.5"/>
                </g>
                <g id="arrowDown" xlink:href="#dirArrow" transform="rotate(180) translate(-30 -48)" onmousedown="handlePan(0,1)">
                  <use xlink:href="#rim" fill="#404040">
                        <set attributeName="fill" to="#808080" begin="arrowDown.mouseover" end="arrowDown.mouseout"/>
                  </use>
                  <path fill="none" stroke="white" stroke-width="1.5" d="M0,-3.0v7 M-2.5,-0.5L0,-3.0L2.5,-0.5"/>
                </g>
                <g id="arrowLeft" xlink:href="#dirArrow" transform="rotate(270) translate(-36 17)" onmousedown="handlePan(-1,0)">
                  <use xlink:href="#rim" fill="#404040">
                        <set attributeName="fill" to="#808080" begin="arrowLeft.mouseover" end="arrowLeft.mouseout"/>
                  </use>
                  <path fill="none" stroke="white" stroke-width="1.5" d="M0,-3.0v7 M-2.5,-0.5L0,-3.0L2.5,-0.5"/>
                </g>
        </g>
        <svg viewBox="0 0 15 15" width="100%" height="30px" preserveAspectRatio="xMaxYMin meet">
         <g id="arrow_out" transform="scale(0.3 0.3)">
          <a xlink:href="class_body_a3473865f64494e89c1ec7877fd6ca8cf_icgraph_org.svg" target="_base">
           <rect id="button" ry="5" rx="5" y="6" x="6" height="38" width="38"
                fill="#f2f5e9" fill-opacity="0.5" stroke="#606060" stroke-width="1.0"/>
           <path id="arrow"
             d="M 11.500037,31.436501 C 11.940474,20.09759 22.043105,11.32322 32.158766,21.979434 L 37.068811,17.246167 C 37.068811,17.246167 37.088388,32 37.088388,32 L 22.160133,31.978069 C 22.160133,31.978069 26.997745,27.140456 26.997745,27.140456 C 18.528582,18.264221 13.291696,25.230495 11.500037,31.436501 z"
             style="fill:#404040;"/>
          </a>
         </g>
        </svg>
</svg>
