<?xml version="1.0" encoding="UTF-8" standalone="no"?>
<!DOCTYPE svg PUBLIC "-//W3C//DTD SVG 1.1//EN"
 "http://www.w3.org/Graphics/SVG/1.1/DTD/svg11.dtd">
<!-- Generated by graphviz version 3.0.0 (20220226.1711)
 -->
<!-- Title: Body.GetDecay Pages: 1 -->
<svg width="1379pt" height="195pt"
 viewBox="0.00 0.00 1379.00 195.00" xmlns="http://www.w3.org/2000/svg" xmlns:xlink="http://www.w3.org/1999/xlink">
<g id="graph0" class="graph" transform="scale(1 1) rotate(0) translate(4 191)">
<title>Body.GetDecay</title>
<polygon fill="white" stroke="transparent" points="-4,4 -4,-191 1375,-191 1375,4 -4,4"/>
<!-- Node1 -->
<g id="node1" class="node">
<title>Node1</title>
<g id="a_node1"><a xlink:title="Getter for the quality of the body.">
<polygon fill="#bfbfbf" stroke="black" points="1285,-42 1285,-61 1371,-61 1371,-42 1285,-42"/>
<text text-anchor="middle" x="1328" y="-49" font-family="Helvetica,sans-Serif" font-size="10.00">Body.GetDecay</text>
</a>
</g>
</g>
<!-- Node2 -->
<g id="node2" class="node">
<title>Node2</title>
<g id="a_node2"><a xlink:href="../../db/d69/class_inventory_bag.html#af4c1ed3c7e8359dba77f3f825893aa74" target="_top" xlink:title="Dynamically generates the bag to include the size of the current body bag and then update to keep any...">
<polygon fill="white" stroke="black" points="1120.5,-80 1120.5,-99 1233.5,-99 1233.5,-80 1120.5,-80"/>
<text text-anchor="middle" x="1177" y="-87" font-family="Helvetica,sans-Serif" font-size="10.00">InventoryBag.Populate</text>
</a>
</g>
</g>
<!-- Node1&#45;&gt;Node2 -->
<g id="edge1" class="edge">
<title>Node1&#45;&gt;Node2</title>
<path fill="none" stroke="midnightblue" d="M1279.51,-63.61C1258.76,-68.9 1234.77,-75.02 1215.33,-79.98"/>
<polygon fill="midnightblue" stroke="midnightblue" points="1280.58,-66.95 1289.4,-61.09 1278.85,-60.17 1280.58,-66.95"/>
</g>
<!-- Node13 -->
<g id="node13" class="node">
<title>Node13</title>
<g id="a_node13"><a xlink:href="../../db/d10/class_game_manager.html#a20675f5bb22553e75651bc54c35f5fcd" target="_top" xlink:title="Will sell an amount of a certain quality of bodies.">
<polygon fill="white" stroke="black" points="1116,-42 1116,-61 1238,-61 1238,-42 1116,-42"/>
<text text-anchor="middle" x="1177" y="-49" font-family="Helvetica,sans-Serif" font-size="10.00">GameManager.SellBody</text>
</a>
</g>
</g>
<!-- Node1&#45;&gt;Node13 -->
<g id="edge16" class="edge">
<title>Node1&#45;&gt;Node13</title>
<path fill="none" stroke="midnightblue" d="M1274.6,-51.5C1262.83,-51.5 1250.26,-51.5 1238.2,-51.5"/>
<polygon fill="midnightblue" stroke="midnightblue" points="1274.7,-55 1284.7,-51.5 1274.7,-48 1274.7,-55"/>
</g>
<!-- Node14 -->
<g id="node14" class="node">
<title>Node14</title>
<g id="a_node14"><a xlink:href="../../db/d69/class_inventory_bag.html#afb7c9cbbadfb64b2a444216ab16e6104" target="_top" xlink:title="This updates the bag to add in a new body that was just picked up then it updates the variable to cou...">
<polygon fill="white" stroke="black" points="1105,-4 1105,-23 1249,-23 1249,-4 1105,-4"/>
<text text-anchor="middle" x="1177" y="-11" font-family="Helvetica,sans-Serif" font-size="10.00">InventoryBag.UpdateInventory</text>
</a>
</g>
</g>
<!-- Node1&#45;&gt;Node14 -->
<g id="edge17" class="edge">
<title>Node1&#45;&gt;Node14</title>
<path fill="none" stroke="midnightblue" d="M1279.51,-39.39C1258.76,-34.1 1234.77,-27.98 1215.33,-23.02"/>
<polygon fill="midnightblue" stroke="midnightblue" points="1278.85,-42.83 1289.4,-41.91 1280.58,-36.05 1278.85,-42.83"/>
</g>
<!-- Node3 -->
<g id="node3" class="node">
<title>Node3</title>
<g id="a_node3"><a xlink:href="../../da/d9d/class_upgrade_manager.html#ace07916b537615eeb092432d31b9bb81" target="_top" xlink:title="Upgrades the body bag level to the given level">
<polygon fill="white" stroke="black" points="900,-80 900,-99 1069,-99 1069,-80 900,-80"/>
<text text-anchor="middle" x="984.5" y="-87" font-family="Helvetica,sans-Serif" font-size="10.00">UpgradeManager.UpgradeBodyBag</text>
</a>
</g>
</g>
<!-- Node2&#45;&gt;Node3 -->
<g id="edge2" class="edge">
<title>Node2&#45;&gt;Node3</title>
<path fill="none" stroke="midnightblue" d="M1110.02,-89.5C1096.84,-89.5 1082.84,-89.5 1069.16,-89.5"/>
<polygon fill="midnightblue" stroke="midnightblue" points="1110.39,-93 1120.39,-89.5 1110.39,-86 1110.39,-93"/>
</g>
<!-- Node4 -->
<g id="node4" class="node">
<title>Node4</title>
<g id="a_node4"><a xlink:href="../../db/dac/class_selling_screen_script.html#a1d94ae7dd2d5fc4611c0c25b428276ab" target="_top" xlink:title="Sets up the buy screen for the body bag upgrades">
<polygon fill="white" stroke="black" points="721,-99.5 721,-129.5 864,-129.5 864,-99.5 721,-99.5"/>
<text text-anchor="start" x="729" y="-117.5" font-family="Helvetica,sans-Serif" font-size="10.00">SellingScreenScript.Body</text>
<text text-anchor="middle" x="792.5" y="-106.5" font-family="Helvetica,sans-Serif" font-size="10.00">BagBuyUpgradeScreenSetup</text>
</a>
</g>
</g>
<!-- Node3&#45;&gt;Node4 -->
<g id="edge3" class="edge">
<title>Node3&#45;&gt;Node4</title>
<path fill="none" stroke="midnightblue" d="M900.91,-100.37C888.64,-101.98 876.09,-103.63 864.1,-105.21"/>
<polygon fill="midnightblue" stroke="midnightblue" points="901.67,-103.8 911.13,-99.02 900.76,-96.86 901.67,-103.8"/>
</g>
<!-- Node5 -->
<g id="node5" class="node">
<title>Node5</title>
<g id="a_node5"><a xlink:href="../../db/dac/class_selling_screen_script.html#a7be5423228e510781538a465d01cb007" target="_top" xlink:title="Sets up the buying screen for a specific item">
<polygon fill="white" stroke="black" points="554,-99.5 554,-129.5 685,-129.5 685,-99.5 554,-99.5"/>
<text text-anchor="start" x="562" y="-117.5" font-family="Helvetica,sans-Serif" font-size="10.00">SellingScreenScript.Setup</text>
<text text-anchor="middle" x="619.5" y="-106.5" font-family="Helvetica,sans-Serif" font-size="10.00">Screen</text>
</a>
</g>
</g>
<!-- Node4&#45;&gt;Node5 -->
<g id="edge4" class="edge">
<title>Node4&#45;&gt;Node5</title>
<path fill="none" stroke="midnightblue" d="M710.87,-114.5C702.24,-114.5 693.53,-114.5 685.12,-114.5"/>
<polygon fill="midnightblue" stroke="midnightblue" points="710.96,-118 720.96,-114.5 710.96,-111 710.96,-118"/>
</g>
<!-- Node6 -->
<g id="node6" class="node">
<title>Node6</title>
<g id="a_node6"><a xlink:href="../../db/dac/class_selling_screen_script.html#a6f3a5794037efbc23910df86b380077f" target="_top" xlink:title="Updates the screen after a change">
<polygon fill="white" stroke="black" points="382,-55.5 382,-85.5 518,-85.5 518,-55.5 382,-55.5"/>
<text text-anchor="start" x="390" y="-73.5" font-family="Helvetica,sans-Serif" font-size="10.00">SellingScreenScript.Update</text>
<text text-anchor="middle" x="450" y="-62.5" font-family="Helvetica,sans-Serif" font-size="10.00">Screen</text>
</a>
</g>
</g>
<!-- Node5&#45;&gt;Node6 -->
<g id="edge5" class="edge">
<title>Node5&#45;&gt;Node6</title>
<path fill="none" stroke="midnightblue" d="M551.52,-96.91C537.17,-93.14 522.14,-89.19 508.2,-85.53"/>
<polygon fill="midnightblue" stroke="midnightblue" points="550.76,-100.33 561.32,-99.48 552.54,-93.55 550.76,-100.33"/>
</g>
<!-- Node6&#45;&gt;Node3 -->
<g id="edge6" class="edge">
<title>Node6&#45;&gt;Node3</title>
<path fill="none" stroke="midnightblue" d="M528.51,-73.27C627.42,-76.79 797.87,-82.88 899.71,-86.51"/>
<polygon fill="midnightblue" stroke="midnightblue" points="528.4,-69.76 518.28,-72.9 528.15,-76.76 528.4,-69.76"/>
</g>
<!-- Node7 -->
<g id="node7" class="node">
<title>Node7</title>
<g id="a_node7"><a xlink:href="../../da/d9d/class_upgrade_manager.html#ae480ebe9e6b219adb20e0b410bc69cc7" target="_top" xlink:title="Upgrades the boltcutters level to the given level">
<polygon fill="white" stroke="black" points="194,-55.5 194,-85.5 340,-85.5 340,-55.5 194,-55.5"/>
<text text-anchor="start" x="202" y="-73.5" font-family="Helvetica,sans-Serif" font-size="10.00">UpgradeManager.UpgradeBolt</text>
<text text-anchor="middle" x="267" y="-62.5" font-family="Helvetica,sans-Serif" font-size="10.00">Cutter</text>
</a>
</g>
</g>
<!-- Node6&#45;&gt;Node7 -->
<g id="edge7" class="edge">
<title>Node6&#45;&gt;Node7</title>
<path fill="none" stroke="midnightblue" d="M371.55,-70.5C361.15,-70.5 350.51,-70.5 340.19,-70.5"/>
<polygon fill="midnightblue" stroke="midnightblue" points="371.86,-74 381.86,-70.5 371.86,-67 371.86,-74"/>
</g>
<!-- Node9 -->
<g id="node9" class="node">
<title>Node9</title>
<g id="a_node9"><a xlink:href="../../da/d9d/class_upgrade_manager.html#aebf049454001984ca3ac1fe79c851d2d" target="_top" xlink:title="Upgrades the shoes level to the given level">
<polygon fill="white" stroke="black" points="188.5,-143 188.5,-162 345.5,-162 345.5,-143 188.5,-143"/>
<text text-anchor="middle" x="267" y="-150" font-family="Helvetica,sans-Serif" font-size="10.00">UpgradeManager.UpgradeShoes</text>
</a>
</g>
</g>
<!-- Node6&#45;&gt;Node9 -->
<g id="edge10" class="edge">
<title>Node6&#45;&gt;Node9</title>
<path fill="none" stroke="midnightblue" d="M406.3,-89.84C369.43,-106.55 317.71,-129.98 289.11,-142.94"/>
<polygon fill="midnightblue" stroke="midnightblue" points="408.14,-92.85 415.8,-85.54 405.25,-86.48 408.14,-92.85"/>
</g>
<!-- Node11 -->
<g id="node11" class="node">
<title>Node11</title>
<g id="a_node11"><a xlink:href="../../da/d9d/class_upgrade_manager.html#a366539e3c1c5a211c0ec5cac77ccbd58" target="_top" xlink:title="Upgrades the shovel level to the given level">
<polygon fill="white" stroke="black" points="188,-17 188,-36 346,-36 346,-17 188,-17"/>
<text text-anchor="middle" x="267" y="-24" font-family="Helvetica,sans-Serif" font-size="10.00">UpgradeManager.UpgradeShovel</text>
</a>
</g>
</g>
<!-- Node6&#45;&gt;Node11 -->
<g id="edge13" class="edge">
<title>Node6&#45;&gt;Node11</title>
<path fill="none" stroke="midnightblue" d="M377.44,-53.1C353.48,-47.28 327.67,-41 307.13,-36.01"/>
<polygon fill="midnightblue" stroke="midnightblue" points="376.67,-56.52 387.22,-55.48 378.33,-49.72 376.67,-56.52"/>
</g>
<!-- Node8 -->
<g id="node8" class="node">
<title>Node8</title>
<g id="a_node8"><a xlink:href="../../db/dac/class_selling_screen_script.html#a6f21d721a89c56c7039d62ce65f63f19" target="_top" xlink:title="Sets up the buy screen for the boltcutter upgrades">
<polygon fill="white" stroke="black" points="0,-65.5 0,-95.5 152,-95.5 152,-65.5 0,-65.5"/>
<text text-anchor="start" x="8" y="-83.5" font-family="Helvetica,sans-Serif" font-size="10.00">SellingScreenScript.Bolt</text>
<text text-anchor="middle" x="76" y="-72.5" font-family="Helvetica,sans-Serif" font-size="10.00">CutterBuyUpgradeScreenSetup</text>
</a>
</g>
</g>
<!-- Node7&#45;&gt;Node8 -->
<g id="edge8" class="edge">
<title>Node7&#45;&gt;Node8</title>
<path fill="none" stroke="midnightblue" d="M183.72,-74.85C173.19,-75.41 162.45,-75.98 152.04,-76.53"/>
<polygon fill="midnightblue" stroke="midnightblue" points="183.94,-78.35 193.74,-74.32 183.57,-71.36 183.94,-78.35"/>
</g>
<!-- Node8&#45;&gt;Node5 -->
<g id="edge9" class="edge">
<title>Node8&#45;&gt;Node5</title>
<path fill="none" stroke="midnightblue" d="M162.28,-92.82C170.96,-93.83 179.65,-94.75 188,-95.5 317.47,-107.08 469.5,-111.69 553.83,-113.46"/>
<polygon fill="midnightblue" stroke="midnightblue" points="162.48,-89.31 152.13,-91.59 161.64,-96.26 162.48,-89.31"/>
</g>
<!-- Node10 -->
<g id="node10" class="node">
<title>Node10</title>
<g id="a_node10"><a xlink:href="../../db/dac/class_selling_screen_script.html#a9646ff5a19f1ba8a96f70ba33b46598d" target="_top" xlink:title="Sets up the buy screen for the shoe upgrades.">
<polygon fill="white" stroke="black" points="9.5,-156.5 9.5,-186.5 142.5,-186.5 142.5,-156.5 9.5,-156.5"/>
<text text-anchor="start" x="17.5" y="-174.5" font-family="Helvetica,sans-Serif" font-size="10.00">SellingScreenScript.Shoes</text>
<text text-anchor="middle" x="76" y="-163.5" font-family="Helvetica,sans-Serif" font-size="10.00">BuyUpgradeScreenSetup</text>
</a>
</g>
</g>
<!-- Node9&#45;&gt;Node10 -->
<g id="edge11" class="edge">
<title>Node9&#45;&gt;Node10</title>
<path fill="none" stroke="midnightblue" d="M178.28,-161.32C166.29,-162.52 154.15,-163.74 142.64,-164.9"/>
<polygon fill="midnightblue" stroke="midnightblue" points="178.71,-164.79 188.31,-160.31 178.01,-157.83 178.71,-164.79"/>
</g>
<!-- Node10&#45;&gt;Node5 -->
<g id="edge12" class="edge">
<title>Node10&#45;&gt;Node5</title>
<path fill="none" stroke="midnightblue" d="M152.88,-175.66C206.88,-177.6 281.08,-178.22 346,-171.5 422.32,-163.6 508.77,-143.58 563.45,-129.51"/>
<polygon fill="midnightblue" stroke="midnightblue" points="152.82,-172.15 142.7,-175.26 152.56,-179.15 152.82,-172.15"/>
</g>
<!-- Node12 -->
<g id="node12" class="node">
<title>Node12</title>
<g id="a_node12"><a xlink:href="../../db/dac/class_selling_screen_script.html#a3fa55c056600239b67876cea7b018479" target="_top" xlink:title="Sets up the buy screen for the shovel upgrades">
<polygon fill="white" stroke="black" points="9,-0.5 9,-30.5 143,-30.5 143,-0.5 9,-0.5"/>
<text text-anchor="start" x="17" y="-18.5" font-family="Helvetica,sans-Serif" font-size="10.00">SellingScreenScript.Shovel</text>
<text text-anchor="middle" x="76" y="-7.5" font-family="Helvetica,sans-Serif" font-size="10.00">BuyUpgradeScreenSetup</text>
</a>
</g>
</g>
<!-- Node11&#45;&gt;Node12 -->
<g id="edge14" class="edge">
<title>Node11&#45;&gt;Node12</title>
<path fill="none" stroke="midnightblue" d="M177.62,-21.36C166.02,-20.68 154.29,-20 143.15,-19.35"/>
<polygon fill="midnightblue" stroke="midnightblue" points="177.58,-24.86 187.76,-21.95 177.98,-17.87 177.58,-24.86"/>
</g>
<!-- Node12&#45;&gt;Node5 -->
<g id="edge15" class="edge">
<title>Node12&#45;&gt;Node5</title>
<path fill="none" stroke="midnightblue" d="M153.59,-5.68C244.53,2.66 398.87,6.21 518,-45.5 549.64,-59.24 581.74,-83.45 600.88,-99.24"/>
<polygon fill="midnightblue" stroke="midnightblue" points="152.99,-2.22 143.37,-6.66 153.66,-9.19 152.99,-2.22"/>
</g>
<!-- Node15 -->
<g id="node15" class="node">
<title>Node15</title>
<g id="a_node15"><a xlink:href="../../db/d10/class_game_manager.html#aaae83c96c1ffed3f53283178d37195b6" target="_top" xlink:title="Will add a body to the list of bodies within the game manager.">
<polygon fill="white" stroke="black" points="923,-4 923,-23 1046,-23 1046,-4 923,-4"/>
<text text-anchor="middle" x="984.5" y="-11" font-family="Helvetica,sans-Serif" font-size="10.00">GameManager.AddBody</text>
</a>
</g>
</g>
<!-- Node14&#45;&gt;Node15 -->
<g id="edge18" class="edge">
<title>Node14&#45;&gt;Node15</title>
<path fill="none" stroke="midnightblue" d="M1094.71,-13.5C1078.38,-13.5 1061.49,-13.5 1046.01,-13.5"/>
<polygon fill="midnightblue" stroke="midnightblue" points="1094.79,-17 1104.79,-13.5 1094.79,-10 1094.79,-17"/>
</g>
<!-- Node16 -->
<g id="node16" class="node">
<title>Node16</title>
<g id="a_node16"><a xlink:href="../../da/d83/class_grave_info_refactor.html#a51b5d4b740c5da7a8e212288a28c68bc" target="_top" xlink:title="grabs the body from the grave and adds it to the game manager, then it calles empty grave to clean up...">
<polygon fill="white" stroke="black" points="723,-4 723,-23 862,-23 862,-4 723,-4"/>
<text text-anchor="middle" x="792.5" y="-11" font-family="Helvetica,sans-Serif" font-size="10.00">GraveInfoRefactor.GrabBody</text>
</a>
</g>
</g>
<!-- Node15&#45;&gt;Node16 -->
<g id="edge19" class="edge">
<title>Node15&#45;&gt;Node16</title>
<path fill="none" stroke="midnightblue" d="M912.72,-13.5C896.18,-13.5 878.59,-13.5 862.15,-13.5"/>
<polygon fill="midnightblue" stroke="midnightblue" points="912.86,-17 922.86,-13.5 912.86,-10 912.86,-17"/>
</g>
<!-- Node17 -->
<g id="node17" class="node">
<title>Node17</title>
<g id="a_node17"><a xlink:href="../../da/d83/class_grave_info_refactor.html#a413583b66e49d5e54f395f1746c8ac98" target="_top" xlink:title="This is how you interact with the grave it flips a bool true to allow you to interact with the traps">
<polygon fill="white" stroke="black" points="556.5,-4 556.5,-23 682.5,-23 682.5,-4 556.5,-4"/>
<text text-anchor="middle" x="619.5" y="-11" font-family="Helvetica,sans-Serif" font-size="10.00">GraveInfoRefactor.Update</text>
</a>
</g>
</g>
<!-- Node16&#45;&gt;Node17 -->
<g id="edge20" class="edge">
<title>Node16&#45;&gt;Node17</title>
<path fill="none" stroke="midnightblue" d="M712.88,-13.5C702.77,-13.5 692.52,-13.5 682.72,-13.5"/>
<polygon fill="midnightblue" stroke="midnightblue" points="712.93,-17 722.93,-13.5 712.93,-10 712.93,-17"/>
</g>
</g>
</svg>
