<?xml version="1.0" encoding="UTF-8" standalone="no"?>
<!DOCTYPE svg PUBLIC "-//W3C//DTD SVG 1.1//EN"
 "http://www.w3.org/Graphics/SVG/1.1/DTD/svg11.dtd">
<!-- Generated by graphviz version 3.0.0 (20220226.1711)
 -->
<!-- Title: Body.SetMaterial Pages: 1 -->
<svg width="391pt" height="28pt"
 viewBox="0.00 0.00 391.00 28.00" xmlns="http://www.w3.org/2000/svg" xmlns:xlink="http://www.w3.org/1999/xlink">
<g id="graph0" class="graph" transform="scale(1 1) rotate(0) translate(4 24)">
<title>Body.SetMaterial</title>
<polygon fill="white" stroke="transparent" points="-4,4 -4,-24 387,-24 387,4 -4,4"/>
<!-- Node1 -->
<g id="node1" class="node">
<title>Node1</title>
<g id="a_node1"><a xlink:title="Sets the material for the body, determining its sprite.">
<polygon fill="#bfbfbf" stroke="black" points="291,-0.5 291,-19.5 383,-19.5 383,-0.5 291,-0.5"/>
<text text-anchor="middle" x="337" y="-7.5" font-family="Helvetica,sans-Serif" font-size="10.00">Body.SetMaterial</text>
</a>
</g>
</g>
<!-- Node2 -->
<g id="node2" class="node">
<title>Node2</title>
<g id="a_node2"><a xlink:href="../../da/d83/class_grave_info_refactor.html#a816a13d23f4082fe941aeac8eae19158" target="_top" xlink:title="first it set body an instance of GameObject i have saved above setting it to an instance of BodyGener...">
<polygon fill="white" stroke="black" points="131,-0.5 131,-19.5 255,-19.5 255,-0.5 131,-0.5"/>
<text text-anchor="middle" x="193" y="-7.5" font-family="Helvetica,sans-Serif" font-size="10.00">GraveInfoRefactor.Initiate</text>
</a>
</g>
</g>
<!-- Node1&#45;&gt;Node2 -->
<g id="edge1" class="edge">
<title>Node1&#45;&gt;Node2</title>
<path fill="none" stroke="midnightblue" d="M280.68,-10C272.33,-10 263.67,-10 255.21,-10"/>
<polygon fill="midnightblue" stroke="midnightblue" points="280.68,-13.5 290.68,-10 280.68,-6.5 280.68,-13.5"/>
</g>
<!-- Node3 -->
<g id="node3" class="node">
<title>Node3</title>
<g id="a_node3"><a xlink:href="../../d0/dd6/class_grave_tile.html#a41e3b02c3c6aa55de8597f9920047d3d" target="_top" xlink:title=" ">
<polygon fill="white" stroke="black" points="0,-0.5 0,-19.5 95,-19.5 95,-0.5 0,-0.5"/>
<text text-anchor="middle" x="47.5" y="-7.5" font-family="Helvetica,sans-Serif" font-size="10.00">GraveTile.Initialize</text>
</a>
</g>
</g>
<!-- Node2&#45;&gt;Node3 -->
<g id="edge2" class="edge">
<title>Node2&#45;&gt;Node3</title>
<path fill="none" stroke="midnightblue" d="M120.64,-10C112.01,-10 103.38,-10 95.24,-10"/>
<polygon fill="midnightblue" stroke="midnightblue" points="120.73,-13.5 130.73,-10 120.73,-6.5 120.73,-13.5"/>
</g>
</g>
</svg>
