<?xml version="1.0" encoding="UTF-8" standalone="no"?>
<!DOCTYPE svg PUBLIC "-//W3C//DTD SVG 1.1//EN"
 "http://www.w3.org/Graphics/SVG/1.1/DTD/svg11.dtd">
<!-- Generated by graphviz version 3.0.0 (20220226.1711)
 -->
<!-- Title: RunManager.GetTimeAnalog Pages: 1 -->
<svg width="796pt" height="146pt"
 viewBox="0.00 0.00 796.00 145.50" xmlns="http://www.w3.org/2000/svg" xmlns:xlink="http://www.w3.org/1999/xlink">
<g id="graph0" class="graph" transform="scale(1 1) rotate(0) translate(4 141.5)">
<title>RunManager.GetTimeAnalog</title>
<polygon fill="white" stroke="transparent" points="-4,4 -4,-141.5 792,-141.5 792,4 -4,4"/>
<!-- Node1 -->
<g id="node1" class="node">
<title>Node1</title>
<g id="a_node1"><a xlink:title="Getter for the current time on the timer in analog form. This is what game time it is starting from m...">
<polygon fill="#bfbfbf" stroke="black" points="647,-41.5 647,-60.5 788,-60.5 788,-41.5 647,-41.5"/>
<text text-anchor="middle" x="717.5" y="-48.5" font-family="Helvetica,sans-Serif" font-size="10.00">RunManager.GetTimeAnalog</text>
</a>
</g>
</g>
<!-- Node2 -->
<g id="node2" class="node">
<title>Node2</title>
<g id="a_node2"><a xlink:href="../../d8/dfa/class_run_manager.html#aafee0d49a0c31c685f37275adb1456d9" target="_top" xlink:title="Will update the UI for the run">
<polygon fill="white" stroke="black" points="497,-41.5 497,-60.5 611,-60.5 611,-41.5 497,-41.5"/>
<text text-anchor="middle" x="554" y="-48.5" font-family="Helvetica,sans-Serif" font-size="10.00">RunManager.UpdateUI</text>
</a>
</g>
</g>
<!-- Node1&#45;&gt;Node2 -->
<g id="edge1" class="edge">
<title>Node1&#45;&gt;Node2</title>
<path fill="none" stroke="midnightblue" d="M636.35,-51C627.92,-51 619.48,-51 611.39,-51"/>
<polygon fill="midnightblue" stroke="midnightblue" points="636.6,-54.5 646.6,-51 636.6,-47.5 636.6,-54.5"/>
</g>
<!-- Node3 -->
<g id="node3" class="node">
<title>Node3</title>
<g id="a_node3"><a xlink:href="../../d8/dfa/class_run_manager.html#a01797192213ebd1a2e80d5a090d295fa" target="_top" xlink:title="Will set the current time in game. This will also update the UI">
<polygon fill="white" stroke="black" points="351,-63.5 351,-82.5 461,-82.5 461,-63.5 351,-63.5"/>
<text text-anchor="middle" x="406" y="-70.5" font-family="Helvetica,sans-Serif" font-size="10.00">RunManager.SetTime</text>
</a>
</g>
</g>
<!-- Node2&#45;&gt;Node3 -->
<g id="edge2" class="edge">
<title>Node2&#45;&gt;Node3</title>
<path fill="none" stroke="midnightblue" d="M486.95,-60.95C478.33,-62.25 469.59,-63.57 461.2,-64.83"/>
<polygon fill="midnightblue" stroke="midnightblue" points="487.6,-64.39 496.97,-59.44 486.56,-57.47 487.6,-64.39"/>
</g>
<!-- Node6 -->
<g id="node6" class="node">
<title>Node6</title>
<g id="a_node6"><a xlink:href="../../d8/dfa/class_run_manager.html#a2bc2d034855ab311a5e558ab75e23014" target="_top" xlink:title="Coroutine that handles the logic of a timer. Parallel logic that will wait 1 second then increment th...">
<polygon fill="white" stroke="black" points="357,-22.5 357,-41.5 455,-41.5 455,-22.5 357,-22.5"/>
<text text-anchor="middle" x="406" y="-29.5" font-family="Helvetica,sans-Serif" font-size="10.00">RunManager.Timer</text>
</a>
</g>
</g>
<!-- Node2&#45;&gt;Node6 -->
<g id="edge5" class="edge">
<title>Node2&#45;&gt;Node6</title>
<path fill="none" stroke="midnightblue" d="M486.8,-42.38C476.1,-40.99 465.2,-39.57 455.03,-38.25"/>
<polygon fill="midnightblue" stroke="midnightblue" points="486.6,-45.89 496.97,-43.71 487.51,-38.95 486.6,-45.89"/>
</g>
<!-- Node4 -->
<g id="node4" class="node">
<title>Node4</title>
<g id="a_node4"><a xlink:href="../../da/d79/class_tutorial_progression.html#a1488822e0d8c18ac14493f4473b9a62b" target="_top" xlink:title="First interaction function for first set of graves.">
<polygon fill="white" stroke="black" points="182,-107 182,-137 315,-137 315,-107 182,-107"/>
<text text-anchor="start" x="190" y="-125" font-family="Helvetica,sans-Serif" font-size="10.00">TutorialProgression.Mentor</text>
<text text-anchor="middle" x="248.5" y="-114" font-family="Helvetica,sans-Serif" font-size="10.00">InitialInteraction</text>
</a>
</g>
</g>
<!-- Node3&#45;&gt;Node4 -->
<g id="edge3" class="edge">
<title>Node3&#45;&gt;Node4</title>
<path fill="none" stroke="midnightblue" d="M364.91,-85.63C344.25,-92.14 318.89,-100.13 297.22,-106.96"/>
<polygon fill="midnightblue" stroke="midnightblue" points="366.16,-88.91 374.65,-82.56 364.06,-82.23 366.16,-88.91"/>
</g>
<!-- Node5 -->
<g id="node5" class="node">
<title>Node5</title>
<g id="a_node5"><a xlink:href="../../da/d79/class_tutorial_progression.html#a5a5b857b69b0985bfe68623767cc0701" target="_top" xlink:title="Third interaction for graves with traps attached.">
<polygon fill="white" stroke="black" points="182,-58 182,-88 315,-88 315,-58 182,-58"/>
<text text-anchor="start" x="190" y="-76" font-family="Helvetica,sans-Serif" font-size="10.00">TutorialProgression.Mentor</text>
<text text-anchor="middle" x="248.5" y="-65" font-family="Helvetica,sans-Serif" font-size="10.00">TrapsInteract</text>
</a>
</g>
</g>
<!-- Node3&#45;&gt;Node5 -->
<g id="edge4" class="edge">
<title>Node3&#45;&gt;Node5</title>
<path fill="none" stroke="midnightblue" d="M340.5,-73C332.11,-73 323.5,-73 315.08,-73"/>
<polygon fill="midnightblue" stroke="midnightblue" points="340.61,-76.5 350.61,-73 340.61,-69.5 340.61,-76.5"/>
</g>
<!-- Node7 -->
<g id="node7" class="node">
<title>Node7</title>
<g id="a_node7"><a xlink:href="../../d8/dfa/class_run_manager.html#a727f064f33d7216d62e533254bd01c9d" target="_top" xlink:title="When called the Timer coroutine will start. Will start the timer.">
<polygon fill="white" stroke="black" points="189,-19.5 189,-38.5 308,-38.5 308,-19.5 189,-19.5"/>
<text text-anchor="middle" x="248.5" y="-26.5" font-family="Helvetica,sans-Serif" font-size="10.00">RunManager.StartTimer</text>
</a>
</g>
</g>
<!-- Node6&#45;&gt;Node7 -->
<g id="edge6" class="edge">
<title>Node6&#45;&gt;Node7</title>
<path fill="none" stroke="midnightblue" d="M346.36,-30.87C333.88,-30.63 320.7,-30.37 308.21,-30.13"/>
<polygon fill="midnightblue" stroke="midnightblue" points="346.59,-34.37 356.65,-31.07 346.72,-27.37 346.59,-34.37"/>
</g>
<!-- Node8 -->
<g id="node8" class="node">
<title>Node8</title>
<g id="a_node8"><a xlink:href="../../d7/d75/class_u_i_manager.html#ab1cac3aa7b4461c2eee7859a9947c4ca" target="_top" xlink:title="When the player unpauses the game it adjusts the UI elements and unpauses the game">
<polygon fill="white" stroke="black" points="0,-38.5 0,-57.5 146,-57.5 146,-38.5 0,-38.5"/>
<text text-anchor="middle" x="73" y="-45.5" font-family="Helvetica,sans-Serif" font-size="10.00">UIManager.ExitedPauseMenu</text>
</a>
</g>
</g>
<!-- Node7&#45;&gt;Node8 -->
<g id="edge7" class="edge">
<title>Node7&#45;&gt;Node8</title>
<path fill="none" stroke="midnightblue" d="M178.67,-36.54C168.01,-37.71 156.96,-38.92 146.22,-40.09"/>
<polygon fill="midnightblue" stroke="midnightblue" points="179.2,-40 188.76,-35.43 178.44,-33.04 179.2,-40"/>
</g>
<!-- Node9 -->
<g id="node9" class="node">
<title>Node9</title>
<g id="a_node9"><a xlink:href="../../db/d10/class_game_manager.html#aa8a1297f6f46e8373ab85a62955a12da" target="_top" xlink:title="When called it will initialize the run variable, start the timer, and load the run and the correct UI...">
<polygon fill="white" stroke="black" points="12,-0.5 12,-19.5 134,-19.5 134,-0.5 12,-0.5"/>
<text text-anchor="middle" x="73" y="-7.5" font-family="Helvetica,sans-Serif" font-size="10.00">GameManager.StartRun</text>
</a>
</g>
</g>
<!-- Node7&#45;&gt;Node9 -->
<g id="edge8" class="edge">
<title>Node7&#45;&gt;Node9</title>
<path fill="none" stroke="midnightblue" d="M178.7,-21.47C163.98,-19.85 148.53,-18.16 134.16,-16.59"/>
<polygon fill="midnightblue" stroke="midnightblue" points="178.44,-24.96 188.76,-22.57 179.2,-18 178.44,-24.96"/>
</g>
</g>
</svg>
