<?xml version="1.0" encoding="UTF-8" standalone="no"?>
<!DOCTYPE svg PUBLIC "-//W3C//DTD SVG 1.1//EN"
 "http://www.w3.org/Graphics/SVG/1.1/DTD/svg11.dtd">
<!-- Generated by graphviz version 3.0.0 (20220226.1711)
 -->
<!-- Title: RunManager.Timer Pages: 1 -->
<svg width="772pt" height="256pt"
 viewBox="0.00 0.00 772.00 256.00" xmlns="http://www.w3.org/2000/svg" xmlns:xlink="http://www.w3.org/1999/xlink">
<g id="graph0" class="graph" transform="scale(1 1) rotate(0) translate(4 252)">
<title>RunManager.Timer</title>
<polygon fill="white" stroke="transparent" points="-4,4 -4,-252 768,-252 768,4 -4,4"/>
<!-- Node1 -->
<g id="node1" class="node">
<title>Node1</title>
<g id="a_node1"><a xlink:title="Coroutine that handles the logic of a timer. Parallel logic that will wait 1 second then increment th...">
<polygon fill="#bfbfbf" stroke="black" points="0,-57.5 0,-76.5 98,-76.5 98,-57.5 0,-57.5"/>
<text text-anchor="middle" x="49" y="-64.5" font-family="Helvetica,sans-Serif" font-size="10.00">RunManager.Timer</text>
</a>
</g>
</g>
<!-- Node2 -->
<g id="node2" class="node">
<title>Node2</title>
<g id="a_node2"><a xlink:href="../../db/d10/class_game_manager.html#a2d951a59e3dcadf8b14e4ce6c37f061b" target="_top" xlink:title="Will Take all the information from the run and commit it to the game manager. Then it will load back ...">
<polygon fill="white" stroke="black" points="134,-114.5 134,-133.5 252,-133.5 252,-114.5 134,-114.5"/>
<text text-anchor="middle" x="193" y="-121.5" font-family="Helvetica,sans-Serif" font-size="10.00">GameManager.EndRun</text>
</a>
</g>
</g>
<!-- Node1&#45;&gt;Node2 -->
<g id="edge1" class="edge">
<title>Node1&#45;&gt;Node2</title>
<path fill="none" stroke="midnightblue" d="M73.77,-76.54C97.01,-85.87 132.61,-100.16 158.68,-110.62"/>
<polygon fill="midnightblue" stroke="midnightblue" points="157.57,-113.95 168.15,-114.43 160.18,-107.46 157.57,-113.95"/>
</g>
<!-- Node11 -->
<g id="node11" class="node">
<title>Node11</title>
<g id="a_node11"><a xlink:href="../../d8/dfa/class_run_manager.html#aafee0d49a0c31c685f37275adb1456d9" target="_top" xlink:title="Will update the UI for the run">
<polygon fill="white" stroke="black" points="136,-38.5 136,-57.5 250,-57.5 250,-38.5 136,-38.5"/>
<text text-anchor="middle" x="193" y="-45.5" font-family="Helvetica,sans-Serif" font-size="10.00">RunManager.UpdateUI</text>
</a>
</g>
</g>
<!-- Node1&#45;&gt;Node11 -->
<g id="edge10" class="edge">
<title>Node1&#45;&gt;Node11</title>
<path fill="none" stroke="midnightblue" d="M98.07,-60.57C106.94,-59.38 116.33,-58.12 125.63,-56.88"/>
<polygon fill="midnightblue" stroke="midnightblue" points="126.19,-60.34 135.64,-55.54 125.26,-53.4 126.19,-60.34"/>
</g>
<!-- Node3 -->
<g id="node3" class="node">
<title>Node3</title>
<g id="a_node3"><a xlink:href="../../db/d10/class_game_manager.html#aba8967781cc5100e8dcbd6affeb89dfe" target="_top" xlink:title="Can be passed either an int or the enum equivalent of the scene that is to be loaded">
<polygon fill="white" stroke="black" points="288,-228.5 288,-247.5 432,-247.5 432,-228.5 288,-228.5"/>
<text text-anchor="middle" x="360" y="-235.5" font-family="Helvetica,sans-Serif" font-size="10.00">GameManager.ChangeScene</text>
</a>
</g>
</g>
<!-- Node2&#45;&gt;Node3 -->
<g id="edge2" class="edge">
<title>Node2&#45;&gt;Node3</title>
<path fill="none" stroke="midnightblue" d="M200.8,-133.74C214.81,-153.05 248.87,-196.28 288,-219 291.72,-221.16 295.7,-223.09 299.8,-224.79"/>
<polygon fill="midnightblue" stroke="midnightblue" points="298.92,-228.2 309.52,-228.4 301.36,-221.64 298.92,-228.2"/>
</g>
<!-- Node6 -->
<g id="node6" class="node">
<title>Node6</title>
<g id="a_node6"><a xlink:href="../../d7/d75/class_u_i_manager.html#a4c6a01720e4aacea7bcb39d8eeaa004c" target="_top" xlink:title="Disables the stealth border element in the scene">
<polygon fill="white" stroke="black" points="295.5,-190.5 295.5,-209.5 424.5,-209.5 424.5,-190.5 295.5,-190.5"/>
<text text-anchor="middle" x="360" y="-197.5" font-family="Helvetica,sans-Serif" font-size="10.00">UIManager.DisableStealth</text>
</a>
</g>
</g>
<!-- Node2&#45;&gt;Node6 -->
<g id="edge5" class="edge">
<title>Node2&#45;&gt;Node6</title>
<path fill="none" stroke="midnightblue" d="M207.05,-133.57C224.63,-146.07 257.28,-167.89 288,-181 293.7,-183.43 299.79,-185.62 305.92,-187.58"/>
<polygon fill="midnightblue" stroke="midnightblue" points="304.95,-190.95 315.54,-190.46 306.96,-184.24 304.95,-190.95"/>
</g>
<!-- Node7 -->
<g id="node7" class="node">
<title>Node7</title>
<g id="a_node7"><a xlink:href="../../d8/dfa/class_run_manager.html#a9430e7b64dec87034c8dfa732281ae55" target="_top" xlink:title="Getter for the array of bodies that have been retrieved during the run.">
<polygon fill="white" stroke="black" points="300,-152.5 300,-171.5 420,-171.5 420,-152.5 300,-152.5"/>
<text text-anchor="middle" x="360" y="-159.5" font-family="Helvetica,sans-Serif" font-size="10.00">RunManager.GetBodies</text>
</a>
</g>
</g>
<!-- Node2&#45;&gt;Node7 -->
<g id="edge6" class="edge">
<title>Node2&#45;&gt;Node7</title>
<path fill="none" stroke="midnightblue" d="M235.64,-133.59C257.51,-138.63 284.51,-144.84 307.66,-150.18"/>
<polygon fill="midnightblue" stroke="midnightblue" points="307.13,-153.65 317.66,-152.48 308.7,-146.82 307.13,-153.65"/>
</g>
<!-- Node8 -->
<g id="node8" class="node">
<title>Node8</title>
<g id="a_node8"><a xlink:href="../../db/d10/class_game_manager.html#a50e2a15e87d37c37784d563682dd9d82" target="_top" xlink:title="Will take all the bodies from the run and add it to the total bodies that the player has.">
<polygon fill="white" stroke="black" points="290,-114.5 290,-133.5 430,-133.5 430,-114.5 290,-114.5"/>
<text text-anchor="middle" x="360" y="-121.5" font-family="Helvetica,sans-Serif" font-size="10.00">GameManager.MergeBodies</text>
</a>
</g>
</g>
<!-- Node2&#45;&gt;Node8 -->
<g id="edge7" class="edge">
<title>Node2&#45;&gt;Node8</title>
<path fill="none" stroke="midnightblue" d="M252.17,-124C261.1,-124 270.44,-124 279.73,-124"/>
<polygon fill="midnightblue" stroke="midnightblue" points="279.77,-127.5 289.77,-124 279.77,-120.5 279.77,-127.5"/>
</g>
<!-- Node9 -->
<g id="node9" class="node">
<title>Node9</title>
<g id="a_node9"><a xlink:href="../../db/daa/class_stealth_manager.html#a4733a03e09c7c985c3501de5ae2c6de8" target="_top" xlink:title="resets alert level to zero">
<polygon fill="white" stroke="black" points="296,-76.5 296,-95.5 424,-95.5 424,-76.5 296,-76.5"/>
<text text-anchor="middle" x="360" y="-83.5" font-family="Helvetica,sans-Serif" font-size="10.00">StealthManager.RestAlert</text>
</a>
</g>
</g>
<!-- Node2&#45;&gt;Node9 -->
<g id="edge8" class="edge">
<title>Node2&#45;&gt;Node9</title>
<path fill="none" stroke="midnightblue" d="M235.64,-114.41C257.51,-109.37 284.51,-103.16 307.66,-97.82"/>
<polygon fill="midnightblue" stroke="midnightblue" points="308.7,-101.18 317.66,-95.52 307.13,-94.35 308.7,-101.18"/>
</g>
<!-- Node10 -->
<g id="node10" class="node">
<title>Node10</title>
<g id="a_node10"><a xlink:href="../../d8/dfa/class_run_manager.html#ae21e37639830483de497c1de601a0146" target="_top" xlink:title="When called it will stop the Timer coroutine. Will stop the timer.">
<polygon fill="white" stroke="black" points="300.5,-38.5 300.5,-57.5 419.5,-57.5 419.5,-38.5 300.5,-38.5"/>
<text text-anchor="middle" x="360" y="-45.5" font-family="Helvetica,sans-Serif" font-size="10.00">RunManager.StopTimer</text>
</a>
</g>
</g>
<!-- Node2&#45;&gt;Node10 -->
<g id="edge9" class="edge">
<title>Node2&#45;&gt;Node10</title>
<path fill="none" stroke="midnightblue" d="M207.05,-114.43C224.63,-101.93 257.28,-80.11 288,-67 293.7,-64.57 299.79,-62.38 305.92,-60.42"/>
<polygon fill="midnightblue" stroke="midnightblue" points="306.96,-63.76 315.54,-57.54 304.95,-57.05 306.96,-63.76"/>
</g>
<!-- Node4 -->
<g id="node4" class="node">
<title>Node4</title>
<g id="a_node4"><a xlink:href="../../d5/d86/class_scene_controller.html#ae54dc1c703eecb27d3e8a55a23f80e22" target="_top" xlink:title="Takes a Scene by name then loads it according the int value of the Scene num">
<polygon fill="white" stroke="black" points="468,-228.5 468,-247.5 617,-247.5 617,-228.5 468,-228.5"/>
<text text-anchor="middle" x="542.5" y="-235.5" font-family="Helvetica,sans-Serif" font-size="10.00">SceneController.ChangeScene</text>
</a>
</g>
</g>
<!-- Node3&#45;&gt;Node4 -->
<g id="edge3" class="edge">
<title>Node3&#45;&gt;Node4</title>
<path fill="none" stroke="midnightblue" d="M432.08,-238C440.52,-238 449.19,-238 457.78,-238"/>
<polygon fill="midnightblue" stroke="midnightblue" points="457.81,-241.5 467.81,-238 457.81,-234.5 457.81,-241.5"/>
</g>
<!-- Node5 -->
<g id="node5" class="node">
<title>Node5</title>
<g id="a_node5"><a xlink:href="../../d6/db5/class_scene.html#a81de283590b01cfea421f5c60993efd0" target="_top" xlink:title=" ">
<polygon fill="white" stroke="black" points="653,-228.5 653,-247.5 764,-247.5 764,-228.5 653,-228.5"/>
<text text-anchor="middle" x="708.5" y="-235.5" font-family="Helvetica,sans-Serif" font-size="10.00">Scene.EnumToScene</text>
</a>
</g>
</g>
<!-- Node4&#45;&gt;Node5 -->
<g id="edge4" class="edge">
<title>Node4&#45;&gt;Node5</title>
<path fill="none" stroke="midnightblue" d="M617.34,-238C625.81,-238 634.39,-238 642.72,-238"/>
<polygon fill="midnightblue" stroke="midnightblue" points="642.73,-241.5 652.73,-238 642.73,-234.5 642.73,-241.5"/>
</g>
<!-- Node12 -->
<g id="node12" class="node">
<title>Node12</title>
<g id="a_node12"><a xlink:href="../../d8/dfa/class_run_manager.html#acdf8ebe79fc2688643e1bf833aada93d" target="_top" xlink:title="Getter for the current time on the timer in analog form. This is what game time it is starting from m...">
<polygon fill="white" stroke="black" points="289.5,-0.5 289.5,-19.5 430.5,-19.5 430.5,-0.5 289.5,-0.5"/>
<text text-anchor="middle" x="360" y="-7.5" font-family="Helvetica,sans-Serif" font-size="10.00">RunManager.GetTimeAnalog</text>
</a>
</g>
</g>
<!-- Node11&#45;&gt;Node12 -->
<g id="edge11" class="edge">
<title>Node11&#45;&gt;Node12</title>
<path fill="none" stroke="midnightblue" d="M235.64,-38.41C257.51,-33.37 284.51,-27.16 307.66,-21.82"/>
<polygon fill="midnightblue" stroke="midnightblue" points="308.7,-25.18 317.66,-19.52 307.13,-18.35 308.7,-25.18"/>
</g>
</g>
</svg>
