<?xml version="1.0" encoding="UTF-8" standalone="no"?>
<!DOCTYPE svg PUBLIC "-//W3C//DTD SVG 1.1//EN"
 "http://www.w3.org/Graphics/SVG/1.1/DTD/svg11.dtd">
<!-- Generated by graphviz version 3.0.0 (20220226.1711)
 -->
<!-- Title: RunManager.ToggleHidden Pages: 1 -->
<svg width="319pt" height="28pt"
 viewBox="0.00 0.00 319.00 28.00" xmlns="http://www.w3.org/2000/svg" xmlns:xlink="http://www.w3.org/1999/xlink">
<g id="graph0" class="graph" transform="scale(1 1) rotate(0) translate(4 24)">
<title>RunManager.ToggleHidden</title>
<polygon fill="white" stroke="transparent" points="-4,4 -4,-24 315,-24 315,4 -4,4"/>
<!-- Node1 -->
<g id="node1" class="node">
<title>Node1</title>
<g id="a_node1"><a xlink:title="Will toggle the hidden state of the player">
<polygon fill="#bfbfbf" stroke="black" points="178,-0.5 178,-19.5 311,-19.5 311,-0.5 178,-0.5"/>
<text text-anchor="middle" x="244.5" y="-7.5" font-family="Helvetica,sans-Serif" font-size="10.00">RunManager.ToggleHidden</text>
</a>
</g>
</g>
<!-- Node2 -->
<g id="node2" class="node">
<title>Node2</title>
<g id="a_node2"><a xlink:href="../../db/d10/class_game_manager.html#a8a9d36e17648bfcc9527c0279a21f04a" target="_top" xlink:title="When Called it will toggle the players hidden state">
<polygon fill="white" stroke="black" points="0,-0.5 0,-19.5 142,-19.5 142,-0.5 0,-0.5"/>
<text text-anchor="middle" x="71" y="-7.5" font-family="Helvetica,sans-Serif" font-size="10.00">GameManager.ToggleHidden</text>
</a>
</g>
</g>
<!-- Node1&#45;&gt;Node2 -->
<g id="edge1" class="edge">
<title>Node1&#45;&gt;Node2</title>
<path fill="none" stroke="midnightblue" d="M167.5,-10C159.08,-10 150.54,-10 142.2,-10"/>
<polygon fill="midnightblue" stroke="midnightblue" points="167.68,-13.5 177.68,-10 167.68,-6.5 167.68,-13.5"/>
</g>
</g>
</svg>
