<?xml version="1.0" encoding="UTF-8" standalone="no"?>
<!DOCTYPE svg PUBLIC "-//W3C//DTD SVG 1.1//EN"
 "http://www.w3.org/Graphics/SVG/1.1/DTD/svg11.dtd">
<!-- Generated by graphviz version 3.0.0 (20220226.1711)
 -->
<!-- Title: RunManager.SetTime Pages: 1 -->
<svg width="287pt" height="88pt"
 viewBox="0.00 0.00 287.00 88.00" xmlns="http://www.w3.org/2000/svg" xmlns:xlink="http://www.w3.org/1999/xlink">
<g id="graph0" class="graph" transform="scale(1 1) rotate(0) translate(4 84)">
<title>RunManager.SetTime</title>
<polygon fill="white" stroke="transparent" points="-4,4 -4,-84 283,-84 283,4 -4,4"/>
<!-- Node1 -->
<g id="node1" class="node">
<title>Node1</title>
<g id="a_node1"><a xlink:title="Will set the current time in game. This will also update the UI">
<polygon fill="#bfbfbf" stroke="black" points="169,-30 169,-49 279,-49 279,-30 169,-30"/>
<text text-anchor="middle" x="224" y="-37" font-family="Helvetica,sans-Serif" font-size="10.00">RunManager.SetTime</text>
</a>
</g>
</g>
<!-- Node2 -->
<g id="node2" class="node">
<title>Node2</title>
<g id="a_node2"><a xlink:href="../../da/d79/class_tutorial_progression.html#a1488822e0d8c18ac14493f4473b9a62b" target="_top" xlink:title="First interaction function for first set of graves.">
<polygon fill="white" stroke="black" points="0,-49.5 0,-79.5 133,-79.5 133,-49.5 0,-49.5"/>
<text text-anchor="start" x="8" y="-67.5" font-family="Helvetica,sans-Serif" font-size="10.00">TutorialProgression.Mentor</text>
<text text-anchor="middle" x="66.5" y="-56.5" font-family="Helvetica,sans-Serif" font-size="10.00">InitialInteraction</text>
</a>
</g>
</g>
<!-- Node1&#45;&gt;Node2 -->
<g id="edge1" class="edge">
<title>Node1&#45;&gt;Node2</title>
<path fill="none" stroke="midnightblue" d="M158.5,-49.87C150.11,-51.22 141.5,-52.6 133.08,-53.96"/>
<polygon fill="midnightblue" stroke="midnightblue" points="159.3,-53.29 168.61,-48.24 158.18,-46.38 159.3,-53.29"/>
</g>
<!-- Node3 -->
<g id="node3" class="node">
<title>Node3</title>
<g id="a_node3"><a xlink:href="../../da/d79/class_tutorial_progression.html#a5a5b857b69b0985bfe68623767cc0701" target="_top" xlink:title="Third interaction for graves with traps attached.">
<polygon fill="white" stroke="black" points="0,-0.5 0,-30.5 133,-30.5 133,-0.5 0,-0.5"/>
<text text-anchor="start" x="8" y="-18.5" font-family="Helvetica,sans-Serif" font-size="10.00">TutorialProgression.Mentor</text>
<text text-anchor="middle" x="66.5" y="-7.5" font-family="Helvetica,sans-Serif" font-size="10.00">TrapsInteract</text>
</a>
</g>
</g>
<!-- Node1&#45;&gt;Node3 -->
<g id="edge2" class="edge">
<title>Node1&#45;&gt;Node3</title>
<path fill="none" stroke="midnightblue" d="M158.5,-29.55C150.11,-28.25 141.5,-26.92 133.08,-25.62"/>
<polygon fill="midnightblue" stroke="midnightblue" points="158.2,-33.04 168.61,-31.11 159.26,-26.12 158.2,-33.04"/>
</g>
</g>
</svg>
