<?xml version="1.0" encoding="UTF-8" standalone="no"?>
<!DOCTYPE svg PUBLIC "-//W3C//DTD SVG 1.1//EN"
 "http://www.w3.org/Graphics/SVG/1.1/DTD/svg11.dtd">
<!-- Generated by graphviz version 3.0.0 (20220226.1711)
 -->
<!-- Title: RunManager.SetTime Pages: 1 -->
<svg width="445pt" height="28pt"
 viewBox="0.00 0.00 445.00 28.00" xmlns="http://www.w3.org/2000/svg" xmlns:xlink="http://www.w3.org/1999/xlink">
<g id="graph0" class="graph" transform="scale(1 1) rotate(0) translate(4 24)">
<title>RunManager.SetTime</title>
<polygon fill="white" stroke="transparent" points="-4,4 -4,-24 441,-24 441,4 -4,4"/>
<!-- Node1 -->
<g id="node1" class="node">
<title>Node1</title>
<g id="a_node1"><a xlink:title="Will set the current time in game. This will also update the UI">
<polygon fill="#bfbfbf" stroke="black" points="0,-0.5 0,-19.5 110,-19.5 110,-0.5 0,-0.5"/>
<text text-anchor="middle" x="55" y="-7.5" font-family="Helvetica,sans-Serif" font-size="10.00">RunManager.SetTime</text>
</a>
</g>
</g>
<!-- Node2 -->
<g id="node2" class="node">
<title>Node2</title>
<g id="a_node2"><a xlink:href="../../d8/dfa/class_run_manager.html#aafee0d49a0c31c685f37275adb1456d9" target="_top" xlink:title="Will update the UI for the run">
<polygon fill="white" stroke="black" points="146,-0.5 146,-19.5 260,-19.5 260,-0.5 146,-0.5"/>
<text text-anchor="middle" x="203" y="-7.5" font-family="Helvetica,sans-Serif" font-size="10.00">RunManager.UpdateUI</text>
</a>
</g>
</g>
<!-- Node1&#45;&gt;Node2 -->
<g id="edge1" class="edge">
<title>Node1&#45;&gt;Node2</title>
<path fill="none" stroke="midnightblue" d="M110.37,-10C118.55,-10 127.07,-10 135.47,-10"/>
<polygon fill="midnightblue" stroke="midnightblue" points="135.64,-13.5 145.64,-10 135.64,-6.5 135.64,-13.5"/>
</g>
<!-- Node3 -->
<g id="node3" class="node">
<title>Node3</title>
<g id="a_node3"><a xlink:href="../../d8/dfa/class_run_manager.html#acdf8ebe79fc2688643e1bf833aada93d" target="_top" xlink:title="Getter for the current time on the timer in analog form. This is what game time it is starting from m...">
<polygon fill="white" stroke="black" points="296,-0.5 296,-19.5 437,-19.5 437,-0.5 296,-0.5"/>
<text text-anchor="middle" x="366.5" y="-7.5" font-family="Helvetica,sans-Serif" font-size="10.00">RunManager.GetTimeAnalog</text>
</a>
</g>
</g>
<!-- Node2&#45;&gt;Node3 -->
<g id="edge2" class="edge">
<title>Node2&#45;&gt;Node3</title>
<path fill="none" stroke="midnightblue" d="M260.03,-10C268.35,-10 277.05,-10 285.74,-10"/>
<polygon fill="midnightblue" stroke="midnightblue" points="285.91,-13.5 295.91,-10 285.91,-6.5 285.91,-13.5"/>
</g>
</g>
</svg>
