<?xml version="1.0" encoding="UTF-8" standalone="no"?>
<!DOCTYPE svg PUBLIC "-//W3C//DTD SVG 1.1//EN"
 "http://www.w3.org/Graphics/SVG/1.1/DTD/svg11.dtd">
<!-- Generated by graphviz version 3.0.0 (20220226.1711)
 -->
<!-- Title: TutorialMapGen.MoveMentor Pages: 1 -->
<svg width="317pt" height="186pt"
 viewBox="0.00 0.00 317.00 186.00" xmlns="http://www.w3.org/2000/svg" xmlns:xlink="http://www.w3.org/1999/xlink">
<g id="graph0" class="graph" transform="scale(1 1) rotate(0) translate(4 182)">
<title>TutorialMapGen.MoveMentor</title>
<polygon fill="white" stroke="transparent" points="-4,4 -4,-182 313,-182 313,4 -4,4"/>
<!-- Node1 -->
<g id="node1" class="node">
<title>Node1</title>
<g id="a_node1"><a xlink:title="Uses navmesh to move mentor to passed in position.">
<polygon fill="#bfbfbf" stroke="black" points="169,-79 169,-98 309,-98 309,-79 169,-79"/>
<text text-anchor="middle" x="239" y="-86" font-family="Helvetica,sans-Serif" font-size="10.00">TutorialMapGen.MoveMentor</text>
</a>
</g>
</g>
<!-- Node2 -->
<g id="node2" class="node">
<title>Node2</title>
<g id="a_node2"><a xlink:href="../../da/d79/class_tutorial_progression.html#a231523ead6e1a3d466808083b6a07e13" target="_top" xlink:title="Fourth interaction for guard with stealth bushes.">
<polygon fill="white" stroke="black" points="0,-147.5 0,-177.5 133,-177.5 133,-147.5 0,-147.5"/>
<text text-anchor="start" x="8" y="-165.5" font-family="Helvetica,sans-Serif" font-size="10.00">TutorialProgression.Mentor</text>
<text text-anchor="middle" x="66.5" y="-154.5" font-family="Helvetica,sans-Serif" font-size="10.00">BushInteraction</text>
</a>
</g>
</g>
<!-- Node1&#45;&gt;Node2 -->
<g id="edge1" class="edge">
<title>Node1&#45;&gt;Node2</title>
<path fill="none" stroke="midnightblue" d="M210.28,-102.57C189.3,-113.01 159.63,-127.31 133,-138.5 125.74,-141.55 117.95,-144.6 110.36,-147.45"/>
<polygon fill="midnightblue" stroke="midnightblue" points="211.9,-105.68 219.27,-98.07 208.76,-99.42 211.9,-105.68"/>
</g>
<!-- Node3 -->
<g id="node3" class="node">
<title>Node3</title>
<g id="a_node3"><a xlink:href="../../da/d79/class_tutorial_progression.html#a374a6b4061ec89d92e678f0ce40192e2" target="_top" xlink:title="Second interaction before the first guard obstacle.">
<polygon fill="white" stroke="black" points="0,-98.5 0,-128.5 133,-128.5 133,-98.5 0,-98.5"/>
<text text-anchor="start" x="8" y="-116.5" font-family="Helvetica,sans-Serif" font-size="10.00">TutorialProgression.Mentor</text>
<text text-anchor="middle" x="66.5" y="-105.5" font-family="Helvetica,sans-Serif" font-size="10.00">GuardInteract</text>
</a>
</g>
</g>
<!-- Node1&#45;&gt;Node3 -->
<g id="edge2" class="edge">
<title>Node1&#45;&gt;Node3</title>
<path fill="none" stroke="midnightblue" d="M163.14,-99.48C153.14,-100.94 142.94,-102.44 133.11,-103.88"/>
<polygon fill="midnightblue" stroke="midnightblue" points="163.67,-102.94 173.05,-98.02 162.65,-96.01 163.67,-102.94"/>
</g>
<!-- Node4 -->
<g id="node4" class="node">
<title>Node4</title>
<g id="a_node4"><a xlink:href="../../da/d79/class_tutorial_progression.html#a1488822e0d8c18ac14493f4473b9a62b" target="_top" xlink:title="First interaction function for first set of graves.">
<polygon fill="white" stroke="black" points="0,-49.5 0,-79.5 133,-79.5 133,-49.5 0,-49.5"/>
<text text-anchor="start" x="8" y="-67.5" font-family="Helvetica,sans-Serif" font-size="10.00">TutorialProgression.Mentor</text>
<text text-anchor="middle" x="66.5" y="-56.5" font-family="Helvetica,sans-Serif" font-size="10.00">InitialInteraction</text>
</a>
</g>
</g>
<!-- Node1&#45;&gt;Node4 -->
<g id="edge3" class="edge">
<title>Node1&#45;&gt;Node4</title>
<path fill="none" stroke="midnightblue" d="M160.06,-77.53C151.08,-76.26 141.99,-74.99 133.2,-73.75"/>
<polygon fill="midnightblue" stroke="midnightblue" points="159.73,-81.02 170.12,-78.95 160.71,-74.09 159.73,-81.02"/>
</g>
<!-- Node5 -->
<g id="node5" class="node">
<title>Node5</title>
<g id="a_node5"><a xlink:href="../../da/d79/class_tutorial_progression.html#a5a5b857b69b0985bfe68623767cc0701" target="_top" xlink:title="Third interaction for graves with traps attached.">
<polygon fill="white" stroke="black" points="0,-0.5 0,-30.5 133,-30.5 133,-0.5 0,-0.5"/>
<text text-anchor="start" x="8" y="-18.5" font-family="Helvetica,sans-Serif" font-size="10.00">TutorialProgression.Mentor</text>
<text text-anchor="middle" x="66.5" y="-7.5" font-family="Helvetica,sans-Serif" font-size="10.00">TrapsInteract</text>
</a>
</g>
</g>
<!-- Node1&#45;&gt;Node5 -->
<g id="edge4" class="edge">
<title>Node1&#45;&gt;Node5</title>
<path fill="none" stroke="midnightblue" d="M208.74,-74.51C187.8,-64.65 158.85,-51.33 133,-40.5 125.03,-37.16 116.44,-33.75 108.19,-30.57"/>
<polygon fill="midnightblue" stroke="midnightblue" points="207.5,-77.8 218.04,-78.91 210.5,-71.47 207.5,-77.8"/>
</g>
</g>
</svg>
