<?xml version="1.0" encoding="UTF-8" standalone="no"?>
<!DOCTYPE svg PUBLIC "-//W3C//DTD SVG 1.1//EN"
 "http://www.w3.org/Graphics/SVG/1.1/DTD/svg11.dtd">
<!-- Generated by graphviz version 3.0.0 (20220226.1711)
 -->
<!-- Title: Dialogue.SetScript Pages: 1 -->
<svg width="295pt" height="284pt"
 viewBox="0.00 0.00 295.00 284.00" xmlns="http://www.w3.org/2000/svg" xmlns:xlink="http://www.w3.org/1999/xlink">
<g id="graph0" class="graph" transform="scale(1 1) rotate(0) translate(4 280)">
<title>Dialogue.SetScript</title>
<polygon fill="white" stroke="transparent" points="-4,4 -4,-280 291,-280 291,4 -4,4"/>
<!-- Node1 -->
<g id="node1" class="node">
<title>Node1</title>
<g id="a_node1"><a xlink:title="Will set the dialogue script based on what is passed">
<polygon fill="#bfbfbf" stroke="black" points="189,-128 189,-147 287,-147 287,-128 189,-128"/>
<text text-anchor="middle" x="238" y="-135" font-family="Helvetica,sans-Serif" font-size="10.00">Dialogue.SetScript</text>
</a>
</g>
</g>
<!-- Node2 -->
<g id="node2" class="node">
<title>Node2</title>
<g id="a_node2"><a xlink:href="../../da/d79/class_tutorial_progression.html#acce3a1e2e8707530d3da7eec0be18c49" target="_top" xlink:title="Called by the mausoleum script when the minigame is failed">
<polygon fill="white" stroke="black" points="0,-245.5 0,-275.5 153,-275.5 153,-245.5 0,-245.5"/>
<text text-anchor="start" x="8" y="-263.5" font-family="Helvetica,sans-Serif" font-size="10.00">TutorialProgression.Mausoleum</text>
<text text-anchor="middle" x="76.5" y="-252.5" font-family="Helvetica,sans-Serif" font-size="10.00">FailureCall</text>
</a>
</g>
</g>
<!-- Node1&#45;&gt;Node2 -->
<g id="edge1" class="edge">
<title>Node1&#45;&gt;Node2</title>
<path fill="none" stroke="midnightblue" d="M226.1,-155.73C211.94,-177.92 185.18,-215.07 153,-236.5 147.85,-239.93 142.18,-242.9 136.32,-245.46"/>
<polygon fill="midnightblue" stroke="midnightblue" points="229.08,-157.57 231.38,-147.23 223.13,-153.88 229.08,-157.57"/>
</g>
<!-- Node3 -->
<g id="node3" class="node">
<title>Node3</title>
<g id="a_node3"><a xlink:href="../../da/d79/class_tutorial_progression.html#a231523ead6e1a3d466808083b6a07e13" target="_top" xlink:title="Fourth interaction for guard with stealth bushes.">
<polygon fill="white" stroke="black" points="10,-196.5 10,-226.5 143,-226.5 143,-196.5 10,-196.5"/>
<text text-anchor="start" x="18" y="-214.5" font-family="Helvetica,sans-Serif" font-size="10.00">TutorialProgression.Mentor</text>
<text text-anchor="middle" x="76.5" y="-203.5" font-family="Helvetica,sans-Serif" font-size="10.00">BushInteraction</text>
</a>
</g>
</g>
<!-- Node1&#45;&gt;Node3 -->
<g id="edge2" class="edge">
<title>Node1&#45;&gt;Node3</title>
<path fill="none" stroke="midnightblue" d="M214.85,-152.6C198.34,-163.37 174.94,-177.64 153,-187.5 145.85,-190.71 138.14,-193.69 130.47,-196.37"/>
<polygon fill="midnightblue" stroke="midnightblue" points="216.86,-155.46 223.27,-147.02 213,-149.63 216.86,-155.46"/>
</g>
<!-- Node4 -->
<g id="node4" class="node">
<title>Node4</title>
<g id="a_node4"><a xlink:href="../../da/d79/class_tutorial_progression.html#a374a6b4061ec89d92e678f0ce40192e2" target="_top" xlink:title="Second interaction before the first guard obstacle.">
<polygon fill="white" stroke="black" points="10,-147.5 10,-177.5 143,-177.5 143,-147.5 10,-147.5"/>
<text text-anchor="start" x="18" y="-165.5" font-family="Helvetica,sans-Serif" font-size="10.00">TutorialProgression.Mentor</text>
<text text-anchor="middle" x="76.5" y="-154.5" font-family="Helvetica,sans-Serif" font-size="10.00">GuardInteract</text>
</a>
</g>
</g>
<!-- Node1&#45;&gt;Node4 -->
<g id="edge3" class="edge">
<title>Node1&#45;&gt;Node4</title>
<path fill="none" stroke="midnightblue" d="M178.77,-146.63C167.23,-148.44 155.05,-150.34 143.28,-152.19"/>
<polygon fill="midnightblue" stroke="midnightblue" points="179.37,-150.08 188.71,-145.07 178.29,-143.16 179.37,-150.08"/>
</g>
<!-- Node5 -->
<g id="node5" class="node">
<title>Node5</title>
<g id="a_node5"><a xlink:href="../../da/d79/class_tutorial_progression.html#a1488822e0d8c18ac14493f4473b9a62b" target="_top" xlink:title="First interaction function for first set of graves.">
<polygon fill="white" stroke="black" points="10,-98.5 10,-128.5 143,-128.5 143,-98.5 10,-98.5"/>
<text text-anchor="start" x="18" y="-116.5" font-family="Helvetica,sans-Serif" font-size="10.00">TutorialProgression.Mentor</text>
<text text-anchor="middle" x="76.5" y="-105.5" font-family="Helvetica,sans-Serif" font-size="10.00">InitialInteraction</text>
</a>
</g>
</g>
<!-- Node1&#45;&gt;Node5 -->
<g id="edge4" class="edge">
<title>Node1&#45;&gt;Node5</title>
<path fill="none" stroke="midnightblue" d="M178.77,-128.74C167.23,-127 155.05,-125.17 143.28,-123.4"/>
<polygon fill="midnightblue" stroke="midnightblue" points="178.3,-132.21 188.71,-130.23 179.34,-125.29 178.3,-132.21"/>
</g>
<!-- Node6 -->
<g id="node6" class="node">
<title>Node6</title>
<g id="a_node6"><a xlink:href="../../da/d79/class_tutorial_progression.html#aba3dd024b693b5ce4fdff69a7efc6762" target="_top" xlink:title="Fifth interaction before mausoleum.">
<polygon fill="white" stroke="black" points="10,-49.5 10,-79.5 143,-79.5 143,-49.5 10,-49.5"/>
<text text-anchor="start" x="18" y="-67.5" font-family="Helvetica,sans-Serif" font-size="10.00">TutorialProgression.Mentor</text>
<text text-anchor="middle" x="76.5" y="-56.5" font-family="Helvetica,sans-Serif" font-size="10.00">MausoleumInteraction</text>
</a>
</g>
</g>
<!-- Node1&#45;&gt;Node6 -->
<g id="edge5" class="edge">
<title>Node1&#45;&gt;Node6</title>
<path fill="none" stroke="midnightblue" d="M213.38,-122.31C196.9,-112.14 174.16,-98.94 153,-89.5 144.93,-85.9 136.18,-82.54 127.58,-79.52"/>
<polygon fill="midnightblue" stroke="midnightblue" points="211.97,-125.55 222.3,-127.89 215.68,-119.62 211.97,-125.55"/>
</g>
<!-- Node7 -->
<g id="node7" class="node">
<title>Node7</title>
<g id="a_node7"><a xlink:href="../../da/d79/class_tutorial_progression.html#a5a5b857b69b0985bfe68623767cc0701" target="_top" xlink:title="Third interaction for graves with traps attached.">
<polygon fill="white" stroke="black" points="10,-0.5 10,-30.5 143,-30.5 143,-0.5 10,-0.5"/>
<text text-anchor="start" x="18" y="-18.5" font-family="Helvetica,sans-Serif" font-size="10.00">TutorialProgression.Mentor</text>
<text text-anchor="middle" x="76.5" y="-7.5" font-family="Helvetica,sans-Serif" font-size="10.00">TrapsInteract</text>
</a>
</g>
</g>
<!-- Node1&#45;&gt;Node7 -->
<g id="edge6" class="edge">
<title>Node1&#45;&gt;Node7</title>
<path fill="none" stroke="midnightblue" d="M225.56,-119.08C211.16,-97.34 184.48,-61.5 153,-40.5 147.26,-36.67 140.88,-33.38 134.33,-30.57"/>
<polygon fill="midnightblue" stroke="midnightblue" points="222.76,-121.2 231.12,-127.71 228.65,-117.41 222.76,-121.2"/>
</g>
</g>
</svg>
