<?xml version="1.0" encoding="UTF-8" standalone="no"?>
<!DOCTYPE svg PUBLIC "-//W3C//DTD SVG 1.1//EN"
 "http://www.w3.org/Graphics/SVG/1.1/DTD/svg11.dtd">
<!-- Generated by graphviz version 3.0.0 (20220226.1711)
 -->
<!-- Title: Script.GetLine Pages: 1 -->
<svg width="602pt" height="466pt"
 viewBox="0.00 0.00 602.00 465.50" xmlns="http://www.w3.org/2000/svg" xmlns:xlink="http://www.w3.org/1999/xlink">
<g id="graph0" class="graph" transform="scale(1 1) rotate(0) translate(4 461.5)">
<title>Script.GetLine</title>
<polygon fill="white" stroke="transparent" points="-4,4 -4,-461.5 598,-461.5 598,4 -4,4"/>
<!-- Node1 -->
<g id="node1" class="node">
<title>Node1</title>
<g id="a_node1"><a xlink:title="Will get a line based on index">
<polygon fill="#bfbfbf" stroke="black" points="515,-209.5 515,-228.5 594,-228.5 594,-209.5 515,-209.5"/>
<text text-anchor="middle" x="554.5" y="-216.5" font-family="Helvetica,sans-Serif" font-size="10.00">Script.GetLine</text>
</a>
</g>
</g>
<!-- Node2 -->
<g id="node2" class="node">
<title>Node2</title>
<g id="a_node2"><a xlink:href="../../dd/d62/class_dialogue_test.html#a31d3c6dcc923310c483e781adf30d6c3" target="_top" xlink:title=" ">
<polygon fill="white" stroke="black" points="364,-323.5 364,-342.5 474,-342.5 474,-323.5 364,-323.5"/>
<text text-anchor="middle" x="419" y="-330.5" font-family="Helvetica,sans-Serif" font-size="10.00">DialogueTest.GetLine</text>
</a>
</g>
</g>
<!-- Node1&#45;&gt;Node2 -->
<g id="edge1" class="edge">
<title>Node1&#45;&gt;Node2</title>
<path fill="none" stroke="midnightblue" d="M542.36,-237.26C529.35,-257.25 506.11,-289.12 479,-309 470.8,-315.02 460.87,-319.81 451.52,-323.48"/>
<polygon fill="midnightblue" stroke="midnightblue" points="545.36,-239.07 547.75,-228.74 539.44,-235.32 545.36,-239.07"/>
</g>
<!-- Node3 -->
<g id="node3" class="node">
<title>Node3</title>
<g id="a_node3"><a xlink:href="../../d0/d9d/class_dialogue.html#a1c7cb3b4f4ff488cbf3d069ae1a13124" target="_top" xlink:title="If not on last line update to the next line in the script">
<polygon fill="white" stroke="black" points="208.5,-380.5 208.5,-399.5 303.5,-399.5 303.5,-380.5 208.5,-380.5"/>
<text text-anchor="middle" x="256" y="-387.5" font-family="Helvetica,sans-Serif" font-size="10.00">Dialogue.NextLine</text>
</a>
</g>
</g>
<!-- Node1&#45;&gt;Node3 -->
<g id="edge2" class="edge">
<title>Node1&#45;&gt;Node3</title>
<path fill="none" stroke="midnightblue" d="M535.58,-235.59C521.2,-248.15 500.01,-265.06 479,-276 429.38,-301.83 404.96,-282.1 359,-314 337.67,-328.8 343.4,-343.95 323,-360 311.92,-368.72 297.9,-375.55 285.64,-380.48"/>
<polygon fill="midnightblue" stroke="midnightblue" points="538.08,-238.05 543.2,-228.77 533.41,-232.83 538.08,-238.05"/>
</g>
<!-- Node10 -->
<g id="node10" class="node">
<title>Node10</title>
<g id="a_node10"><a xlink:href="../../d0/d9d/class_dialogue.html#a858ac0f41e43509987b5800ac5e7d39a" target="_top" xlink:title=" ">
<polygon fill="white" stroke="black" points="361,-133.5 361,-152.5 477,-152.5 477,-133.5 361,-133.5"/>
<text text-anchor="middle" x="419" y="-140.5" font-family="Helvetica,sans-Serif" font-size="10.00">Dialogue.NextLineVars</text>
</a>
</g>
</g>
<!-- Node1&#45;&gt;Node10 -->
<g id="edge9" class="edge">
<title>Node1&#45;&gt;Node10</title>
<path fill="none" stroke="midnightblue" d="M533.15,-202.93C518.61,-191.93 498.28,-177.48 479,-167 468.9,-161.51 457.26,-156.52 447.01,-152.53"/>
<polygon fill="midnightblue" stroke="midnightblue" points="531.34,-205.95 541.4,-209.28 535.6,-200.41 531.34,-205.95"/>
</g>
<!-- Node11 -->
<g id="node11" class="node">
<title>Node11</title>
<g id="a_node11"><a xlink:href="../../d0/d9d/class_dialogue.html#aaf113062befa09d643ebd9a5629ca7d5" target="_top" xlink:title="Called on Script enable &#45; will update the UI with the starting information">
<polygon fill="white" stroke="black" points="369,-95.5 369,-114.5 469,-114.5 469,-95.5 369,-95.5"/>
<text text-anchor="middle" x="419" y="-102.5" font-family="Helvetica,sans-Serif" font-size="10.00">Dialogue.OnEnable</text>
</a>
</g>
</g>
<!-- Node1&#45;&gt;Node11 -->
<g id="edge10" class="edge">
<title>Node1&#45;&gt;Node11</title>
<path fill="none" stroke="midnightblue" d="M543.63,-200.6C531.25,-179.21 508.08,-144.27 479,-124 473.44,-120.12 467.04,-117 460.56,-114.5"/>
<polygon fill="midnightblue" stroke="midnightblue" points="540.6,-202.35 548.54,-209.37 546.71,-198.93 540.6,-202.35"/>
</g>
<!-- Node12 -->
<g id="node12" class="node">
<title>Node12</title>
<g id="a_node12"><a xlink:href="../../d0/d9d/class_dialogue.html#a8eeaf735355b1740a29711ff6206a9c0" target="_top" xlink:title="Will reset the line number and UI to be back at the start of the dialogue">
<polygon fill="white" stroke="black" points="359,-209.5 359,-228.5 479,-228.5 479,-209.5 359,-209.5"/>
<text text-anchor="middle" x="419" y="-216.5" font-family="Helvetica,sans-Serif" font-size="10.00">Dialogue.ResetDialogue</text>
</a>
</g>
</g>
<!-- Node1&#45;&gt;Node12 -->
<g id="edge11" class="edge">
<title>Node1&#45;&gt;Node12</title>
<path fill="none" stroke="midnightblue" d="M504.64,-219C496.36,-219 487.67,-219 479.15,-219"/>
<polygon fill="midnightblue" stroke="midnightblue" points="504.89,-222.5 514.89,-219 504.89,-215.5 504.89,-222.5"/>
</g>
<!-- Node17 -->
<g id="node17" class="node">
<title>Node17</title>
<g id="a_node17"><a xlink:href="../../d0/d9d/class_dialogue.html#a69133b8f8cd3875f2d0ddf3acdfb05b1" target="_top" xlink:title="Will set the dialogue script based on what is passed">
<polygon fill="white" stroke="black" points="207,-304.5 207,-323.5 305,-323.5 305,-304.5 207,-304.5"/>
<text text-anchor="middle" x="256" y="-311.5" font-family="Helvetica,sans-Serif" font-size="10.00">Dialogue.SetScript</text>
</a>
</g>
</g>
<!-- Node1&#45;&gt;Node17 -->
<g id="edge28" class="edge">
<title>Node1&#45;&gt;Node17</title>
<path fill="none" stroke="midnightblue" d="M513.76,-231.61C474.44,-244.1 412.55,-263.8 359,-281 334.55,-288.85 306.82,-297.83 286.45,-304.44"/>
<polygon fill="midnightblue" stroke="midnightblue" points="515.03,-234.88 523.5,-228.52 512.91,-228.21 515.03,-234.88"/>
</g>
<!-- Node18 -->
<g id="node18" class="node">
<title>Node18</title>
<g id="a_node18"><a xlink:href="../../d0/d9d/class_dialogue.html#a180ac6da7ce18ec4a85787a10107b963" target="_top" xlink:title=" ">
<polygon fill="white" stroke="black" points="197,-0.5 197,-19.5 315,-19.5 315,-0.5 197,-0.5"/>
<text text-anchor="middle" x="256" y="-7.5" font-family="Helvetica,sans-Serif" font-size="10.00">Dialogue.SetScriptVars</text>
</a>
</g>
</g>
<!-- Node1&#45;&gt;Node18 -->
<g id="edge35" class="edge">
<title>Node1&#45;&gt;Node18</title>
<path fill="none" stroke="midnightblue" d="M508.14,-206.87C452.4,-191.79 364.46,-167.37 359,-162 320.53,-124.13 357.2,-87.76 323,-46 313.16,-33.98 298.21,-25.36 285.02,-19.57"/>
<polygon fill="midnightblue" stroke="midnightblue" points="507.25,-210.25 517.81,-209.48 509.07,-203.49 507.25,-210.25"/>
</g>
<!-- Node4 -->
<g id="node4" class="node">
<title>Node4</title>
<g id="a_node4"><a xlink:href="../../da/d79/class_tutorial_progression.html#a231523ead6e1a3d466808083b6a07e13" target="_top" xlink:title="Fourth interaction for guard with stealth bushes.">
<polygon fill="white" stroke="black" points="10,-329 10,-359 143,-359 143,-329 10,-329"/>
<text text-anchor="start" x="18" y="-347" font-family="Helvetica,sans-Serif" font-size="10.00">TutorialProgression.Mentor</text>
<text text-anchor="middle" x="76.5" y="-336" font-family="Helvetica,sans-Serif" font-size="10.00">BushInteraction</text>
</a>
</g>
</g>
<!-- Node3&#45;&gt;Node4 -->
<g id="edge3" class="edge">
<title>Node3&#45;&gt;Node4</title>
<path fill="none" stroke="midnightblue" d="M208.33,-377.91C186.04,-372.13 159.14,-365.16 135.55,-359.04"/>
<polygon fill="midnightblue" stroke="midnightblue" points="207.66,-381.35 218.22,-380.47 209.42,-374.57 207.66,-381.35"/>
</g>
<!-- Node5 -->
<g id="node5" class="node">
<title>Node5</title>
<g id="a_node5"><a xlink:href="../../da/d79/class_tutorial_progression.html#ac391381b4c1ccf2e8d774ba807e41fd2" target="_top" xlink:title="Final interaction after failing minigame.">
<polygon fill="white" stroke="black" points="10,-427 10,-457 143,-457 143,-427 10,-427"/>
<text text-anchor="start" x="18" y="-445" font-family="Helvetica,sans-Serif" font-size="10.00">TutorialProgression.Mentor</text>
<text text-anchor="middle" x="76.5" y="-434" font-family="Helvetica,sans-Serif" font-size="10.00">FailureInteraction</text>
</a>
</g>
</g>
<!-- Node3&#45;&gt;Node5 -->
<g id="edge4" class="edge">
<title>Node3&#45;&gt;Node5</title>
<path fill="none" stroke="midnightblue" d="M212.83,-402.35C187.71,-409.71 155.63,-419.11 129.02,-426.91"/>
<polygon fill="midnightblue" stroke="midnightblue" points="213.83,-405.71 222.44,-399.54 211.86,-398.99 213.83,-405.71"/>
</g>
<!-- Node6 -->
<g id="node6" class="node">
<title>Node6</title>
<g id="a_node6"><a xlink:href="../../da/d79/class_tutorial_progression.html#a374a6b4061ec89d92e678f0ce40192e2" target="_top" xlink:title="Second interaction before the first guard obstacle.">
<polygon fill="white" stroke="black" points="10,-280 10,-310 143,-310 143,-280 10,-280"/>
<text text-anchor="start" x="18" y="-298" font-family="Helvetica,sans-Serif" font-size="10.00">TutorialProgression.Mentor</text>
<text text-anchor="middle" x="76.5" y="-287" font-family="Helvetica,sans-Serif" font-size="10.00">GuardInteract</text>
</a>
</g>
</g>
<!-- Node3&#45;&gt;Node6 -->
<g id="edge5" class="edge">
<title>Node3&#45;&gt;Node6</title>
<path fill="none" stroke="midnightblue" d="M235.49,-374.12C215.69,-358.63 183.67,-335.22 153,-320 145.58,-316.32 137.49,-312.99 129.45,-310.05"/>
<polygon fill="midnightblue" stroke="midnightblue" points="233.43,-376.95 243.44,-380.43 237.78,-371.47 233.43,-376.95"/>
</g>
<!-- Node7 -->
<g id="node7" class="node">
<title>Node7</title>
<g id="a_node7"><a xlink:href="../../da/d79/class_tutorial_progression.html#a1488822e0d8c18ac14493f4473b9a62b" target="_top" xlink:title="First interaction function for first set of graves.">
<polygon fill="white" stroke="black" points="10,-182 10,-212 143,-212 143,-182 10,-182"/>
<text text-anchor="start" x="18" y="-200" font-family="Helvetica,sans-Serif" font-size="10.00">TutorialProgression.Mentor</text>
<text text-anchor="middle" x="76.5" y="-189" font-family="Helvetica,sans-Serif" font-size="10.00">InitialInteraction</text>
</a>
</g>
</g>
<!-- Node3&#45;&gt;Node7 -->
<g id="edge6" class="edge">
<title>Node3&#45;&gt;Node7</title>
<path fill="none" stroke="midnightblue" d="M231.49,-374.67C217.39,-364.4 200.09,-349.71 189,-333 160.32,-289.79 189.56,-258.79 153,-222 149.2,-218.18 144.81,-214.94 140.09,-212.2"/>
<polygon fill="midnightblue" stroke="midnightblue" points="229.57,-377.6 239.77,-380.48 233.59,-371.87 229.57,-377.6"/>
</g>
<!-- Node8 -->
<g id="node8" class="node">
<title>Node8</title>
<g id="a_node8"><a xlink:href="../../da/d79/class_tutorial_progression.html#aba3dd024b693b5ce4fdff69a7efc6762" target="_top" xlink:title="Fifth interaction before mausoleum.">
<polygon fill="white" stroke="black" points="10,-231 10,-261 143,-261 143,-231 10,-231"/>
<text text-anchor="start" x="18" y="-249" font-family="Helvetica,sans-Serif" font-size="10.00">TutorialProgression.Mentor</text>
<text text-anchor="middle" x="76.5" y="-238" font-family="Helvetica,sans-Serif" font-size="10.00">MausoleumInteraction</text>
</a>
</g>
</g>
<!-- Node3&#45;&gt;Node8 -->
<g id="edge7" class="edge">
<title>Node3&#45;&gt;Node8</title>
<path fill="none" stroke="midnightblue" d="M233.44,-374.38C219.68,-363.72 202.04,-348.73 189,-333 168.66,-308.47 177.73,-291.09 153,-271 148.28,-267.17 142.96,-263.92 137.37,-261.16"/>
<polygon fill="midnightblue" stroke="midnightblue" points="231.35,-377.18 241.43,-380.42 235.57,-371.6 231.35,-377.18"/>
</g>
<!-- Node9 -->
<g id="node9" class="node">
<title>Node9</title>
<g id="a_node9"><a xlink:href="../../da/d79/class_tutorial_progression.html#a5a5b857b69b0985bfe68623767cc0701" target="_top" xlink:title="Third interaction for graves with traps attached.">
<polygon fill="white" stroke="black" points="10,-378 10,-408 143,-408 143,-378 10,-378"/>
<text text-anchor="start" x="18" y="-396" font-family="Helvetica,sans-Serif" font-size="10.00">TutorialProgression.Mentor</text>
<text text-anchor="middle" x="76.5" y="-385" font-family="Helvetica,sans-Serif" font-size="10.00">TrapsInteract</text>
</a>
</g>
</g>
<!-- Node3&#45;&gt;Node9 -->
<g id="edge8" class="edge">
<title>Node3&#45;&gt;Node9</title>
<path fill="none" stroke="midnightblue" d="M198.28,-390.96C180.74,-391.26 161.27,-391.58 143.18,-391.89"/>
<polygon fill="midnightblue" stroke="midnightblue" points="198.42,-394.46 208.36,-390.79 198.31,-387.46 198.42,-394.46"/>
</g>
<!-- Node12&#45;&gt;Node4 -->
<g id="edge22" class="edge">
<title>Node12&#45;&gt;Node4</title>
<path fill="none" stroke="midnightblue" d="M400.58,-235.86C388.42,-247.97 372.08,-264.93 359,-281 341.26,-302.8 347.6,-319.4 323,-333 268.02,-363.4 195.06,-362.46 143,-356.19"/>
<polygon fill="midnightblue" stroke="midnightblue" points="403.22,-238.17 407.9,-228.66 398.31,-233.18 403.22,-238.17"/>
</g>
<!-- Node12&#45;&gt;Node6 -->
<g id="edge23" class="edge">
<title>Node12&#45;&gt;Node6</title>
<path fill="none" stroke="midnightblue" d="M384.66,-232.54C358.59,-243.1 326.23,-256.12 323,-257 263.2,-273.36 193.15,-283.33 143.22,-288.93"/>
<polygon fill="midnightblue" stroke="midnightblue" points="386.32,-235.65 394.27,-228.65 383.69,-229.16 386.32,-235.65"/>
</g>
<!-- Node12&#45;&gt;Node7 -->
<g id="edge24" class="edge">
<title>Node12&#45;&gt;Node7</title>
<path fill="none" stroke="midnightblue" d="M376.19,-205.28C370.13,-202.37 364.19,-198.96 359,-195 338.08,-179.04 346.59,-159.65 323,-148 269.6,-121.64 245.83,-130.2 189,-148 170.41,-153.82 170.48,-164.4 153,-173 146.34,-176.28 139.12,-179.24 131.89,-181.88"/>
<polygon fill="midnightblue" stroke="midnightblue" points="375.16,-208.65 385.73,-209.43 377.96,-202.23 375.16,-208.65"/>
</g>
<!-- Node12&#45;&gt;Node8 -->
<g id="edge25" class="edge">
<title>Node12&#45;&gt;Node8</title>
<path fill="none" stroke="midnightblue" d="M384.68,-205.5C357.97,-194.71 324.66,-181.32 323,-181 264.52,-169.74 243.25,-156.44 189,-181 166.91,-191 173.3,-208.73 153,-222 147.82,-225.39 142.13,-228.32 136.26,-230.87"/>
<polygon fill="midnightblue" stroke="midnightblue" points="383.57,-208.83 394.15,-209.33 386.19,-202.34 383.57,-208.83"/>
</g>
<!-- Node12&#45;&gt;Node9 -->
<g id="edge26" class="edge">
<title>Node12&#45;&gt;Node9</title>
<path fill="none" stroke="midnightblue" d="M405.34,-237.02C392.57,-255.69 372.83,-286.01 359,-314 339,-354.48 360.16,-383.35 323,-409 294.84,-428.44 205.73,-417.28 143.02,-406.2"/>
<polygon fill="midnightblue" stroke="midnightblue" points="408.34,-238.84 411.15,-228.62 402.58,-234.85 408.34,-238.84"/>
</g>
<!-- Node13 -->
<g id="node13" class="node">
<title>Node13</title>
<g id="a_node13"><a xlink:href="../../d7/d75/class_u_i_manager.html#aecab9bf874fbf9fe5f997d6453d50efe" target="_top" xlink:title="Enables the dialogue box.">
<polygon fill="white" stroke="black" points="189,-190.5 189,-209.5 323,-209.5 323,-190.5 189,-190.5"/>
<text text-anchor="middle" x="256" y="-197.5" font-family="Helvetica,sans-Serif" font-size="10.00">UIManager.DialogueEnable</text>
</a>
</g>
</g>
<!-- Node12&#45;&gt;Node13 -->
<g id="edge12" class="edge">
<title>Node12&#45;&gt;Node13</title>
<path fill="none" stroke="midnightblue" d="M348.99,-210.86C340.4,-209.84 331.64,-208.81 323.1,-207.8"/>
<polygon fill="midnightblue" stroke="midnightblue" points="348.62,-214.34 358.96,-212.03 349.44,-207.39 348.62,-214.34"/>
</g>
<!-- Node14 -->
<g id="node14" class="node">
<title>Node14</title>
<g id="a_node14"><a xlink:href="../../da/d79/class_tutorial_progression.html#acce3a1e2e8707530d3da7eec0be18c49" target="_top" xlink:title="Called by the mausoleum script when the minigame is failed">
<polygon fill="white" stroke="black" points="0,-133 0,-163 153,-163 153,-133 0,-133"/>
<text text-anchor="start" x="8" y="-151" font-family="Helvetica,sans-Serif" font-size="10.00">TutorialProgression.Mausoleum</text>
<text text-anchor="middle" x="76.5" y="-140" font-family="Helvetica,sans-Serif" font-size="10.00">FailureCall</text>
</a>
</g>
</g>
<!-- Node12&#45;&gt;Node14 -->
<g id="edge21" class="edge">
<title>Node12&#45;&gt;Node14</title>
<path fill="none" stroke="midnightblue" d="M373.98,-205.2C368.58,-202.36 363.41,-198.99 359,-195 333.63,-172.07 352.3,-144.64 323,-127 257.22,-87.39 162.99,-113.65 112.54,-132.88"/>
<polygon fill="midnightblue" stroke="midnightblue" points="372.68,-208.45 383.22,-209.49 375.62,-202.11 372.68,-208.45"/>
</g>
<!-- Node15 -->
<g id="node15" class="node">
<title>Node15</title>
<g id="a_node15"><a xlink:href="../../d5/db2/class_guard_caught_interaction.html#aeee5570bf6a886ac861f4c36b1f0ee7e" target="_top" xlink:title="Enable&#39;s the guard&#39;s bribe dialogue and begins bribing sequence.">
<polygon fill="white" stroke="black" points="5,-33 5,-63 148,-63 148,-33 5,-33"/>
<text text-anchor="start" x="13" y="-51" font-family="Helvetica,sans-Serif" font-size="10.00">GuardCaughtInteraction.Start</text>
<text text-anchor="middle" x="76.5" y="-40" font-family="Helvetica,sans-Serif" font-size="10.00">Bribe</text>
</a>
</g>
</g>
<!-- Node12&#45;&gt;Node15 -->
<g id="edge27" class="edge">
<title>Node12&#45;&gt;Node15</title>
<path fill="none" stroke="midnightblue" d="M371.86,-204.73C367.15,-202.01 362.73,-198.8 359,-195 327.93,-163.39 356.64,-130.86 323,-102 274.72,-60.59 201.84,-48.83 148.02,-46.38"/>
<polygon fill="midnightblue" stroke="midnightblue" points="370.66,-208.05 381.17,-209.38 373.78,-201.79 370.66,-208.05"/>
</g>
<!-- Node16 -->
<g id="node16" class="node">
<title>Node16</title>
<g id="a_node16"><a xlink:href="../../d7/d75/class_u_i_manager.html#a7501fe0175b47b91c8a3bb8d9e3abe40" target="_top" xlink:title="Switches dialogue&#39;s current state.">
<polygon fill="white" stroke="black" points="190,-228.5 190,-247.5 322,-247.5 322,-228.5 190,-228.5"/>
<text text-anchor="middle" x="256" y="-235.5" font-family="Helvetica,sans-Serif" font-size="10.00">UIManager.DialogueToggle</text>
</a>
</g>
</g>
<!-- Node12&#45;&gt;Node16 -->
<g id="edge20" class="edge">
<title>Node12&#45;&gt;Node16</title>
<path fill="none" stroke="midnightblue" d="M348.97,-227.15C340.02,-228.2 330.88,-229.28 322,-230.33"/>
<polygon fill="midnightblue" stroke="midnightblue" points="349.44,-230.61 358.96,-225.97 348.62,-223.66 349.44,-230.61"/>
</g>
<!-- Node13&#45;&gt;Node4 -->
<g id="edge14" class="edge">
<title>Node13&#45;&gt;Node4</title>
<path fill="none" stroke="midnightblue" d="M194.31,-214.69C192.44,-216.01 190.66,-217.44 189,-219 154.27,-251.63 187.28,-286.89 153,-320 149.44,-323.44 145.39,-326.39 141.05,-328.91"/>
<polygon fill="midnightblue" stroke="midnightblue" points="196.13,-217.68 203.02,-209.64 192.62,-211.63 196.13,-217.68"/>
</g>
<!-- Node13&#45;&gt;Node6 -->
<g id="edge15" class="edge">
<title>Node13&#45;&gt;Node6</title>
<path fill="none" stroke="midnightblue" d="M197.65,-213.73C194.62,-215.3 191.71,-217.05 189,-219 166.17,-235.4 175.6,-254.29 153,-271 148.35,-274.43 143.2,-277.39 137.83,-279.92"/>
<polygon fill="midnightblue" stroke="midnightblue" points="199.33,-216.82 207.02,-209.54 196.47,-210.43 199.33,-216.82"/>
</g>
<!-- Node13&#45;&gt;Node7 -->
<g id="edge16" class="edge">
<title>Node13&#45;&gt;Node7</title>
<path fill="none" stroke="midnightblue" d="M178.6,-198.71C166.77,-198.51 154.63,-198.3 143.06,-198.11"/>
<polygon fill="midnightblue" stroke="midnightblue" points="178.85,-202.21 188.91,-198.88 178.97,-195.21 178.85,-202.21"/>
</g>
<!-- Node13&#45;&gt;Node8 -->
<g id="edge17" class="edge">
<title>Node13&#45;&gt;Node8</title>
<path fill="none" stroke="midnightblue" d="M208.33,-212.09C186.04,-217.87 159.14,-224.84 135.55,-230.96"/>
<polygon fill="midnightblue" stroke="midnightblue" points="209.42,-215.43 218.22,-209.53 207.66,-208.65 209.42,-215.43"/>
</g>
<!-- Node13&#45;&gt;Node9 -->
<g id="edge18" class="edge">
<title>Node13&#45;&gt;Node9</title>
<path fill="none" stroke="midnightblue" d="M193.46,-214.96C191.88,-216.2 190.39,-217.55 189,-219 141.62,-268.55 199.7,-318.8 153,-369 149.81,-372.42 146.14,-375.36 142.17,-377.88"/>
<polygon fill="midnightblue" stroke="midnightblue" points="195.41,-217.87 201.96,-209.54 191.64,-211.96 195.41,-217.87"/>
</g>
<!-- Node13&#45;&gt;Node14 -->
<g id="edge13" class="edge">
<title>Node13&#45;&gt;Node14</title>
<path fill="none" stroke="midnightblue" d="M212.83,-187.65C187.71,-180.29 155.63,-170.89 129.02,-163.09"/>
<polygon fill="midnightblue" stroke="midnightblue" points="211.86,-191.01 222.44,-190.46 213.83,-184.29 211.86,-191.01"/>
</g>
<!-- Node13&#45;&gt;Node15 -->
<g id="edge19" class="edge">
<title>Node13&#45;&gt;Node15</title>
<path fill="none" stroke="midnightblue" d="M235.97,-183.71C201.4,-154.1 128.73,-91.87 95.18,-63.14"/>
<polygon fill="midnightblue" stroke="midnightblue" points="234.02,-186.65 243.9,-190.49 238.58,-181.33 234.02,-186.65"/>
</g>
<!-- Node17&#45;&gt;Node4 -->
<g id="edge30" class="edge">
<title>Node17&#45;&gt;Node4</title>
<path fill="none" stroke="midnightblue" d="M197.06,-323.79C179.86,-326.7 160.89,-329.91 143.23,-332.89"/>
<polygon fill="midnightblue" stroke="midnightblue" points="197.69,-327.24 206.97,-322.12 196.52,-320.33 197.69,-327.24"/>
</g>
<!-- Node17&#45;&gt;Node6 -->
<g id="edge31" class="edge">
<title>Node17&#45;&gt;Node6</title>
<path fill="none" stroke="midnightblue" d="M196.58,-307.75C179.51,-305.92 160.73,-303.91 143.23,-302.04"/>
<polygon fill="midnightblue" stroke="midnightblue" points="196.65,-311.27 206.97,-308.86 197.4,-304.31 196.65,-311.27"/>
</g>
<!-- Node17&#45;&gt;Node7 -->
<g id="edge32" class="edge">
<title>Node17&#45;&gt;Node7</title>
<path fill="none" stroke="midnightblue" d="M235.15,-297.38C221.9,-286.17 204.2,-270.93 189,-257 172.55,-241.92 172.08,-233.58 153,-222 146.74,-218.2 139.84,-214.91 132.83,-212.07"/>
<polygon fill="midnightblue" stroke="midnightblue" points="233.23,-300.35 243.13,-304.11 237.74,-294.99 233.23,-300.35"/>
</g>
<!-- Node17&#45;&gt;Node8 -->
<g id="edge33" class="edge">
<title>Node17&#45;&gt;Node8</title>
<path fill="none" stroke="midnightblue" d="M224.42,-300.36C204.29,-291.57 177.27,-280.12 153,-271 143.95,-267.6 134.21,-264.19 124.82,-261.03"/>
<polygon fill="midnightblue" stroke="midnightblue" points="223.14,-303.62 233.71,-304.44 225.96,-297.21 223.14,-303.62"/>
</g>
<!-- Node17&#45;&gt;Node9 -->
<g id="edge34" class="edge">
<title>Node17&#45;&gt;Node9</title>
<path fill="none" stroke="midnightblue" d="M230.69,-328.78C210.42,-340.7 180.5,-357.34 153,-369 145.53,-372.17 137.49,-375.15 129.55,-377.87"/>
<polygon fill="midnightblue" stroke="midnightblue" points="232.74,-331.63 239.55,-323.51 229.17,-325.62 232.74,-331.63"/>
</g>
<!-- Node17&#45;&gt;Node14 -->
<g id="edge29" class="edge">
<title>Node17&#45;&gt;Node14</title>
<path fill="none" stroke="midnightblue" d="M232.27,-298.5C218.33,-288.07 200.92,-273.29 189,-257 165.02,-224.22 182.92,-200.47 153,-173 148.83,-169.17 144.06,-165.93 138.99,-163.18"/>
<polygon fill="midnightblue" stroke="midnightblue" points="230.27,-301.38 240.43,-304.4 234.38,-295.71 230.27,-301.38"/>
</g>
<!-- Node18&#45;&gt;Node15 -->
<g id="edge36" class="edge">
<title>Node18&#45;&gt;Node15</title>
<path fill="none" stroke="midnightblue" d="M200.18,-21.74C183.64,-25.28 165.25,-29.21 147.84,-32.94"/>
<polygon fill="midnightblue" stroke="midnightblue" points="201.16,-25.1 210.21,-19.59 199.7,-18.26 201.16,-25.1"/>
</g>
</g>
</svg>
