<?xml version="1.0" encoding="UTF-8" standalone="no"?>
<!DOCTYPE svg PUBLIC "-//W3C//DTD SVG 1.1//EN"
 "http://www.w3.org/Graphics/SVG/1.1/DTD/svg11.dtd">
<!-- Generated by graphviz version 3.0.0 (20220226.1711)
 -->
<!-- Title: Script.GetRandomLine Pages: 1 -->
<svg width="305pt" height="66pt"
 viewBox="0.00 0.00 305.00 66.00" xmlns="http://www.w3.org/2000/svg" xmlns:xlink="http://www.w3.org/1999/xlink">
<g id="graph0" class="graph" transform="scale(1 1) rotate(0) translate(4 62)">
<title>Script.GetRandomLine</title>
<polygon fill="white" stroke="transparent" points="-4,4 -4,-62 301,-62 301,4 -4,4"/>
<!-- Node1 -->
<g id="node1" class="node">
<title>Node1</title>
<g id="a_node1"><a xlink:title="when called, this function will randomly choose a line from the dialogue script and return the line.">
<polygon fill="#bfbfbf" stroke="black" points="182,-19.5 182,-38.5 297,-38.5 297,-19.5 182,-19.5"/>
<text text-anchor="middle" x="239.5" y="-26.5" font-family="Helvetica,sans-Serif" font-size="10.00">Script.GetRandomLine</text>
</a>
</g>
</g>
<!-- Node2 -->
<g id="node2" class="node">
<title>Node2</title>
<g id="a_node2"><a xlink:href="../../d0/d9d/class_dialogue.html#a6a2bdf53e8d842066e03132b5bf978f4" target="_top" xlink:title="Will set a random line to the current line displayed">
<polygon fill="white" stroke="black" points="18.5,-38.5 18.5,-57.5 127.5,-57.5 127.5,-38.5 18.5,-38.5"/>
<text text-anchor="middle" x="73" y="-45.5" font-family="Helvetica,sans-Serif" font-size="10.00">Dialogue.GetRandom</text>
</a>
</g>
</g>
<!-- Node1&#45;&gt;Node2 -->
<g id="edge1" class="edge">
<title>Node1&#45;&gt;Node2</title>
<path fill="none" stroke="midnightblue" d="M171.85,-36.7C157.15,-38.4 141.77,-40.17 127.67,-41.8"/>
<polygon fill="midnightblue" stroke="midnightblue" points="172.36,-40.16 181.89,-35.54 171.55,-33.21 172.36,-40.16"/>
</g>
<!-- Node3 -->
<g id="node3" class="node">
<title>Node3</title>
<g id="a_node3"><a xlink:href="../../dd/d62/class_dialogue_test.html#afac150457a9cb48221a8095a34450ac7" target="_top" xlink:title=" ">
<polygon fill="white" stroke="black" points="0,-0.5 0,-19.5 146,-19.5 146,-0.5 0,-0.5"/>
<text text-anchor="middle" x="73" y="-7.5" font-family="Helvetica,sans-Serif" font-size="10.00">DialogueTest.GetRandomLine</text>
</a>
</g>
</g>
<!-- Node1&#45;&gt;Node3 -->
<g id="edge2" class="edge">
<title>Node1&#45;&gt;Node3</title>
<path fill="none" stroke="midnightblue" d="M171.73,-21.29C163.29,-20.31 154.63,-19.31 146.11,-18.33"/>
<polygon fill="midnightblue" stroke="midnightblue" points="171.55,-24.79 181.89,-22.46 172.36,-17.84 171.55,-24.79"/>
</g>
</g>
</svg>
