<?xml version="1.0" encoding="UTF-8" standalone="no"?>
<!DOCTYPE svg PUBLIC "-//W3C//DTD SVG 1.1//EN"
 "http://www.w3.org/Graphics/SVG/1.1/DTD/svg11.dtd">
<!-- Generated by graphviz version 3.0.0 (20220226.1711)
 -->
<!-- Title: Script.GetNumLines Pages: 1 -->
<svg width="433pt" height="284pt"
 viewBox="0.00 0.00 433.00 284.00" xmlns="http://www.w3.org/2000/svg" xmlns:xlink="http://www.w3.org/1999/xlink">
<g id="graph0" class="graph" transform="scale(1 1) rotate(0) translate(4 280)">
<title>Script.GetNumLines</title>
<polygon fill="white" stroke="transparent" points="-4,4 -4,-280 429,-280 429,4 -4,4"/>
<!-- Node1 -->
<g id="node1" class="node">
<title>Node1</title>
<g id="a_node1"><a xlink:title="Getter for the total number of lines in the list of lines">
<polygon fill="#bfbfbf" stroke="black" points="321,-128 321,-147 425,-147 425,-128 321,-128"/>
<text text-anchor="middle" x="373" y="-135" font-family="Helvetica,sans-Serif" font-size="10.00">Script.GetNumLines</text>
</a>
</g>
</g>
<!-- Node2 -->
<g id="node2" class="node">
<title>Node2</title>
<g id="a_node2"><a xlink:href="../../d0/d9d/class_dialogue.html#ae8c95bee410a90a34b078461979ad03e" target="_top" xlink:title="Getter to check if at the end of the dialogue">
<polygon fill="white" stroke="black" points="186,-166 186,-185 268,-185 268,-166 186,-166"/>
<text text-anchor="middle" x="227" y="-173" font-family="Helvetica,sans-Serif" font-size="10.00">Dialogue.IsEnd</text>
</a>
</g>
</g>
<!-- Node1&#45;&gt;Node2 -->
<g id="edge1" class="edge">
<title>Node1&#45;&gt;Node2</title>
<path fill="none" stroke="midnightblue" d="M325.83,-149.68C305.84,-154.96 282.78,-161.04 264.08,-165.98"/>
<polygon fill="midnightblue" stroke="midnightblue" points="326.89,-153.02 335.66,-147.09 325.1,-146.26 326.89,-153.02"/>
</g>
<!-- Node3 -->
<g id="node3" class="node">
<title>Node3</title>
<g id="a_node3"><a xlink:href="../../d0/d9d/class_dialogue.html#a1c7cb3b4f4ff488cbf3d069ae1a13124" target="_top" xlink:title="If not on last line update to the next line in the script">
<polygon fill="white" stroke="black" points="179.5,-128 179.5,-147 274.5,-147 274.5,-128 179.5,-128"/>
<text text-anchor="middle" x="227" y="-135" font-family="Helvetica,sans-Serif" font-size="10.00">Dialogue.NextLine</text>
</a>
</g>
</g>
<!-- Node1&#45;&gt;Node3 -->
<g id="edge2" class="edge">
<title>Node1&#45;&gt;Node3</title>
<path fill="none" stroke="midnightblue" d="M310.8,-137.5C298.71,-137.5 286.2,-137.5 274.69,-137.5"/>
<polygon fill="midnightblue" stroke="midnightblue" points="310.83,-141 320.83,-137.5 310.83,-134 310.83,-141"/>
</g>
<!-- Node10 -->
<g id="node10" class="node">
<title>Node10</title>
<g id="a_node10"><a xlink:href="../../d0/d9d/class_dialogue.html#a858ac0f41e43509987b5800ac5e7d39a" target="_top" xlink:title=" ">
<polygon fill="white" stroke="black" points="169,-90 169,-109 285,-109 285,-90 169,-90"/>
<text text-anchor="middle" x="227" y="-97" font-family="Helvetica,sans-Serif" font-size="10.00">Dialogue.NextLineVars</text>
</a>
</g>
</g>
<!-- Node1&#45;&gt;Node10 -->
<g id="edge9" class="edge">
<title>Node1&#45;&gt;Node10</title>
<path fill="none" stroke="midnightblue" d="M325.83,-125.32C305.84,-120.04 282.78,-113.96 264.08,-109.02"/>
<polygon fill="midnightblue" stroke="midnightblue" points="325.1,-128.74 335.66,-127.91 326.89,-121.98 325.1,-128.74"/>
</g>
<!-- Node4 -->
<g id="node4" class="node">
<title>Node4</title>
<g id="a_node4"><a xlink:href="../../da/d79/class_tutorial_progression.html#a231523ead6e1a3d466808083b6a07e13" target="_top" xlink:title="Fourth interaction for guard with stealth bushes.">
<polygon fill="white" stroke="black" points="0,-245.5 0,-275.5 133,-275.5 133,-245.5 0,-245.5"/>
<text text-anchor="start" x="8" y="-263.5" font-family="Helvetica,sans-Serif" font-size="10.00">TutorialProgression.Mentor</text>
<text text-anchor="middle" x="66.5" y="-252.5" font-family="Helvetica,sans-Serif" font-size="10.00">BushInteraction</text>
</a>
</g>
</g>
<!-- Node3&#45;&gt;Node4 -->
<g id="edge3" class="edge">
<title>Node3&#45;&gt;Node4</title>
<path fill="none" stroke="midnightblue" d="M174.55,-152.19C172.59,-153.5 170.73,-154.94 169,-156.5 140.07,-182.64 161.54,-209.94 133,-236.5 129.28,-239.97 125.01,-242.94 120.48,-245.49"/>
<polygon fill="midnightblue" stroke="midnightblue" points="176.6,-155.05 183.63,-147.13 173.19,-148.93 176.6,-155.05"/>
</g>
<!-- Node5 -->
<g id="node5" class="node">
<title>Node5</title>
<g id="a_node5"><a xlink:href="../../da/d79/class_tutorial_progression.html#ac391381b4c1ccf2e8d774ba807e41fd2" target="_top" xlink:title="Final interaction after failing minigame.">
<polygon fill="white" stroke="black" points="0,-196.5 0,-226.5 133,-226.5 133,-196.5 0,-196.5"/>
<text text-anchor="start" x="8" y="-214.5" font-family="Helvetica,sans-Serif" font-size="10.00">TutorialProgression.Mentor</text>
<text text-anchor="middle" x="66.5" y="-203.5" font-family="Helvetica,sans-Serif" font-size="10.00">FailureInteraction</text>
</a>
</g>
</g>
<!-- Node3&#45;&gt;Node5 -->
<g id="edge4" class="edge">
<title>Node3&#45;&gt;Node5</title>
<path fill="none" stroke="midnightblue" d="M180.64,-150.79C176.61,-152.51 172.67,-154.41 169,-156.5 150.64,-166.92 151.21,-176.81 133,-187.5 127.36,-190.81 121.19,-193.79 114.95,-196.44"/>
<polygon fill="midnightblue" stroke="midnightblue" points="182.07,-153.99 190.11,-147.09 179.52,-147.47 182.07,-153.99"/>
</g>
<!-- Node6 -->
<g id="node6" class="node">
<title>Node6</title>
<g id="a_node6"><a xlink:href="../../da/d79/class_tutorial_progression.html#a374a6b4061ec89d92e678f0ce40192e2" target="_top" xlink:title="Second interaction before the first guard obstacle.">
<polygon fill="white" stroke="black" points="0,-147.5 0,-177.5 133,-177.5 133,-147.5 0,-147.5"/>
<text text-anchor="start" x="8" y="-165.5" font-family="Helvetica,sans-Serif" font-size="10.00">TutorialProgression.Mentor</text>
<text text-anchor="middle" x="66.5" y="-154.5" font-family="Helvetica,sans-Serif" font-size="10.00">GuardInteract</text>
</a>
</g>
</g>
<!-- Node3&#45;&gt;Node6 -->
<g id="edge5" class="edge">
<title>Node3&#45;&gt;Node6</title>
<path fill="none" stroke="midnightblue" d="M169.26,-146.45C157.58,-148.29 145.2,-150.24 133.24,-152.13"/>
<polygon fill="midnightblue" stroke="midnightblue" points="169.97,-149.88 179.3,-144.87 168.88,-142.97 169.97,-149.88"/>
</g>
<!-- Node7 -->
<g id="node7" class="node">
<title>Node7</title>
<g id="a_node7"><a xlink:href="../../da/d79/class_tutorial_progression.html#a1488822e0d8c18ac14493f4473b9a62b" target="_top" xlink:title="First interaction function for first set of graves.">
<polygon fill="white" stroke="black" points="0,-98.5 0,-128.5 133,-128.5 133,-98.5 0,-98.5"/>
<text text-anchor="start" x="8" y="-116.5" font-family="Helvetica,sans-Serif" font-size="10.00">TutorialProgression.Mentor</text>
<text text-anchor="middle" x="66.5" y="-105.5" font-family="Helvetica,sans-Serif" font-size="10.00">InitialInteraction</text>
</a>
</g>
</g>
<!-- Node3&#45;&gt;Node7 -->
<g id="edge6" class="edge">
<title>Node3&#45;&gt;Node7</title>
<path fill="none" stroke="midnightblue" d="M169.26,-128.91C157.58,-127.14 145.2,-125.27 133.24,-123.45"/>
<polygon fill="midnightblue" stroke="midnightblue" points="168.89,-132.39 179.3,-130.43 169.94,-125.47 168.89,-132.39"/>
</g>
<!-- Node8 -->
<g id="node8" class="node">
<title>Node8</title>
<g id="a_node8"><a xlink:href="../../da/d79/class_tutorial_progression.html#aba3dd024b693b5ce4fdff69a7efc6762" target="_top" xlink:title="Fifth interaction before mausoleum.">
<polygon fill="white" stroke="black" points="0,-49.5 0,-79.5 133,-79.5 133,-49.5 0,-49.5"/>
<text text-anchor="start" x="8" y="-67.5" font-family="Helvetica,sans-Serif" font-size="10.00">TutorialProgression.Mentor</text>
<text text-anchor="middle" x="66.5" y="-56.5" font-family="Helvetica,sans-Serif" font-size="10.00">MausoleumInteraction</text>
</a>
</g>
</g>
<!-- Node3&#45;&gt;Node8 -->
<g id="edge7" class="edge">
<title>Node3&#45;&gt;Node8</title>
<path fill="none" stroke="midnightblue" d="M181.39,-124.37C177.12,-122.59 172.92,-120.64 169,-118.5 150.97,-108.65 150.82,-99.73 133,-89.5 126.67,-85.86 119.7,-82.56 112.76,-79.63"/>
<polygon fill="midnightblue" stroke="midnightblue" points="180.22,-127.66 190.81,-127.96 182.71,-121.12 180.22,-127.66"/>
</g>
<!-- Node9 -->
<g id="node9" class="node">
<title>Node9</title>
<g id="a_node9"><a xlink:href="../../da/d79/class_tutorial_progression.html#a5a5b857b69b0985bfe68623767cc0701" target="_top" xlink:title="Third interaction for graves with traps attached.">
<polygon fill="white" stroke="black" points="0,-0.5 0,-30.5 133,-30.5 133,-0.5 0,-0.5"/>
<text text-anchor="start" x="8" y="-18.5" font-family="Helvetica,sans-Serif" font-size="10.00">TutorialProgression.Mentor</text>
<text text-anchor="middle" x="66.5" y="-7.5" font-family="Helvetica,sans-Serif" font-size="10.00">TrapsInteract</text>
</a>
</g>
</g>
<!-- Node3&#45;&gt;Node9 -->
<g id="edge8" class="edge">
<title>Node3&#45;&gt;Node9</title>
<path fill="none" stroke="midnightblue" d="M175.14,-123.17C172.97,-121.76 170.9,-120.2 169,-118.5 140.55,-93.04 160.9,-66.57 133,-40.5 128.91,-36.68 124.17,-33.42 119.16,-30.65"/>
<polygon fill="midnightblue" stroke="midnightblue" points="173.5,-126.26 183.96,-127.96 176.84,-120.11 173.5,-126.26"/>
</g>
</g>
</svg>
