<?xml version="1.0" encoding="UTF-8" standalone="no"?>
<!DOCTYPE svg PUBLIC "-//W3C//DTD SVG 1.1//EN"
 "http://www.w3.org/Graphics/SVG/1.1/DTD/svg11.dtd">
<!-- Generated by graphviz version 3.0.0 (20220226.1711)
 -->
<!-- Title: Guard.LineOfSight Pages: 1 -->
<svg width="379pt" height="66pt"
 viewBox="0.00 0.00 379.00 66.00" xmlns="http://www.w3.org/2000/svg" xmlns:xlink="http://www.w3.org/1999/xlink">
<g id="graph0" class="graph" transform="scale(1 1) rotate(0) translate(4 62)">
<title>Guard.LineOfSight</title>
<polygon fill="white" stroke="transparent" points="-4,4 -4,-62 375,-62 375,4 -4,4"/>
<!-- Node1 -->
<g id="node1" class="node">
<title>Node1</title>
<g id="a_node1"><a xlink:title=" ">
<polygon fill="#bfbfbf" stroke="black" points="275,-19.5 275,-38.5 371,-38.5 371,-19.5 275,-19.5"/>
<text text-anchor="middle" x="323" y="-26.5" font-family="Helvetica,sans-Serif" font-size="10.00">Guard.LineOfSight</text>
</a>
</g>
</g>
<!-- Node2 -->
<g id="node2" class="node">
<title>Node2</title>
<g id="a_node2"><a xlink:href="../../d3/d01/class_guard.html#ab1be27cd13514205034fe9f0148f9095" target="_top" xlink:title="Guard will move along route from checkpoint to checkpoint. ALERT: State changes to alert upon having ...">
<polygon fill="white" stroke="black" points="128.5,-38.5 128.5,-57.5 223.5,-57.5 223.5,-38.5 128.5,-38.5"/>
<text text-anchor="middle" x="176" y="-45.5" font-family="Helvetica,sans-Serif" font-size="10.00">Guard.PatrolState</text>
</a>
</g>
</g>
<!-- Node1&#45;&gt;Node2 -->
<g id="edge1" class="edge">
<title>Node1&#45;&gt;Node2</title>
<path fill="none" stroke="midnightblue" d="M264.73,-36.5C251.18,-38.28 236.87,-40.15 223.84,-41.86"/>
<polygon fill="midnightblue" stroke="midnightblue" points="265.46,-39.94 274.92,-35.17 264.55,-33 265.46,-39.94"/>
</g>
<!-- Node4 -->
<g id="node4" class="node">
<title>Node4</title>
<g id="a_node4"><a xlink:href="../../d9/d96/class_tutorial_guard.html#ab272cab873799244d5dbd6f28f207d0d" target="_top" xlink:title="Guard will move along route from checkpoint to checkpoint. ALERT: State changes to alert upon having ...">
<polygon fill="white" stroke="black" points="113,-0.5 113,-19.5 239,-19.5 239,-0.5 113,-0.5"/>
<text text-anchor="middle" x="176" y="-7.5" font-family="Helvetica,sans-Serif" font-size="10.00">TutorialGuard.PatrolState</text>
</a>
</g>
</g>
<!-- Node1&#45;&gt;Node4 -->
<g id="edge3" class="edge">
<title>Node1&#45;&gt;Node4</title>
<path fill="none" stroke="midnightblue" d="M264.82,-21.51C256.39,-20.4 247.67,-19.26 239.15,-18.14"/>
<polygon fill="midnightblue" stroke="midnightblue" points="264.55,-25 274.92,-22.83 265.46,-18.06 264.55,-25"/>
</g>
<!-- Node3 -->
<g id="node3" class="node">
<title>Node3</title>
<g id="a_node3"><a xlink:href="../../d3/d01/class_guard.html#a97955653554224fec8c1888041c05ba6" target="_top" xlink:title=" ">
<polygon fill="white" stroke="black" points="0,-38.5 0,-57.5 77,-57.5 77,-38.5 0,-38.5"/>
<text text-anchor="middle" x="38.5" y="-45.5" font-family="Helvetica,sans-Serif" font-size="10.00">Guard.Update</text>
</a>
</g>
</g>
<!-- Node2&#45;&gt;Node3 -->
<g id="edge2" class="edge">
<title>Node2&#45;&gt;Node3</title>
<path fill="none" stroke="midnightblue" d="M118,-48C104.24,-48 89.87,-48 77.25,-48"/>
<polygon fill="midnightblue" stroke="midnightblue" points="118.37,-51.5 128.37,-48 118.37,-44.5 118.37,-51.5"/>
</g>
</g>
</svg>
