<?xml version="1.0" encoding="UTF-8" standalone="no"?>
<!DOCTYPE svg PUBLIC "-//W3C//DTD SVG 1.1//EN"
 "http://www.w3.org/Graphics/SVG/1.1/DTD/svg11.dtd">
<!-- Generated by graphviz version 3.0.0 (20220226.1711)
 -->
<!-- Title: MapCommands.TeleportPlayer Pages: 1 -->
<svg width="464pt" height="28pt"
 viewBox="0.00 0.00 464.00 28.00" xmlns="http://www.w3.org/2000/svg" xmlns:xlink="http://www.w3.org/1999/xlink">
<g id="graph0" class="graph" transform="scale(1 1) rotate(0) translate(4 24)">
<title>MapCommands.TeleportPlayer</title>
<polygon fill="white" stroke="transparent" points="-4,4 -4,-24 460,-24 460,4 -4,4"/>
<!-- Node1 -->
<g id="node1" class="node">
<title>Node1</title>
<g id="a_node1"><a xlink:title="Move player to passed in tile. Fades screen out and back in.">
<polygon fill="#bfbfbf" stroke="black" points="306,-0.5 306,-19.5 456,-19.5 456,-0.5 306,-0.5"/>
<text text-anchor="middle" x="381" y="-7.5" font-family="Helvetica,sans-Serif" font-size="10.00">MapCommands.TeleportPlayer</text>
</a>
</g>
</g>
<!-- Node2 -->
<g id="node2" class="node">
<title>Node2</title>
<g id="a_node2"><a xlink:href="../../d9/d96/class_tutorial_guard.html#aa5842edec90269073a985d2af9200222" target="_top" xlink:title="Calls the caught functionality if the guard manages to find the player.">
<polygon fill="white" stroke="black" points="162,-0.5 162,-19.5 270,-19.5 270,-0.5 162,-0.5"/>
<text text-anchor="middle" x="216" y="-7.5" font-family="Helvetica,sans-Serif" font-size="10.00">TutorialGuard.Caught</text>
</a>
</g>
</g>
<!-- Node1&#45;&gt;Node2 -->
<g id="edge1" class="edge">
<title>Node1&#45;&gt;Node2</title>
<path fill="none" stroke="midnightblue" d="M295.57,-10C286.97,-10 278.42,-10 270.3,-10"/>
<polygon fill="midnightblue" stroke="midnightblue" points="295.65,-13.5 305.65,-10 295.65,-6.5 295.65,-13.5"/>
</g>
<!-- Node3 -->
<g id="node3" class="node">
<title>Node3</title>
<g id="a_node3"><a xlink:href="../../d9/d96/class_tutorial_guard.html#ab272cab873799244d5dbd6f28f207d0d" target="_top" xlink:title="Guard will move along route from checkpoint to checkpoint. ALERT: State changes to alert upon having ...">
<polygon fill="white" stroke="black" points="0,-0.5 0,-19.5 126,-19.5 126,-0.5 0,-0.5"/>
<text text-anchor="middle" x="63" y="-7.5" font-family="Helvetica,sans-Serif" font-size="10.00">TutorialGuard.PatrolState</text>
</a>
</g>
</g>
<!-- Node2&#45;&gt;Node3 -->
<g id="edge2" class="edge">
<title>Node2&#45;&gt;Node3</title>
<path fill="none" stroke="midnightblue" d="M151.59,-10C143.14,-10 134.48,-10 126.05,-10"/>
<polygon fill="midnightblue" stroke="midnightblue" points="151.76,-13.5 161.76,-10 151.76,-6.5 151.76,-13.5"/>
</g>
</g>
</svg>
