<?xml version="1.0" encoding="UTF-8" standalone="no"?>
<!DOCTYPE svg PUBLIC "-//W3C//DTD SVG 1.1//EN"
 "http://www.w3.org/Graphics/SVG/1.1/DTD/svg11.dtd">
<!-- Generated by graphviz version 3.0.0 (20220226.1711)
 -->
<!-- Title: MapGeneration.SafeTileCheck Pages: 1 -->
<svg width="629pt" height="104pt"
 viewBox="0.00 0.00 629.00 104.00" xmlns="http://www.w3.org/2000/svg" xmlns:xlink="http://www.w3.org/1999/xlink">
<g id="graph0" class="graph" transform="scale(1 1) rotate(0) translate(4 100)">
<title>MapGeneration.SafeTileCheck</title>
<polygon fill="white" stroke="transparent" points="-4,4 -4,-100 625,-100 625,4 -4,4"/>
<!-- Node1 -->
<g id="node1" class="node">
<title>Node1</title>
<g id="a_node1"><a xlink:title="Checks if the passed in tile is within the graveyard bounds.">
<polygon fill="#bfbfbf" stroke="black" points="473,-38.5 473,-57.5 621,-57.5 621,-38.5 473,-38.5"/>
<text text-anchor="middle" x="547" y="-45.5" font-family="Helvetica,sans-Serif" font-size="10.00">MapGeneration.SafeTileCheck</text>
</a>
</g>
</g>
<!-- Node2 -->
<g id="node2" class="node">
<title>Node2</title>
<g id="a_node2"><a xlink:href="../../db/daa/class_stealth_manager.html#a447789725fb45b163ddf2f8eb5e3fae4" target="_top" xlink:title="Makes a noise centered on the tile at the passed in position.">
<polygon fill="white" stroke="black" points="280,-76.5 280,-95.5 417,-95.5 417,-76.5 280,-76.5"/>
<text text-anchor="middle" x="348.5" y="-83.5" font-family="Helvetica,sans-Serif" font-size="10.00">StealthManager.MakeNoise</text>
</a>
</g>
</g>
<!-- Node1&#45;&gt;Node2 -->
<g id="edge1" class="edge">
<title>Node1&#45;&gt;Node2</title>
<path fill="none" stroke="midnightblue" d="M486.59,-59.49C458.55,-64.91 425.48,-71.31 398.85,-76.46"/>
<polygon fill="midnightblue" stroke="midnightblue" points="487.51,-62.88 496.67,-57.54 486.19,-56 487.51,-62.88"/>
</g>
<!-- Node5 -->
<g id="node5" class="node">
<title>Node5</title>
<g id="a_node5"><a xlink:href="../../d1/d3d/class_map_generation.html#a7da48330c83c3195122569af4502afce" target="_top" xlink:title="Returns a 2d array of bools the same size as the map layout indicating if each tile is empty and adja...">
<polygon fill="white" stroke="black" points="263.5,-38.5 263.5,-57.5 433.5,-57.5 433.5,-38.5 263.5,-38.5"/>
<text text-anchor="middle" x="348.5" y="-45.5" font-family="Helvetica,sans-Serif" font-size="10.00">MapGeneration.PathAdjacencyMap</text>
</a>
</g>
</g>
<!-- Node1&#45;&gt;Node5 -->
<g id="edge4" class="edge">
<title>Node1&#45;&gt;Node5</title>
<path fill="none" stroke="midnightblue" d="M462.55,-48C452.98,-48 443.23,-48 433.66,-48"/>
<polygon fill="midnightblue" stroke="midnightblue" points="462.83,-51.5 472.83,-48 462.83,-44.5 462.83,-51.5"/>
</g>
<!-- Node6 -->
<g id="node6" class="node">
<title>Node6</title>
<g id="a_node6"><a xlink:href="../../df/d5c/class_map_commands.html#ad7d8b007ad826c613366c6ff85c2a456" target="_top" xlink:title="Decides the tier of grave to be spawned based on map gen settings.">
<polygon fill="white" stroke="black" points="260,-0.5 260,-19.5 437,-19.5 437,-0.5 260,-0.5"/>
<text text-anchor="middle" x="348.5" y="-7.5" font-family="Helvetica,sans-Serif" font-size="10.00">MapCommands.RandomizeGraveTier</text>
</a>
</g>
</g>
<!-- Node1&#45;&gt;Node6 -->
<g id="edge5" class="edge">
<title>Node1&#45;&gt;Node6</title>
<path fill="none" stroke="midnightblue" d="M486.59,-36.51C458.55,-31.09 425.48,-24.69 398.85,-19.54"/>
<polygon fill="midnightblue" stroke="midnightblue" points="486.19,-40 496.67,-38.46 487.51,-33.12 486.19,-40"/>
</g>
<!-- Node3 -->
<g id="node3" class="node">
<title>Node3</title>
<g id="a_node3"><a xlink:href="../../d8/d53/class_player.html#a013e6aded257fe4710a0403e52b7c4c0" target="_top" xlink:title="Makes a moderate noise at the player&#39;s current position with a short cooldown.">
<polygon fill="white" stroke="black" points="138,-76.5 138,-95.5 224,-95.5 224,-76.5 138,-76.5"/>
<text text-anchor="middle" x="181" y="-83.5" font-family="Helvetica,sans-Serif" font-size="10.00">Player.Footstep</text>
</a>
</g>
</g>
<!-- Node2&#45;&gt;Node3 -->
<g id="edge2" class="edge">
<title>Node2&#45;&gt;Node3</title>
<path fill="none" stroke="midnightblue" d="M269.52,-86C253.94,-86 238.13,-86 224.31,-86"/>
<polygon fill="midnightblue" stroke="midnightblue" points="269.71,-89.5 279.71,-86 269.71,-82.5 269.71,-89.5"/>
</g>
<!-- Node4 -->
<g id="node4" class="node">
<title>Node4</title>
<g id="a_node4"><a xlink:href="../../d8/d53/class_player.html#aa0458562e3da0655ecb39a0031114335" target="_top" xlink:title=" ">
<polygon fill="white" stroke="black" points="0,-76.5 0,-95.5 102,-95.5 102,-76.5 0,-76.5"/>
<text text-anchor="middle" x="51" y="-83.5" font-family="Helvetica,sans-Serif" font-size="10.00">Player.FixedUpdate</text>
</a>
</g>
</g>
<!-- Node3&#45;&gt;Node4 -->
<g id="edge3" class="edge">
<title>Node3&#45;&gt;Node4</title>
<path fill="none" stroke="midnightblue" d="M127.66,-86C119.26,-86 110.58,-86 102.23,-86"/>
<polygon fill="midnightblue" stroke="midnightblue" points="127.73,-89.5 137.73,-86 127.73,-82.5 127.73,-89.5"/>
</g>
</g>
</svg>
