<?xml version="1.0" encoding="UTF-8" standalone="no"?>
<!DOCTYPE svg PUBLIC "-//W3C//DTD SVG 1.1//EN"
 "http://www.w3.org/Graphics/SVG/1.1/DTD/svg11.dtd">
<!-- Generated by graphviz version 3.0.0 (20220226.1711)
 -->
<!-- Title: MapGeneration.EqualTiles Pages: 1 -->
<svg width="315pt" height="28pt"
 viewBox="0.00 0.00 315.00 28.00" xmlns="http://www.w3.org/2000/svg" xmlns:xlink="http://www.w3.org/1999/xlink">
<g id="graph0" class="graph" transform="scale(1 1) rotate(0) translate(4 24)">
<title>MapGeneration.EqualTiles</title>
<polygon fill="white" stroke="transparent" points="-4,4 -4,-24 311,-24 311,4 -4,4"/>
<!-- Node1 -->
<g id="node1" class="node">
<title>Node1</title>
<g id="a_node1"><a xlink:title="Checks if two tiles are the same tile.">
<polygon fill="#bfbfbf" stroke="black" points="0,-0.5 0,-19.5 131,-19.5 131,-0.5 0,-0.5"/>
<text text-anchor="middle" x="65.5" y="-7.5" font-family="Helvetica,sans-Serif" font-size="10.00">MapGeneration.EqualTiles</text>
</a>
</g>
</g>
<!-- Node2 -->
<g id="node2" class="node">
<title>Node2</title>
<g id="a_node2"><a xlink:href="../../d1/d3d/class_map_generation.html#aaaa02b180ff5dcbbfc8f88df4b312fcc" target="_top" xlink:title="Gets distance between two tiles on the map (gives x distance + z distance).">
<polygon fill="white" stroke="black" points="167,-0.5 167,-19.5 307,-19.5 307,-0.5 167,-0.5"/>
<text text-anchor="middle" x="237" y="-7.5" font-family="Helvetica,sans-Serif" font-size="10.00">MapGeneration.GetDistance</text>
</a>
</g>
</g>
<!-- Node1&#45;&gt;Node2 -->
<g id="edge1" class="edge">
<title>Node1&#45;&gt;Node2</title>
<path fill="none" stroke="midnightblue" d="M131.06,-10C139.47,-10 148.16,-10 156.77,-10"/>
<polygon fill="midnightblue" stroke="midnightblue" points="156.82,-13.5 166.82,-10 156.82,-6.5 156.82,-13.5"/>
</g>
</g>
</svg>
