<?xml version="1.0" encoding="UTF-8" standalone="no"?>
<!DOCTYPE svg PUBLIC "-//W3C//DTD SVG 1.1//EN"
 "http://www.w3.org/Graphics/SVG/1.1/DTD/svg11.dtd">
<!-- Generated by graphviz version 3.0.0 (20220226.1711)
 -->
<!-- Title: MapGeneration.CheckConnected Pages: 1 -->
<svg width="371pt" height="66pt"
 viewBox="0.00 0.00 371.00 66.00" xmlns="http://www.w3.org/2000/svg" xmlns:xlink="http://www.w3.org/1999/xlink">
<g id="graph0" class="graph" transform="scale(1 1) rotate(0) translate(4 62)">
<title>MapGeneration.CheckConnected</title>
<polygon fill="white" stroke="transparent" points="-4,4 -4,-62 367,-62 367,4 -4,4"/>
<!-- Node1 -->
<g id="node1" class="node">
<title>Node1</title>
<g id="a_node1"><a xlink:title=" ">
<polygon fill="#bfbfbf" stroke="black" points="203,-19.5 203,-38.5 363,-38.5 363,-19.5 203,-19.5"/>
<text text-anchor="middle" x="283" y="-26.5" font-family="Helvetica,sans-Serif" font-size="10.00">MapGeneration.CheckConnected</text>
</a>
</g>
</g>
<!-- Node2 -->
<g id="node2" class="node">
<title>Node2</title>
<g id="a_node2"><a xlink:href="../../df/d5c/class_map_commands.html#a22dc599d0f5e89e578355d5daf7ac5dd" target="_top" xlink:title="Checks for all corner points connected to the current point, excluding the previous corner....">
<polygon fill="white" stroke="black" points="6,-38.5 6,-57.5 161,-57.5 161,-38.5 6,-38.5"/>
<text text-anchor="middle" x="83.5" y="-45.5" font-family="Helvetica,sans-Serif" font-size="10.00">MapCommands.PathingOptions</text>
</a>
</g>
</g>
<!-- Node1&#45;&gt;Node2 -->
<g id="edge1" class="edge">
<title>Node1&#45;&gt;Node2</title>
<path fill="none" stroke="midnightblue" d="M192.75,-37.59C182.2,-38.6 171.5,-39.63 161.14,-40.63"/>
<polygon fill="midnightblue" stroke="midnightblue" points="193.19,-41.06 202.81,-36.62 192.52,-34.09 193.19,-41.06"/>
</g>
<!-- Node3 -->
<g id="node3" class="node">
<title>Node3</title>
<g id="a_node3"><a xlink:href="../../d1/d3d/class_map_generation.html#ad44229c2737b55f235f6098bfc0cf7b7" target="_top" xlink:title=" ">
<polygon fill="white" stroke="black" points="0,-0.5 0,-19.5 167,-19.5 167,-0.5 0,-0.5"/>
<text text-anchor="middle" x="83.5" y="-7.5" font-family="Helvetica,sans-Serif" font-size="10.00">MapGeneration.TestGetConnected</text>
</a>
</g>
</g>
<!-- Node1&#45;&gt;Node3 -->
<g id="edge2" class="edge">
<title>Node1&#45;&gt;Node3</title>
<path fill="none" stroke="midnightblue" d="M192.58,-20.4C184.15,-19.59 175.63,-18.77 167.26,-17.96"/>
<polygon fill="midnightblue" stroke="midnightblue" points="192.52,-23.91 202.81,-21.38 193.19,-16.94 192.52,-23.91"/>
</g>
</g>
</svg>
