<?xml version="1.0" encoding="UTF-8" standalone="no"?>
<!DOCTYPE svg PUBLIC "-//W3C//DTD SVG 1.1//EN"
 "http://www.w3.org/Graphics/SVG/1.1/DTD/svg11.dtd">
<!-- Generated by graphviz version 3.0.0 (20220226.1711)
 -->
<!-- Title: MapGeneration.GenerateMap Pages: 1 -->
<svg width="308pt" height="142pt"
 viewBox="0.00 0.00 308.00 142.00" xmlns="http://www.w3.org/2000/svg" xmlns:xlink="http://www.w3.org/1999/xlink">
<g id="graph0" class="graph" transform="scale(1 1) rotate(0) translate(4 138)">
<title>MapGeneration.GenerateMap</title>
<polygon fill="white" stroke="transparent" points="-4,4 -4,-138 304,-138 304,4 -4,4"/>
<!-- Node1 -->
<g id="node1" class="node">
<title>Node1</title>
<g id="a_node1"><a xlink:title="Spawns in tile prefabs using the passed in map array to generate a playable level.">
<polygon fill="#bfbfbf" stroke="black" points="0,-57.5 0,-76.5 144,-76.5 144,-57.5 0,-57.5"/>
<text text-anchor="middle" x="72" y="-64.5" font-family="Helvetica,sans-Serif" font-size="10.00">MapGeneration.GenerateMap</text>
</a>
</g>
</g>
<!-- Node2 -->
<g id="node2" class="node">
<title>Node2</title>
<g id="a_node2"><a xlink:href="../../d0/d8c/class_tile_initialize.html#a526bd6fe252d9012be5419b9014d579c" target="_top" xlink:title=" ">
<polygon fill="white" stroke="black" points="180,-114.5 180,-133.5 300,-133.5 300,-114.5 180,-114.5"/>
<text text-anchor="middle" x="240" y="-121.5" font-family="Helvetica,sans-Serif" font-size="10.00">TileInitialize.InitializeTile</text>
</a>
</g>
</g>
<!-- Node1&#45;&gt;Node2 -->
<g id="edge1" class="edge">
<title>Node1&#45;&gt;Node2</title>
<path fill="none" stroke="midnightblue" d="M99.31,-76.59C120.92,-84.41 152.36,-95.65 180,-105 186.09,-107.06 192.54,-109.19 198.87,-111.25"/>
<polygon fill="midnightblue" stroke="midnightblue" points="198.03,-114.66 208.63,-114.41 200.19,-108 198.03,-114.66"/>
</g>
<!-- Node3 -->
<g id="node3" class="node">
<title>Node3</title>
<g id="a_node3"><a xlink:href="../../d7/d55/class_tile_data.html#a886722639d55603a31e101459f568e0a" target="_top" xlink:title=" ">
<polygon fill="white" stroke="black" points="196.5,-76.5 196.5,-95.5 283.5,-95.5 283.5,-76.5 196.5,-76.5"/>
<text text-anchor="middle" x="240" y="-83.5" font-family="Helvetica,sans-Serif" font-size="10.00">TileData.SetPos</text>
</a>
</g>
</g>
<!-- Node1&#45;&gt;Node3 -->
<g id="edge2" class="edge">
<title>Node1&#45;&gt;Node3</title>
<path fill="none" stroke="midnightblue" d="M144.36,-75.17C158.51,-76.79 173.11,-78.46 186.49,-79.99"/>
<polygon fill="midnightblue" stroke="midnightblue" points="186.12,-83.47 196.45,-81.13 186.92,-76.52 186.12,-83.47"/>
</g>
<!-- Node4 -->
<g id="node4" class="node">
<title>Node4</title>
<g id="a_node4"><a xlink:href="../../d7/d55/class_tile_data.html#a9155839616f76ef81f9327d11e5186ea" target="_top" xlink:title=" ">
<polygon fill="white" stroke="black" points="187,-38.5 187,-57.5 293,-57.5 293,-38.5 187,-38.5"/>
<text text-anchor="middle" x="240" y="-45.5" font-family="Helvetica,sans-Serif" font-size="10.00">TileData.SetTileType</text>
</a>
</g>
</g>
<!-- Node1&#45;&gt;Node4 -->
<g id="edge3" class="edge">
<title>Node1&#45;&gt;Node4</title>
<path fill="none" stroke="midnightblue" d="M144.36,-58.83C155.15,-57.6 166.21,-56.33 176.78,-55.12"/>
<polygon fill="midnightblue" stroke="midnightblue" points="177.21,-58.6 186.75,-53.98 176.41,-51.64 177.21,-58.6"/>
</g>
<!-- Node5 -->
<g id="node5" class="node">
<title>Node5</title>
<g id="a_node5"><a xlink:href="../../d0/d8c/class_tile_initialize.html#af908552bcae9a65c5b9d14090d5ead9d" target="_top" xlink:title=" ">
<polygon fill="white" stroke="black" points="180.5,-0.5 180.5,-19.5 299.5,-19.5 299.5,-0.5 180.5,-0.5"/>
<text text-anchor="middle" x="240" y="-7.5" font-family="Helvetica,sans-Serif" font-size="10.00">TileInitialize.UpdateMap</text>
</a>
</g>
</g>
<!-- Node1&#45;&gt;Node5 -->
<g id="edge4" class="edge">
<title>Node1&#45;&gt;Node5</title>
<path fill="none" stroke="midnightblue" d="M99.31,-57.41C120.92,-49.59 152.36,-38.35 180,-29 186.09,-26.94 192.54,-24.81 198.87,-22.75"/>
<polygon fill="midnightblue" stroke="midnightblue" points="200.19,-26 208.63,-19.59 198.03,-19.34 200.19,-26"/>
</g>
</g>
</svg>
