<?xml version="1.0" encoding="UTF-8" standalone="no"?>
<!DOCTYPE svg PUBLIC "-//W3C//DTD SVG 1.1//EN"
 "http://www.w3.org/Graphics/SVG/1.1/DTD/svg11.dtd">
<!-- Generated by graphviz version 3.0.0 (20220226.1711)
 -->
<!-- Title: UpgradeManager.GetCurrentBodyBag Pages: 1 -->
<svg width="1059pt" height="362pt"
 viewBox="0.00 0.00 1059.00 361.50" xmlns="http://www.w3.org/2000/svg" xmlns:xlink="http://www.w3.org/1999/xlink">
<g id="graph0" class="graph" transform="scale(1 1) rotate(0) translate(4 357.5)">
<title>UpgradeManager.GetCurrentBodyBag</title>
<polygon fill="white" stroke="transparent" points="-4,4 -4,-357.5 1055,-357.5 1055,4 -4,4"/>
<!-- Node1 -->
<g id="node1" class="node">
<title>Node1</title>
<g id="a_node1"><a xlink:title="Gets the Current BodyBag">
<polygon fill="#bfbfbf" stroke="black" points="911,-52 911,-82 1051,-82 1051,-52 911,-52"/>
<text text-anchor="start" x="919" y="-70" font-family="Helvetica,sans-Serif" font-size="10.00">UpgradeManager.GetCurrent</text>
<text text-anchor="middle" x="981" y="-59" font-family="Helvetica,sans-Serif" font-size="10.00">BodyBag</text>
</a>
</g>
</g>
<!-- Node2 -->
<g id="node2" class="node">
<title>Node2</title>
<g id="a_node2"><a xlink:href="../../db/dac/class_selling_screen_script.html#a1d94ae7dd2d5fc4611c0c25b428276ab" target="_top" xlink:title="Sets up the buy screen for the body bag upgrades">
<polygon fill="white" stroke="black" points="732,-115 732,-145 875,-145 875,-115 732,-115"/>
<text text-anchor="start" x="740" y="-133" font-family="Helvetica,sans-Serif" font-size="10.00">SellingScreenScript.Body</text>
<text text-anchor="middle" x="803.5" y="-122" font-family="Helvetica,sans-Serif" font-size="10.00">BagBuyUpgradeScreenSetup</text>
</a>
</g>
</g>
<!-- Node1&#45;&gt;Node2 -->
<g id="edge1" class="edge">
<title>Node1&#45;&gt;Node2</title>
<path fill="none" stroke="midnightblue" d="M928.26,-85.57C902.21,-94.93 871.04,-106.11 846.5,-114.92"/>
<polygon fill="midnightblue" stroke="midnightblue" points="929.73,-88.76 937.96,-82.09 927.37,-82.17 929.73,-88.76"/>
</g>
<!-- Node12 -->
<g id="node12" class="node">
<title>Node12</title>
<g id="a_node12"><a xlink:href="../../da/d83/class_grave_info_refactor.html#a51b5d4b740c5da7a8e212288a28c68bc" target="_top" xlink:title="grabs the body from the grave and adds it to the game manager, then it calles empty grave to clean up...">
<polygon fill="white" stroke="black" points="734,-38.5 734,-57.5 873,-57.5 873,-38.5 734,-38.5"/>
<text text-anchor="middle" x="803.5" y="-45.5" font-family="Helvetica,sans-Serif" font-size="10.00">GraveInfoRefactor.GrabBody</text>
</a>
</g>
</g>
<!-- Node1&#45;&gt;Node12 -->
<g id="edge15" class="edge">
<title>Node1&#45;&gt;Node12</title>
<path fill="none" stroke="midnightblue" d="M900.94,-58.44C891.7,-57.44 882.34,-56.43 873.26,-55.44"/>
<polygon fill="midnightblue" stroke="midnightblue" points="900.57,-61.92 910.89,-59.52 901.32,-54.96 900.57,-61.92"/>
</g>
<!-- Node14 -->
<g id="node14" class="node">
<title>Node14</title>
<g id="a_node14"><a xlink:href="../../db/d69/class_inventory_bag.html#af4c1ed3c7e8359dba77f3f825893aa74" target="_top" xlink:title="Dynamically generates the bag to include the size of the current body bag and then update to keep any...">
<polygon fill="white" stroke="black" points="404.5,-76.5 404.5,-95.5 517.5,-95.5 517.5,-76.5 404.5,-76.5"/>
<text text-anchor="middle" x="461" y="-83.5" font-family="Helvetica,sans-Serif" font-size="10.00">InventoryBag.Populate</text>
</a>
</g>
</g>
<!-- Node1&#45;&gt;Node14 -->
<g id="edge17" class="edge">
<title>Node1&#45;&gt;Node14</title>
<path fill="none" stroke="midnightblue" d="M900.95,-69.9C795.05,-73.78 609.8,-80.58 517.52,-83.96"/>
<polygon fill="midnightblue" stroke="midnightblue" points="901.08,-73.4 910.95,-69.53 900.82,-66.4 901.08,-73.4"/>
</g>
<!-- Node15 -->
<g id="node15" class="node">
<title>Node15</title>
<g id="a_node15"><a xlink:href="../../db/d69/class_inventory_bag.html#a94d89f5c37bf29cbe545a3578ce4a61d" target="_top" xlink:title="This updates the bag to reset all of the values in it and to clear it out Also resets the variable th...">
<polygon fill="white" stroke="black" points="737,-0.5 737,-19.5 870,-19.5 870,-0.5 737,-0.5"/>
<text text-anchor="middle" x="803.5" y="-7.5" font-family="Helvetica,sans-Serif" font-size="10.00">InventoryBag.SoldInventory</text>
</a>
</g>
</g>
<!-- Node1&#45;&gt;Node15 -->
<g id="edge19" class="edge">
<title>Node1&#45;&gt;Node15</title>
<path fill="none" stroke="midnightblue" d="M931.36,-48.43C913.72,-41.96 893.57,-34.85 875,-29 864.48,-25.69 852.97,-22.43 842.36,-19.58"/>
<polygon fill="midnightblue" stroke="midnightblue" points="930.28,-51.77 940.88,-51.96 932.71,-45.2 930.28,-51.77"/>
</g>
<!-- Node3 -->
<g id="node3" class="node">
<title>Node3</title>
<g id="a_node3"><a xlink:href="../../db/dac/class_selling_screen_script.html#a7be5423228e510781538a465d01cb007" target="_top" xlink:title="Sets up the buying screen for a specific item">
<polygon fill="white" stroke="black" points="565,-210 565,-240 696,-240 696,-210 565,-210"/>
<text text-anchor="start" x="573" y="-228" font-family="Helvetica,sans-Serif" font-size="10.00">SellingScreenScript.Setup</text>
<text text-anchor="middle" x="630.5" y="-217" font-family="Helvetica,sans-Serif" font-size="10.00">Screen</text>
</a>
</g>
</g>
<!-- Node2&#45;&gt;Node3 -->
<g id="edge2" class="edge">
<title>Node2&#45;&gt;Node3</title>
<path fill="none" stroke="midnightblue" d="M766.33,-150.1C734.17,-167.96 687.87,-193.68 658.75,-209.86"/>
<polygon fill="midnightblue" stroke="midnightblue" points="768.36,-152.97 775.4,-145.05 764.96,-146.85 768.36,-152.97"/>
</g>
<!-- Node4 -->
<g id="node4" class="node">
<title>Node4</title>
<g id="a_node4"><a xlink:href="../../db/dac/class_selling_screen_script.html#a6f3a5794037efbc23910df86b380077f" target="_top" xlink:title="Updates the screen after a change">
<polygon fill="white" stroke="black" points="393,-210 393,-240 529,-240 529,-210 393,-210"/>
<text text-anchor="start" x="401" y="-228" font-family="Helvetica,sans-Serif" font-size="10.00">SellingScreenScript.Update</text>
<text text-anchor="middle" x="461" y="-217" font-family="Helvetica,sans-Serif" font-size="10.00">Screen</text>
</a>
</g>
</g>
<!-- Node3&#45;&gt;Node4 -->
<g id="edge3" class="edge">
<title>Node3&#45;&gt;Node4</title>
<path fill="none" stroke="midnightblue" d="M554.49,-225C546.03,-225 537.44,-225 529.08,-225"/>
<polygon fill="midnightblue" stroke="midnightblue" points="554.74,-228.5 564.74,-225 554.74,-221.5 554.74,-228.5"/>
</g>
<!-- Node5 -->
<g id="node5" class="node">
<title>Node5</title>
<g id="a_node5"><a xlink:href="../../da/d9d/class_upgrade_manager.html#ace07916b537615eeb092432d31b9bb81" target="_top" xlink:title="Upgrades the body bag level to the given level">
<polygon fill="white" stroke="black" points="188,-114.5 188,-133.5 357,-133.5 357,-114.5 188,-114.5"/>
<text text-anchor="middle" x="272.5" y="-121.5" font-family="Helvetica,sans-Serif" font-size="10.00">UpgradeManager.UpgradeBodyBag</text>
</a>
</g>
</g>
<!-- Node4&#45;&gt;Node5 -->
<g id="edge4" class="edge">
<title>Node4&#45;&gt;Node5</title>
<path fill="none" stroke="midnightblue" d="M423.19,-205.06C383.32,-183.47 321.38,-149.93 291.22,-133.59"/>
<polygon fill="midnightblue" stroke="midnightblue" points="421.62,-208.19 432.08,-209.88 424.95,-202.04 421.62,-208.19"/>
</g>
<!-- Node6 -->
<g id="node6" class="node">
<title>Node6</title>
<g id="a_node6"><a xlink:href="../../da/d9d/class_upgrade_manager.html#ae480ebe9e6b219adb20e0b410bc69cc7" target="_top" xlink:title="Upgrades the boltcutters level to the given level">
<polygon fill="white" stroke="black" points="199.5,-229 199.5,-259 345.5,-259 345.5,-229 199.5,-229"/>
<text text-anchor="start" x="207.5" y="-247" font-family="Helvetica,sans-Serif" font-size="10.00">UpgradeManager.UpgradeBolt</text>
<text text-anchor="middle" x="272.5" y="-236" font-family="Helvetica,sans-Serif" font-size="10.00">Cutter</text>
</a>
</g>
</g>
<!-- Node4&#45;&gt;Node6 -->
<g id="edge6" class="edge">
<title>Node4&#45;&gt;Node6</title>
<path fill="none" stroke="midnightblue" d="M382.73,-232.87C370.45,-234.12 357.8,-235.41 345.65,-236.65"/>
<polygon fill="midnightblue" stroke="midnightblue" points="383.34,-236.33 392.93,-231.83 382.63,-229.36 383.34,-236.33"/>
</g>
<!-- Node8 -->
<g id="node8" class="node">
<title>Node8</title>
<g id="a_node8"><a xlink:href="../../da/d9d/class_upgrade_manager.html#aebf049454001984ca3ac1fe79c851d2d" target="_top" xlink:title="Upgrades the shoes level to the given level">
<polygon fill="white" stroke="black" points="194,-190.5 194,-209.5 351,-209.5 351,-190.5 194,-190.5"/>
<text text-anchor="middle" x="272.5" y="-197.5" font-family="Helvetica,sans-Serif" font-size="10.00">UpgradeManager.UpgradeShoes</text>
</a>
</g>
</g>
<!-- Node4&#45;&gt;Node8 -->
<g id="edge9" class="edge">
<title>Node4&#45;&gt;Node8</title>
<path fill="none" stroke="midnightblue" d="M382.83,-214.66C370.09,-212.95 356.95,-211.19 344.38,-209.5"/>
<polygon fill="midnightblue" stroke="midnightblue" points="382.56,-218.15 392.93,-216.01 383.49,-211.21 382.56,-218.15"/>
</g>
<!-- Node10 -->
<g id="node10" class="node">
<title>Node10</title>
<g id="a_node10"><a xlink:href="../../da/d9d/class_upgrade_manager.html#a366539e3c1c5a211c0ec5cac77ccbd58" target="_top" xlink:title="Upgrades the shovel level to the given level">
<polygon fill="white" stroke="black" points="193.5,-278.5 193.5,-297.5 351.5,-297.5 351.5,-278.5 193.5,-278.5"/>
<text text-anchor="middle" x="272.5" y="-285.5" font-family="Helvetica,sans-Serif" font-size="10.00">UpgradeManager.UpgradeShovel</text>
</a>
</g>
</g>
<!-- Node4&#45;&gt;Node10 -->
<g id="edge12" class="edge">
<title>Node4&#45;&gt;Node10</title>
<path fill="none" stroke="midnightblue" d="M419.44,-244.33C400.73,-252.72 378.04,-262.17 357,-269 345.97,-272.58 333.91,-275.74 322.47,-278.41"/>
<polygon fill="midnightblue" stroke="midnightblue" points="420.9,-247.51 428.55,-240.18 418,-241.14 420.9,-247.51"/>
</g>
<!-- Node5&#45;&gt;Node2 -->
<g id="edge5" class="edge">
<title>Node5&#45;&gt;Node2</title>
<path fill="none" stroke="midnightblue" d="M367.26,-125.06C471.66,-126.25 638.06,-128.13 731.98,-129.2"/>
<polygon fill="midnightblue" stroke="midnightblue" points="367.08,-121.56 357.04,-124.95 367,-128.56 367.08,-121.56"/>
</g>
<!-- Node7 -->
<g id="node7" class="node">
<title>Node7</title>
<g id="a_node7"><a xlink:href="../../db/dac/class_selling_screen_script.html#a6f21d721a89c56c7039d62ce65f63f19" target="_top" xlink:title="Sets up the buy screen for the boltcutter upgrades">
<polygon fill="white" stroke="black" points="0,-239 0,-269 152,-269 152,-239 0,-239"/>
<text text-anchor="start" x="8" y="-257" font-family="Helvetica,sans-Serif" font-size="10.00">SellingScreenScript.Bolt</text>
<text text-anchor="middle" x="76" y="-246" font-family="Helvetica,sans-Serif" font-size="10.00">CutterBuyUpgradeScreenSetup</text>
</a>
</g>
</g>
<!-- Node6&#45;&gt;Node7 -->
<g id="edge7" class="edge">
<title>Node6&#45;&gt;Node7</title>
<path fill="none" stroke="midnightblue" d="M189.17,-248.23C176.93,-248.86 164.37,-249.51 152.29,-250.13"/>
<polygon fill="midnightblue" stroke="midnightblue" points="189.54,-251.72 199.35,-247.71 189.19,-244.73 189.54,-251.72"/>
</g>
<!-- Node7&#45;&gt;Node3 -->
<g id="edge8" class="edge">
<title>Node7&#45;&gt;Node3</title>
<path fill="none" stroke="midnightblue" d="M109.23,-274.13C130.66,-286.29 159.94,-300.64 188,-307 339.88,-341.4 523.54,-272.19 596.92,-240.12"/>
<polygon fill="midnightblue" stroke="midnightblue" points="110.95,-271.08 100.55,-269.08 107.43,-277.13 110.95,-271.08"/>
</g>
<!-- Node9 -->
<g id="node9" class="node">
<title>Node9</title>
<g id="a_node9"><a xlink:href="../../db/dac/class_selling_screen_script.html#a9646ff5a19f1ba8a96f70ba33b46598d" target="_top" xlink:title="Sets up the buy screen for the shoe upgrades.">
<polygon fill="white" stroke="black" points="9.5,-174 9.5,-204 142.5,-204 142.5,-174 9.5,-174"/>
<text text-anchor="start" x="17.5" y="-192" font-family="Helvetica,sans-Serif" font-size="10.00">SellingScreenScript.Shoes</text>
<text text-anchor="middle" x="76" y="-181" font-family="Helvetica,sans-Serif" font-size="10.00">BuyUpgradeScreenSetup</text>
</a>
</g>
</g>
<!-- Node8&#45;&gt;Node9 -->
<g id="edge10" class="edge">
<title>Node8&#45;&gt;Node9</title>
<path fill="none" stroke="midnightblue" d="M183.79,-195.04C169.98,-194.26 155.9,-193.46 142.7,-192.72"/>
<polygon fill="midnightblue" stroke="midnightblue" points="183.61,-198.53 193.79,-195.61 184,-191.55 183.61,-198.53"/>
</g>
<!-- Node9&#45;&gt;Node3 -->
<g id="edge11" class="edge">
<title>Node9&#45;&gt;Node3</title>
<path fill="none" stroke="midnightblue" d="M152.92,-182.8C164.66,-182.05 176.65,-181.41 188,-181 339.72,-175.54 379.51,-174.55 529,-201 542.95,-203.47 557.87,-206.7 571.82,-209.99"/>
<polygon fill="midnightblue" stroke="midnightblue" points="152.44,-179.32 142.7,-183.48 152.91,-186.31 152.44,-179.32"/>
</g>
<!-- Node11 -->
<g id="node11" class="node">
<title>Node11</title>
<g id="a_node11"><a xlink:href="../../db/dac/class_selling_screen_script.html#a3fa55c056600239b67876cea7b018479" target="_top" xlink:title="Sets up the buy screen for the shovel upgrades">
<polygon fill="white" stroke="black" points="9,-323 9,-353 143,-353 143,-323 9,-323"/>
<text text-anchor="start" x="17" y="-341" font-family="Helvetica,sans-Serif" font-size="10.00">SellingScreenScript.Shovel</text>
<text text-anchor="middle" x="76" y="-330" font-family="Helvetica,sans-Serif" font-size="10.00">BuyUpgradeScreenSetup</text>
</a>
</g>
</g>
<!-- Node10&#45;&gt;Node11 -->
<g id="edge13" class="edge">
<title>Node10&#45;&gt;Node11</title>
<path fill="none" stroke="midnightblue" d="M224.59,-300.06C197.87,-306.93 164.16,-315.59 135.71,-322.91"/>
<polygon fill="midnightblue" stroke="midnightblue" points="225.64,-303.4 234.46,-297.52 223.9,-296.62 225.64,-303.4"/>
</g>
<!-- Node11&#45;&gt;Node3 -->
<g id="edge14" class="edge">
<title>Node11&#45;&gt;Node3</title>
<path fill="none" stroke="midnightblue" d="M153.29,-345.32C245.9,-351.18 405.05,-351.34 529,-300 562.99,-285.92 595.9,-257.74 614.35,-240.22"/>
<polygon fill="midnightblue" stroke="midnightblue" points="153.37,-341.82 143.16,-344.64 152.9,-348.81 153.37,-341.82"/>
</g>
<!-- Node13 -->
<g id="node13" class="node">
<title>Node13</title>
<g id="a_node13"><a xlink:href="../../da/d83/class_grave_info_refactor.html#a413583b66e49d5e54f395f1746c8ac98" target="_top" xlink:title="This is how you interact with the grave it flips a bool true to allow you to interact with the traps">
<polygon fill="white" stroke="black" points="567.5,-38.5 567.5,-57.5 693.5,-57.5 693.5,-38.5 567.5,-38.5"/>
<text text-anchor="middle" x="630.5" y="-45.5" font-family="Helvetica,sans-Serif" font-size="10.00">GraveInfoRefactor.Update</text>
</a>
</g>
</g>
<!-- Node12&#45;&gt;Node13 -->
<g id="edge16" class="edge">
<title>Node12&#45;&gt;Node13</title>
<path fill="none" stroke="midnightblue" d="M723.88,-48C713.77,-48 703.52,-48 693.72,-48"/>
<polygon fill="midnightblue" stroke="midnightblue" points="723.93,-51.5 733.93,-48 723.93,-44.5 723.93,-51.5"/>
</g>
<!-- Node14&#45;&gt;Node5 -->
<g id="edge18" class="edge">
<title>Node14&#45;&gt;Node5</title>
<path fill="none" stroke="midnightblue" d="M403.02,-97.61C376.5,-103.01 345.33,-109.36 320.22,-114.48"/>
<polygon fill="midnightblue" stroke="midnightblue" points="403.84,-101.02 412.94,-95.59 402.44,-94.16 403.84,-101.02"/>
</g>
<!-- Node16 -->
<g id="node16" class="node">
<title>Node16</title>
<g id="a_node16"><a xlink:href="../../d8/dfa/class_run_manager.html#ad114557bad6331e640d3b23e75d398eb" target="_top" xlink:title=" ">
<polygon fill="white" stroke="black" points="565.5,-0.5 565.5,-19.5 695.5,-19.5 695.5,-0.5 565.5,-0.5"/>
<text text-anchor="middle" x="630.5" y="-7.5" font-family="Helvetica,sans-Serif" font-size="10.00">RunManager.PurgeBodies</text>
</a>
</g>
</g>
<!-- Node15&#45;&gt;Node16 -->
<g id="edge20" class="edge">
<title>Node15&#45;&gt;Node16</title>
<path fill="none" stroke="midnightblue" d="M726.59,-10C716.23,-10 705.67,-10 695.54,-10"/>
<polygon fill="midnightblue" stroke="midnightblue" points="726.88,-13.5 736.88,-10 726.88,-6.5 726.88,-13.5"/>
</g>
</g>
</svg>
