<?xml version="1.0" encoding="UTF-8" standalone="no"?>
<!DOCTYPE svg PUBLIC "-//W3C//DTD SVG 1.1//EN"
 "http://www.w3.org/Graphics/SVG/1.1/DTD/svg11.dtd">
<!-- Generated by graphviz version 3.0.0 (20220226.1711)
 -->
<!-- Title: UpgradeManager.GetBodyBagsUpgrades Pages: 1 -->
<!--zoomable 226 -->
<svg id="main" version="1.1" xmlns="http://www.w3.org/2000/svg" xmlns:xlink="http://www.w3.org/1999/xlink" xml:space="preserve" onload="init(evt)">
<style type="text/css"><![CDATA[
.edge:hover path { stroke: red; }
.edge:hover polygon { stroke: red; fill: red; }
]]></style>
<script type="text/javascript"><![CDATA[
var edges = document.getElementsByTagName('g');
if (edges && edges.length) {
  for (var i=0;i<edges.length;i++) {
    if (edges[i].id.substr(0,4)=='edge') {
      edges[i].setAttribute('class','edge');
    }
  }
}
]]></script>
        <defs>
                <circle id="rim" cx="0" cy="0" r="7"/>
                <circle id="rim2" cx="0" cy="0" r="3.5"/>
                <g id="zoomPlus">
                        <use xlink:href="#rim" fill="#404040">
                                <set attributeName="fill" to="#808080" begin="zoomplus.mouseover" end="zoomplus.mouseout"/>
                        </use>
                        <path d="M-4,0h8M0,-4v8" fill="none" stroke="white" stroke-width="1.5" pointer-events="none"/>
                </g>
                <g id="zoomMin">
                        <use xlink:href="#rim" fill="#404040">
                                <set attributeName="fill" to="#808080" begin="zoomminus.mouseover" end="zoomminus.mouseout"/>
                        </use>
                        <path d="M-4,0h8" fill="none" stroke="white" stroke-width="1.5" pointer-events="none"/>
                </g>
                <g id="dirArrow">
                        <path fill="none" stroke="white" stroke-width="1.5" d="M0,-3.0v7 M-2.5,-0.5L0,-3.0L2.5,-0.5"/>
                </g>
               <g id="resetDef">
                       <use xlink:href="#rim2" fill="#404040">
                               <set attributeName="fill" to="#808080" begin="reset.mouseover" end="reset.mouseout"/>
                       </use>
               </g>
        </defs>

<script type="text/javascript">
var viewWidth = 1073;
var viewHeight = 226;
var sectionId = 'dynsection-3';
</script>
<script xlink:href="../../svgpan.js"/>
<svg id="graph" class="graph">
<g id="viewport">
<title>UpgradeManager.GetBodyBagsUpgrades</title>
<polygon fill="white" stroke="transparent" points="-4,4 -4,-222.39 1069,-222.39 1069,4 -4,4"/>
<!-- Node1 -->
<g id="node1" class="node">
<title>Node1</title>
<g id="a_node1"><a xlink:title="Gets the list of Bodybag upgrades">
<polygon fill="#bfbfbf" stroke="black" points="911,-155.62 911,-185.62 1065,-185.62 1065,-155.62 911,-155.62"/>
<text text-anchor="start" x="919" y="-173.62" font-family="Helvetica,sans-Serif" font-size="10.00">UpgradeManager.GetBodyBags</text>
<text text-anchor="middle" x="988" y="-162.62" font-family="Helvetica,sans-Serif" font-size="10.00">Upgrades</text>
</a>
</g>
</g>
<!-- Node2 -->
<g id="node2" class="node">
<title>Node2</title>
<g id="a_node2"><a xlink:href="../../db/dac/class_selling_screen_script.html#a1d94ae7dd2d5fc4611c0c25b428276ab" target="_top" xlink:title="Sets up the buy screen for the body bag upgrades">
<polygon fill="white" stroke="black" points="732,-155.62 732,-185.62 875,-185.62 875,-155.62 732,-155.62"/>
<text text-anchor="start" x="740" y="-173.62" font-family="Helvetica,sans-Serif" font-size="10.00">SellingScreenScript.Body</text>
<text text-anchor="middle" x="803.5" y="-162.62" font-family="Helvetica,sans-Serif" font-size="10.00">BagBuyUpgradeScreenSetup</text>
</a>
</g>
</g>
<!-- Node1&#45;&gt;Node2 -->
<g id="edge1" class="edge">
<title>Node1&#45;&gt;Node2</title>
<path fill="none" stroke="midnightblue" d="M900.88,-170.62C892.27,-170.62 883.61,-170.62 875.2,-170.62"/>
<polygon fill="midnightblue" stroke="midnightblue" points="900.93,-174.12 910.93,-170.62 900.93,-167.12 900.93,-174.12"/>
</g>
<!-- Node3 -->
<g id="node3" class="node">
<title>Node3</title>
<g id="a_node3"><a xlink:href="../../db/dac/class_selling_screen_script.html#a7be5423228e510781538a465d01cb007" target="_top" xlink:title="Sets up the buying screen for a specific item">
<polygon fill="white" stroke="black" points="565,-114.62 565,-144.62 696,-144.62 696,-114.62 565,-114.62"/>
<text text-anchor="start" x="573" y="-132.62" font-family="Helvetica,sans-Serif" font-size="10.00">SellingScreenScript.Setup</text>
<text text-anchor="middle" x="630.5" y="-121.62" font-family="Helvetica,sans-Serif" font-size="10.00">Screen</text>
</a>
</g>
</g>
<!-- Node2&#45;&gt;Node3 -->
<g id="edge2" class="edge">
<title>Node2&#45;&gt;Node3</title>
<path fill="none" stroke="midnightblue" d="M729.92,-153.22C718.03,-150.37 705.81,-147.44 694.2,-144.65"/>
<polygon fill="midnightblue" stroke="midnightblue" points="729.26,-156.66 739.8,-155.58 730.89,-149.85 729.26,-156.66"/>
</g>
<!-- Node4 -->
<g id="node4" class="node">
<title>Node4</title>
<g id="a_node4"><a xlink:href="../../db/dac/class_selling_screen_script.html#a6f3a5794037efbc23910df86b380077f" target="_top" xlink:title="Updates the screen after a change">
<polygon fill="white" stroke="black" points="393,-114.62 393,-144.62 529,-144.62 529,-114.62 393,-114.62"/>
<text text-anchor="start" x="401" y="-132.62" font-family="Helvetica,sans-Serif" font-size="10.00">SellingScreenScript.Update</text>
<text text-anchor="middle" x="461" y="-121.62" font-family="Helvetica,sans-Serif" font-size="10.00">Screen</text>
</a>
</g>
</g>
<!-- Node3&#45;&gt;Node4 -->
<g id="edge3" class="edge">
<title>Node3&#45;&gt;Node4</title>
<path fill="none" stroke="midnightblue" d="M554.49,-129.62C546.03,-129.62 537.44,-129.62 529.08,-129.62"/>
<polygon fill="midnightblue" stroke="midnightblue" points="554.74,-133.12 564.74,-129.62 554.74,-126.12 554.74,-133.12"/>
</g>
<!-- Node5 -->
<g id="node5" class="node">
<title>Node5</title>
<g id="a_node5"><a xlink:href="../../da/d9d/class_upgrade_manager.html#ace07916b537615eeb092432d31b9bb81" target="_top" xlink:title="Upgrades the body bag level to the given level">
<polygon fill="white" stroke="black" points="188,-183.12 188,-202.12 357,-202.12 357,-183.12 188,-183.12"/>
<text text-anchor="middle" x="272.5" y="-190.12" font-family="Helvetica,sans-Serif" font-size="10.00">UpgradeManager.UpgradeBodyBag</text>
</a>
</g>
</g>
<!-- Node4&#45;&gt;Node5 -->
<g id="edge4" class="edge">
<title>Node4&#45;&gt;Node5</title>
<path fill="none" stroke="midnightblue" d="M419.44,-148.95C400.73,-157.34 378.04,-166.79 357,-173.62 345.97,-177.2 333.91,-180.36 322.47,-183.03"/>
<polygon fill="midnightblue" stroke="midnightblue" points="420.9,-152.13 428.55,-144.8 418,-145.76 420.9,-152.13"/>
</g>
<!-- Node6 -->
<g id="node6" class="node">
<title>Node6</title>
<g id="a_node6"><a xlink:href="../../da/d9d/class_upgrade_manager.html#ae480ebe9e6b219adb20e0b410bc69cc7" target="_top" xlink:title="Upgrades the boltcutters level to the given level">
<polygon fill="white" stroke="black" points="199.5,-95.62 199.5,-125.62 345.5,-125.62 345.5,-95.62 199.5,-95.62"/>
<text text-anchor="start" x="207.5" y="-113.62" font-family="Helvetica,sans-Serif" font-size="10.00">UpgradeManager.UpgradeBolt</text>
<text text-anchor="middle" x="272.5" y="-102.62" font-family="Helvetica,sans-Serif" font-size="10.00">Cutter</text>
</a>
</g>
</g>
<!-- Node4&#45;&gt;Node6 -->
<g id="edge6" class="edge">
<title>Node4&#45;&gt;Node6</title>
<path fill="none" stroke="midnightblue" d="M382.73,-121.75C370.45,-120.5 357.8,-119.21 345.65,-117.97"/>
<polygon fill="midnightblue" stroke="midnightblue" points="382.63,-125.25 392.93,-122.79 383.34,-118.29 382.63,-125.25"/>
</g>
<!-- Node8 -->
<g id="node8" class="node">
<title>Node8</title>
<g id="a_node8"><a xlink:href="../../da/d9d/class_upgrade_manager.html#aebf049454001984ca3ac1fe79c851d2d" target="_top" xlink:title="Upgrades the shoes level to the given level">
<polygon fill="white" stroke="black" points="194,-145.12 194,-164.12 351,-164.12 351,-145.12 194,-145.12"/>
<text text-anchor="middle" x="272.5" y="-152.12" font-family="Helvetica,sans-Serif" font-size="10.00">UpgradeManager.UpgradeShoes</text>
</a>
</g>
</g>
<!-- Node4&#45;&gt;Node8 -->
<g id="edge9" class="edge">
<title>Node4&#45;&gt;Node8</title>
<path fill="none" stroke="midnightblue" d="M382.83,-139.96C370.09,-141.67 356.95,-143.43 344.38,-145.12"/>
<polygon fill="midnightblue" stroke="midnightblue" points="383.49,-143.41 392.93,-138.61 382.56,-136.47 383.49,-143.41"/>
</g>
<!-- Node10 -->
<g id="node10" class="node">
<title>Node10</title>
<g id="a_node10"><a xlink:href="../../da/d9d/class_upgrade_manager.html#a366539e3c1c5a211c0ec5cac77ccbd58" target="_top" xlink:title="Upgrades the shovel level to the given level">
<polygon fill="white" stroke="black" points="193.5,-19.12 193.5,-38.12 351.5,-38.12 351.5,-19.12 193.5,-19.12"/>
<text text-anchor="middle" x="272.5" y="-26.12" font-family="Helvetica,sans-Serif" font-size="10.00">UpgradeManager.UpgradeShovel</text>
</a>
</g>
</g>
<!-- Node4&#45;&gt;Node10 -->
<g id="edge12" class="edge">
<title>Node4&#45;&gt;Node10</title>
<path fill="none" stroke="midnightblue" d="M423.19,-109.68C383.32,-88.09 321.38,-54.55 291.22,-38.21"/>
<polygon fill="midnightblue" stroke="midnightblue" points="421.62,-112.81 432.08,-114.5 424.95,-106.66 421.62,-112.81"/>
</g>
<!-- Node5&#45;&gt;Node2 -->
<g id="edge5" class="edge">
<title>Node5&#45;&gt;Node2</title>
<path fill="none" stroke="midnightblue" d="M367.26,-188.72C471.66,-184.38 638.06,-177.46 731.98,-173.55"/>
<polygon fill="midnightblue" stroke="midnightblue" points="366.88,-185.23 357.04,-189.14 367.17,-192.23 366.88,-185.23"/>
</g>
<!-- Node7 -->
<g id="node7" class="node">
<title>Node7</title>
<g id="a_node7"><a xlink:href="../../db/dac/class_selling_screen_script.html#a6f21d721a89c56c7039d62ce65f63f19" target="_top" xlink:title="Sets up the buy screen for the boltcutter upgrades">
<polygon fill="white" stroke="black" points="0,-63.62 0,-93.62 152,-93.62 152,-63.62 0,-63.62"/>
<text text-anchor="start" x="8" y="-81.62" font-family="Helvetica,sans-Serif" font-size="10.00">SellingScreenScript.Bolt</text>
<text text-anchor="middle" x="76" y="-70.62" font-family="Helvetica,sans-Serif" font-size="10.00">CutterBuyUpgradeScreenSetup</text>
</a>
</g>
</g>
<!-- Node6&#45;&gt;Node7 -->
<g id="edge7" class="edge">
<title>Node6&#45;&gt;Node7</title>
<path fill="none" stroke="midnightblue" d="M189.17,-97.07C176.93,-95.06 164.37,-92.99 152.29,-91.01"/>
<polygon fill="midnightblue" stroke="midnightblue" points="188.92,-100.58 199.35,-98.75 190.05,-93.67 188.92,-100.58"/>
</g>
<!-- Node7&#45;&gt;Node3 -->
<g id="edge8" class="edge">
<title>Node7&#45;&gt;Node3</title>
<path fill="none" stroke="midnightblue" d="M162.05,-77.49C253.43,-77.68 402.59,-82.02 529,-104.62 543.96,-107.29 559.99,-110.92 574.76,-114.59"/>
<polygon fill="midnightblue" stroke="midnightblue" points="162.02,-73.99 152.02,-77.49 162.02,-80.99 162.02,-73.99"/>
</g>
<!-- Node9 -->
<g id="node9" class="node">
<title>Node9</title>
<g id="a_node9"><a xlink:href="../../db/dac/class_selling_screen_script.html#a9646ff5a19f1ba8a96f70ba33b46598d" target="_top" xlink:title="Sets up the buy screen for the shoe upgrades.">
<polygon fill="white" stroke="black" points="9.5,-177.62 9.5,-207.62 142.5,-207.62 142.5,-177.62 9.5,-177.62"/>
<text text-anchor="start" x="17.5" y="-195.62" font-family="Helvetica,sans-Serif" font-size="10.00">SellingScreenScript.Shoes</text>
<text text-anchor="middle" x="76" y="-184.62" font-family="Helvetica,sans-Serif" font-size="10.00">BuyUpgradeScreenSetup</text>
</a>
</g>
</g>
<!-- Node8&#45;&gt;Node9 -->
<g id="edge10" class="edge">
<title>Node8&#45;&gt;Node9</title>
<path fill="none" stroke="midnightblue" d="M212.77,-166.09C190.68,-170.41 165.44,-175.34 142.76,-179.77"/>
<polygon fill="midnightblue" stroke="midnightblue" points="213.53,-169.51 222.67,-164.16 212.18,-162.64 213.53,-169.51"/>
</g>
<!-- Node9&#45;&gt;Node3 -->
<g id="edge11" class="edge">
<title>Node9&#45;&gt;Node3</title>
<path fill="none" stroke="midnightblue" d="M152.39,-207.29C164.26,-209.09 176.43,-210.64 188,-211.62 262.84,-217.98 282.69,-222.56 357,-211.62 443.27,-198.92 540.11,-164.75 591.94,-144.76"/>
<polygon fill="midnightblue" stroke="midnightblue" points="152.93,-203.83 142.5,-205.72 151.83,-210.74 152.93,-203.83"/>
</g>
<!-- Node11 -->
<g id="node11" class="node">
<title>Node11</title>
<g id="a_node11"><a xlink:href="../../db/dac/class_selling_screen_script.html#a3fa55c056600239b67876cea7b018479" target="_top" xlink:title="Sets up the buy screen for the shovel upgrades">
<polygon fill="white" stroke="black" points="9,-1.62 9,-31.62 143,-31.62 143,-1.62 9,-1.62"/>
<text text-anchor="start" x="17" y="-19.62" font-family="Helvetica,sans-Serif" font-size="10.00">SellingScreenScript.Shovel</text>
<text text-anchor="middle" x="76" y="-8.62" font-family="Helvetica,sans-Serif" font-size="10.00">BuyUpgradeScreenSetup</text>
</a>
</g>
</g>
<!-- Node10&#45;&gt;Node11 -->
<g id="edge13" class="edge">
<title>Node10&#45;&gt;Node11</title>
<path fill="none" stroke="midnightblue" d="M183.05,-23.16C169.67,-22.34 156.05,-21.5 143.24,-20.71"/>
<polygon fill="midnightblue" stroke="midnightblue" points="183.03,-26.67 193.23,-23.79 183.46,-19.68 183.03,-26.67"/>
</g>
<!-- Node11&#45;&gt;Node3 -->
<g id="edge14" class="edge">
<title>Node11&#45;&gt;Node3</title>
<path fill="none" stroke="midnightblue" d="M153.07,-5.49C209.86,0.6 289.05,4.38 357,-9.62 453.96,-29.59 558.34,-86.83 604.79,-114.41"/>
<polygon fill="midnightblue" stroke="midnightblue" points="152.64,-2.02 143.09,-6.61 153.42,-8.97 152.64,-2.02"/>
</g>
</g>
</svg>
        <g id="navigator" transform="translate(0 0)" fill="#404254">
                <rect fill="#f2f5e9" fill-opacity="0.5" stroke="#606060" stroke-width=".5" x="0" y="0" width="60" height="60"/>
                <use id="zoomplus" xlink:href="#zoomPlus" x="17" y="9" onmousedown="handleZoom(evt,'in')"/>
                <use id="zoomminus" xlink:href="#zoomMin" x="42" y="9" onmousedown="handleZoom(evt,'out')"/>
                <use id="reset" xlink:href="#resetDef" x="30" y="36" onmousedown="handleReset()"/>
                <g id="arrowUp" xlink:href="#dirArrow" transform="translate(30 24)" onmousedown="handlePan(0,-1)">
                  <use xlink:href="#rim" fill="#404040">
                        <set attributeName="fill" to="#808080" begin="arrowUp.mouseover" end="arrowUp.mouseout"/>
                  </use>
                  <path fill="none" stroke="white" stroke-width="1.5" d="M0,-3.0v7 M-2.5,-0.5L0,-3.0L2.5,-0.5"/>
                </g>
                <g id="arrowRight" xlink:href="#dirArrow" transform="rotate(90) translate(36 -43)" onmousedown="handlePan(1,0)">
                  <use xlink:href="#rim" fill="#404040">
                        <set attributeName="fill" to="#808080" begin="arrowRight.mouseover" end="arrowRight.mouseout"/>
                  </use>
                  <path fill="none" stroke="white" stroke-width="1.5" d="M0,-3.0v7 M-2.5,-0.5L0,-3.0L2.5,-0.5"/>
                </g>
                <g id="arrowDown" xlink:href="#dirArrow" transform="rotate(180) translate(-30 -48)" onmousedown="handlePan(0,1)">
                  <use xlink:href="#rim" fill="#404040">
                        <set attributeName="fill" to="#808080" begin="arrowDown.mouseover" end="arrowDown.mouseout"/>
                  </use>
                  <path fill="none" stroke="white" stroke-width="1.5" d="M0,-3.0v7 M-2.5,-0.5L0,-3.0L2.5,-0.5"/>
                </g>
                <g id="arrowLeft" xlink:href="#dirArrow" transform="rotate(270) translate(-36 17)" onmousedown="handlePan(-1,0)">
                  <use xlink:href="#rim" fill="#404040">
                        <set attributeName="fill" to="#808080" begin="arrowLeft.mouseover" end="arrowLeft.mouseout"/>
                  </use>
                  <path fill="none" stroke="white" stroke-width="1.5" d="M0,-3.0v7 M-2.5,-0.5L0,-3.0L2.5,-0.5"/>
                </g>
        </g>
        <svg viewBox="0 0 15 15" width="100%" height="30px" preserveAspectRatio="xMaxYMin meet">
         <g id="arrow_out" transform="scale(0.3 0.3)">
          <a xlink:href="class_upgrade_manager_a83e85066f6b84234378229539bdae5a0_icgraph_org.svg" target="_base">
           <rect id="button" ry="5" rx="5" y="6" x="6" height="38" width="38"
                fill="#f2f5e9" fill-opacity="0.5" stroke="#606060" stroke-width="1.0"/>
           <path id="arrow"
             d="M 11.500037,31.436501 C 11.940474,20.09759 22.043105,11.32322 32.158766,21.979434 L 37.068811,17.246167 C 37.068811,17.246167 37.088388,32 37.088388,32 L 22.160133,31.978069 C 22.160133,31.978069 26.997745,27.140456 26.997745,27.140456 C 18.528582,18.264221 13.291696,25.230495 11.500037,31.436501 z"
             style="fill:#404040;"/>
          </a>
         </g>
        </svg>
</svg>
