<?xml version="1.0" encoding="UTF-8" standalone="no"?>
<!DOCTYPE svg PUBLIC "-//W3C//DTD SVG 1.1//EN"
 "http://www.w3.org/Graphics/SVG/1.1/DTD/svg11.dtd">
<!-- Generated by graphviz version 3.0.0 (20220226.1711)
 -->
<!-- Title: UpgradeManager.UpgradeShoes Pages: 1 -->
<svg width="1271pt" height="712pt"
 viewBox="0.00 0.00 1271.00 712.37" xmlns="http://www.w3.org/2000/svg" xmlns:xlink="http://www.w3.org/1999/xlink">
<g id="graph0" class="graph" transform="scale(1 1) rotate(0) translate(4 708.37)">
<title>UpgradeManager.UpgradeShoes</title>
<polygon fill="white" stroke="transparent" points="-4,4 -4,-708.37 1267,-708.37 1267,4 -4,4"/>
<!-- Node1 -->
<g id="node1" class="node">
<title>Node1</title>
<g id="a_node1"><a xlink:title="Upgrades the shoes level to the given level">
<polygon fill="#bfbfbf" stroke="black" points="0,-430.87 0,-449.87 157,-449.87 157,-430.87 0,-430.87"/>
<text text-anchor="middle" x="78.5" y="-437.87" font-family="Helvetica,sans-Serif" font-size="10.00">UpgradeManager.UpgradeShoes</text>
</a>
</g>
</g>
<!-- Node2 -->
<g id="node2" class="node">
<title>Node2</title>
<g id="a_node2"><a xlink:href="../../db/d10/class_game_manager.html#ab5da814aae54d4bceb91cac7f7290b4b" target="_top" xlink:title="Will return the current money/currency that the player has.">
<polygon fill="white" stroke="black" points="946.5,-618.87 946.5,-637.87 1074.5,-637.87 1074.5,-618.87 946.5,-618.87"/>
<text text-anchor="middle" x="1010.5" y="-625.87" font-family="Helvetica,sans-Serif" font-size="10.00">GameManager.GetMoney</text>
</a>
</g>
</g>
<!-- Node1&#45;&gt;Node2 -->
<g id="edge1" class="edge">
<title>Node1&#45;&gt;Node2</title>
<path fill="none" stroke="midnightblue" d="M84.68,-449.89C98.94,-475.34 141.15,-545.89 193,-588.37 283.57,-662.55 312.43,-704.37 429.5,-704.37 429.5,-704.37 429.5,-704.37 609,-704.37 743.23,-704.37 898.41,-662.65 969.81,-641.03"/>
<polygon fill="midnightblue" stroke="midnightblue" points="971.19,-644.27 979.72,-637.99 969.14,-637.57 971.19,-644.27"/>
</g>
<!-- Node3 -->
<g id="node3" class="node">
<title>Node3</title>
<g id="a_node3"><a xlink:href="../../db/dac/class_selling_screen_script.html#a1615d47a31e3c6c70b1e1d05e44cc803" target="_top" xlink:title=" ">
<polygon fill="white" stroke="black" points="934,-531.37 934,-561.37 1087,-561.37 1087,-531.37 934,-531.37"/>
<text text-anchor="start" x="942" y="-549.37" font-family="Helvetica,sans-Serif" font-size="10.00">SellingScreenScript.NotEnough</text>
<text text-anchor="middle" x="1010.5" y="-538.37" font-family="Helvetica,sans-Serif" font-size="10.00">MoneyTalk</text>
</a>
</g>
</g>
<!-- Node1&#45;&gt;Node3 -->
<g id="edge2" class="edge">
<title>Node1&#45;&gt;Node3</title>
<path fill="none" stroke="midnightblue" d="M88.79,-449.95C126.98,-488.26 277.07,-628.37 429.5,-628.37 429.5,-628.37 429.5,-628.37 609,-628.37 737.72,-628.37 781.49,-664.08 898,-609.37 919.06,-599.48 914.36,-583.84 934,-571.37 937.16,-569.36 940.49,-567.5 943.93,-565.77"/>
<polygon fill="midnightblue" stroke="midnightblue" points="945.59,-568.86 953.23,-561.52 942.68,-562.5 945.59,-568.86"/>
</g>
<!-- Node4 -->
<g id="node4" class="node">
<title>Node4</title>
<g id="a_node4"><a xlink:href="../../db/d10/class_game_manager.html#abb1c222eefb6e7582983de8a59056098" target="_top" xlink:title="Takes the new amount of money and applies it to the total Can be used for both getting and spending m...">
<polygon fill="white" stroke="black" points="939,-201.87 939,-220.87 1082,-220.87 1082,-201.87 939,-201.87"/>
<text text-anchor="middle" x="1010.5" y="-208.87" font-family="Helvetica,sans-Serif" font-size="10.00">GameManager.UpdateMoney</text>
</a>
</g>
</g>
<!-- Node1&#45;&gt;Node4 -->
<g id="edge3" class="edge">
<title>Node1&#45;&gt;Node4</title>
<path fill="none" stroke="midnightblue" d="M82.08,-430.71C99.6,-367.6 207.1,-16.37 429.5,-16.37 429.5,-16.37 429.5,-16.37 609,-16.37 737.72,-16.37 787.32,30.36 898,-35.37 958.29,-71.17 991.21,-153.68 1003.64,-191.62"/>
<polygon fill="midnightblue" stroke="midnightblue" points="1000.39,-192.97 1006.73,-201.47 1007.07,-190.88 1000.39,-192.97"/>
</g>
<!-- Node5 -->
<g id="node5" class="node">
<title>Node5</title>
<g id="a_node5"><a xlink:href="../../db/dac/class_selling_screen_script.html#a6f3a5794037efbc23910df86b380077f" target="_top" xlink:title="Updates the screen after a change">
<polygon fill="white" stroke="black" points="193,-425.37 193,-455.37 329,-455.37 329,-425.37 193,-425.37"/>
<text text-anchor="start" x="201" y="-443.37" font-family="Helvetica,sans-Serif" font-size="10.00">SellingScreenScript.Update</text>
<text text-anchor="middle" x="261" y="-432.37" font-family="Helvetica,sans-Serif" font-size="10.00">Screen</text>
</a>
</g>
</g>
<!-- Node1&#45;&gt;Node5 -->
<g id="edge4" class="edge">
<title>Node1&#45;&gt;Node5</title>
<path fill="none" stroke="midnightblue" d="M157.1,-440.37C165.59,-440.37 174.23,-440.37 182.72,-440.37"/>
<polygon fill="midnightblue" stroke="midnightblue" points="182.97,-443.87 192.97,-440.37 182.97,-436.87 182.97,-443.87"/>
</g>
<!-- Node6 -->
<g id="node6" class="node">
<title>Node6</title>
<g id="a_node6"><a xlink:href="../../db/dac/class_selling_screen_script.html#a7be5423228e510781538a465d01cb007" target="_top" xlink:title="Sets up the buying screen for a specific item">
<polygon fill="white" stroke="black" points="365,-378.37 365,-408.37 496,-408.37 496,-378.37 365,-378.37"/>
<text text-anchor="start" x="373" y="-396.37" font-family="Helvetica,sans-Serif" font-size="10.00">SellingScreenScript.Setup</text>
<text text-anchor="middle" x="430.5" y="-385.37" font-family="Helvetica,sans-Serif" font-size="10.00">Screen</text>
</a>
</g>
</g>
<!-- Node5&#45;&gt;Node6 -->
<g id="edge5" class="edge">
<title>Node5&#45;&gt;Node6</title>
<path fill="none" stroke="midnightblue" d="M315.46,-425.37C331.63,-420.83 349.53,-415.8 366.27,-411.11"/>
<polygon fill="midnightblue" stroke="midnightblue" points="367.29,-414.46 375.97,-408.38 365.4,-407.72 367.29,-414.46"/>
</g>
<!-- Node7 -->
<g id="node7" class="node">
<title>Node7</title>
<g id="a_node7"><a xlink:href="../../db/dac/class_selling_screen_script.html#a1d94ae7dd2d5fc4611c0c25b428276ab" target="_top" xlink:title="Sets up the buy screen for the body bag upgrades">
<polygon fill="white" stroke="black" points="536.5,-342.37 536.5,-372.37 679.5,-372.37 679.5,-342.37 536.5,-342.37"/>
<text text-anchor="start" x="544.5" y="-360.37" font-family="Helvetica,sans-Serif" font-size="10.00">SellingScreenScript.Body</text>
<text text-anchor="middle" x="608" y="-349.37" font-family="Helvetica,sans-Serif" font-size="10.00">BagBuyUpgradeScreenSetup</text>
</a>
</g>
</g>
<!-- Node6&#45;&gt;Node7 -->
<g id="edge6" class="edge">
<title>Node6&#45;&gt;Node7</title>
<path fill="none" stroke="midnightblue" d="M496.35,-380.06C506.09,-378.07 516.24,-375.98 526.26,-373.93"/>
<polygon fill="midnightblue" stroke="midnightblue" points="527.13,-377.32 536.22,-371.88 525.72,-370.47 527.13,-377.32"/>
</g>
<!-- Node18 -->
<g id="node18" class="node">
<title>Node18</title>
<g id="a_node18"><a xlink:href="../../db/dac/class_selling_screen_script.html#a6f21d721a89c56c7039d62ce65f63f19" target="_top" xlink:title="Sets up the buy screen for the boltcutter upgrades">
<polygon fill="white" stroke="black" points="532,-413.37 532,-443.37 684,-443.37 684,-413.37 532,-413.37"/>
<text text-anchor="start" x="540" y="-431.37" font-family="Helvetica,sans-Serif" font-size="10.00">SellingScreenScript.Bolt</text>
<text text-anchor="middle" x="608" y="-420.37" font-family="Helvetica,sans-Serif" font-size="10.00">CutterBuyUpgradeScreenSetup</text>
</a>
</g>
</g>
<!-- Node6&#45;&gt;Node18 -->
<g id="edge22" class="edge">
<title>Node6&#45;&gt;Node18</title>
<path fill="none" stroke="midnightblue" d="M496.35,-406.3C504.63,-407.95 513.21,-409.66 521.75,-411.36"/>
<polygon fill="midnightblue" stroke="midnightblue" points="521.25,-414.83 531.74,-413.36 522.62,-407.97 521.25,-414.83"/>
</g>
<!-- Node22 -->
<g id="node22" class="node">
<title>Node22</title>
<g id="a_node22"><a xlink:href="../../db/dac/class_selling_screen_script.html#a9646ff5a19f1ba8a96f70ba33b46598d" target="_top" xlink:title="Sets up the buy screen for the shoe upgrades.">
<polygon fill="white" stroke="black" points="541.5,-228.37 541.5,-258.37 674.5,-258.37 674.5,-228.37 541.5,-228.37"/>
<text text-anchor="start" x="549.5" y="-246.37" font-family="Helvetica,sans-Serif" font-size="10.00">SellingScreenScript.Shoes</text>
<text text-anchor="middle" x="608" y="-235.37" font-family="Helvetica,sans-Serif" font-size="10.00">BuyUpgradeScreenSetup</text>
</a>
</g>
</g>
<!-- Node6&#45;&gt;Node22 -->
<g id="edge32" class="edge">
<title>Node6&#45;&gt;Node22</title>
<path fill="none" stroke="midnightblue" d="M443.38,-378.12C468.74,-345.66 526.31,-272.32 532,-268.37 534.85,-266.39 537.86,-264.55 540.99,-262.86"/>
<polygon fill="midnightblue" stroke="midnightblue" points="542.58,-265.98 550.02,-258.44 539.5,-259.69 542.58,-265.98"/>
</g>
<!-- Node25 -->
<g id="node25" class="node">
<title>Node25</title>
<g id="a_node25"><a xlink:href="../../db/dac/class_selling_screen_script.html#a3fa55c056600239b67876cea7b018479" target="_top" xlink:title="Sets up the buy screen for the shovel upgrades">
<polygon fill="white" stroke="black" points="541,-277.37 541,-307.37 675,-307.37 675,-277.37 541,-277.37"/>
<text text-anchor="start" x="549" y="-295.37" font-family="Helvetica,sans-Serif" font-size="10.00">SellingScreenScript.Shovel</text>
<text text-anchor="middle" x="608" y="-284.37" font-family="Helvetica,sans-Serif" font-size="10.00">BuyUpgradeScreenSetup</text>
</a>
</g>
</g>
<!-- Node6&#45;&gt;Node25 -->
<g id="edge38" class="edge">
<title>Node6&#45;&gt;Node25</title>
<path fill="none" stroke="midnightblue" d="M456.13,-378.31C476.38,-366.01 505.89,-348.29 532,-333.37 544.22,-326.38 557.67,-318.95 569.78,-312.35"/>
<polygon fill="midnightblue" stroke="midnightblue" points="571.61,-315.34 578.72,-307.5 568.27,-309.19 571.61,-315.34"/>
</g>
<!-- Node29 -->
<g id="node29" class="node">
<title>Node29</title>
<g id="a_node29"><a xlink:href="../../db/dac/class_selling_screen_script.html#a194e438410be280a13935e1ced513871" target="_top" xlink:title="Updates the text showing the current money">
<polygon fill="white" stroke="black" points="540,-565.37 540,-595.37 676,-595.37 676,-565.37 540,-565.37"/>
<text text-anchor="start" x="548" y="-583.37" font-family="Helvetica,sans-Serif" font-size="10.00">SellingScreenScript.Update</text>
<text text-anchor="middle" x="608" y="-572.37" font-family="Helvetica,sans-Serif" font-size="10.00">Money</text>
</a>
</g>
</g>
<!-- Node6&#45;&gt;Node29 -->
<g id="edge48" class="edge">
<title>Node6&#45;&gt;Node29</title>
<path fill="none" stroke="midnightblue" d="M445.86,-408.67C476.66,-441.49 549.21,-518.79 585.52,-557.47"/>
<polygon fill="midnightblue" stroke="midnightblue" points="583.29,-560.22 592.69,-565.11 588.39,-555.43 583.29,-560.22"/>
</g>
<!-- Node8 -->
<g id="node8" class="node">
<title>Node8</title>
<g id="a_node8"><a xlink:href="../../da/d9d/class_upgrade_manager.html#a83e85066f6b84234378229539bdae5a0" target="_top" xlink:title="Gets the list of Bodybag upgrades">
<polygon fill="white" stroke="black" points="732,-384.37 732,-414.37 886,-414.37 886,-384.37 732,-384.37"/>
<text text-anchor="start" x="740" y="-402.37" font-family="Helvetica,sans-Serif" font-size="10.00">UpgradeManager.GetBodyBags</text>
<text text-anchor="middle" x="809" y="-391.37" font-family="Helvetica,sans-Serif" font-size="10.00">Upgrades</text>
</a>
</g>
</g>
<!-- Node7&#45;&gt;Node8 -->
<g id="edge7" class="edge">
<title>Node7&#45;&gt;Node8</title>
<path fill="none" stroke="midnightblue" d="M679.72,-372.29C694.93,-375.5 711.13,-378.92 726.71,-382.21"/>
<polygon fill="midnightblue" stroke="midnightblue" points="726.33,-385.71 736.84,-384.35 727.78,-378.86 726.33,-385.71"/>
</g>
<!-- Node9 -->
<g id="node9" class="node">
<title>Node9</title>
<g id="a_node9"><a xlink:href="../../da/d9d/class_upgrade_manager.html#a4310af36b0d04dd2d35615c9cd2929ac" target="_top" xlink:title="Gets the Current BodyBag">
<polygon fill="white" stroke="black" points="1123,-417.37 1123,-447.37 1263,-447.37 1263,-417.37 1123,-417.37"/>
<text text-anchor="start" x="1131" y="-435.37" font-family="Helvetica,sans-Serif" font-size="10.00">UpgradeManager.GetCurrent</text>
<text text-anchor="middle" x="1193" y="-424.37" font-family="Helvetica,sans-Serif" font-size="10.00">BodyBag</text>
</a>
</g>
</g>
<!-- Node7&#45;&gt;Node9 -->
<g id="edge8" class="edge">
<title>Node7&#45;&gt;Node9</title>
<path fill="none" stroke="midnightblue" d="M679.61,-359.22C738.27,-361.36 823.82,-365.91 898,-375.37 973.2,-384.96 1058.12,-402.11 1117.29,-415.11"/>
<polygon fill="midnightblue" stroke="midnightblue" points="1116.77,-418.58 1127.29,-417.32 1118.28,-411.74 1116.77,-418.58"/>
</g>
<!-- Node10 -->
<g id="node10" class="node">
<title>Node10</title>
<g id="a_node10"><a xlink:href="../../dc/d32/class_item.html#a116cf3f2beed353bb1a2c86e55134c45" target="_top" xlink:title="Gets the description of the item">
<polygon fill="white" stroke="black" points="757.5,-307.87 757.5,-326.87 860.5,-326.87 860.5,-307.87 757.5,-307.87"/>
<text text-anchor="middle" x="809" y="-314.87" font-family="Helvetica,sans-Serif" font-size="10.00">Item.GetDescription</text>
</a>
</g>
</g>
<!-- Node7&#45;&gt;Node10 -->
<g id="edge9" class="edge">
<title>Node7&#45;&gt;Node10</title>
<path fill="none" stroke="midnightblue" d="M679.72,-343.15C702.97,-338.48 728.52,-333.34 750.65,-328.89"/>
<polygon fill="midnightblue" stroke="midnightblue" points="751.44,-332.3 760.56,-326.9 750.06,-325.44 751.44,-332.3"/>
</g>
<!-- Node11 -->
<g id="node11" class="node">
<title>Node11</title>
<g id="a_node11"><a xlink:href="../../dc/d32/class_item.html#ac7b96dade98055fda61c709d1b5a9f43" target="_top" xlink:title="Gets the sprite icon of the item">
<polygon fill="white" stroke="black" points="773,-269.87 773,-288.87 845,-288.87 845,-269.87 773,-269.87"/>
<text text-anchor="middle" x="809" y="-276.87" font-family="Helvetica,sans-Serif" font-size="10.00">Item.GetIcon</text>
</a>
</g>
</g>
<!-- Node7&#45;&gt;Node11 -->
<g id="edge10" class="edge">
<title>Node7&#45;&gt;Node11</title>
<path fill="none" stroke="midnightblue" d="M637.22,-342.3C669.75,-324.96 718.9,-298.77 720,-298.37 733.58,-293.4 748.85,-289.54 762.8,-286.64"/>
<polygon fill="midnightblue" stroke="midnightblue" points="763.55,-290.06 772.68,-284.69 762.19,-283.19 763.55,-290.06"/>
</g>
<!-- Node12 -->
<g id="node12" class="node">
<title>Node12</title>
<g id="a_node12"><a xlink:href="../../da/d9d/class_upgrade_manager.html#ace07916b537615eeb092432d31b9bb81" target="_top" xlink:title="Upgrades the body bag level to the given level">
<polygon fill="white" stroke="black" points="724.5,-580.87 724.5,-599.87 893.5,-599.87 893.5,-580.87 724.5,-580.87"/>
<text text-anchor="middle" x="809" y="-587.87" font-family="Helvetica,sans-Serif" font-size="10.00">UpgradeManager.UpgradeBodyBag</text>
</a>
</g>
</g>
<!-- Node7&#45;&gt;Node12 -->
<g id="edge11" class="edge">
<title>Node7&#45;&gt;Node12</title>
<path fill="none" stroke="midnightblue" d="M645.27,-372.5C659.36,-380.1 674.38,-390.65 684,-404.37 727.6,-466.53 666.32,-517.67 720,-571.37 721.29,-572.66 722.65,-573.87 724.06,-575.01"/>
<polygon fill="midnightblue" stroke="midnightblue" points="722.45,-578.14 732.72,-580.76 726.33,-572.31 722.45,-578.14"/>
</g>
<!-- Node12&#45;&gt;Node2 -->
<g id="edge12" class="edge">
<title>Node12&#45;&gt;Node2</title>
<path fill="none" stroke="midnightblue" d="M860.08,-599.91C887.24,-605.08 920.99,-611.51 949.53,-616.94"/>
<polygon fill="midnightblue" stroke="midnightblue" points="948.92,-620.39 959.39,-618.82 950.23,-613.51 948.92,-620.39"/>
</g>
<!-- Node12&#45;&gt;Node3 -->
<g id="edge13" class="edge">
<title>Node12&#45;&gt;Node3</title>
<path fill="none" stroke="midnightblue" d="M854.78,-580.77C868.64,-577.78 883.96,-574.46 898,-571.37 909.35,-568.87 921.35,-566.2 933.1,-563.58"/>
<polygon fill="midnightblue" stroke="midnightblue" points="933.9,-566.99 942.89,-561.39 932.37,-560.16 933.9,-566.99"/>
</g>
<!-- Node12&#45;&gt;Node4 -->
<g id="edge20" class="edge">
<title>Node12&#45;&gt;Node4</title>
<path fill="none" stroke="midnightblue" d="M884.08,-580.81C889.13,-578.27 893.85,-575.17 898,-571.37 950.22,-523.54 993.84,-299.23 1006.08,-231.06"/>
<polygon fill="midnightblue" stroke="midnightblue" points="1009.53,-231.64 1007.82,-221.19 1002.64,-230.43 1009.53,-231.64"/>
</g>
<!-- Node12&#45;&gt;Node5 -->
<g id="edge21" class="edge">
<title>Node12&#45;&gt;Node5</title>
<path fill="none" stroke="midnightblue" d="M755.94,-580.77C744.02,-578.12 731.48,-574.97 720,-571.37 703.46,-566.18 700.48,-561.73 684,-556.37 545.4,-511.3 504.14,-523.74 365,-480.37 345.68,-474.35 324.8,-466.5 306.92,-459.35"/>
<polygon fill="midnightblue" stroke="midnightblue" points="307.91,-455.97 297.33,-455.46 305.28,-462.46 307.91,-455.97"/>
</g>
<!-- Node13 -->
<g id="node13" class="node">
<title>Node13</title>
<g id="a_node13"><a xlink:href="../../db/d69/class_inventory_bag.html#af4c1ed3c7e8359dba77f3f825893aa74" target="_top" xlink:title="Dynamically generates the bag to include the size of the current body bag and then update to keep any...">
<polygon fill="white" stroke="black" points="954,-580.87 954,-599.87 1067,-599.87 1067,-580.87 954,-580.87"/>
<text text-anchor="middle" x="1010.5" y="-587.87" font-family="Helvetica,sans-Serif" font-size="10.00">InventoryBag.Populate</text>
</a>
</g>
</g>
<!-- Node12&#45;&gt;Node13 -->
<g id="edge14" class="edge">
<title>Node12&#45;&gt;Node13</title>
<path fill="none" stroke="midnightblue" d="M893.74,-590.37C910.36,-590.37 927.59,-590.37 943.51,-590.37"/>
<polygon fill="midnightblue" stroke="midnightblue" points="943.77,-593.87 953.77,-590.37 943.77,-586.87 943.77,-593.87"/>
</g>
<!-- Node13&#45;&gt;Node9 -->
<g id="edge16" class="edge">
<title>Node13&#45;&gt;Node9</title>
<path fill="none" stroke="midnightblue" d="M1067.3,-581.54C1074.31,-578.97 1081.09,-575.65 1087,-571.37 1111.26,-553.79 1105.31,-538.55 1123,-514.37 1138.15,-493.65 1157.01,-471.45 1171.18,-455.38"/>
<polygon fill="midnightblue" stroke="midnightblue" points="1174.09,-457.37 1178.12,-447.57 1168.86,-452.72 1174.09,-457.37"/>
</g>
<!-- Node14 -->
<g id="node14" class="node">
<title>Node14</title>
<g id="a_node14"><a xlink:href="../../d8/dfa/class_run_manager.html#a9430e7b64dec87034c8dfa732281ae55" target="_top" xlink:title="Getter for the array of bodies that have been retrieved during the run.">
<polygon fill="white" stroke="black" points="1133,-599.87 1133,-618.87 1253,-618.87 1253,-599.87 1133,-599.87"/>
<text text-anchor="middle" x="1193" y="-606.87" font-family="Helvetica,sans-Serif" font-size="10.00">RunManager.GetBodies</text>
</a>
</g>
</g>
<!-- Node13&#45;&gt;Node14 -->
<g id="edge15" class="edge">
<title>Node13&#45;&gt;Node14</title>
<path fill="none" stroke="midnightblue" d="M1067.13,-596.22C1084.7,-598.07 1104.33,-600.14 1122.72,-602.07"/>
<polygon fill="midnightblue" stroke="midnightblue" points="1122.49,-605.57 1132.8,-603.13 1123.22,-598.61 1122.49,-605.57"/>
</g>
<!-- Node15 -->
<g id="node15" class="node">
<title>Node15</title>
<g id="a_node15"><a xlink:href="../../d0/dcb/class_body.html#a246a4048f0bf74cf0e396a3720e30f93" target="_top" xlink:title="Getter for the quality of the body.">
<polygon fill="white" stroke="black" points="1150,-561.87 1150,-580.87 1236,-580.87 1236,-561.87 1150,-561.87"/>
<text text-anchor="middle" x="1193" y="-568.87" font-family="Helvetica,sans-Serif" font-size="10.00">Body.GetDecay</text>
</a>
</g>
</g>
<!-- Node13&#45;&gt;Node15 -->
<g id="edge17" class="edge">
<title>Node13&#45;&gt;Node15</title>
<path fill="none" stroke="midnightblue" d="M1067.13,-584.51C1090.21,-582.08 1116.86,-579.28 1139.6,-576.88"/>
<polygon fill="midnightblue" stroke="midnightblue" points="1140.16,-580.34 1149.74,-575.81 1139.43,-573.38 1140.16,-580.34"/>
</g>
<!-- Node16 -->
<g id="node16" class="node">
<title>Node16</title>
<g id="a_node16"><a xlink:href="../../d0/dcb/class_body.html#a3473865f64494e89c1ec7877fd6ca8cf" target="_top" xlink:title="Getter for the body sprite&#39;s material.">
<polygon fill="white" stroke="black" points="1147,-523.87 1147,-542.87 1239,-542.87 1239,-523.87 1147,-523.87"/>
<text text-anchor="middle" x="1193" y="-530.87" font-family="Helvetica,sans-Serif" font-size="10.00">Body.GetMaterial</text>
</a>
</g>
</g>
<!-- Node13&#45;&gt;Node16 -->
<g id="edge18" class="edge">
<title>Node13&#45;&gt;Node16</title>
<path fill="none" stroke="midnightblue" d="M1056.76,-580.85C1066.86,-578.21 1077.41,-575.04 1087,-571.37 1103.89,-564.89 1106.18,-559.03 1123,-552.37 1128.99,-549.99 1135.38,-547.8 1141.77,-545.82"/>
<polygon fill="midnightblue" stroke="midnightblue" points="1143.15,-549.06 1151.74,-542.87 1141.16,-542.35 1143.15,-549.06"/>
</g>
<!-- Node17 -->
<g id="node17" class="node">
<title>Node17</title>
<g id="a_node17"><a xlink:href="../../d3/d42/class_body_bag.html#aff384d0668e9dfe4c31ee2dac68a9e9a" target="_top" xlink:title="Gets the max bodies that can be carried/collected in one night">
<polygon fill="white" stroke="black" points="1131,-637.87 1131,-656.87 1255,-656.87 1255,-637.87 1131,-637.87"/>
<text text-anchor="middle" x="1193" y="-644.87" font-family="Helvetica,sans-Serif" font-size="10.00">BodyBag.GetMaxBodies</text>
</a>
</g>
</g>
<!-- Node13&#45;&gt;Node17 -->
<g id="edge19" class="edge">
<title>Node13&#45;&gt;Node17</title>
<path fill="none" stroke="midnightblue" d="M1056.76,-599.88C1066.86,-602.52 1077.41,-605.69 1087,-609.37 1103.89,-615.84 1106.18,-621.7 1123,-628.37 1128.99,-630.74 1135.38,-632.93 1141.77,-634.91"/>
<polygon fill="midnightblue" stroke="midnightblue" points="1141.16,-638.38 1151.74,-637.86 1143.15,-631.67 1141.16,-638.38"/>
</g>
<!-- Node18&#45;&gt;Node10 -->
<g id="edge25" class="edge">
<title>Node18&#45;&gt;Node10</title>
<path fill="none" stroke="midnightblue" d="M636.25,-413.16C674.62,-391.76 744.09,-353.01 781.85,-331.95"/>
<polygon fill="midnightblue" stroke="midnightblue" points="783.7,-334.93 790.73,-327 780.29,-328.81 783.7,-334.93"/>
</g>
<!-- Node18&#45;&gt;Node11 -->
<g id="edge26" class="edge">
<title>Node18&#45;&gt;Node11</title>
<path fill="none" stroke="midnightblue" d="M642.88,-413.36C657.06,-405.73 672.81,-395.31 684,-382.37 710.56,-351.64 688.66,-324.2 720,-298.37 731.86,-288.59 747.59,-283.52 762.46,-280.99"/>
<polygon fill="midnightblue" stroke="midnightblue" points="763.13,-284.43 772.57,-279.61 762.19,-277.49 763.13,-284.43"/>
</g>
<!-- Node19 -->
<g id="node19" class="node">
<title>Node19</title>
<g id="a_node19"><a xlink:href="../../da/d9d/class_upgrade_manager.html#aecd5407174be3d14fe37025b9ae9fefd" target="_top" xlink:title="Gets the list of Boltcutter upgrades">
<polygon fill="white" stroke="black" points="730,-433.37 730,-463.37 888,-463.37 888,-433.37 730,-433.37"/>
<text text-anchor="start" x="738" y="-451.37" font-family="Helvetica,sans-Serif" font-size="10.00">UpgradeManager.GetBoltCutters</text>
<text text-anchor="middle" x="809" y="-440.37" font-family="Helvetica,sans-Serif" font-size="10.00">Upgrades</text>
</a>
</g>
</g>
<!-- Node18&#45;&gt;Node19 -->
<g id="edge23" class="edge">
<title>Node18&#45;&gt;Node19</title>
<path fill="none" stroke="midnightblue" d="M684.23,-435.93C695.73,-437.08 707.68,-438.28 719.42,-439.46"/>
<polygon fill="midnightblue" stroke="midnightblue" points="719.38,-442.98 729.68,-440.49 720.08,-436.01 719.38,-442.98"/>
</g>
<!-- Node20 -->
<g id="node20" class="node">
<title>Node20</title>
<g id="a_node20"><a xlink:href="../../da/d9d/class_upgrade_manager.html#add748c93ae6903a107661f23fd414bda" target="_top" xlink:title="Gets the Current BoltCutters">
<polygon fill="white" stroke="black" points="739,-482.37 739,-512.37 879,-512.37 879,-482.37 739,-482.37"/>
<text text-anchor="start" x="747" y="-500.37" font-family="Helvetica,sans-Serif" font-size="10.00">UpgradeManager.GetCurrent</text>
<text text-anchor="middle" x="809" y="-489.37" font-family="Helvetica,sans-Serif" font-size="10.00">BolltCutters</text>
</a>
</g>
</g>
<!-- Node18&#45;&gt;Node20 -->
<g id="edge24" class="edge">
<title>Node18&#45;&gt;Node20</title>
<path fill="none" stroke="midnightblue" d="M643.1,-443.42C664.86,-452.72 693.8,-464.52 720,-473.37 726.25,-475.48 732.8,-477.54 739.38,-479.5"/>
<polygon fill="midnightblue" stroke="midnightblue" points="738.43,-482.87 749.01,-482.32 740.39,-476.16 738.43,-482.87"/>
</g>
<!-- Node21 -->
<g id="node21" class="node">
<title>Node21</title>
<g id="a_node21"><a xlink:href="../../da/d9d/class_upgrade_manager.html#ae480ebe9e6b219adb20e0b410bc69cc7" target="_top" xlink:title="Upgrades the boltcutters level to the given level">
<polygon fill="white" stroke="black" points="736,-531.37 736,-561.37 882,-561.37 882,-531.37 736,-531.37"/>
<text text-anchor="start" x="744" y="-549.37" font-family="Helvetica,sans-Serif" font-size="10.00">UpgradeManager.UpgradeBolt</text>
<text text-anchor="middle" x="809" y="-538.37" font-family="Helvetica,sans-Serif" font-size="10.00">Cutter</text>
</a>
</g>
</g>
<!-- Node18&#45;&gt;Node21 -->
<g id="edge27" class="edge">
<title>Node18&#45;&gt;Node21</title>
<path fill="none" stroke="midnightblue" d="M639.27,-443.48C653.7,-451.51 670.67,-462.23 684,-474.37 703.72,-492.32 697.94,-507.38 720,-522.37 722.39,-523.99 724.9,-525.51 727.48,-526.92"/>
<polygon fill="midnightblue" stroke="midnightblue" points="726,-530.1 736.52,-531.35 729.07,-523.81 726,-530.1"/>
</g>
<!-- Node21&#45;&gt;Node2 -->
<g id="edge28" class="edge">
<title>Node21&#45;&gt;Node2</title>
<path fill="none" stroke="midnightblue" d="M877.42,-561.41C884.61,-564.21 891.62,-567.5 898,-571.37 917.9,-583.42 913.92,-597.62 934,-609.37 937.84,-611.62 941.95,-613.6 946.19,-615.35"/>
<polygon fill="midnightblue" stroke="midnightblue" points="945.02,-618.65 955.62,-618.83 947.44,-612.09 945.02,-618.65"/>
</g>
<!-- Node21&#45;&gt;Node3 -->
<g id="edge29" class="edge">
<title>Node21&#45;&gt;Node3</title>
<path fill="none" stroke="midnightblue" d="M882.02,-546.37C895.59,-546.37 909.89,-546.37 923.82,-546.37"/>
<polygon fill="midnightblue" stroke="midnightblue" points="923.88,-549.87 933.88,-546.37 923.88,-542.87 923.88,-549.87"/>
</g>
<!-- Node21&#45;&gt;Node4 -->
<g id="edge30" class="edge">
<title>Node21&#45;&gt;Node4</title>
<path fill="none" stroke="midnightblue" d="M882.29,-533.13C888,-530.21 893.35,-526.67 898,-522.37 985.86,-441.1 1004.57,-285.7 1008.49,-231"/>
<polygon fill="midnightblue" stroke="midnightblue" points="1011.98,-231.12 1009.12,-220.92 1005,-230.68 1011.98,-231.12"/>
</g>
<!-- Node21&#45;&gt;Node5 -->
<g id="edge31" class="edge">
<title>Node21&#45;&gt;Node5</title>
<path fill="none" stroke="midnightblue" d="M753.59,-531.33C732.01,-525.63 706.93,-519.33 684,-514.37 564.36,-488.48 424.16,-465.3 339.27,-452.04"/>
<polygon fill="midnightblue" stroke="midnightblue" points="339.61,-448.55 329.19,-450.47 338.54,-455.47 339.61,-448.55"/>
</g>
<!-- Node22&#45;&gt;Node1 -->
<g id="edge37" class="edge">
<title>Node22&#45;&gt;Node1</title>
<path fill="none" stroke="midnightblue" d="M560.89,-258.4C551.31,-261.62 541.31,-265.05 532,-268.37 374.42,-324.55 188.3,-397.36 113.31,-426.96"/>
<polygon fill="midnightblue" stroke="midnightblue" points="111.91,-423.75 103.89,-430.68 114.48,-430.26 111.91,-423.75"/>
</g>
<!-- Node22&#45;&gt;Node10 -->
<g id="edge34" class="edge">
<title>Node22&#45;&gt;Node10</title>
<path fill="none" stroke="midnightblue" d="M662.51,-258.45C669.92,-261.33 677.29,-264.63 684,-268.37 702.19,-278.5 701.28,-289.24 720,-298.37 728.55,-302.53 738.01,-305.8 747.46,-308.34"/>
<polygon fill="midnightblue" stroke="midnightblue" points="746.72,-311.77 757.27,-310.75 748.39,-304.97 746.72,-311.77"/>
</g>
<!-- Node22&#45;&gt;Node11 -->
<g id="edge35" class="edge">
<title>Node22&#45;&gt;Node11</title>
<path fill="none" stroke="midnightblue" d="M674.71,-255.25C703.6,-260.48 736.79,-266.48 762.83,-271.19"/>
<polygon fill="midnightblue" stroke="midnightblue" points="762.33,-274.66 772.79,-273 763.57,-267.77 762.33,-274.66"/>
</g>
<!-- Node23 -->
<g id="node23" class="node">
<title>Node23</title>
<g id="a_node23"><a xlink:href="../../da/d9d/class_upgrade_manager.html#af0d243eab40ef16681cda7e18367ce43" target="_top" xlink:title="Gets the Current Shoes">
<polygon fill="white" stroke="black" points="739,-45.37 739,-75.37 879,-75.37 879,-45.37 739,-45.37"/>
<text text-anchor="start" x="747" y="-63.37" font-family="Helvetica,sans-Serif" font-size="10.00">UpgradeManager.GetCurrent</text>
<text text-anchor="middle" x="809" y="-52.37" font-family="Helvetica,sans-Serif" font-size="10.00">Shoes</text>
</a>
</g>
</g>
<!-- Node22&#45;&gt;Node23 -->
<g id="edge33" class="edge">
<title>Node22&#45;&gt;Node23</title>
<path fill="none" stroke="midnightblue" d="M615.39,-228.15C629.45,-196.56 666.16,-123.61 720,-85.37 723.03,-83.22 726.23,-81.25 729.56,-79.45"/>
<polygon fill="midnightblue" stroke="midnightblue" points="731.14,-82.58 738.63,-75.08 728.1,-76.27 731.14,-82.58"/>
</g>
<!-- Node24 -->
<g id="node24" class="node">
<title>Node24</title>
<g id="a_node24"><a xlink:href="../../da/d9d/class_upgrade_manager.html#ad55538552884c9d76e05c730e38580b4" target="_top" xlink:title="Gets the list of shoe upgrades">
<polygon fill="white" stroke="black" points="720,-132.87 720,-151.87 898,-151.87 898,-132.87 720,-132.87"/>
<text text-anchor="middle" x="809" y="-139.87" font-family="Helvetica,sans-Serif" font-size="10.00">UpgradeManager.GetShoesUpgrades</text>
</a>
</g>
</g>
<!-- Node22&#45;&gt;Node24 -->
<g id="edge36" class="edge">
<title>Node22&#45;&gt;Node24</title>
<path fill="none" stroke="midnightblue" d="M625.3,-228.09C645.82,-209.72 682.87,-179.26 720,-162.37 726.47,-159.42 733.41,-156.89 740.45,-154.73"/>
<polygon fill="midnightblue" stroke="midnightblue" points="741.42,-158.09 750.09,-151.99 739.51,-151.36 741.42,-158.09"/>
</g>
<!-- Node25&#45;&gt;Node10 -->
<g id="edge40" class="edge">
<title>Node25&#45;&gt;Node10</title>
<path fill="none" stroke="midnightblue" d="M675.26,-300.69C698.5,-303.61 724.47,-306.87 747.24,-309.73"/>
<polygon fill="midnightblue" stroke="midnightblue" points="747.09,-313.24 757.45,-311.02 747.96,-306.3 747.09,-313.24"/>
</g>
<!-- Node25&#45;&gt;Node11 -->
<g id="edge41" class="edge">
<title>Node25&#45;&gt;Node11</title>
<path fill="none" stroke="midnightblue" d="M675.26,-288.04C703.98,-286.16 736.88,-284.01 762.73,-282.32"/>
<polygon fill="midnightblue" stroke="midnightblue" points="763.24,-285.8 772.99,-281.65 762.78,-278.81 763.24,-285.8"/>
</g>
<!-- Node26 -->
<g id="node26" class="node">
<title>Node26</title>
<g id="a_node26"><a xlink:href="../../da/d9d/class_upgrade_manager.html#a344e78fbeb73a4ad119febe603a5780b" target="_top" xlink:title="Gets the Current Shovel">
<polygon fill="white" stroke="black" points="739,-171.37 739,-201.37 879,-201.37 879,-171.37 739,-171.37"/>
<text text-anchor="start" x="747" y="-189.37" font-family="Helvetica,sans-Serif" font-size="10.00">UpgradeManager.GetCurrent</text>
<text text-anchor="middle" x="809" y="-178.37" font-family="Helvetica,sans-Serif" font-size="10.00">Shovel</text>
</a>
</g>
</g>
<!-- Node25&#45;&gt;Node26 -->
<g id="edge39" class="edge">
<title>Node25&#45;&gt;Node26</title>
<path fill="none" stroke="midnightblue" d="M669.46,-277.27C674.63,-274.74 679.57,-271.8 684,-268.37 707.7,-250.03 696.01,-229.31 720,-211.37 723.04,-209.09 726.28,-207.02 729.66,-205.15"/>
<polygon fill="midnightblue" stroke="midnightblue" points="731.45,-208.16 738.87,-200.6 728.35,-201.89 731.45,-208.16"/>
</g>
<!-- Node27 -->
<g id="node27" class="node">
<title>Node27</title>
<g id="a_node27"><a xlink:href="../../da/d9d/class_upgrade_manager.html#ad7b9edf00b9e970af51c1b72c5d24a2f" target="_top" xlink:title="Gets the list of shovel upgrades">
<polygon fill="white" stroke="black" points="740.5,-220.37 740.5,-250.37 877.5,-250.37 877.5,-220.37 740.5,-220.37"/>
<text text-anchor="start" x="748.5" y="-238.37" font-family="Helvetica,sans-Serif" font-size="10.00">UpgradeManager.GetShovel</text>
<text text-anchor="middle" x="809" y="-227.37" font-family="Helvetica,sans-Serif" font-size="10.00">Upgrades</text>
</a>
</g>
</g>
<!-- Node25&#45;&gt;Node27 -->
<g id="edge42" class="edge">
<title>Node25&#45;&gt;Node27</title>
<path fill="none" stroke="midnightblue" d="M660.94,-277.35C679.56,-271.97 700.72,-265.88 720,-260.37 728.12,-258.04 736.67,-255.6 745.11,-253.2"/>
<polygon fill="midnightblue" stroke="midnightblue" points="746.28,-256.51 754.94,-250.4 744.37,-249.77 746.28,-256.51"/>
</g>
<!-- Node28 -->
<g id="node28" class="node">
<title>Node28</title>
<g id="a_node28"><a xlink:href="../../da/d9d/class_upgrade_manager.html#a366539e3c1c5a211c0ec5cac77ccbd58" target="_top" xlink:title="Upgrades the shovel level to the given level">
<polygon fill="white" stroke="black" points="730,-94.87 730,-113.87 888,-113.87 888,-94.87 730,-94.87"/>
<text text-anchor="middle" x="809" y="-101.87" font-family="Helvetica,sans-Serif" font-size="10.00">UpgradeManager.UpgradeShovel</text>
</a>
</g>
</g>
<!-- Node25&#45;&gt;Node28 -->
<g id="edge43" class="edge">
<title>Node25&#45;&gt;Node28</title>
<path fill="none" stroke="midnightblue" d="M673.22,-277.18C677.17,-274.68 680.82,-271.76 684,-268.37 729.37,-219.88 672.33,-169.59 720,-123.37 721.47,-121.94 723.03,-120.61 724.65,-119.36"/>
<polygon fill="midnightblue" stroke="midnightblue" points="726.71,-122.2 733.27,-113.88 722.95,-116.3 726.71,-122.2"/>
</g>
<!-- Node28&#45;&gt;Node2 -->
<g id="edge44" class="edge">
<title>Node28&#45;&gt;Node2</title>
<path fill="none" stroke="midnightblue" d="M886.68,-113.88C890.88,-116.47 894.72,-119.59 898,-123.37 969.09,-205.07 864.31,-526.47 934,-609.37 935.3,-610.92 936.72,-612.35 938.22,-613.68"/>
<polygon fill="midnightblue" stroke="midnightblue" points="936.2,-616.54 946.38,-619.45 940.24,-610.82 936.2,-616.54"/>
</g>
<!-- Node28&#45;&gt;Node3 -->
<g id="edge45" class="edge">
<title>Node28&#45;&gt;Node3</title>
<path fill="none" stroke="midnightblue" d="M884.67,-113.95C889.53,-116.48 894.05,-119.59 898,-123.37 912.9,-137.61 982.76,-432.1 1003.61,-521.11"/>
<polygon fill="midnightblue" stroke="midnightblue" points="1000.22,-521.97 1005.9,-530.91 1007.03,-520.38 1000.22,-521.97"/>
</g>
<!-- Node28&#45;&gt;Node4 -->
<g id="edge46" class="edge">
<title>Node28&#45;&gt;Node4</title>
<path fill="none" stroke="midnightblue" d="M871.78,-113.95C880.8,-116.41 889.8,-119.5 898,-123.37 936.01,-141.28 972.81,-174.33 993.18,-194.43"/>
<polygon fill="midnightblue" stroke="midnightblue" points="990.86,-197.06 1000.39,-201.69 995.82,-192.13 990.86,-197.06"/>
</g>
<!-- Node28&#45;&gt;Node5 -->
<g id="edge47" class="edge">
<title>Node28&#45;&gt;Node5</title>
<path fill="none" stroke="midnightblue" d="M752.93,-113.96C741.88,-116.52 730.45,-119.64 720,-123.37 631.63,-154.86 610.53,-168.03 532,-219.37 434.19,-283.31 330.47,-376.38 285.29,-418.37"/>
<polygon fill="midnightblue" stroke="midnightblue" points="282.72,-415.98 277.8,-425.36 287.49,-421.1 282.72,-415.98"/>
</g>
<!-- Node29&#45;&gt;Node2 -->
<g id="edge49" class="edge">
<title>Node29&#45;&gt;Node2</title>
<path fill="none" stroke="midnightblue" d="M658.3,-595.39C677.4,-600.65 699.55,-606.05 720,-609.37 792.94,-621.18 877.34,-625.69 936.12,-627.39"/>
<polygon fill="midnightblue" stroke="midnightblue" points="936.34,-630.9 946.43,-627.67 936.53,-623.9 936.34,-630.9"/>
</g>
</g>
</svg>
