<?xml version="1.0" encoding="UTF-8" standalone="no"?>
<!DOCTYPE svg PUBLIC "-//W3C//DTD SVG 1.1//EN"
 "http://www.w3.org/Graphics/SVG/1.1/DTD/svg11.dtd">
<!-- Generated by graphviz version 3.0.0 (20220226.1711)
 -->
<!-- Title: Guard Pages: 1 -->
<svg width="698pt" height="1055pt"
 viewBox="0.00 0.00 698.00 1055.02" xmlns="http://www.w3.org/2000/svg" xmlns:xlink="http://www.w3.org/1999/xlink">
<g id="graph0" class="graph" transform="scale(1 1) rotate(0) translate(4 1051.02)">
<title>Guard</title>
<polygon fill="white" stroke="transparent" points="-4,4 -4,-1051.02 694,-1051.02 694,4 -4,4"/>
<!-- Node1 -->
<g id="node1" class="node">
<title>Node1</title>
<g id="a_node1"><a xlink:title=" ">
<polygon fill="#bfbfbf" stroke="black" points="647,-240.74 647,-259.74 690,-259.74 690,-240.74 647,-240.74"/>
<text text-anchor="middle" x="668.5" y="-247.74" font-family="Helvetica,sans-Serif" font-size="10.00">Guard</text>
</a>
</g>
</g>
<!-- Node2 -->
<g id="node2" class="node">
<title>Node2</title>
<g id="a_node2"><a xlink:href="../../da/d01/class_mono_behaviour.html" target="_top" xlink:title=" ">
<polygon fill="white" stroke="black" points="0,-786.74 0,-805.74 83,-805.74 83,-786.74 0,-786.74"/>
<text text-anchor="middle" x="41.5" y="-793.74" font-family="Helvetica,sans-Serif" font-size="10.00">MonoBehaviour</text>
</a>
</g>
</g>
<!-- Node2&#45;&gt;Node1 -->
<g id="edge1" class="edge">
<title>Node2&#45;&gt;Node1</title>
<path fill="none" stroke="midnightblue" d="M47.85,-815.75C55.97,-842.74 73.44,-892.02 101,-926.24 121.12,-951.24 128.74,-958.57 159,-969.24 356.33,-1038.88 510.49,-1113.71 629,-941.24 669.36,-882.51 667.98,-339.15 667.56,-259.88"/>
<polygon fill="midnightblue" stroke="midnightblue" points="51.16,-814.6 45.03,-805.96 44.44,-816.54 51.16,-814.6"/>
</g>
<!-- Node13 -->
<g id="node13" class="node">
<title>Node13</title>
<g id="a_node13"><a xlink:href="../../d1/d3d/class_map_generation.html" target="_top" xlink:title="Handles everything for map generation withing a graveyard.">
<polygon fill="white" stroke="black" points="456,-597.74 456,-616.74 539,-616.74 539,-597.74 456,-597.74"/>
<text text-anchor="middle" x="497.5" y="-604.74" font-family="Helvetica,sans-Serif" font-size="10.00">MapGeneration</text>
</a>
</g>
</g>
<!-- Node2&#45;&gt;Node13 -->
<g id="edge13" class="edge">
<title>Node2&#45;&gt;Node13</title>
<path fill="none" stroke="midnightblue" d="M93.46,-801.35C187.61,-809.68 384.05,-821.6 437,-782.24 491.85,-741.46 496.62,-647.4 496.67,-616.95"/>
<polygon fill="midnightblue" stroke="midnightblue" points="93.59,-797.84 83.31,-800.43 92.96,-804.82 93.59,-797.84"/>
</g>
<!-- Node16 -->
<g id="node16" class="node">
<title>Node16</title>
<g id="a_node16"><a xlink:href="../../d7/d55/class_tile_data.html" target="_top" xlink:title="Stores information on each tile in the map.">
<polygon fill="white" stroke="black" points="211.5,-542.74 211.5,-561.74 263.5,-561.74 263.5,-542.74 211.5,-542.74"/>
<text text-anchor="middle" x="237.5" y="-549.74" font-family="Helvetica,sans-Serif" font-size="10.00">TileData</text>
</a>
</g>
</g>
<!-- Node2&#45;&gt;Node16 -->
<g id="edge18" class="edge">
<title>Node2&#45;&gt;Node16</title>
<path fill="none" stroke="midnightblue" d="M46.3,-776.56C56.09,-731.73 86.62,-622 159,-571.24 174.31,-560.51 195.03,-555.81 211.19,-553.77"/>
<polygon fill="midnightblue" stroke="midnightblue" points="42.85,-775.98 44.25,-786.48 49.7,-777.4 42.85,-775.98"/>
</g>
<!-- Node19 -->
<g id="node19" class="node">
<title>Node19</title>
<g id="a_node19"><a xlink:href="../../d3/d59/class_unity_engine_1_1_a_i_1_1_nav_mesh_surface.html" target="_top" xlink:title=" ">
<polygon fill="white" stroke="black" points="159,-618.74 159,-637.74 316,-637.74 316,-618.74 159,-618.74"/>
<text text-anchor="middle" x="237.5" y="-625.74" font-family="Helvetica,sans-Serif" font-size="10.00">UnityEngine.AI.NavMeshSurface</text>
</a>
</g>
</g>
<!-- Node2&#45;&gt;Node19 -->
<g id="edge26" class="edge">
<title>Node2&#45;&gt;Node19</title>
<path fill="none" stroke="midnightblue" d="M51.9,-777.22C68.76,-745.19 107.24,-680.7 159,-647.24 165.05,-643.33 171.84,-640.23 178.82,-637.76"/>
<polygon fill="midnightblue" stroke="midnightblue" points="48.64,-775.91 47.2,-786.4 54.87,-779.1 48.64,-775.91"/>
</g>
<!-- Node22 -->
<g id="node22" class="node">
<title>Node22</title>
<g id="a_node22"><a xlink:href="../../df/d5c/class_map_commands.html" target="_top" xlink:title=" ">
<polygon fill="white" stroke="black" points="455,-892.74 455,-911.74 540,-911.74 540,-892.74 455,-892.74"/>
<text text-anchor="middle" x="497.5" y="-899.74" font-family="Helvetica,sans-Serif" font-size="10.00">MapCommands</text>
</a>
</g>
</g>
<!-- Node2&#45;&gt;Node22 -->
<g id="edge31" class="edge">
<title>Node2&#45;&gt;Node22</title>
<path fill="none" stroke="midnightblue" d="M50.83,-815.16C66.5,-848.06 103.82,-914.79 159,-941.24 270.52,-994.7 317.56,-961.33 437,-929.24 451.9,-925.24 467.76,-917.87 479.36,-911.84"/>
<polygon fill="midnightblue" stroke="midnightblue" points="53.87,-813.39 46.51,-805.77 47.51,-816.31 53.87,-813.39"/>
</g>
<!-- Node3 -->
<g id="node3" class="node">
<title>Node3</title>
<g id="a_node3"><a xlink:title=" ">
<polygon fill="white" stroke="black" points="207,-835.74 207,-854.74 268,-854.74 268,-835.74 207,-835.74"/>
<text text-anchor="middle" x="237.5" y="-842.74" font-family="Helvetica,sans-Serif" font-size="10.00">Vector2Int</text>
</a>
</g>
</g>
<!-- Node3&#45;&gt;Node1 -->
<g id="edge2" class="edge">
<title>Node3&#45;&gt;Node1</title>
<path fill="none" stroke="#9a32cd" stroke-dasharray="5,2" d="M278.14,-855.2C320.56,-863.54 388.33,-869.98 437,-841.24 658.45,-710.51 667.69,-326.58 667.6,-260.11"/>
<polygon fill="#9a32cd" stroke="#9a32cd" points="278.69,-851.74 268.19,-853.12 277.26,-858.59 278.69,-851.74"/>
<text text-anchor="middle" x="497.5" y="-839.24" font-family="Helvetica,sans-Serif" font-size="10.00"> LongTermGoal</text>
<text text-anchor="middle" x="497.5" y="-828.24" font-family="Helvetica,sans-Serif" font-size="10.00">LookoutGoals</text>
</g>
<!-- Node3&#45;&gt;Node13 -->
<g id="edge23" class="edge">
<title>Node3&#45;&gt;Node13</title>
<path fill="none" stroke="#9a32cd" stroke-dasharray="5,2" d="M278.35,-838.7C334.59,-829.31 431.12,-812.56 437,-807.24 494.76,-754.99 497.47,-649.44 496.85,-616.97"/>
<polygon fill="#9a32cd" stroke="#9a32cd" points="277.64,-835.27 268.34,-840.37 278.78,-842.18 277.64,-835.27"/>
<text text-anchor="middle" x="385.5" y="-831.24" font-family="Helvetica,sans-Serif" font-size="10.00"> GraveyardEntrancePos</text>
</g>
<!-- Node4 -->
<g id="node4" class="node">
<title>Node4</title>
<g id="a_node4"><a xlink:title=" ">
<polygon fill="white" stroke="black" points="463,-156.74 463,-175.74 532,-175.74 532,-156.74 463,-156.74"/>
<text text-anchor="middle" x="497.5" y="-163.74" font-family="Helvetica,sans-Serif" font-size="10.00">UnityEngine</text>
</a>
</g>
</g>
<!-- Node4&#45;&gt;Node1 -->
<g id="edge3" class="edge">
<title>Node4&#45;&gt;Node1</title>
<path fill="none" stroke="#9a32cd" stroke-dasharray="5,2" d="M542.19,-160.77C569.31,-159.61 603.69,-162.42 629,-179.24 650.84,-193.76 661.31,-224.95 665.38,-240.71"/>
<polygon fill="#9a32cd" stroke="#9a32cd" points="541.95,-157.27 532.18,-161.38 542.38,-164.26 541.95,-157.27"/>
<text text-anchor="middle" x="593.5" y="-182.24" font-family="Helvetica,sans-Serif" font-size="10.00"> Agent</text>
</g>
<!-- Node5 -->
<g id="node5" class="node">
<title>Node5</title>
<g id="a_node5"><a xlink:title=" ">
<polygon fill="white" stroke="black" points="468,-118.74 468,-137.74 527,-137.74 527,-118.74 468,-118.74"/>
<text text-anchor="middle" x="497.5" y="-125.74" font-family="Helvetica,sans-Serif" font-size="10.00">Transform</text>
</a>
</g>
</g>
<!-- Node5&#45;&gt;Node1 -->
<g id="edge4" class="edge">
<title>Node5&#45;&gt;Node1</title>
<path fill="none" stroke="#9a32cd" stroke-dasharray="5,2" d="M536.99,-119.31C565.25,-115.09 603.07,-114.61 629,-134.24 663.34,-160.25 667.43,-217.95 667.65,-240.73"/>
<polygon fill="#9a32cd" stroke="#9a32cd" points="536.32,-115.87 527.05,-121 537.5,-122.77 536.32,-115.87"/>
<text text-anchor="middle" x="593.5" y="-148.24" font-family="Helvetica,sans-Serif" font-size="10.00"> CurrentGoal</text>
<text text-anchor="middle" x="593.5" y="-137.24" font-family="Helvetica,sans-Serif" font-size="10.00">PlayerTransform</text>
</g>
<!-- Node6 -->
<g id="node6" class="node">
<title>Node6</title>
<g id="a_node6"><a xlink:title=" ">
<polygon fill="white" stroke="black" points="223,-348.74 223,-367.74 252,-367.74 252,-348.74 223,-348.74"/>
<text text-anchor="middle" x="237.5" y="-355.74" font-family="Helvetica,sans-Serif" font-size="10.00">int</text>
</a>
</g>
</g>
<!-- Node6&#45;&gt;Node1 -->
<g id="edge5" class="edge">
<title>Node6&#45;&gt;Node1</title>
<path fill="none" stroke="#9a32cd" stroke-dasharray="5,2" d="M262.53,-355.89C300.11,-351.91 374.89,-342.86 437,-328.24 524.29,-307.7 544.86,-297.25 629,-266.24 634.84,-264.09 641.1,-261.58 646.84,-259.19"/>
<polygon fill="#9a32cd" stroke="#9a32cd" points="261.71,-352.45 252.12,-356.96 262.43,-359.42 261.71,-352.45"/>
<text text-anchor="middle" x="497.5" y="-337.24" font-family="Helvetica,sans-Serif" font-size="10.00"> CloseVision</text>
<text text-anchor="middle" x="497.5" y="-326.24" font-family="Helvetica,sans-Serif" font-size="10.00">RouteCheckpoint</text>
</g>
<!-- Node6&#45;&gt;Node13 -->
<g id="edge22" class="edge">
<title>Node6&#45;&gt;Node13</title>
<path fill="none" stroke="#9a32cd" stroke-dasharray="5,2" d="M262.29,-356.58C309.16,-353.83 411.12,-350.59 437,-372.24 472.83,-402.22 491.26,-556.93 495.53,-597.5"/>
<polygon fill="#9a32cd" stroke="#9a32cd" points="261.91,-353.1 252.15,-357.22 262.35,-360.09 261.91,-353.1"/>
<text text-anchor="middle" x="385.5" y="-463.24" font-family="Helvetica,sans-Serif" font-size="10.00"> BushMinDistance</text>
<text text-anchor="middle" x="385.5" y="-452.24" font-family="Helvetica,sans-Serif" font-size="10.00">GraveClusters</text>
<text text-anchor="middle" x="385.5" y="-441.24" font-family="Helvetica,sans-Serif" font-size="10.00">GraveRNGIncrease</text>
<text text-anchor="middle" x="385.5" y="-430.24" font-family="Helvetica,sans-Serif" font-size="10.00">GraveyardLength</text>
<text text-anchor="middle" x="385.5" y="-419.24" font-family="Helvetica,sans-Serif" font-size="10.00">GraveyardWidth</text>
<text text-anchor="middle" x="385.5" y="-408.24" font-family="Helvetica,sans-Serif" font-size="10.00">GuardNumber</text>
<text text-anchor="middle" x="385.5" y="-397.24" font-family="Helvetica,sans-Serif" font-size="10.00">MaxBushes</text>
<text text-anchor="middle" x="385.5" y="-386.24" font-family="Helvetica,sans-Serif" font-size="10.00">MaxTrees</text>
<text text-anchor="middle" x="385.5" y="-375.24" font-family="Helvetica,sans-Serif" font-size="10.00">TreeMinDistance</text>
</g>
<!-- Node7 -->
<g id="node7" class="node">
<title>Node7</title>
<g id="a_node7"><a xlink:title=" ">
<polygon fill="white" stroke="black" points="24,-481.74 24,-500.74 59,-500.74 59,-481.74 24,-481.74"/>
<text text-anchor="middle" x="41.5" y="-488.74" font-family="Helvetica,sans-Serif" font-size="10.00">float</text>
</a>
</g>
</g>
<!-- Node7&#45;&gt;Node1 -->
<g id="edge6" class="edge">
<title>Node7&#45;&gt;Node1</title>
<path fill="none" stroke="#9a32cd" stroke-dasharray="5,2" d="M46.72,-471.5C57.47,-425.83 90.02,-311.89 159,-247.24 220.13,-189.96 251.74,-193.09 334,-177.24 378.95,-168.59 392.22,-167.74 437,-177.24 445.56,-179.06 446.8,-182.18 455,-185.24 524.03,-211.03 608.34,-234.52 646.71,-244.79"/>
<polygon fill="#9a32cd" stroke="#9a32cd" points="43.29,-470.81 44.5,-481.34 50.12,-472.35 43.29,-470.81"/>
<text text-anchor="middle" x="385.5" y="-246.24" font-family="Helvetica,sans-Serif" font-size="10.00"> BaseCatchRange</text>
<text text-anchor="middle" x="385.5" y="-235.24" font-family="Helvetica,sans-Serif" font-size="10.00">BaseDetectionRange</text>
<text text-anchor="middle" x="385.5" y="-224.24" font-family="Helvetica,sans-Serif" font-size="10.00">BasePursuitRange</text>
<text text-anchor="middle" x="385.5" y="-213.24" font-family="Helvetica,sans-Serif" font-size="10.00">CatchRange</text>
<text text-anchor="middle" x="385.5" y="-202.24" font-family="Helvetica,sans-Serif" font-size="10.00">DetectionRange</text>
<text text-anchor="middle" x="385.5" y="-191.24" font-family="Helvetica,sans-Serif" font-size="10.00">DetectionRangeBonus</text>
<text text-anchor="middle" x="385.5" y="-180.24" font-family="Helvetica,sans-Serif" font-size="10.00">PursuitRange</text>
</g>
<!-- Node7&#45;&gt;Node13 -->
<g id="edge24" class="edge">
<title>Node7&#45;&gt;Node13</title>
<path fill="none" stroke="#9a32cd" stroke-dasharray="5,2" d="M69.39,-488.38C119.03,-483.91 228.02,-477.94 316,-500.24 324.67,-502.44 325.79,-505.69 334,-509.24 378.78,-528.63 395.96,-520.85 437,-547.24 458.72,-561.21 478.7,-584.33 489.06,-597.42"/>
<polygon fill="#9a32cd" stroke="#9a32cd" points="68.8,-484.92 59.18,-489.36 69.47,-491.89 68.8,-484.92"/>
<text text-anchor="middle" x="237.5" y="-525.24" font-family="Helvetica,sans-Serif" font-size="10.00"> DetachedGraveChance</text>
<text text-anchor="middle" x="237.5" y="-514.24" font-family="Helvetica,sans-Serif" font-size="10.00">GraveDensity</text>
<text text-anchor="middle" x="237.5" y="-503.24" font-family="Helvetica,sans-Serif" font-size="10.00">TileSize</text>
</g>
<!-- Node7&#45;&gt;Node16 -->
<g id="edge19" class="edge">
<title>Node7&#45;&gt;Node16</title>
<path fill="none" stroke="#9a32cd" stroke-dasharray="5,2" d="M68.71,-499.63C92.31,-507.16 127.96,-518.51 159,-528.24 176.47,-533.72 196.18,-539.83 211.36,-544.51"/>
<polygon fill="#9a32cd" stroke="#9a32cd" points="69.67,-496.26 59.08,-496.55 67.54,-502.93 69.67,-496.26"/>
<text text-anchor="middle" x="121" y="-524.24" font-family="Helvetica,sans-Serif" font-size="10.00"> Noise</text>
</g>
<!-- Node8 -->
<g id="node8" class="node">
<title>Node8</title>
<g id="a_node8"><a xlink:title=" ">
<polygon fill="white" stroke="black" points="464.5,-80.74 464.5,-99.74 530.5,-99.74 530.5,-80.74 464.5,-80.74"/>
<text text-anchor="middle" x="497.5" y="-87.74" font-family="Helvetica,sans-Serif" font-size="10.00">GuardState</text>
</a>
</g>
</g>
<!-- Node8&#45;&gt;Node1 -->
<g id="edge7" class="edge">
<title>Node8&#45;&gt;Node1</title>
<path fill="none" stroke="#9a32cd" stroke-dasharray="5,2" d="M540.54,-82.23C568.72,-79.38 604.94,-80.93 629,-101.24 650.74,-119.6 662.96,-210.56 666.45,-240.6"/>
<polygon fill="#9a32cd" stroke="#9a32cd" points="540.05,-78.76 530.55,-83.46 540.91,-85.71 540.05,-78.76"/>
<text text-anchor="middle" x="593.5" y="-104.24" font-family="Helvetica,sans-Serif" font-size="10.00"> GState</text>
</g>
<!-- Node9 -->
<g id="node9" class="node">
<title>Node9</title>
<g id="a_node9"><a xlink:title=" ">
<polygon fill="white" stroke="black" points="220,-912.74 220,-931.74 255,-931.74 255,-912.74 220,-912.74"/>
<text text-anchor="middle" x="237.5" y="-919.74" font-family="Helvetica,sans-Serif" font-size="10.00">bool</text>
</a>
</g>
</g>
<!-- Node9&#45;&gt;Node1 -->
<g id="edge8" class="edge">
<title>Node9&#45;&gt;Node1</title>
<path fill="none" stroke="#9a32cd" stroke-dasharray="5,2" d="M265.72,-926.38C345.91,-937.9 578.78,-966.22 629,-915.24 653.09,-890.79 665.62,-339.35 667.3,-259.78"/>
<polygon fill="#9a32cd" stroke="#9a32cd" points="265.85,-922.87 255.45,-924.88 264.84,-929.79 265.85,-922.87"/>
<text text-anchor="middle" x="497.5" y="-969.24" font-family="Helvetica,sans-Serif" font-size="10.00"> AlertCooldown</text>
<text text-anchor="middle" x="497.5" y="-958.24" font-family="Helvetica,sans-Serif" font-size="10.00">IsInvestigating</text>
<text text-anchor="middle" x="497.5" y="-947.24" font-family="Helvetica,sans-Serif" font-size="10.00">Paused</text>
</g>
<!-- Node9&#45;&gt;Node13 -->
<g id="edge29" class="edge">
<title>Node9&#45;&gt;Node13</title>
<path fill="none" stroke="#9a32cd" stroke-dasharray="5,2" d="M264.86,-913.26C316.08,-895.59 425.08,-856.85 437,-843.24 497.43,-774.28 498.16,-652.66 496.99,-617.21"/>
<polygon fill="#9a32cd" stroke="#9a32cd" points="263.47,-910.04 255.15,-916.6 265.74,-916.66 263.47,-910.04"/>
<text text-anchor="middle" x="385.5" y="-890.24" font-family="Helvetica,sans-Serif" font-size="10.00"> Prebuilt</text>
</g>
<!-- Node9&#45;&gt;Node22 -->
<g id="edge32" class="edge">
<title>Node9&#45;&gt;Node22</title>
<path fill="none" stroke="#9a32cd" stroke-dasharray="5,2" d="M265.17,-920.18C310.16,-916.69 401.45,-909.61 454.91,-905.47"/>
<polygon fill="#9a32cd" stroke="#9a32cd" points="264.73,-916.7 255.03,-920.96 265.27,-923.68 264.73,-916.7"/>
<text text-anchor="middle" x="385.5" y="-917.24" font-family="Helvetica,sans-Serif" font-size="10.00"> SceneFrozen</text>
</g>
<!-- Node10 -->
<g id="node10" class="node">
<title>Node10</title>
<g id="a_node10"><a xlink:title=" ">
<polygon fill="white" stroke="black" points="463,-39.74 463,-58.74 532,-58.74 532,-39.74 463,-39.74"/>
<text text-anchor="middle" x="497.5" y="-46.74" font-family="Helvetica,sans-Serif" font-size="10.00">IEnumerator</text>
</a>
</g>
</g>
<!-- Node10&#45;&gt;Node1 -->
<g id="edge9" class="edge">
<title>Node10&#45;&gt;Node1</title>
<path fill="none" stroke="#9a32cd" stroke-dasharray="5,2" d="M542.03,-38.32C570.06,-34.04 605.52,-34.16 629,-54.24 657.86,-78.93 665.52,-204.82 667.13,-240.69"/>
<polygon fill="#9a32cd" stroke="#9a32cd" points="541.32,-34.89 532.07,-40.07 542.53,-41.79 541.32,-34.89"/>
<text text-anchor="middle" x="593.5" y="-68.24" font-family="Helvetica,sans-Serif" font-size="10.00"> CoChase</text>
<text text-anchor="middle" x="593.5" y="-57.24" font-family="Helvetica,sans-Serif" font-size="10.00">CoStop</text>
</g>
<!-- Node11 -->
<g id="node11" class="node">
<title>Node11</title>
<g id="a_node11"><a xlink:title=" ">
<polygon fill="white" stroke="black" points="202,-256.74 202,-275.74 273,-275.74 273,-256.74 202,-256.74"/>
<text text-anchor="middle" x="237.5" y="-263.74" font-family="Helvetica,sans-Serif" font-size="10.00">GameObject</text>
</a>
</g>
</g>
<!-- Node11&#45;&gt;Node1 -->
<g id="edge10" class="edge">
<title>Node11&#45;&gt;Node1</title>
<path fill="none" stroke="#9a32cd" stroke-dasharray="5,2" d="M283.31,-264.57C374.86,-261.16 580.33,-253.49 646.52,-251.03"/>
<polygon fill="#9a32cd" stroke="#9a32cd" points="283.11,-261.08 273.24,-264.95 283.37,-268.07 283.11,-261.08"/>
<text text-anchor="middle" x="497.5" y="-282.24" font-family="Helvetica,sans-Serif" font-size="10.00"> AlertedMark</text>
<text text-anchor="middle" x="497.5" y="-271.24" font-family="Helvetica,sans-Serif" font-size="10.00">Player</text>
<text text-anchor="middle" x="497.5" y="-260.24" font-family="Helvetica,sans-Serif" font-size="10.00">QuestionMark</text>
</g>
<!-- Node11&#45;&gt;Node13 -->
<g id="edge14" class="edge">
<title>Node11&#45;&gt;Node13</title>
<path fill="none" stroke="#9a32cd" stroke-dasharray="5,2" d="M283.36,-262.13C328.48,-260.64 396.95,-266.04 437,-306.24 447.72,-317 486.54,-547.35 494.9,-597.62"/>
<polygon fill="#9a32cd" stroke="#9a32cd" points="283.09,-258.64 273.26,-262.59 283.41,-265.63 283.09,-258.64"/>
<text text-anchor="middle" x="385.5" y="-342.24" font-family="Helvetica,sans-Serif" font-size="10.00"> Guard</text>
<text text-anchor="middle" x="385.5" y="-331.24" font-family="Helvetica,sans-Serif" font-size="10.00">Headstones</text>
<text text-anchor="middle" x="385.5" y="-320.24" font-family="Helvetica,sans-Serif" font-size="10.00">Parent</text>
<text text-anchor="middle" x="385.5" y="-309.24" font-family="Helvetica,sans-Serif" font-size="10.00">Tiles</text>
</g>
<!-- Node12 -->
<g id="node12" class="node">
<title>Node12</title>
<g id="a_node12"><a xlink:title=" ">
<polygon fill="white" stroke="black" points="472,-1.74 472,-20.74 523,-20.74 523,-1.74 472,-1.74"/>
<text text-anchor="middle" x="497.5" y="-8.74" font-family="Helvetica,sans-Serif" font-size="10.00">Material</text>
</a>
</g>
</g>
<!-- Node12&#45;&gt;Node1 -->
<g id="edge11" class="edge">
<title>Node12&#45;&gt;Node1</title>
<path fill="none" stroke="#9a32cd" stroke-dasharray="5,2" d="M533.3,-2.95C562.55,1.79 603.54,2.86 629,-20.24 662.21,-50.38 666.77,-200.55 667.4,-240.48"/>
<polygon fill="#9a32cd" stroke="#9a32cd" points="532.31,0.42 523.11,-4.82 533.58,-6.46 532.31,0.42"/>
<text text-anchor="middle" x="593.5" y="-23.24" font-family="Helvetica,sans-Serif" font-size="10.00"> QMarkMaterial</text>
</g>
<!-- Node13&#45;&gt;Node1 -->
<g id="edge12" class="edge">
<title>Node13&#45;&gt;Node1</title>
<path fill="none" stroke="#9a32cd" stroke-dasharray="5,2" d="M509.32,-588.53C532.85,-547.38 589.76,-445.56 629,-356.24 644.28,-321.47 658.51,-278.53 664.51,-259.77"/>
<polygon fill="#9a32cd" stroke="#9a32cd" points="506.15,-587.02 504.2,-597.43 512.22,-590.5 506.15,-587.02"/>
<text text-anchor="middle" x="593.5" y="-497.24" font-family="Helvetica,sans-Serif" font-size="10.00"> MG</text>
</g>
<!-- Node14 -->
<g id="node14" class="node">
<title>Node14</title>
<g id="a_node14"><a xlink:title=" ">
<polygon fill="white" stroke="black" points="185,-435.74 185,-454.74 290,-454.74 290,-435.74 185,-435.74"/>
<text text-anchor="middle" x="237.5" y="-442.74" font-family="Helvetica,sans-Serif" font-size="10.00">List&lt; GameObject &gt;</text>
</a>
</g>
</g>
<!-- Node14&#45;&gt;Node13 -->
<g id="edge15" class="edge">
<title>Node14&#45;&gt;Node13</title>
<path fill="none" stroke="#9a32cd" stroke-dasharray="5,2" d="M279.46,-457.75C291.27,-461.4 304.16,-465.44 316,-469.24 324.03,-471.82 325.87,-472.99 334,-475.24 379.2,-487.79 399.53,-470.03 437,-498.24 471.45,-524.18 488.39,-576.12 494.15,-597.6"/>
<polygon fill="#9a32cd" stroke="#9a32cd" points="280.43,-454.39 269.85,-454.78 278.37,-461.08 280.43,-454.39"/>
<text text-anchor="middle" x="385.5" y="-501.24" font-family="Helvetica,sans-Serif" font-size="10.00"> GuardList</text>
</g>
<!-- Node15 -->
<g id="node15" class="node">
<title>Node15</title>
<g id="a_node15"><a xlink:title=" ">
<polygon fill="white" stroke="black" points="190,-732.74 190,-751.74 285,-751.74 285,-732.74 190,-732.74"/>
<text text-anchor="middle" x="237.5" y="-739.74" font-family="Helvetica,sans-Serif" font-size="10.00">List&lt; Vector2Int &gt;</text>
</a>
</g>
</g>
<!-- Node15&#45;&gt;Node13 -->
<g id="edge16" class="edge">
<title>Node15&#45;&gt;Node13</title>
<path fill="none" stroke="#9a32cd" stroke-dasharray="5,2" d="M295.03,-732.57C351.6,-722.72 431.1,-708.33 437,-704.24 469.01,-682.11 486.99,-636.6 493.58,-616.8"/>
<polygon fill="#9a32cd" stroke="#9a32cd" points="294.36,-729.14 285.11,-734.3 295.56,-736.03 294.36,-729.14"/>
<text text-anchor="middle" x="385.5" y="-772.24" font-family="Helvetica,sans-Serif" font-size="10.00"> BushList</text>
<text text-anchor="middle" x="385.5" y="-761.24" font-family="Helvetica,sans-Serif" font-size="10.00">GraveClusterCenters</text>
<text text-anchor="middle" x="385.5" y="-750.24" font-family="Helvetica,sans-Serif" font-size="10.00">GraveList</text>
<text text-anchor="middle" x="385.5" y="-739.24" font-family="Helvetica,sans-Serif" font-size="10.00">GuardPathCorners</text>
<text text-anchor="middle" x="385.5" y="-728.24" font-family="Helvetica,sans-Serif" font-size="10.00">TreeList</text>
</g>
<!-- Node16&#45;&gt;Node13 -->
<g id="edge17" class="edge">
<title>Node16&#45;&gt;Node13</title>
<path fill="none" stroke="#9a32cd" stroke-dasharray="5,2" d="M273.87,-550.6C314.37,-549.81 382.18,-551.87 437,-570.24 454.99,-576.27 473.15,-588.69 484.59,-597.48"/>
<polygon fill="#9a32cd" stroke="#9a32cd" points="273.6,-547.11 263.7,-550.87 273.79,-554.1 273.6,-547.11"/>
<text text-anchor="middle" x="385.5" y="-573.24" font-family="Helvetica,sans-Serif" font-size="10.00"> TileDatas</text>
</g>
<!-- Node17 -->
<g id="node17" class="node">
<title>Node17</title>
<g id="a_node17"><a xlink:title=" ">
<polygon fill="white" stroke="black" points="15,-548.74 15,-567.74 68,-567.74 68,-548.74 15,-548.74"/>
<text text-anchor="middle" x="41.5" y="-555.74" font-family="Helvetica,sans-Serif" font-size="10.00">TileType</text>
</a>
</g>
</g>
<!-- Node17&#45;&gt;Node16 -->
<g id="edge20" class="edge">
<title>Node17&#45;&gt;Node16</title>
<path fill="none" stroke="#9a32cd" stroke-dasharray="5,2" d="M78.54,-557.13C117.14,-555.94 177.41,-554.07 211.25,-553.02"/>
<polygon fill="#9a32cd" stroke="#9a32cd" points="78.15,-553.64 68.26,-557.45 78.37,-560.64 78.15,-553.64"/>
<text text-anchor="middle" x="121" y="-559.24" font-family="Helvetica,sans-Serif" font-size="10.00"> TileType</text>
</g>
<!-- Node18 -->
<g id="node18" class="node">
<title>Node18</title>
<g id="a_node18"><a xlink:title=" ">
<polygon fill="white" stroke="black" points="210,-694.74 210,-713.74 265,-713.74 265,-694.74 210,-694.74"/>
<text text-anchor="middle" x="237.5" y="-701.74" font-family="Helvetica,sans-Serif" font-size="10.00">Direction</text>
</a>
</g>
</g>
<!-- Node18&#45;&gt;Node13 -->
<g id="edge21" class="edge">
<title>Node18&#45;&gt;Node13</title>
<path fill="none" stroke="#9a32cd" stroke-dasharray="5,2" d="M275.26,-699.23C328.69,-691.75 422.99,-677.75 437,-670.24 461.14,-657.31 481.03,-630.93 490.51,-616.75"/>
<polygon fill="#9a32cd" stroke="#9a32cd" points="274.58,-695.79 265.16,-700.64 275.55,-702.73 274.58,-695.79"/>
<text text-anchor="middle" x="385.5" y="-693.24" font-family="Helvetica,sans-Serif" font-size="10.00"> GraveDirection</text>
</g>
<!-- Node19&#45;&gt;Node13 -->
<g id="edge25" class="edge">
<title>Node19&#45;&gt;Node13</title>
<path fill="none" stroke="#9a32cd" stroke-dasharray="5,2" d="M326.38,-621.09C370.3,-617.52 421.32,-613.36 455.95,-610.54"/>
<polygon fill="#9a32cd" stroke="#9a32cd" points="325.94,-617.61 316.26,-621.91 326.51,-624.59 325.94,-617.61"/>
<text text-anchor="middle" x="385.5" y="-622.24" font-family="Helvetica,sans-Serif" font-size="10.00"> NMSurface</text>
</g>
<!-- Node20 -->
<g id="node20" class="node">
<title>Node20</title>
<g id="a_node20"><a xlink:title=" ">
<polygon fill="white" stroke="black" points="207,-656.74 207,-675.74 268,-675.74 268,-656.74 207,-656.74"/>
<text text-anchor="middle" x="237.5" y="-663.74" font-family="Helvetica,sans-Serif" font-size="10.00">Texture2D</text>
</a>
</g>
</g>
<!-- Node20&#45;&gt;Node13 -->
<g id="edge27" class="edge">
<title>Node20&#45;&gt;Node13</title>
<path fill="none" stroke="#9a32cd" stroke-dasharray="5,2" d="M278.35,-662.96C318.93,-658.89 383.35,-650.42 437,-634.24 451.55,-629.85 467.17,-622.66 478.76,-616.8"/>
<polygon fill="#9a32cd" stroke="#9a32cd" points="277.93,-659.49 268.31,-663.93 278.6,-666.45 277.93,-659.49"/>
<text text-anchor="middle" x="385.5" y="-658.24" font-family="Helvetica,sans-Serif" font-size="10.00"> MapImage</text>
</g>
<!-- Node21 -->
<g id="node21" class="node">
<title>Node21</title>
<g id="a_node21"><a xlink:title=" ">
<polygon fill="white" stroke="black" points="198,-580.74 198,-599.74 277,-599.74 277,-580.74 198,-580.74"/>
<text text-anchor="middle" x="237.5" y="-587.74" font-family="Helvetica,sans-Serif" font-size="10.00">ImageElement</text>
</a>
</g>
</g>
<!-- Node21&#45;&gt;Node13 -->
<g id="edge28" class="edge">
<title>Node21&#45;&gt;Node13</title>
<path fill="none" stroke="#9a32cd" stroke-dasharray="5,2" d="M287.23,-587.01C327.56,-585.17 386.26,-584.41 437,-591.24 446.97,-592.59 457.63,-595.1 467.15,-597.74"/>
<polygon fill="#9a32cd" stroke="#9a32cd" points="286.94,-583.52 277.13,-587.52 287.29,-590.52 286.94,-583.52"/>
<text text-anchor="middle" x="385.5" y="-594.24" font-family="Helvetica,sans-Serif" font-size="10.00"> MapColor</text>
</g>
<!-- Node22&#45;&gt;Node1 -->
<g id="edge30" class="edge">
<title>Node22&#45;&gt;Node1</title>
<path fill="none" stroke="#9a32cd" stroke-dasharray="5,2" d="M550.24,-901.68C577.96,-898.44 610.2,-889.4 629,-866.24 668.85,-817.17 667.95,-335.07 667.56,-260.04"/>
<polygon fill="#9a32cd" stroke="#9a32cd" points="549.89,-898.19 540.26,-902.62 550.55,-905.16 549.89,-898.19"/>
<text text-anchor="middle" x="593.5" y="-903.24" font-family="Helvetica,sans-Serif" font-size="10.00"> MC</text>
</g>
</g>
</svg>
