<?xml version="1.0" encoding="UTF-8" standalone="no"?>
<!DOCTYPE svg PUBLIC "-//W3C//DTD SVG 1.1//EN"
 "http://www.w3.org/Graphics/SVG/1.1/DTD/svg11.dtd">
<!-- Generated by graphviz version 3.0.0 (20220226.1711)
 -->
<!-- Title: Quest.GetDescription Pages: 1 -->
<svg width="777pt" height="284pt"
 viewBox="0.00 0.00 777.00 284.00" xmlns="http://www.w3.org/2000/svg" xmlns:xlink="http://www.w3.org/1999/xlink">
<g id="graph0" class="graph" transform="scale(1 1) rotate(0) translate(4 280)">
<title>Quest.GetDescription</title>
<polygon fill="white" stroke="transparent" points="-4,4 -4,-280 773,-280 773,4 -4,4"/>
<!-- Node1 -->
<g id="node1" class="node">
<title>Node1</title>
<g id="a_node1"><a xlink:title=" ">
<polygon fill="#bfbfbf" stroke="black" points="659,-109 659,-128 769,-128 769,-109 659,-109"/>
<text text-anchor="middle" x="714" y="-116" font-family="Helvetica,sans-Serif" font-size="10.00">Quest.GetDescription</text>
</a>
</g>
</g>
<!-- Node2 -->
<g id="node2" class="node">
<title>Node2</title>
<g id="a_node2"><a xlink:href="../../da/d2a/class_quest_manager.html#af4e99b4e2c7226a295904bd752701990" target="_top" xlink:title="Takes information from a ScriptableObject Quests, updates the text in a NPC&#39;s quest window and then d...">
<polygon fill="white" stroke="black" points="495,-109 495,-128 623,-128 623,-109 495,-109"/>
<text text-anchor="middle" x="559" y="-116" font-family="Helvetica,sans-Serif" font-size="10.00">QuestManager.NewQuest</text>
</a>
</g>
</g>
<!-- Node1&#45;&gt;Node2 -->
<g id="edge1" class="edge">
<title>Node1&#45;&gt;Node2</title>
<path fill="none" stroke="midnightblue" d="M648.49,-118.5C640.08,-118.5 631.47,-118.5 623.08,-118.5"/>
<polygon fill="midnightblue" stroke="midnightblue" points="648.63,-122 658.63,-118.5 648.63,-115 648.63,-122"/>
</g>
<!-- Node3 -->
<g id="node3" class="node">
<title>Node3</title>
<g id="a_node3"><a xlink:href="../../db/d10/class_game_manager.html#ac681e0723423ffcdd52b64404d1b63ab" target="_top" xlink:title="Will take the index of what quest will be added Then will be passed to the quest manager.">
<polygon fill="white" stroke="black" points="321,-109 321,-128 459,-128 459,-109 321,-109"/>
<text text-anchor="middle" x="390" y="-116" font-family="Helvetica,sans-Serif" font-size="10.00">GameManager.CreateQuest</text>
</a>
</g>
</g>
<!-- Node2&#45;&gt;Node3 -->
<g id="edge2" class="edge">
<title>Node2&#45;&gt;Node3</title>
<path fill="none" stroke="midnightblue" d="M484.65,-118.5C476.21,-118.5 467.62,-118.5 459.25,-118.5"/>
<polygon fill="midnightblue" stroke="midnightblue" points="484.86,-122 494.86,-118.5 484.86,-115 484.86,-122"/>
</g>
<!-- Node4 -->
<g id="node4" class="node">
<title>Node4</title>
<g id="a_node4"><a xlink:href="../../d0/d9d/class_dialogue.html#a1c7cb3b4f4ff488cbf3d069ae1a13124" target="_top" xlink:title="If not on last line update to the next line in the script">
<polygon fill="white" stroke="black" points="179.5,-128 179.5,-147 274.5,-147 274.5,-128 179.5,-128"/>
<text text-anchor="middle" x="227" y="-135" font-family="Helvetica,sans-Serif" font-size="10.00">Dialogue.NextLine</text>
</a>
</g>
</g>
<!-- Node3&#45;&gt;Node4 -->
<g id="edge3" class="edge">
<title>Node3&#45;&gt;Node4</title>
<path fill="none" stroke="midnightblue" d="M310.53,-127.76C298.36,-129.2 286.12,-130.64 274.94,-131.96"/>
<polygon fill="midnightblue" stroke="midnightblue" points="311.2,-131.21 320.72,-126.56 310.38,-124.25 311.2,-131.21"/>
</g>
<!-- Node11 -->
<g id="node11" class="node">
<title>Node11</title>
<g id="a_node11"><a xlink:href="../../d0/d9d/class_dialogue.html#a858ac0f41e43509987b5800ac5e7d39a" target="_top" xlink:title=" ">
<polygon fill="white" stroke="black" points="169,-90 169,-109 285,-109 285,-90 169,-90"/>
<text text-anchor="middle" x="227" y="-97" font-family="Helvetica,sans-Serif" font-size="10.00">Dialogue.NextLineVars</text>
</a>
</g>
</g>
<!-- Node3&#45;&gt;Node11 -->
<g id="edge10" class="edge">
<title>Node3&#45;&gt;Node11</title>
<path fill="none" stroke="midnightblue" d="M310.68,-109.26C302.09,-108.24 293.47,-107.23 285.21,-106.25"/>
<polygon fill="midnightblue" stroke="midnightblue" points="310.38,-112.75 320.72,-110.44 311.2,-105.79 310.38,-112.75"/>
</g>
<!-- Node5 -->
<g id="node5" class="node">
<title>Node5</title>
<g id="a_node5"><a xlink:href="../../da/d79/class_tutorial_progression.html#a231523ead6e1a3d466808083b6a07e13" target="_top" xlink:title="Fourth interaction for guard with stealth bushes.">
<polygon fill="white" stroke="black" points="0,-245.5 0,-275.5 133,-275.5 133,-245.5 0,-245.5"/>
<text text-anchor="start" x="8" y="-263.5" font-family="Helvetica,sans-Serif" font-size="10.00">TutorialProgression.Mentor</text>
<text text-anchor="middle" x="66.5" y="-252.5" font-family="Helvetica,sans-Serif" font-size="10.00">BushInteraction</text>
</a>
</g>
</g>
<!-- Node4&#45;&gt;Node5 -->
<g id="edge4" class="edge">
<title>Node4&#45;&gt;Node5</title>
<path fill="none" stroke="midnightblue" d="M213.54,-155.16C197.28,-177.02 166.89,-214.1 133,-236.5 127.95,-239.84 122.37,-242.79 116.67,-245.37"/>
<polygon fill="midnightblue" stroke="midnightblue" points="216.37,-157.21 219.42,-147.07 210.71,-153.09 216.37,-157.21"/>
</g>
<!-- Node6 -->
<g id="node6" class="node">
<title>Node6</title>
<g id="a_node6"><a xlink:href="../../da/d79/class_tutorial_progression.html#ac391381b4c1ccf2e8d774ba807e41fd2" target="_top" xlink:title="Final interaction after failing minigame.">
<polygon fill="white" stroke="black" points="0,-196.5 0,-226.5 133,-226.5 133,-196.5 0,-196.5"/>
<text text-anchor="start" x="8" y="-214.5" font-family="Helvetica,sans-Serif" font-size="10.00">TutorialProgression.Mentor</text>
<text text-anchor="middle" x="66.5" y="-203.5" font-family="Helvetica,sans-Serif" font-size="10.00">FailureInteraction</text>
</a>
</g>
</g>
<!-- Node4&#45;&gt;Node6 -->
<g id="edge5" class="edge">
<title>Node4&#45;&gt;Node6</title>
<path fill="none" stroke="midnightblue" d="M201.23,-152.07C182.76,-162.61 156.75,-176.83 133,-187.5 126.04,-190.63 118.54,-193.67 111.18,-196.48"/>
<polygon fill="midnightblue" stroke="midnightblue" points="202.98,-155.1 209.89,-147.07 199.48,-149.03 202.98,-155.1"/>
</g>
<!-- Node7 -->
<g id="node7" class="node">
<title>Node7</title>
<g id="a_node7"><a xlink:href="../../da/d79/class_tutorial_progression.html#a374a6b4061ec89d92e678f0ce40192e2" target="_top" xlink:title="Second interaction before the first guard obstacle.">
<polygon fill="white" stroke="black" points="0,-147.5 0,-177.5 133,-177.5 133,-147.5 0,-147.5"/>
<text text-anchor="start" x="8" y="-165.5" font-family="Helvetica,sans-Serif" font-size="10.00">TutorialProgression.Mentor</text>
<text text-anchor="middle" x="66.5" y="-154.5" font-family="Helvetica,sans-Serif" font-size="10.00">GuardInteract</text>
</a>
</g>
</g>
<!-- Node4&#45;&gt;Node7 -->
<g id="edge6" class="edge">
<title>Node4&#45;&gt;Node7</title>
<path fill="none" stroke="midnightblue" d="M169.26,-146.45C157.58,-148.29 145.2,-150.24 133.24,-152.13"/>
<polygon fill="midnightblue" stroke="midnightblue" points="169.97,-149.88 179.3,-144.87 168.88,-142.97 169.97,-149.88"/>
</g>
<!-- Node8 -->
<g id="node8" class="node">
<title>Node8</title>
<g id="a_node8"><a xlink:href="../../da/d79/class_tutorial_progression.html#a1488822e0d8c18ac14493f4473b9a62b" target="_top" xlink:title="First interaction function for first set of graves.">
<polygon fill="white" stroke="black" points="0,-98.5 0,-128.5 133,-128.5 133,-98.5 0,-98.5"/>
<text text-anchor="start" x="8" y="-116.5" font-family="Helvetica,sans-Serif" font-size="10.00">TutorialProgression.Mentor</text>
<text text-anchor="middle" x="66.5" y="-105.5" font-family="Helvetica,sans-Serif" font-size="10.00">InitialInteraction</text>
</a>
</g>
</g>
<!-- Node4&#45;&gt;Node8 -->
<g id="edge7" class="edge">
<title>Node4&#45;&gt;Node8</title>
<path fill="none" stroke="midnightblue" d="M169.26,-128.91C157.58,-127.14 145.2,-125.27 133.24,-123.45"/>
<polygon fill="midnightblue" stroke="midnightblue" points="168.89,-132.39 179.3,-130.43 169.94,-125.47 168.89,-132.39"/>
</g>
<!-- Node9 -->
<g id="node9" class="node">
<title>Node9</title>
<g id="a_node9"><a xlink:href="../../da/d79/class_tutorial_progression.html#aba3dd024b693b5ce4fdff69a7efc6762" target="_top" xlink:title="Fifth interaction before mausoleum.">
<polygon fill="white" stroke="black" points="0,-49.5 0,-79.5 133,-79.5 133,-49.5 0,-49.5"/>
<text text-anchor="start" x="8" y="-67.5" font-family="Helvetica,sans-Serif" font-size="10.00">TutorialProgression.Mentor</text>
<text text-anchor="middle" x="66.5" y="-56.5" font-family="Helvetica,sans-Serif" font-size="10.00">MausoleumInteraction</text>
</a>
</g>
</g>
<!-- Node4&#45;&gt;Node9 -->
<g id="edge8" class="edge">
<title>Node4&#45;&gt;Node9</title>
<path fill="none" stroke="midnightblue" d="M181.39,-124.37C177.12,-122.59 172.92,-120.64 169,-118.5 150.97,-108.65 150.82,-99.73 133,-89.5 126.67,-85.86 119.7,-82.56 112.76,-79.63"/>
<polygon fill="midnightblue" stroke="midnightblue" points="180.22,-127.66 190.81,-127.96 182.71,-121.12 180.22,-127.66"/>
</g>
<!-- Node10 -->
<g id="node10" class="node">
<title>Node10</title>
<g id="a_node10"><a xlink:href="../../da/d79/class_tutorial_progression.html#a5a5b857b69b0985bfe68623767cc0701" target="_top" xlink:title="Third interaction for graves with traps attached.">
<polygon fill="white" stroke="black" points="0,-0.5 0,-30.5 133,-30.5 133,-0.5 0,-0.5"/>
<text text-anchor="start" x="8" y="-18.5" font-family="Helvetica,sans-Serif" font-size="10.00">TutorialProgression.Mentor</text>
<text text-anchor="middle" x="66.5" y="-7.5" font-family="Helvetica,sans-Serif" font-size="10.00">TrapsInteract</text>
</a>
</g>
</g>
<!-- Node4&#45;&gt;Node10 -->
<g id="edge9" class="edge">
<title>Node4&#45;&gt;Node10</title>
<path fill="none" stroke="midnightblue" d="M175.14,-123.17C172.97,-121.76 170.9,-120.2 169,-118.5 140.55,-93.04 160.9,-66.57 133,-40.5 128.91,-36.68 124.17,-33.42 119.16,-30.65"/>
<polygon fill="midnightblue" stroke="midnightblue" points="173.5,-126.26 183.96,-127.96 176.84,-120.11 173.5,-126.26"/>
</g>
</g>
</svg>
