<?xml version="1.0" encoding="UTF-8" standalone="no"?>
<!DOCTYPE svg PUBLIC "-//W3C//DTD SVG 1.1//EN"
 "http://www.w3.org/Graphics/SVG/1.1/DTD/svg11.dtd">
<!-- Generated by graphviz version 3.0.0 (20220226.1711)
 -->
<!-- Title: UIManager.DialogueToggle Pages: 1 -->
<svg width="451pt" height="66pt"
 viewBox="0.00 0.00 451.00 66.00" xmlns="http://www.w3.org/2000/svg" xmlns:xlink="http://www.w3.org/1999/xlink">
<g id="graph0" class="graph" transform="scale(1 1) rotate(0) translate(4 62)">
<title>UIManager.DialogueToggle</title>
<polygon fill="white" stroke="transparent" points="-4,4 -4,-62 447,-62 447,4 -4,4"/>
<!-- Node1 -->
<g id="node1" class="node">
<title>Node1</title>
<g id="a_node1"><a xlink:title="Switches dialogue&#39;s current state.">
<polygon fill="#bfbfbf" stroke="black" points="0,-19.5 0,-38.5 132,-38.5 132,-19.5 0,-19.5"/>
<text text-anchor="middle" x="66" y="-26.5" font-family="Helvetica,sans-Serif" font-size="10.00">UIManager.DialogueToggle</text>
</a>
</g>
</g>
<!-- Node2 -->
<g id="node2" class="node">
<title>Node2</title>
<g id="a_node2"><a xlink:href="../../d0/d9d/class_dialogue.html#a8eeaf735355b1740a29711ff6206a9c0" target="_top" xlink:title="Will reset the line number and UI to be back at the start of the dialogue">
<polygon fill="white" stroke="black" points="168,-19.5 168,-38.5 288,-38.5 288,-19.5 168,-19.5"/>
<text text-anchor="middle" x="228" y="-26.5" font-family="Helvetica,sans-Serif" font-size="10.00">Dialogue.ResetDialogue</text>
</a>
</g>
</g>
<!-- Node1&#45;&gt;Node2 -->
<g id="edge1" class="edge">
<title>Node1&#45;&gt;Node2</title>
<path fill="none" stroke="midnightblue" d="M132.08,-29C140.5,-29 149.16,-29 157.65,-29"/>
<polygon fill="midnightblue" stroke="midnightblue" points="157.9,-32.5 167.9,-29 157.9,-25.5 157.9,-32.5"/>
</g>
<!-- Node3 -->
<g id="node3" class="node">
<title>Node3</title>
<g id="a_node3"><a xlink:href="../../de/d1f/class_script.html#a407ddfa4eec54558554a2982f30226a4" target="_top" xlink:title="Will get a line based on index">
<polygon fill="white" stroke="black" points="344,-38.5 344,-57.5 423,-57.5 423,-38.5 344,-38.5"/>
<text text-anchor="middle" x="383.5" y="-45.5" font-family="Helvetica,sans-Serif" font-size="10.00">Script.GetLine</text>
</a>
</g>
</g>
<!-- Node2&#45;&gt;Node3 -->
<g id="edge2" class="edge">
<title>Node2&#45;&gt;Node3</title>
<path fill="none" stroke="midnightblue" d="M288.35,-36.35C303.28,-38.19 319.15,-40.16 333.51,-41.94"/>
<polygon fill="midnightblue" stroke="midnightblue" points="333.32,-45.44 343.67,-43.19 334.18,-38.49 333.32,-45.44"/>
</g>
<!-- Node4 -->
<g id="node4" class="node">
<title>Node4</title>
<g id="a_node4"><a xlink:href="../../d0/d9d/class_dialogue.html#afef8d4afc2a211e77f21471041884a11" target="_top" xlink:title="Updates the Dialogue UI based on the current line passed in">
<polygon fill="white" stroke="black" points="324,-0.5 324,-19.5 443,-19.5 443,-0.5 324,-0.5"/>
<text text-anchor="middle" x="383.5" y="-7.5" font-family="Helvetica,sans-Serif" font-size="10.00">Dialogue.SetDialogueUI</text>
</a>
</g>
</g>
<!-- Node2&#45;&gt;Node4 -->
<g id="edge3" class="edge">
<title>Node2&#45;&gt;Node4</title>
<path fill="none" stroke="midnightblue" d="M288.35,-21.65C296.62,-20.63 305.19,-19.57 313.62,-18.53"/>
<polygon fill="midnightblue" stroke="midnightblue" points="314.32,-21.97 323.82,-17.26 313.46,-15.02 314.32,-21.97"/>
</g>
</g>
</svg>
