<?xml version="1.0" encoding="UTF-8" standalone="no"?>
<!DOCTYPE svg PUBLIC "-//W3C//DTD SVG 1.1//EN"
 "http://www.w3.org/Graphics/SVG/1.1/DTD/svg11.dtd">
<!-- Generated by graphviz version 3.0.0 (20220226.1711)
 -->
<!-- Title: UIManager.DialogueEnable Pages: 1 -->
<svg width="331pt" height="333pt"
 viewBox="0.00 0.00 331.00 333.00" xmlns="http://www.w3.org/2000/svg" xmlns:xlink="http://www.w3.org/1999/xlink">
<g id="graph0" class="graph" transform="scale(1 1) rotate(0) translate(4 329)">
<title>UIManager.DialogueEnable</title>
<polygon fill="white" stroke="transparent" points="-4,4 -4,-329 327,-329 327,4 -4,4"/>
<!-- Node1 -->
<g id="node1" class="node">
<title>Node1</title>
<g id="a_node1"><a xlink:title="Enables the dialogue box.">
<polygon fill="#bfbfbf" stroke="black" points="189,-153 189,-172 323,-172 323,-153 189,-153"/>
<text text-anchor="middle" x="256" y="-160" font-family="Helvetica,sans-Serif" font-size="10.00">UIManager.DialogueEnable</text>
</a>
</g>
</g>
<!-- Node2 -->
<g id="node2" class="node">
<title>Node2</title>
<g id="a_node2"><a xlink:href="../../da/d79/class_tutorial_progression.html#acce3a1e2e8707530d3da7eec0be18c49" target="_top" xlink:title="Called by the mausoleum script when the minigame is failed">
<polygon fill="white" stroke="black" points="0,-294.5 0,-324.5 153,-324.5 153,-294.5 0,-294.5"/>
<text text-anchor="start" x="8" y="-312.5" font-family="Helvetica,sans-Serif" font-size="10.00">TutorialProgression.Mausoleum</text>
<text text-anchor="middle" x="76.5" y="-301.5" font-family="Helvetica,sans-Serif" font-size="10.00">FailureCall</text>
</a>
</g>
</g>
<!-- Node1&#45;&gt;Node2 -->
<g id="edge1" class="edge">
<title>Node1&#45;&gt;Node2</title>
<path fill="none" stroke="midnightblue" d="M244.53,-180.85C228.31,-207.68 194.59,-257.47 153,-285.5 147.98,-288.88 142.46,-291.81 136.75,-294.34"/>
<polygon fill="midnightblue" stroke="midnightblue" points="247.63,-182.48 249.7,-172.09 241.6,-178.92 247.63,-182.48"/>
</g>
<!-- Node3 -->
<g id="node3" class="node">
<title>Node3</title>
<g id="a_node3"><a xlink:href="../../da/d79/class_tutorial_progression.html#a231523ead6e1a3d466808083b6a07e13" target="_top" xlink:title="Fourth interaction for guard with stealth bushes.">
<polygon fill="white" stroke="black" points="10,-245.5 10,-275.5 143,-275.5 143,-245.5 10,-245.5"/>
<text text-anchor="start" x="18" y="-263.5" font-family="Helvetica,sans-Serif" font-size="10.00">TutorialProgression.Mentor</text>
<text text-anchor="middle" x="76.5" y="-252.5" font-family="Helvetica,sans-Serif" font-size="10.00">BushInteraction</text>
</a>
</g>
</g>
<!-- Node1&#45;&gt;Node3 -->
<g id="edge2" class="edge">
<title>Node1&#45;&gt;Node3</title>
<path fill="none" stroke="midnightblue" d="M236.33,-178.9C216.74,-195.4 184.47,-220.61 153,-236.5 146.49,-239.79 139.44,-242.74 132.36,-245.36"/>
<polygon fill="midnightblue" stroke="midnightblue" points="238.83,-181.37 244.15,-172.21 234.28,-176.05 238.83,-181.37"/>
</g>
<!-- Node4 -->
<g id="node4" class="node">
<title>Node4</title>
<g id="a_node4"><a xlink:href="../../da/d79/class_tutorial_progression.html#a374a6b4061ec89d92e678f0ce40192e2" target="_top" xlink:title="Second interaction before the first guard obstacle.">
<polygon fill="white" stroke="black" points="10,-196.5 10,-226.5 143,-226.5 143,-196.5 10,-196.5"/>
<text text-anchor="start" x="18" y="-214.5" font-family="Helvetica,sans-Serif" font-size="10.00">TutorialProgression.Mentor</text>
<text text-anchor="middle" x="76.5" y="-203.5" font-family="Helvetica,sans-Serif" font-size="10.00">GuardInteract</text>
</a>
</g>
</g>
<!-- Node1&#45;&gt;Node4 -->
<g id="edge3" class="edge">
<title>Node1&#45;&gt;Node4</title>
<path fill="none" stroke="midnightblue" d="M210.53,-174.78C186.7,-181.35 157.16,-189.51 131.97,-196.46"/>
<polygon fill="midnightblue" stroke="midnightblue" points="211.65,-178.1 220.35,-172.06 209.78,-171.35 211.65,-178.1"/>
</g>
<!-- Node5 -->
<g id="node5" class="node">
<title>Node5</title>
<g id="a_node5"><a xlink:href="../../da/d79/class_tutorial_progression.html#a1488822e0d8c18ac14493f4473b9a62b" target="_top" xlink:title="First interaction function for first set of graves.">
<polygon fill="white" stroke="black" points="10,-147.5 10,-177.5 143,-177.5 143,-147.5 10,-147.5"/>
<text text-anchor="start" x="18" y="-165.5" font-family="Helvetica,sans-Serif" font-size="10.00">TutorialProgression.Mentor</text>
<text text-anchor="middle" x="76.5" y="-154.5" font-family="Helvetica,sans-Serif" font-size="10.00">InitialInteraction</text>
</a>
</g>
</g>
<!-- Node1&#45;&gt;Node5 -->
<g id="edge4" class="edge">
<title>Node1&#45;&gt;Node5</title>
<path fill="none" stroke="midnightblue" d="M178.6,-162.5C166.77,-162.5 154.63,-162.5 143.06,-162.5"/>
<polygon fill="midnightblue" stroke="midnightblue" points="178.91,-166 188.91,-162.5 178.91,-159 178.91,-166"/>
</g>
<!-- Node6 -->
<g id="node6" class="node">
<title>Node6</title>
<g id="a_node6"><a xlink:href="../../da/d79/class_tutorial_progression.html#aba3dd024b693b5ce4fdff69a7efc6762" target="_top" xlink:title="Fifth interaction before mausoleum.">
<polygon fill="white" stroke="black" points="10,-98.5 10,-128.5 143,-128.5 143,-98.5 10,-98.5"/>
<text text-anchor="start" x="18" y="-116.5" font-family="Helvetica,sans-Serif" font-size="10.00">TutorialProgression.Mentor</text>
<text text-anchor="middle" x="76.5" y="-105.5" font-family="Helvetica,sans-Serif" font-size="10.00">MausoleumInteraction</text>
</a>
</g>
</g>
<!-- Node1&#45;&gt;Node6 -->
<g id="edge5" class="edge">
<title>Node1&#45;&gt;Node6</title>
<path fill="none" stroke="midnightblue" d="M210.53,-150.22C186.7,-143.65 157.16,-135.49 131.97,-128.54"/>
<polygon fill="midnightblue" stroke="midnightblue" points="209.78,-153.65 220.35,-152.94 211.65,-146.9 209.78,-153.65"/>
</g>
<!-- Node7 -->
<g id="node7" class="node">
<title>Node7</title>
<g id="a_node7"><a xlink:href="../../da/d79/class_tutorial_progression.html#a5a5b857b69b0985bfe68623767cc0701" target="_top" xlink:title="Third interaction for graves with traps attached.">
<polygon fill="white" stroke="black" points="10,-49.5 10,-79.5 143,-79.5 143,-49.5 10,-49.5"/>
<text text-anchor="start" x="18" y="-67.5" font-family="Helvetica,sans-Serif" font-size="10.00">TutorialProgression.Mentor</text>
<text text-anchor="middle" x="76.5" y="-56.5" font-family="Helvetica,sans-Serif" font-size="10.00">TrapsInteract</text>
</a>
</g>
</g>
<!-- Node1&#45;&gt;Node7 -->
<g id="edge6" class="edge">
<title>Node1&#45;&gt;Node7</title>
<path fill="none" stroke="midnightblue" d="M236.25,-146.41C216.6,-130.22 184.28,-105.41 153,-89.5 145.74,-85.81 137.81,-82.49 129.92,-79.57"/>
<polygon fill="midnightblue" stroke="midnightblue" points="234.19,-149.25 244.1,-152.98 238.68,-143.88 234.19,-149.25"/>
</g>
<!-- Node8 -->
<g id="node8" class="node">
<title>Node8</title>
<g id="a_node8"><a xlink:href="../../d5/db2/class_guard_caught_interaction.html#aeee5570bf6a886ac861f4c36b1f0ee7e" target="_top" xlink:title="Enable&#39;s the guard&#39;s bribe dialogue and begins bribing sequence.">
<polygon fill="white" stroke="black" points="5,-0.5 5,-30.5 148,-30.5 148,-0.5 5,-0.5"/>
<text text-anchor="start" x="13" y="-18.5" font-family="Helvetica,sans-Serif" font-size="10.00">GuardCaughtInteraction.Start</text>
<text text-anchor="middle" x="76.5" y="-7.5" font-family="Helvetica,sans-Serif" font-size="10.00">Bribe</text>
</a>
</g>
</g>
<!-- Node1&#45;&gt;Node8 -->
<g id="edge7" class="edge">
<title>Node1&#45;&gt;Node8</title>
<path fill="none" stroke="midnightblue" d="M244.21,-143.97C227.79,-117.35 194.07,-68.43 153,-40.5 147.4,-36.7 141.19,-33.43 134.79,-30.64"/>
<polygon fill="midnightblue" stroke="midnightblue" points="241.3,-145.93 249.46,-152.69 247.3,-142.32 241.3,-145.93"/>
</g>
</g>
</svg>
