<?xml version="1.0" encoding="UTF-8" standalone="no"?>
<!DOCTYPE svg PUBLIC "-//W3C//DTD SVG 1.1//EN"
 "http://www.w3.org/Graphics/SVG/1.1/DTD/svg11.dtd">
<!-- Generated by graphviz version 3.0.0 (20220226.1711)
 -->
<!-- Title: UIManager.DialogueDisable Pages: 1 -->
<svg width="318pt" height="361pt"
 viewBox="0.00 0.00 318.00 360.50" xmlns="http://www.w3.org/2000/svg" xmlns:xlink="http://www.w3.org/1999/xlink">
<g id="graph0" class="graph" transform="scale(1 1) rotate(0) translate(4 356.5)">
<title>UIManager.DialogueDisable</title>
<polygon fill="white" stroke="transparent" points="-4,4 -4,-356.5 314,-356.5 314,4 -4,4"/>
<!-- Node1 -->
<g id="node1" class="node">
<title>Node1</title>
<g id="a_node1"><a xlink:title="Disables the dialogue box.">
<polygon fill="#bfbfbf" stroke="black" points="174,-177 174,-196 310,-196 310,-177 174,-177"/>
<text text-anchor="middle" x="242" y="-184" font-family="Helvetica,sans-Serif" font-size="10.00">UIManager.DialogueDisable</text>
</a>
</g>
</g>
<!-- Node2 -->
<g id="node2" class="node">
<title>Node2</title>
<g id="a_node2"><a xlink:href="../../d4/d9f/class_bribing_options.html#a88355c8ba62712f1732c2eaf36d85026" target="_top" xlink:title="Deducts the required money, and the guard returns to their route.">
<polygon fill="white" stroke="black" points="0.5,-333 0.5,-352 137.5,-352 137.5,-333 0.5,-333"/>
<text text-anchor="middle" x="69" y="-340" font-family="Helvetica,sans-Serif" font-size="10.00">BribingOptions.AcceptBribe</text>
</a>
</g>
</g>
<!-- Node1&#45;&gt;Node2 -->
<g id="edge1" class="edge">
<title>Node1&#45;&gt;Node2</title>
<path fill="none" stroke="midnightblue" d="M231.94,-205.45C216.74,-235.18 183.28,-292.57 138,-323.5 132.33,-327.37 125.89,-330.46 119.28,-332.92"/>
<polygon fill="midnightblue" stroke="midnightblue" points="235.23,-206.69 236.54,-196.18 228.96,-203.58 235.23,-206.69"/>
</g>
<!-- Node3 -->
<g id="node3" class="node">
<title>Node3</title>
<g id="a_node3"><a xlink:href="../../d4/d9f/class_bribing_options.html#a7174aa8fd18c8c448f97c33c534b65d9" target="_top" xlink:title="Ends the current run, and causes other negative effects (to be added).">
<polygon fill="white" stroke="black" points="0,-295 0,-314 138,-314 138,-295 0,-295"/>
<text text-anchor="middle" x="69" y="-302" font-family="Helvetica,sans-Serif" font-size="10.00">BribingOptions.DeclineBribe</text>
</a>
</g>
</g>
<!-- Node1&#45;&gt;Node3 -->
<g id="edge2" class="edge">
<title>Node1&#45;&gt;Node3</title>
<path fill="none" stroke="midnightblue" d="M227.3,-204.25C209.21,-226.47 175.26,-264.21 138,-285.5 131.29,-289.33 123.77,-292.43 116.24,-294.92"/>
<polygon fill="midnightblue" stroke="midnightblue" points="230.14,-206.29 233.63,-196.29 224.67,-201.93 230.14,-206.29"/>
</g>
<!-- Node4 -->
<g id="node4" class="node">
<title>Node4</title>
<g id="a_node4"><a xlink:href="../../da/d79/class_tutorial_progression.html#a231523ead6e1a3d466808083b6a07e13" target="_top" xlink:title="Fourth interaction for guard with stealth bushes.">
<polygon fill="white" stroke="black" points="2.5,-245.5 2.5,-275.5 135.5,-275.5 135.5,-245.5 2.5,-245.5"/>
<text text-anchor="start" x="10.5" y="-263.5" font-family="Helvetica,sans-Serif" font-size="10.00">TutorialProgression.Mentor</text>
<text text-anchor="middle" x="69" y="-252.5" font-family="Helvetica,sans-Serif" font-size="10.00">BushInteraction</text>
</a>
</g>
</g>
<!-- Node1&#45;&gt;Node4 -->
<g id="edge3" class="edge">
<title>Node1&#45;&gt;Node4</title>
<path fill="none" stroke="midnightblue" d="M213.6,-200.85C193.07,-211.34 164.13,-225.59 138,-236.5 130.61,-239.59 122.66,-242.63 114.9,-245.46"/>
<polygon fill="midnightblue" stroke="midnightblue" points="215.39,-203.86 222.68,-196.17 212.19,-197.64 215.39,-203.86"/>
</g>
<!-- Node5 -->
<g id="node5" class="node">
<title>Node5</title>
<g id="a_node5"><a xlink:href="../../da/d79/class_tutorial_progression.html#ac391381b4c1ccf2e8d774ba807e41fd2" target="_top" xlink:title="Final interaction after failing minigame.">
<polygon fill="white" stroke="black" points="2.5,-196.5 2.5,-226.5 135.5,-226.5 135.5,-196.5 2.5,-196.5"/>
<text text-anchor="start" x="10.5" y="-214.5" font-family="Helvetica,sans-Serif" font-size="10.00">TutorialProgression.Mentor</text>
<text text-anchor="middle" x="69" y="-203.5" font-family="Helvetica,sans-Serif" font-size="10.00">FailureInteraction</text>
</a>
</g>
</g>
<!-- Node1&#45;&gt;Node5 -->
<g id="edge4" class="edge">
<title>Node1&#45;&gt;Node5</title>
<path fill="none" stroke="midnightblue" d="M165.85,-197.49C155.74,-198.96 145.44,-200.47 135.52,-201.92"/>
<polygon fill="midnightblue" stroke="midnightblue" points="166.48,-200.93 175.86,-196.02 165.46,-194.01 166.48,-200.93"/>
</g>
<!-- Node6 -->
<g id="node6" class="node">
<title>Node6</title>
<g id="a_node6"><a xlink:href="../../da/d79/class_tutorial_progression.html#a374a6b4061ec89d92e678f0ce40192e2" target="_top" xlink:title="Second interaction before the first guard obstacle.">
<polygon fill="white" stroke="black" points="2.5,-147.5 2.5,-177.5 135.5,-177.5 135.5,-147.5 2.5,-147.5"/>
<text text-anchor="start" x="10.5" y="-165.5" font-family="Helvetica,sans-Serif" font-size="10.00">TutorialProgression.Mentor</text>
<text text-anchor="middle" x="69" y="-154.5" font-family="Helvetica,sans-Serif" font-size="10.00">GuardInteract</text>
</a>
</g>
</g>
<!-- Node1&#45;&gt;Node6 -->
<g id="edge5" class="edge">
<title>Node1&#45;&gt;Node6</title>
<path fill="none" stroke="midnightblue" d="M163.82,-175.67C154.46,-174.35 144.96,-173.02 135.78,-171.73"/>
<polygon fill="midnightblue" stroke="midnightblue" points="163.52,-179.16 173.91,-177.08 164.49,-172.23 163.52,-179.16"/>
</g>
<!-- Node7 -->
<g id="node7" class="node">
<title>Node7</title>
<g id="a_node7"><a xlink:href="../../da/d79/class_tutorial_progression.html#a1488822e0d8c18ac14493f4473b9a62b" target="_top" xlink:title="First interaction function for first set of graves.">
<polygon fill="white" stroke="black" points="2.5,-98.5 2.5,-128.5 135.5,-128.5 135.5,-98.5 2.5,-98.5"/>
<text text-anchor="start" x="10.5" y="-116.5" font-family="Helvetica,sans-Serif" font-size="10.00">TutorialProgression.Mentor</text>
<text text-anchor="middle" x="69" y="-105.5" font-family="Helvetica,sans-Serif" font-size="10.00">InitialInteraction</text>
</a>
</g>
</g>
<!-- Node1&#45;&gt;Node7 -->
<g id="edge6" class="edge">
<title>Node1&#45;&gt;Node7</title>
<path fill="none" stroke="midnightblue" d="M212.74,-172.55C192.21,-162.61 163.63,-149.16 138,-138.5 129.87,-135.12 121.1,-131.72 112.65,-128.56"/>
<polygon fill="midnightblue" stroke="midnightblue" points="211.33,-175.76 221.85,-176.99 214.39,-169.46 211.33,-175.76"/>
</g>
<!-- Node8 -->
<g id="node8" class="node">
<title>Node8</title>
<g id="a_node8"><a xlink:href="../../da/d79/class_tutorial_progression.html#aba3dd024b693b5ce4fdff69a7efc6762" target="_top" xlink:title="Fifth interaction before mausoleum.">
<polygon fill="white" stroke="black" points="2.5,-49.5 2.5,-79.5 135.5,-79.5 135.5,-49.5 2.5,-49.5"/>
<text text-anchor="start" x="10.5" y="-67.5" font-family="Helvetica,sans-Serif" font-size="10.00">TutorialProgression.Mentor</text>
<text text-anchor="middle" x="69" y="-56.5" font-family="Helvetica,sans-Serif" font-size="10.00">MausoleumInteraction</text>
</a>
</g>
</g>
<!-- Node1&#45;&gt;Node8 -->
<g id="edge7" class="edge">
<title>Node1&#45;&gt;Node8</title>
<path fill="none" stroke="midnightblue" d="M226.66,-169.26C208.14,-147.93 173.96,-111.74 138,-89.5 132.01,-85.8 125.39,-82.51 118.69,-79.65"/>
<polygon fill="midnightblue" stroke="midnightblue" points="224.03,-171.56 233.18,-176.89 229.35,-167.02 224.03,-171.56"/>
</g>
<!-- Node9 -->
<g id="node9" class="node">
<title>Node9</title>
<g id="a_node9"><a xlink:href="../../da/d79/class_tutorial_progression.html#a5a5b857b69b0985bfe68623767cc0701" target="_top" xlink:title="Third interaction for graves with traps attached.">
<polygon fill="white" stroke="black" points="2.5,-0.5 2.5,-30.5 135.5,-30.5 135.5,-0.5 2.5,-0.5"/>
<text text-anchor="start" x="10.5" y="-18.5" font-family="Helvetica,sans-Serif" font-size="10.00">TutorialProgression.Mentor</text>
<text text-anchor="middle" x="69" y="-7.5" font-family="Helvetica,sans-Serif" font-size="10.00">TrapsInteract</text>
</a>
</g>
</g>
<!-- Node1&#45;&gt;Node9 -->
<g id="edge8" class="edge">
<title>Node1&#45;&gt;Node9</title>
<path fill="none" stroke="midnightblue" d="M232.37,-167.59C217.4,-136.76 183.77,-75.61 138,-40.5 133.01,-36.67 127.38,-33.39 121.54,-30.58"/>
<polygon fill="midnightblue" stroke="midnightblue" points="229.29,-169.25 236.72,-176.8 235.62,-166.26 229.29,-169.25"/>
</g>
</g>
</svg>
