<?xml version="1.0" encoding="UTF-8" standalone="no"?>
<!DOCTYPE svg PUBLIC "-//W3C//DTD SVG 1.1//EN"
 "http://www.w3.org/Graphics/SVG/1.1/DTD/svg11.dtd">
<!-- Generated by graphviz version 3.0.0 (20220226.1711)
 -->
<!-- Title: TutorialGuard Pages: 1 -->
<svg width="809pt" height="1032pt"
 viewBox="0.00 0.00 809.00 1031.84" xmlns="http://www.w3.org/2000/svg" xmlns:xlink="http://www.w3.org/1999/xlink">
<g id="graph0" class="graph" transform="scale(1 1) rotate(0) translate(4 1027.84)">
<title>TutorialGuard</title>
<polygon fill="white" stroke="transparent" points="-4,4 -4,-1027.84 805,-1027.84 805,4 -4,4"/>
<!-- Node1 -->
<g id="node1" class="node">
<title>Node1</title>
<g id="a_node1"><a xlink:title=" ">
<polygon fill="#bfbfbf" stroke="black" points="727,-674.34 727,-693.34 801,-693.34 801,-674.34 727,-674.34"/>
<text text-anchor="middle" x="764" y="-681.34" font-family="Helvetica,sans-Serif" font-size="10.00">TutorialGuard</text>
</a>
</g>
</g>
<!-- Node2 -->
<g id="node2" class="node">
<title>Node2</title>
<g id="a_node2"><a xlink:href="../../d3/d01/class_guard.html" target="_top" xlink:title=" ">
<polygon fill="white" stroke="black" points="647,-345.34 647,-364.34 690,-364.34 690,-345.34 647,-345.34"/>
<text text-anchor="middle" x="668.5" y="-352.34" font-family="Helvetica,sans-Serif" font-size="10.00">Guard</text>
</a>
</g>
</g>
<!-- Node2&#45;&gt;Node1 -->
<g id="edge1" class="edge">
<title>Node2&#45;&gt;Node1</title>
<path fill="none" stroke="midnightblue" d="M675.07,-374.44C692.76,-436.67 747.25,-628.42 760.21,-674.03"/>
<polygon fill="midnightblue" stroke="midnightblue" points="678.4,-373.35 672.3,-364.69 671.67,-375.26 678.4,-373.35"/>
</g>
<!-- Node3 -->
<g id="node3" class="node">
<title>Node3</title>
<g id="a_node3"><a xlink:href="../../da/d01/class_mono_behaviour.html" target="_top" xlink:title=" ">
<polygon fill="white" stroke="black" points="0,-480.34 0,-499.34 83,-499.34 83,-480.34 0,-480.34"/>
<text text-anchor="middle" x="41.5" y="-487.34" font-family="Helvetica,sans-Serif" font-size="10.00">MonoBehaviour</text>
</a>
</g>
</g>
<!-- Node3&#45;&gt;Node2 -->
<g id="edge2" class="edge">
<title>Node3&#45;&gt;Node2</title>
<path fill="none" stroke="midnightblue" d="M43.87,-470.16C47.7,-423.16 61.04,-301.4 101,-208.84 118.84,-167.52 121.13,-150.15 159,-125.84 335.7,-12.41 475.36,65.29 629,-77.84 668.97,-115.07 668.42,-300.83 667.7,-345.28"/>
<polygon fill="midnightblue" stroke="midnightblue" points="40.37,-469.97 43.1,-480.2 47.35,-470.5 40.37,-469.97"/>
</g>
<!-- Node14 -->
<g id="node14" class="node">
<title>Node14</title>
<g id="a_node14"><a xlink:href="../../d1/d3d/class_map_generation.html" target="_top" xlink:title="Handles everything for map generation withing a graveyard.">
<polygon fill="white" stroke="black" points="456,-568.34 456,-587.34 539,-587.34 539,-568.34 456,-568.34"/>
<text text-anchor="middle" x="497.5" y="-575.34" font-family="Helvetica,sans-Serif" font-size="10.00">MapGeneration</text>
</a>
</g>
</g>
<!-- Node3&#45;&gt;Node14 -->
<g id="edge14" class="edge">
<title>Node3&#45;&gt;Node14</title>
<path fill="none" stroke="midnightblue" d="M91.14,-501.68C94.47,-502.43 97.78,-503.16 101,-503.84 249.56,-535.3 287.9,-537.05 437,-565.84 443.1,-567.02 449.56,-568.29 455.87,-569.55"/>
<polygon fill="midnightblue" stroke="midnightblue" points="91.67,-498.21 81.14,-499.39 90.1,-505.04 91.67,-498.21"/>
</g>
<!-- Node17 -->
<g id="node17" class="node">
<title>Node17</title>
<g id="a_node17"><a xlink:href="../../d7/d55/class_tile_data.html" target="_top" xlink:title="Stores information on each tile in the map.">
<polygon fill="white" stroke="black" points="211.5,-632.34 211.5,-651.34 263.5,-651.34 263.5,-632.34 211.5,-632.34"/>
<text text-anchor="middle" x="237.5" y="-639.34" font-family="Helvetica,sans-Serif" font-size="10.00">TileData</text>
</a>
</g>
</g>
<!-- Node3&#45;&gt;Node17 -->
<g id="edge19" class="edge">
<title>Node3&#45;&gt;Node17</title>
<path fill="none" stroke="midnightblue" d="M53.45,-508.44C71.59,-537.53 110.68,-593.49 159,-622.84 174.87,-632.48 195.36,-637.23 211.28,-639.57"/>
<polygon fill="midnightblue" stroke="midnightblue" points="56.31,-506.4 48.13,-499.68 50.33,-510.04 56.31,-506.4"/>
</g>
<!-- Node20 -->
<g id="node20" class="node">
<title>Node20</title>
<g id="a_node20"><a xlink:href="../../d3/d59/class_unity_engine_1_1_a_i_1_1_nav_mesh_surface.html" target="_top" xlink:title=" ">
<polygon fill="white" stroke="black" points="159,-480.34 159,-499.34 316,-499.34 316,-480.34 159,-480.34"/>
<text text-anchor="middle" x="237.5" y="-487.34" font-family="Helvetica,sans-Serif" font-size="10.00">UnityEngine.AI.NavMeshSurface</text>
</a>
</g>
</g>
<!-- Node3&#45;&gt;Node20 -->
<g id="edge27" class="edge">
<title>Node3&#45;&gt;Node20</title>
<path fill="none" stroke="midnightblue" d="M93.28,-489.84C113.25,-489.84 136.64,-489.84 158.65,-489.84"/>
<polygon fill="midnightblue" stroke="midnightblue" points="93.17,-486.34 83.17,-489.84 93.17,-493.34 93.17,-486.34"/>
</g>
<!-- Node23 -->
<g id="node23" class="node">
<title>Node23</title>
<g id="a_node23"><a xlink:href="../../df/d5c/class_map_commands.html" target="_top" xlink:title=" ">
<polygon fill="white" stroke="black" points="455,-119.34 455,-138.34 540,-138.34 540,-119.34 455,-119.34"/>
<text text-anchor="middle" x="497.5" y="-126.34" font-family="Helvetica,sans-Serif" font-size="10.00">MapCommands</text>
</a>
</g>
</g>
<!-- Node3&#45;&gt;Node23 -->
<g id="edge32" class="edge">
<title>Node3&#45;&gt;Node23</title>
<path fill="none" stroke="midnightblue" d="M44.1,-469.85C49.51,-416.23 72,-268.25 159,-193.84 243.91,-121.21 385.17,-120.06 454.92,-124.67"/>
<polygon fill="midnightblue" stroke="midnightblue" points="40.59,-469.79 43.17,-480.06 47.56,-470.42 40.59,-469.79"/>
</g>
<!-- Node4 -->
<g id="node4" class="node">
<title>Node4</title>
<g id="a_node4"><a xlink:title=" ">
<polygon fill="white" stroke="black" points="207,-858.34 207,-877.34 268,-877.34 268,-858.34 207,-858.34"/>
<text text-anchor="middle" x="237.5" y="-865.34" font-family="Helvetica,sans-Serif" font-size="10.00">Vector2Int</text>
</a>
</g>
</g>
<!-- Node4&#45;&gt;Node2 -->
<g id="edge3" class="edge">
<title>Node4&#45;&gt;Node2</title>
<path fill="none" stroke="#9a32cd" stroke-dasharray="5,2" d="M277.97,-876.63C319.97,-883.85 387.12,-889.09 437,-862.84 565.7,-795.1 573.43,-732.25 629,-597.84 664.25,-512.58 667.43,-398.2 667.56,-364.54"/>
<polygon fill="#9a32cd" stroke="#9a32cd" points="278.58,-873.19 268.12,-874.82 277.32,-880.07 278.58,-873.19"/>
<text text-anchor="middle" x="497.5" y="-864.84" font-family="Helvetica,sans-Serif" font-size="10.00"> LongTermGoal</text>
<text text-anchor="middle" x="497.5" y="-853.84" font-family="Helvetica,sans-Serif" font-size="10.00">LookoutGoals</text>
</g>
<!-- Node4&#45;&gt;Node14 -->
<g id="edge24" class="edge">
<title>Node4&#45;&gt;Node14</title>
<path fill="none" stroke="#9a32cd" stroke-dasharray="5,2" d="M278.06,-861.32C334.44,-851.85 431.71,-834.78 437,-828.84 471.37,-790.21 425.4,-639.24 455,-596.84 457.72,-592.94 461.45,-589.83 465.56,-587.34"/>
<polygon fill="#9a32cd" stroke="#9a32cd" points="277.33,-857.9 268.04,-863 278.48,-864.8 277.33,-857.9"/>
<text text-anchor="middle" x="385.5" y="-853.84" font-family="Helvetica,sans-Serif" font-size="10.00"> GraveyardEntrancePos</text>
</g>
<!-- Node5 -->
<g id="node5" class="node">
<title>Node5</title>
<g id="a_node5"><a xlink:title=" ">
<polygon fill="white" stroke="black" points="463,-606.34 463,-625.34 532,-625.34 532,-606.34 463,-606.34"/>
<text text-anchor="middle" x="497.5" y="-613.34" font-family="Helvetica,sans-Serif" font-size="10.00">UnityEngine</text>
</a>
</g>
</g>
<!-- Node5&#45;&gt;Node2 -->
<g id="edge4" class="edge">
<title>Node5&#45;&gt;Node2</title>
<path fill="none" stroke="#9a32cd" stroke-dasharray="5,2" d="M532.46,-601.54C535.07,-600.06 537.62,-598.49 540,-596.84 585.94,-564.91 601.4,-556.5 629,-507.84 656.84,-458.76 664.8,-389.6 666.85,-364.45"/>
<polygon fill="#9a32cd" stroke="#9a32cd" points="530.73,-598.49 523.43,-606.17 533.92,-604.72 530.73,-598.49"/>
<text text-anchor="middle" x="593.5" y="-585.84" font-family="Helvetica,sans-Serif" font-size="10.00"> Agent</text>
</g>
<!-- Node6 -->
<g id="node6" class="node">
<title>Node6</title>
<g id="a_node6"><a xlink:title=" ">
<polygon fill="white" stroke="black" points="468,-954.34 468,-973.34 527,-973.34 527,-954.34 468,-954.34"/>
<text text-anchor="middle" x="497.5" y="-961.34" font-family="Helvetica,sans-Serif" font-size="10.00">Transform</text>
</a>
</g>
</g>
<!-- Node6&#45;&gt;Node1 -->
<g id="edge34" class="edge">
<title>Node6&#45;&gt;Node1</title>
<path fill="none" stroke="#9a32cd" stroke-dasharray="5,2" d="M537.24,-974.97C564.92,-980.55 601.91,-982.96 629,-965.84 731.18,-901.26 757.02,-735.21 761.99,-693.47"/>
<polygon fill="#9a32cd" stroke="#9a32cd" points="537.65,-971.47 527.13,-972.71 536.12,-978.31 537.65,-971.47"/>
<text text-anchor="middle" x="668.5" y="-954.84" font-family="Helvetica,sans-Serif" font-size="10.00"> Goals</text>
</g>
<!-- Node6&#45;&gt;Node2 -->
<g id="edge5" class="edge">
<title>Node6&#45;&gt;Node2</title>
<path fill="none" stroke="#9a32cd" stroke-dasharray="5,2" d="M536.23,-951.09C543.45,-948.67 550.96,-946.16 558,-943.84 589.5,-933.44 608.59,-946.99 629,-920.84 664.6,-875.22 667.28,-436.41 667.48,-364.72"/>
<polygon fill="#9a32cd" stroke="#9a32cd" points="534.99,-947.81 526.63,-954.31 537.22,-954.45 534.99,-947.81"/>
<text text-anchor="middle" x="593.5" y="-957.84" font-family="Helvetica,sans-Serif" font-size="10.00"> CurrentGoal</text>
<text text-anchor="middle" x="593.5" y="-946.84" font-family="Helvetica,sans-Serif" font-size="10.00">PlayerTransform</text>
</g>
<!-- Node7 -->
<g id="node7" class="node">
<title>Node7</title>
<g id="a_node7"><a xlink:title=" ">
<polygon fill="white" stroke="black" points="223,-371.34 223,-390.34 252,-390.34 252,-371.34 223,-371.34"/>
<text text-anchor="middle" x="237.5" y="-378.34" font-family="Helvetica,sans-Serif" font-size="10.00">int</text>
</a>
</g>
</g>
<!-- Node7&#45;&gt;Node2 -->
<g id="edge6" class="edge">
<title>Node7&#45;&gt;Node2</title>
<path fill="none" stroke="#9a32cd" stroke-dasharray="5,2" d="M262.32,-379.4C338.52,-374.78 575.46,-360.42 646.9,-356.09"/>
<polygon fill="#9a32cd" stroke="#9a32cd" points="262.06,-375.9 252.29,-380 262.48,-382.89 262.06,-375.9"/>
<text text-anchor="middle" x="497.5" y="-380.84" font-family="Helvetica,sans-Serif" font-size="10.00"> CloseVision</text>
<text text-anchor="middle" x="497.5" y="-369.84" font-family="Helvetica,sans-Serif" font-size="10.00">RouteCheckpoint</text>
</g>
<!-- Node7&#45;&gt;Node14 -->
<g id="edge23" class="edge">
<title>Node7&#45;&gt;Node14</title>
<path fill="none" stroke="#9a32cd" stroke-dasharray="5,2" d="M262.18,-379.46C308.84,-377.23 410.44,-375.01 437,-395.84 465.38,-418.1 488.4,-533.39 494.75,-568"/>
<polygon fill="#9a32cd" stroke="#9a32cd" points="261.89,-375.97 252.08,-379.98 262.25,-382.96 261.89,-375.97"/>
<text text-anchor="middle" x="385.5" y="-486.84" font-family="Helvetica,sans-Serif" font-size="10.00"> BushMinDistance</text>
<text text-anchor="middle" x="385.5" y="-475.84" font-family="Helvetica,sans-Serif" font-size="10.00">GraveClusters</text>
<text text-anchor="middle" x="385.5" y="-464.84" font-family="Helvetica,sans-Serif" font-size="10.00">GraveRNGIncrease</text>
<text text-anchor="middle" x="385.5" y="-453.84" font-family="Helvetica,sans-Serif" font-size="10.00">GraveyardLength</text>
<text text-anchor="middle" x="385.5" y="-442.84" font-family="Helvetica,sans-Serif" font-size="10.00">GraveyardWidth</text>
<text text-anchor="middle" x="385.5" y="-431.84" font-family="Helvetica,sans-Serif" font-size="10.00">GuardNumber</text>
<text text-anchor="middle" x="385.5" y="-420.84" font-family="Helvetica,sans-Serif" font-size="10.00">MaxBushes</text>
<text text-anchor="middle" x="385.5" y="-409.84" font-family="Helvetica,sans-Serif" font-size="10.00">MaxTrees</text>
<text text-anchor="middle" x="385.5" y="-398.84" font-family="Helvetica,sans-Serif" font-size="10.00">TreeMinDistance</text>
</g>
<!-- Node8 -->
<g id="node8" class="node">
<title>Node8</title>
<g id="a_node8"><a xlink:title=" ">
<polygon fill="white" stroke="black" points="24,-716.34 24,-735.34 59,-735.34 59,-716.34 24,-716.34"/>
<text text-anchor="middle" x="41.5" y="-723.34" font-family="Helvetica,sans-Serif" font-size="10.00">float</text>
</a>
</g>
</g>
<!-- Node8&#45;&gt;Node2 -->
<g id="edge7" class="edge">
<title>Node8&#45;&gt;Node2</title>
<path fill="none" stroke="#9a32cd" stroke-dasharray="5,2" d="M49.61,-745.28C63.92,-781.11 99.97,-856.69 159,-886.84 309.85,-963.89 400.65,-973.15 540,-876.84 615.06,-824.96 603.69,-779.5 629,-691.84 665.26,-566.24 667.58,-405.05 667.56,-364.45"/>
<polygon fill="#9a32cd" stroke="#9a32cd" points="52.72,-743.6 45.87,-735.52 46.19,-746.11 52.72,-743.6"/>
<text text-anchor="middle" x="385.5" y="-1015.84" font-family="Helvetica,sans-Serif" font-size="10.00"> BaseCatchRange</text>
<text text-anchor="middle" x="385.5" y="-1004.84" font-family="Helvetica,sans-Serif" font-size="10.00">BaseDetectionRange</text>
<text text-anchor="middle" x="385.5" y="-993.84" font-family="Helvetica,sans-Serif" font-size="10.00">BasePursuitRange</text>
<text text-anchor="middle" x="385.5" y="-982.84" font-family="Helvetica,sans-Serif" font-size="10.00">CatchRange</text>
<text text-anchor="middle" x="385.5" y="-971.84" font-family="Helvetica,sans-Serif" font-size="10.00">DetectionRange</text>
<text text-anchor="middle" x="385.5" y="-960.84" font-family="Helvetica,sans-Serif" font-size="10.00">DetectionRangeBonus</text>
<text text-anchor="middle" x="385.5" y="-949.84" font-family="Helvetica,sans-Serif" font-size="10.00">PursuitRange</text>
</g>
<!-- Node8&#45;&gt;Node14 -->
<g id="edge25" class="edge">
<title>Node8&#45;&gt;Node14</title>
<path fill="none" stroke="#9a32cd" stroke-dasharray="5,2" d="M69.1,-725.3C153.25,-723.36 409.76,-715.47 437,-690.84 468.55,-662.31 428.74,-630.3 455,-596.84 458.03,-592.97 462.03,-589.87 466.35,-587.38"/>
<polygon fill="#9a32cd" stroke="#9a32cd" points="68.98,-721.81 59.06,-725.53 69.13,-728.8 68.98,-721.81"/>
<text text-anchor="middle" x="237.5" y="-746.84" font-family="Helvetica,sans-Serif" font-size="10.00"> DetachedGraveChance</text>
<text text-anchor="middle" x="237.5" y="-735.84" font-family="Helvetica,sans-Serif" font-size="10.00">GraveDensity</text>
<text text-anchor="middle" x="237.5" y="-724.84" font-family="Helvetica,sans-Serif" font-size="10.00">TileSize</text>
</g>
<!-- Node8&#45;&gt;Node17 -->
<g id="edge20" class="edge">
<title>Node8&#45;&gt;Node17</title>
<path fill="none" stroke="#9a32cd" stroke-dasharray="5,2" d="M65.21,-710.74C88.05,-696.15 124.71,-674.32 159,-660.84 175.89,-654.2 195.79,-649.38 211.19,-646.25"/>
<polygon fill="#9a32cd" stroke="#9a32cd" points="63.08,-707.95 56.59,-716.32 66.89,-713.82 63.08,-707.95"/>
<text text-anchor="middle" x="121" y="-690.84" font-family="Helvetica,sans-Serif" font-size="10.00"> Noise</text>
</g>
<!-- Node9 -->
<g id="node9" class="node">
<title>Node9</title>
<g id="a_node9"><a xlink:title=" ">
<polygon fill="white" stroke="black" points="464.5,-264.34 464.5,-283.34 530.5,-283.34 530.5,-264.34 464.5,-264.34"/>
<text text-anchor="middle" x="497.5" y="-271.34" font-family="Helvetica,sans-Serif" font-size="10.00">GuardState</text>
</a>
</g>
</g>
<!-- Node9&#45;&gt;Node2 -->
<g id="edge8" class="edge">
<title>Node9&#45;&gt;Node2</title>
<path fill="none" stroke="#9a32cd" stroke-dasharray="5,2" d="M540.63,-272.09C567.87,-272.9 602.96,-277.78 629,-294.84 647.43,-306.91 658.84,-331.2 664.09,-344.89"/>
<polygon fill="#9a32cd" stroke="#9a32cd" points="540.66,-268.59 530.61,-271.96 540.57,-275.59 540.66,-268.59"/>
<text text-anchor="middle" x="593.5" y="-297.84" font-family="Helvetica,sans-Serif" font-size="10.00"> GState</text>
</g>
<!-- Node10 -->
<g id="node10" class="node">
<title>Node10</title>
<g id="a_node10"><a xlink:title=" ">
<polygon fill="white" stroke="black" points="220,-203.34 220,-222.34 255,-222.34 255,-203.34 220,-203.34"/>
<text text-anchor="middle" x="237.5" y="-210.34" font-family="Helvetica,sans-Serif" font-size="10.00">bool</text>
</a>
</g>
</g>
<!-- Node10&#45;&gt;Node2 -->
<g id="edge9" class="edge">
<title>Node10&#45;&gt;Node2</title>
<path fill="none" stroke="#9a32cd" stroke-dasharray="5,2" d="M265.21,-209.66C318.52,-204.17 441.47,-195.85 540,-221.84 583.25,-233.25 598.41,-236.2 629,-268.84 650.25,-291.52 661.17,-327.91 665.38,-345.16"/>
<polygon fill="#9a32cd" stroke="#9a32cd" points="264.78,-206.18 255.22,-210.74 265.53,-213.14 264.78,-206.18"/>
<text text-anchor="middle" x="497.5" y="-246.84" font-family="Helvetica,sans-Serif" font-size="10.00"> AlertCooldown</text>
<text text-anchor="middle" x="497.5" y="-235.84" font-family="Helvetica,sans-Serif" font-size="10.00">IsInvestigating</text>
<text text-anchor="middle" x="497.5" y="-224.84" font-family="Helvetica,sans-Serif" font-size="10.00">Paused</text>
</g>
<!-- Node10&#45;&gt;Node14 -->
<g id="edge30" class="edge">
<title>Node10&#45;&gt;Node14</title>
<path fill="none" stroke="#9a32cd" stroke-dasharray="5,2" d="M265.34,-216.98C314.19,-225.1 414.66,-244.6 437,-270.84 457.91,-295.39 449.01,-383.15 455,-414.84 466.12,-473.66 486.04,-542.8 493.54,-568.01"/>
<polygon fill="#9a32cd" stroke="#9a32cd" points="265.63,-213.49 255.2,-215.34 264.51,-220.39 265.63,-213.49"/>
<text text-anchor="middle" x="385.5" y="-273.84" font-family="Helvetica,sans-Serif" font-size="10.00"> Prebuilt</text>
</g>
<!-- Node10&#45;&gt;Node23 -->
<g id="edge33" class="edge">
<title>Node10&#45;&gt;Node23</title>
<path fill="none" stroke="#9a32cd" stroke-dasharray="5,2" d="M265.07,-206.23C303.48,-196.42 376.54,-176.78 437,-154.84 450.35,-149.99 464.97,-143.62 476.38,-138.4"/>
<polygon fill="#9a32cd" stroke="#9a32cd" points="264.03,-202.88 255.2,-208.73 265.75,-209.67 264.03,-202.88"/>
<text text-anchor="middle" x="385.5" y="-189.84" font-family="Helvetica,sans-Serif" font-size="10.00"> SceneFrozen</text>
</g>
<!-- Node11 -->
<g id="node11" class="node">
<title>Node11</title>
<g id="a_node11"><a xlink:title=" ">
<polygon fill="white" stroke="black" points="463,-157.34 463,-176.34 532,-176.34 532,-157.34 463,-157.34"/>
<text text-anchor="middle" x="497.5" y="-164.34" font-family="Helvetica,sans-Serif" font-size="10.00">IEnumerator</text>
</a>
</g>
</g>
<!-- Node11&#45;&gt;Node2 -->
<g id="edge10" class="edge">
<title>Node11&#45;&gt;Node2</title>
<path fill="none" stroke="#9a32cd" stroke-dasharray="5,2" d="M542.12,-158C570.2,-154.97 605.66,-156.49 629,-176.84 654.86,-199.38 664.54,-311.61 666.89,-345.27"/>
<polygon fill="#9a32cd" stroke="#9a32cd" points="541.62,-154.54 532.15,-159.3 542.52,-161.48 541.62,-154.54"/>
<text text-anchor="middle" x="593.5" y="-190.84" font-family="Helvetica,sans-Serif" font-size="10.00"> CoChase</text>
<text text-anchor="middle" x="593.5" y="-179.84" font-family="Helvetica,sans-Serif" font-size="10.00">CoStop</text>
</g>
<!-- Node12 -->
<g id="node12" class="node">
<title>Node12</title>
<g id="a_node12"><a xlink:title=" ">
<polygon fill="white" stroke="black" points="202,-278.34 202,-297.34 273,-297.34 273,-278.34 202,-278.34"/>
<text text-anchor="middle" x="237.5" y="-285.34" font-family="Helvetica,sans-Serif" font-size="10.00">GameObject</text>
</a>
</g>
</g>
<!-- Node12&#45;&gt;Node2 -->
<g id="edge11" class="edge">
<title>Node12&#45;&gt;Node2</title>
<path fill="none" stroke="#9a32cd" stroke-dasharray="5,2" d="M283.55,-286.7C299.49,-286.35 317.54,-286.01 334,-285.84 379.78,-285.36 392.01,-277.4 437,-285.84 445.44,-287.42 446.87,-290.08 455,-292.84 524.5,-316.44 608.58,-339.34 646.8,-349.44"/>
<polygon fill="#9a32cd" stroke="#9a32cd" points="283.34,-283.21 273.42,-286.93 283.5,-290.2 283.34,-283.21"/>
<text text-anchor="middle" x="497.5" y="-343.84" font-family="Helvetica,sans-Serif" font-size="10.00"> AlertedMark</text>
<text text-anchor="middle" x="497.5" y="-332.84" font-family="Helvetica,sans-Serif" font-size="10.00">Player</text>
<text text-anchor="middle" x="497.5" y="-321.84" font-family="Helvetica,sans-Serif" font-size="10.00">QuestionMark</text>
</g>
<!-- Node12&#45;&gt;Node14 -->
<g id="edge15" class="edge">
<title>Node12&#45;&gt;Node14</title>
<path fill="none" stroke="#9a32cd" stroke-dasharray="5,2" d="M283.29,-284.34C328.36,-283.43 396.79,-289.63 437,-329.84 464.31,-357.14 446.23,-377.23 455,-414.84 468.65,-473.42 487.21,-543.27 493.93,-568.32"/>
<polygon fill="#9a32cd" stroke="#9a32cd" points="283.09,-280.84 273.21,-284.67 283.32,-287.84 283.09,-280.84"/>
<text text-anchor="middle" x="385.5" y="-365.84" font-family="Helvetica,sans-Serif" font-size="10.00"> Guard</text>
<text text-anchor="middle" x="385.5" y="-354.84" font-family="Helvetica,sans-Serif" font-size="10.00">Headstones</text>
<text text-anchor="middle" x="385.5" y="-343.84" font-family="Helvetica,sans-Serif" font-size="10.00">Parent</text>
<text text-anchor="middle" x="385.5" y="-332.84" font-family="Helvetica,sans-Serif" font-size="10.00">Tiles</text>
</g>
<!-- Node13 -->
<g id="node13" class="node">
<title>Node13</title>
<g id="a_node13"><a xlink:title=" ">
<polygon fill="white" stroke="black" points="472,-81.34 472,-100.34 523,-100.34 523,-81.34 472,-81.34"/>
<text text-anchor="middle" x="497.5" y="-88.34" font-family="Helvetica,sans-Serif" font-size="10.00">Material</text>
</a>
</g>
</g>
<!-- Node13&#45;&gt;Node2 -->
<g id="edge12" class="edge">
<title>Node13&#45;&gt;Node2</title>
<path fill="none" stroke="#9a32cd" stroke-dasharray="5,2" d="M533.27,-83.73C562.67,-79.91 603.91,-80.05 629,-103.84 664.67,-137.67 667.41,-303.02 667.52,-345.09"/>
<polygon fill="#9a32cd" stroke="#9a32cd" points="532.38,-80.32 523.02,-85.28 533.43,-87.24 532.38,-80.32"/>
<text text-anchor="middle" x="593.5" y="-106.84" font-family="Helvetica,sans-Serif" font-size="10.00"> QMarkMaterial</text>
</g>
<!-- Node14&#45;&gt;Node2 -->
<g id="edge13" class="edge">
<title>Node14&#45;&gt;Node2</title>
<path fill="none" stroke="#9a32cd" stroke-dasharray="5,2" d="M511.98,-560.06C545.97,-515.2 634.36,-398.57 660.27,-364.39"/>
<polygon fill="#9a32cd" stroke="#9a32cd" points="509.01,-558.17 505.76,-568.26 514.59,-562.4 509.01,-558.17"/>
<text text-anchor="middle" x="593.5" y="-495.84" font-family="Helvetica,sans-Serif" font-size="10.00"> MG</text>
</g>
<!-- Node15 -->
<g id="node15" class="node">
<title>Node15</title>
<g id="a_node15"><a xlink:title=" ">
<polygon fill="white" stroke="black" points="185,-815.34 185,-834.34 290,-834.34 290,-815.34 185,-815.34"/>
<text text-anchor="middle" x="237.5" y="-822.34" font-family="Helvetica,sans-Serif" font-size="10.00">List&lt; GameObject &gt;</text>
</a>
</g>
</g>
<!-- Node15&#45;&gt;Node14 -->
<g id="edge16" class="edge">
<title>Node15&#45;&gt;Node14</title>
<path fill="none" stroke="#9a32cd" stroke-dasharray="5,2" d="M300.16,-819.34C354.89,-813.85 427.61,-804.81 437,-794.84 467.3,-762.68 429.47,-632.9 455,-596.84 457.75,-592.96 461.49,-589.85 465.6,-587.37"/>
<polygon fill="#9a32cd" stroke="#9a32cd" points="299.78,-815.86 290.17,-820.32 300.47,-822.83 299.78,-815.86"/>
<text text-anchor="middle" x="385.5" y="-817.84" font-family="Helvetica,sans-Serif" font-size="10.00"> GuardList</text>
</g>
<!-- Node16 -->
<g id="node16" class="node">
<title>Node16</title>
<g id="a_node16"><a xlink:title=" ">
<polygon fill="white" stroke="black" points="190,-777.34 190,-796.34 285,-796.34 285,-777.34 190,-777.34"/>
<text text-anchor="middle" x="237.5" y="-784.34" font-family="Helvetica,sans-Serif" font-size="10.00">List&lt; Vector2Int &gt;</text>
</a>
</g>
</g>
<!-- Node16&#45;&gt;Node14 -->
<g id="edge17" class="edge">
<title>Node16&#45;&gt;Node14</title>
<path fill="none" stroke="#9a32cd" stroke-dasharray="5,2" d="M294.79,-773.91C302.26,-770.92 309.56,-767.28 316,-762.84 326.69,-755.47 323.02,-746.77 334,-739.84 373.66,-714.8 405.03,-751.16 437,-716.84 473.76,-677.38 422.57,-639.93 455,-596.84 457.86,-593.04 461.66,-589.98 465.8,-587.52"/>
<polygon fill="#9a32cd" stroke="#9a32cd" points="293.49,-770.65 285.28,-777.34 295.87,-777.24 293.49,-770.65"/>
<text text-anchor="middle" x="385.5" y="-786.84" font-family="Helvetica,sans-Serif" font-size="10.00"> BushList</text>
<text text-anchor="middle" x="385.5" y="-775.84" font-family="Helvetica,sans-Serif" font-size="10.00">GraveClusterCenters</text>
<text text-anchor="middle" x="385.5" y="-764.84" font-family="Helvetica,sans-Serif" font-size="10.00">GraveList</text>
<text text-anchor="middle" x="385.5" y="-753.84" font-family="Helvetica,sans-Serif" font-size="10.00">GuardPathCorners</text>
<text text-anchor="middle" x="385.5" y="-742.84" font-family="Helvetica,sans-Serif" font-size="10.00">TreeList</text>
</g>
<!-- Node17&#45;&gt;Node14 -->
<g id="edge18" class="edge">
<title>Node17&#45;&gt;Node14</title>
<path fill="none" stroke="#9a32cd" stroke-dasharray="5,2" d="M273.81,-643.17C315.01,-643.34 384.2,-639.24 437,-613.84 446.92,-609.07 445.88,-602.99 455,-596.84 460.26,-593.3 466.28,-590.11 472.08,-587.41"/>
<polygon fill="#9a32cd" stroke="#9a32cd" points="273.76,-639.67 263.72,-643.04 273.67,-646.67 273.76,-639.67"/>
<text text-anchor="middle" x="385.5" y="-641.84" font-family="Helvetica,sans-Serif" font-size="10.00"> TileDatas</text>
</g>
<!-- Node18 -->
<g id="node18" class="node">
<title>Node18</title>
<g id="a_node18"><a xlink:title=" ">
<polygon fill="white" stroke="black" points="15,-632.34 15,-651.34 68,-651.34 68,-632.34 15,-632.34"/>
<text text-anchor="middle" x="41.5" y="-639.34" font-family="Helvetica,sans-Serif" font-size="10.00">TileType</text>
</a>
</g>
</g>
<!-- Node18&#45;&gt;Node17 -->
<g id="edge21" class="edge">
<title>Node18&#45;&gt;Node17</title>
<path fill="none" stroke="#9a32cd" stroke-dasharray="5,2" d="M78.54,-641.84C117.14,-641.84 177.41,-641.84 211.25,-641.84"/>
<polygon fill="#9a32cd" stroke="#9a32cd" points="78.26,-638.34 68.26,-641.84 78.26,-645.34 78.26,-638.34"/>
<text text-anchor="middle" x="121" y="-644.84" font-family="Helvetica,sans-Serif" font-size="10.00"> TileType</text>
</g>
<!-- Node19 -->
<g id="node19" class="node">
<title>Node19</title>
<g id="a_node19"><a xlink:title=" ">
<polygon fill="white" stroke="black" points="210,-670.34 210,-689.34 265,-689.34 265,-670.34 210,-670.34"/>
<text text-anchor="middle" x="237.5" y="-677.34" font-family="Helvetica,sans-Serif" font-size="10.00">Direction</text>
</a>
</g>
</g>
<!-- Node19&#45;&gt;Node14 -->
<g id="edge22" class="edge">
<title>Node19&#45;&gt;Node14</title>
<path fill="none" stroke="#9a32cd" stroke-dasharray="5,2" d="M275.28,-679.62C325.82,-678.56 413.19,-673.8 437,-653.84 457.36,-636.77 437.41,-616.75 455,-596.84 458.36,-593.04 462.63,-589.95 467.15,-587.46"/>
<polygon fill="#9a32cd" stroke="#9a32cd" points="275.03,-676.12 265.1,-679.79 275.15,-683.12 275.03,-676.12"/>
<text text-anchor="middle" x="385.5" y="-678.84" font-family="Helvetica,sans-Serif" font-size="10.00"> GraveDirection</text>
</g>
<!-- Node20&#45;&gt;Node14 -->
<g id="edge26" class="edge">
<title>Node20&#45;&gt;Node14</title>
<path fill="none" stroke="#9a32cd" stroke-dasharray="5,2" d="M326.15,-497.78C369.88,-502.79 417.53,-510.16 437,-519.84 459.99,-531.27 479.78,-554.84 489.7,-568.15"/>
<polygon fill="#9a32cd" stroke="#9a32cd" points="326.34,-494.28 316.01,-496.65 325.56,-501.23 326.34,-494.28"/>
<text text-anchor="middle" x="385.5" y="-522.84" font-family="Helvetica,sans-Serif" font-size="10.00"> NMSurface</text>
</g>
<!-- Node21 -->
<g id="node21" class="node">
<title>Node21</title>
<g id="a_node21"><a xlink:title=" ">
<polygon fill="white" stroke="black" points="207,-594.34 207,-613.34 268,-613.34 268,-594.34 207,-594.34"/>
<text text-anchor="middle" x="237.5" y="-601.34" font-family="Helvetica,sans-Serif" font-size="10.00">Texture2D</text>
</a>
</g>
</g>
<!-- Node21&#45;&gt;Node14 -->
<g id="edge28" class="edge">
<title>Node21&#45;&gt;Node14</title>
<path fill="none" stroke="#9a32cd" stroke-dasharray="5,2" d="M278.4,-602.53C318.6,-600.86 382.32,-597.25 437,-589.84 443.16,-589 449.64,-587.92 455.97,-586.74"/>
<polygon fill="#9a32cd" stroke="#9a32cd" points="278.07,-599.04 268.22,-602.93 278.35,-606.04 278.07,-599.04"/>
<text text-anchor="middle" x="385.5" y="-601.84" font-family="Helvetica,sans-Serif" font-size="10.00"> MapImage</text>
</g>
<!-- Node22 -->
<g id="node22" class="node">
<title>Node22</title>
<g id="a_node22"><a xlink:title=" ">
<polygon fill="white" stroke="black" points="198,-556.34 198,-575.34 277,-575.34 277,-556.34 198,-556.34"/>
<text text-anchor="middle" x="237.5" y="-563.34" font-family="Helvetica,sans-Serif" font-size="10.00">ImageElement</text>
</a>
</g>
</g>
<!-- Node22&#45;&gt;Node14 -->
<g id="edge29" class="edge">
<title>Node22&#45;&gt;Node14</title>
<path fill="none" stroke="#9a32cd" stroke-dasharray="5,2" d="M287.13,-568.1C335.91,-570.37 410.18,-573.82 455.91,-575.95"/>
<polygon fill="#9a32cd" stroke="#9a32cd" points="287.28,-564.6 277.13,-567.64 286.95,-571.6 287.28,-564.6"/>
<text text-anchor="middle" x="385.5" y="-577.84" font-family="Helvetica,sans-Serif" font-size="10.00"> MapColor</text>
</g>
<!-- Node23&#45;&gt;Node2 -->
<g id="edge31" class="edge">
<title>Node23&#45;&gt;Node2</title>
<path fill="none" stroke="#9a32cd" stroke-dasharray="5,2" d="M550.13,-119.92C576.87,-118.35 608.19,-121.75 629,-140.84 659.67,-168.97 666.07,-307.4 667.25,-345.26"/>
<polygon fill="#9a32cd" stroke="#9a32cd" points="549.82,-116.43 540.14,-120.74 550.39,-123.41 549.82,-116.43"/>
<text text-anchor="middle" x="593.5" y="-143.84" font-family="Helvetica,sans-Serif" font-size="10.00"> MC</text>
</g>
</g>
</svg>
