<?xml version="1.0" encoding="UTF-8" standalone="no"?>
<!DOCTYPE svg PUBLIC "-//W3C//DTD SVG 1.1//EN"
 "http://www.w3.org/Graphics/SVG/1.1/DTD/svg11.dtd">
<!-- Generated by graphviz version 3.0.0 (20220226.1711)
 -->
<!-- Title: TutorialGuard.PatrolState Pages: 1 -->
<!--zoomable 323 -->
<svg id="main" version="1.1" xmlns="http://www.w3.org/2000/svg" xmlns:xlink="http://www.w3.org/1999/xlink" xml:space="preserve" onload="init(evt)">
<style type="text/css"><![CDATA[
.edge:hover path { stroke: red; }
.edge:hover polygon { stroke: red; fill: red; }
]]></style>
<script type="text/javascript"><![CDATA[
var edges = document.getElementsByTagName('g');
if (edges && edges.length) {
  for (var i=0;i<edges.length;i++) {
    if (edges[i].id.substr(0,4)=='edge') {
      edges[i].setAttribute('class','edge');
    }
  }
}
]]></script>
        <defs>
                <circle id="rim" cx="0" cy="0" r="7"/>
                <circle id="rim2" cx="0" cy="0" r="3.5"/>
                <g id="zoomPlus">
                        <use xlink:href="#rim" fill="#404040">
                                <set attributeName="fill" to="#808080" begin="zoomplus.mouseover" end="zoomplus.mouseout"/>
                        </use>
                        <path d="M-4,0h8M0,-4v8" fill="none" stroke="white" stroke-width="1.5" pointer-events="none"/>
                </g>
                <g id="zoomMin">
                        <use xlink:href="#rim" fill="#404040">
                                <set attributeName="fill" to="#808080" begin="zoomminus.mouseover" end="zoomminus.mouseout"/>
                        </use>
                        <path d="M-4,0h8" fill="none" stroke="white" stroke-width="1.5" pointer-events="none"/>
                </g>
                <g id="dirArrow">
                        <path fill="none" stroke="white" stroke-width="1.5" d="M0,-3.0v7 M-2.5,-0.5L0,-3.0L2.5,-0.5"/>
                </g>
               <g id="resetDef">
                       <use xlink:href="#rim2" fill="#404040">
                               <set attributeName="fill" to="#808080" begin="reset.mouseover" end="reset.mouseout"/>
                       </use>
               </g>
        </defs>

<script type="text/javascript">
var viewWidth = 687;
var viewHeight = 323;
var sectionId = 'dynsection-4';
</script>
<script xlink:href="../../svgpan.js"/>
<svg id="graph" class="graph">
<g id="viewport">
<title>TutorialGuard.PatrolState</title>
<polygon fill="white" stroke="transparent" points="-4,4 -4,-319 683,-319 683,4 -4,4"/>
<!-- Node1 -->
<g id="node1" class="node">
<title>Node1</title>
<g id="a_node1"><a xlink:title="Guard will move along route from checkpoint to checkpoint. ALERT: State changes to alert upon having ...">
<polygon fill="#bfbfbf" stroke="black" points="0,-114.5 0,-133.5 126,-133.5 126,-114.5 0,-114.5"/>
<text text-anchor="middle" x="63" y="-121.5" font-family="Helvetica,sans-Serif" font-size="10.00">TutorialGuard.PatrolState</text>
</a>
</g>
</g>
<!-- Node2 -->
<g id="node2" class="node">
<title>Node2</title>
<g id="a_node2"><a xlink:href="../../d9/d96/class_tutorial_guard.html#aa5842edec90269073a985d2af9200222" target="_top" xlink:title="Calls the caught functionality if the guard manages to find the player.">
<polygon fill="white" stroke="black" points="178.5,-251.5 178.5,-270.5 286.5,-270.5 286.5,-251.5 178.5,-251.5"/>
<text text-anchor="middle" x="232.5" y="-258.5" font-family="Helvetica,sans-Serif" font-size="10.00">TutorialGuard.Caught</text>
</a>
</g>
</g>
<!-- Node1&#45;&gt;Node2 -->
<g id="edge1" class="edge">
<title>Node1&#45;&gt;Node2</title>
<path fill="none" stroke="midnightblue" d="M69.21,-133.65C81.91,-156.24 116.78,-212.87 162,-242 165.18,-244.05 168.59,-245.88 172.11,-247.52"/>
<polygon fill="midnightblue" stroke="midnightblue" points="171.09,-250.88 181.67,-251.41 173.72,-244.4 171.09,-250.88"/>
</g>
<!-- Node9 -->
<g id="node9" class="node">
<title>Node9</title>
<g id="a_node9"><a xlink:href="../../db/daa/class_stealth_manager.html#a199a6dd03f29208909a16e6f35d7f11e" target="_top" xlink:title=" ">
<polygon fill="white" stroke="black" points="164,-202 164,-232 301,-232 301,-202 164,-202"/>
<text text-anchor="start" x="172" y="-220" font-family="Helvetica,sans-Serif" font-size="10.00">StealthManager.GetHearing</text>
<text text-anchor="middle" x="232.5" y="-209" font-family="Helvetica,sans-Serif" font-size="10.00">Range</text>
</a>
</g>
</g>
<!-- Node1&#45;&gt;Node9 -->
<g id="edge8" class="edge">
<title>Node1&#45;&gt;Node9</title>
<path fill="none" stroke="midnightblue" d="M75.73,-133.67C93.49,-147.94 128.68,-174.83 162,-192 166.2,-194.16 170.62,-196.22 175.13,-198.16"/>
<polygon fill="midnightblue" stroke="midnightblue" points="173.85,-201.42 184.43,-201.96 176.5,-194.94 173.85,-201.42"/>
</g>
<!-- Node10 -->
<g id="node10" class="node">
<title>Node10</title>
<g id="a_node10"><a xlink:href="../../db/daa/class_stealth_manager.html#ab64acc9a13f0c9dcb6e7710ce2549e8b" target="_top" xlink:title="Checks if the player is currently hidden and calculates the penalty to guard&#39;s vision range.">
<polygon fill="white" stroke="black" points="165.5,-153 165.5,-183 299.5,-183 299.5,-153 165.5,-153"/>
<text text-anchor="start" x="173.5" y="-171" font-family="Helvetica,sans-Serif" font-size="10.00">StealthManager.GetHidden</text>
<text text-anchor="middle" x="232.5" y="-160" font-family="Helvetica,sans-Serif" font-size="10.00">Bonus</text>
</a>
</g>
</g>
<!-- Node1&#45;&gt;Node10 -->
<g id="edge9" class="edge">
<title>Node1&#45;&gt;Node10</title>
<path fill="none" stroke="midnightblue" d="M100.35,-133.55C119.04,-138.46 142.42,-144.6 164.25,-150.33"/>
<polygon fill="midnightblue" stroke="midnightblue" points="163.59,-153.78 174.15,-152.93 165.37,-147.01 163.59,-153.78"/>
</g>
<!-- Node11 -->
<g id="node11" class="node">
<title>Node11</title>
<g id="a_node11"><a xlink:href="../../d7/d55/class_tile_data.html#a477a011eb5fef143fdf79ab0c9e08558" target="_top" xlink:title=" ">
<polygon fill="white" stroke="black" points="185,-114.5 185,-133.5 280,-133.5 280,-114.5 185,-114.5"/>
<text text-anchor="middle" x="232.5" y="-121.5" font-family="Helvetica,sans-Serif" font-size="10.00">TileData.GetNoise</text>
</a>
</g>
</g>
<!-- Node1&#45;&gt;Node11 -->
<g id="edge10" class="edge">
<title>Node1&#45;&gt;Node11</title>
<path fill="none" stroke="midnightblue" d="M126.37,-124C142.24,-124 159.21,-124 174.78,-124"/>
<polygon fill="midnightblue" stroke="midnightblue" points="174.79,-127.5 184.79,-124 174.79,-120.5 174.79,-127.5"/>
</g>
<!-- Node12 -->
<g id="node12" class="node">
<title>Node12</title>
<g id="a_node12"><a xlink:href="../../d1/d3d/class_map_generation.html#a03b8ef164d3735d2ee083a8b7447e809" target="_top" xlink:title="Returns the tile data script of the tile at a specified transform.">
<polygon fill="white" stroke="black" points="164,-76.5 164,-95.5 301,-95.5 301,-76.5 164,-76.5"/>
<text text-anchor="middle" x="232.5" y="-83.5" font-family="Helvetica,sans-Serif" font-size="10.00">MapGeneration.GetTileData</text>
</a>
</g>
</g>
<!-- Node1&#45;&gt;Node12 -->
<g id="edge11" class="edge">
<title>Node1&#45;&gt;Node12</title>
<path fill="none" stroke="midnightblue" d="M106.27,-114.41C128.57,-109.35 156.12,-103.1 179.7,-97.75"/>
<polygon fill="midnightblue" stroke="midnightblue" points="180.56,-101.15 189.54,-95.52 179.01,-94.32 180.56,-101.15"/>
</g>
<!-- Node13 -->
<g id="node13" class="node">
<title>Node13</title>
<g id="a_node13"><a xlink:href="../../d3/d01/class_guard.html#ac1ca7e575c340f7cb932e94d9535fa37" target="_top" xlink:title=" ">
<polygon fill="white" stroke="black" points="184.5,-38.5 184.5,-57.5 280.5,-57.5 280.5,-38.5 184.5,-38.5"/>
<text text-anchor="middle" x="232.5" y="-45.5" font-family="Helvetica,sans-Serif" font-size="10.00">Guard.LineOfSight</text>
</a>
</g>
</g>
<!-- Node1&#45;&gt;Node13 -->
<g id="edge12" class="edge">
<title>Node1&#45;&gt;Node13</title>
<path fill="none" stroke="midnightblue" d="M77.68,-114.49C96.1,-102.06 130.23,-80.31 162,-67 167.75,-64.59 173.9,-62.4 180.08,-60.43"/>
<polygon fill="midnightblue" stroke="midnightblue" points="181.17,-63.75 189.74,-57.52 179.16,-57.05 181.17,-63.75"/>
</g>
<!-- Node14 -->
<g id="node14" class="node">
<title>Node14</title>
<g id="a_node14"><a xlink:href="../../d9/d96/class_tutorial_guard.html#a95b1f909ba7a6c73210143078bfd5b47" target="_top" xlink:title="Changes guard&#39;s navmesh agent destination to next goal.">
<polygon fill="white" stroke="black" points="162,-0.5 162,-19.5 303,-19.5 303,-0.5 162,-0.5"/>
<text text-anchor="middle" x="232.5" y="-7.5" font-family="Helvetica,sans-Serif" font-size="10.00">TutorialGuard.ShortGoalStop</text>
</a>
</g>
</g>
<!-- Node1&#45;&gt;Node14 -->
<g id="edge13" class="edge">
<title>Node1&#45;&gt;Node14</title>
<path fill="none" stroke="midnightblue" d="M71.2,-114.29C86.01,-95.03 121.86,-51.89 162,-29 165.89,-26.78 170.06,-24.81 174.35,-23.06"/>
<polygon fill="midnightblue" stroke="midnightblue" points="175.67,-26.3 183.86,-19.58 173.27,-19.73 175.67,-26.3"/>
</g>
<!-- Node3 -->
<g id="node3" class="node">
<title>Node3</title>
<g id="a_node3"><a xlink:href="../../d3/d01/class_guard.html#a65d96c22c2fbc940f2e54c30e27e1f4b" target="_top" xlink:title=" ">
<polygon fill="white" stroke="black" points="360,-295.5 360,-314.5 468,-314.5 468,-295.5 360,-295.5"/>
<text text-anchor="middle" x="414" y="-302.5" font-family="Helvetica,sans-Serif" font-size="10.00">Guard.CooldownAlert</text>
</a>
</g>
</g>
<!-- Node2&#45;&gt;Node3 -->
<g id="edge2" class="edge">
<title>Node2&#45;&gt;Node3</title>
<path fill="none" stroke="midnightblue" d="M272.45,-270.55C299.38,-277.15 335.41,-285.98 364.25,-293.05"/>
<polygon fill="midnightblue" stroke="midnightblue" points="363.58,-296.49 374.13,-295.47 365.25,-289.69 363.58,-296.49"/>
</g>
<!-- Node4 -->
<g id="node4" class="node">
<title>Node4</title>
<g id="a_node4"><a xlink:href="../../db/daa/class_stealth_manager.html#aa8c704bcbfc6c981f4ed718c7d79ca29" target="_top" xlink:title=" ">
<polygon fill="white" stroke="black" points="349.5,-246 349.5,-276 478.5,-276 478.5,-246 349.5,-246"/>
<text text-anchor="start" x="357.5" y="-264" font-family="Helvetica,sans-Serif" font-size="10.00">StealthManager.GetPatrol</text>
<text text-anchor="middle" x="414" y="-253" font-family="Helvetica,sans-Serif" font-size="10.00">Speed</text>
</a>
</g>
</g>
<!-- Node2&#45;&gt;Node4 -->
<g id="edge3" class="edge">
<title>Node2&#45;&gt;Node4</title>
<path fill="none" stroke="midnightblue" d="M286.87,-261C303.28,-261 321.65,-261 339.18,-261"/>
<polygon fill="midnightblue" stroke="midnightblue" points="339.39,-264.5 349.39,-261 339.39,-257.5 339.39,-264.5"/>
</g>
<!-- Node5 -->
<g id="node5" class="node">
<title>Node5</title>
<g id="a_node5"><a xlink:href="../../df/d5c/class_map_commands.html#ab005123e849ed36e2b399a052ab77ae3" target="_top" xlink:title="Move player to passed in tile. Fades screen out and back in.">
<polygon fill="white" stroke="black" points="339,-207.5 339,-226.5 489,-226.5 489,-207.5 339,-207.5"/>
<text text-anchor="middle" x="414" y="-214.5" font-family="Helvetica,sans-Serif" font-size="10.00">MapCommands.TeleportPlayer</text>
</a>
</g>
</g>
<!-- Node2&#45;&gt;Node5 -->
<g id="edge4" class="edge">
<title>Node2&#45;&gt;Node5</title>
<path fill="none" stroke="midnightblue" d="M272.45,-251.45C299.38,-244.85 335.41,-236.02 364.25,-228.95"/>
<polygon fill="midnightblue" stroke="midnightblue" points="365.25,-232.31 374.13,-226.53 363.58,-225.51 365.25,-232.31"/>
</g>
<!-- Node6 -->
<g id="node6" class="node">
<title>Node6</title>
<g id="a_node6"><a xlink:href="../../d7/d75/class_u_i_manager.html#a3064f84937d46a32b4bdd4b3ca15c7c8" target="_top" xlink:title="Fades back from black">
<polygon fill="white" stroke="black" points="525,-245.5 525,-264.5 679,-264.5 679,-245.5 525,-245.5"/>
<text text-anchor="middle" x="602" y="-252.5" font-family="Helvetica,sans-Serif" font-size="10.00">UIManager.DisableBlackScreen</text>
</a>
</g>
</g>
<!-- Node5&#45;&gt;Node6 -->
<g id="edge5" class="edge">
<title>Node5&#45;&gt;Node6</title>
<path fill="none" stroke="midnightblue" d="M461.94,-226.59C487.03,-231.72 518.12,-238.07 544.53,-243.46"/>
<polygon fill="midnightblue" stroke="midnightblue" points="543.9,-246.91 554.4,-245.48 545.3,-240.05 543.9,-246.91"/>
</g>
<!-- Node7 -->
<g id="node7" class="node">
<title>Node7</title>
<g id="a_node7"><a xlink:href="../../d7/d75/class_u_i_manager.html#a760497700935ac47ae9b342869115543" target="_top" xlink:title="Enables a fade to black">
<polygon fill="white" stroke="black" points="526,-207.5 526,-226.5 678,-226.5 678,-207.5 526,-207.5"/>
<text text-anchor="middle" x="602" y="-214.5" font-family="Helvetica,sans-Serif" font-size="10.00">UIManager.EnableBlackScreen</text>
</a>
</g>
</g>
<!-- Node5&#45;&gt;Node7 -->
<g id="edge6" class="edge">
<title>Node5&#45;&gt;Node7</title>
<path fill="none" stroke="midnightblue" d="M489.05,-217C497.88,-217 506.95,-217 515.92,-217"/>
<polygon fill="midnightblue" stroke="midnightblue" points="515.99,-220.5 525.99,-217 515.99,-213.5 515.99,-220.5"/>
</g>
<!-- Node8 -->
<g id="node8" class="node">
<title>Node8</title>
<g id="a_node8"><a xlink:href="../../d1/d3d/class_map_generation.html#a839ff08832cd240fb95657a59e4c8f29" target="_top" xlink:title=" ">
<polygon fill="white" stroke="black" points="544,-169.5 544,-188.5 660,-188.5 660,-169.5 544,-169.5"/>
<text text-anchor="middle" x="602" y="-176.5" font-family="Helvetica,sans-Serif" font-size="10.00">MapGeneration.GetTile</text>
</a>
</g>
</g>
<!-- Node5&#45;&gt;Node8 -->
<g id="edge7" class="edge">
<title>Node5&#45;&gt;Node8</title>
<path fill="none" stroke="midnightblue" d="M461.94,-207.41C487.03,-202.28 518.12,-195.93 544.53,-190.54"/>
<polygon fill="midnightblue" stroke="midnightblue" points="545.3,-193.95 554.4,-188.52 543.9,-187.09 545.3,-193.95"/>
</g>
</g>
</svg>
        <g id="navigator" transform="translate(0 0)" fill="#404254">
                <rect fill="#f2f5e9" fill-opacity="0.5" stroke="#606060" stroke-width=".5" x="0" y="0" width="60" height="60"/>
                <use id="zoomplus" xlink:href="#zoomPlus" x="17" y="9" onmousedown="handleZoom(evt,'in')"/>
                <use id="zoomminus" xlink:href="#zoomMin" x="42" y="9" onmousedown="handleZoom(evt,'out')"/>
                <use id="reset" xlink:href="#resetDef" x="30" y="36" onmousedown="handleReset()"/>
                <g id="arrowUp" xlink:href="#dirArrow" transform="translate(30 24)" onmousedown="handlePan(0,-1)">
                  <use xlink:href="#rim" fill="#404040">
                        <set attributeName="fill" to="#808080" begin="arrowUp.mouseover" end="arrowUp.mouseout"/>
                  </use>
                  <path fill="none" stroke="white" stroke-width="1.5" d="M0,-3.0v7 M-2.5,-0.5L0,-3.0L2.5,-0.5"/>
                </g>
                <g id="arrowRight" xlink:href="#dirArrow" transform="rotate(90) translate(36 -43)" onmousedown="handlePan(1,0)">
                  <use xlink:href="#rim" fill="#404040">
                        <set attributeName="fill" to="#808080" begin="arrowRight.mouseover" end="arrowRight.mouseout"/>
                  </use>
                  <path fill="none" stroke="white" stroke-width="1.5" d="M0,-3.0v7 M-2.5,-0.5L0,-3.0L2.5,-0.5"/>
                </g>
                <g id="arrowDown" xlink:href="#dirArrow" transform="rotate(180) translate(-30 -48)" onmousedown="handlePan(0,1)">
                  <use xlink:href="#rim" fill="#404040">
                        <set attributeName="fill" to="#808080" begin="arrowDown.mouseover" end="arrowDown.mouseout"/>
                  </use>
                  <path fill="none" stroke="white" stroke-width="1.5" d="M0,-3.0v7 M-2.5,-0.5L0,-3.0L2.5,-0.5"/>
                </g>
                <g id="arrowLeft" xlink:href="#dirArrow" transform="rotate(270) translate(-36 17)" onmousedown="handlePan(-1,0)">
                  <use xlink:href="#rim" fill="#404040">
                        <set attributeName="fill" to="#808080" begin="arrowLeft.mouseover" end="arrowLeft.mouseout"/>
                  </use>
                  <path fill="none" stroke="white" stroke-width="1.5" d="M0,-3.0v7 M-2.5,-0.5L0,-3.0L2.5,-0.5"/>
                </g>
        </g>
        <svg viewBox="0 0 15 15" width="100%" height="30px" preserveAspectRatio="xMaxYMin meet">
         <g id="arrow_out" transform="scale(0.3 0.3)">
          <a xlink:href="class_tutorial_guard_ab272cab873799244d5dbd6f28f207d0d_cgraph_org.svg" target="_base">
           <rect id="button" ry="5" rx="5" y="6" x="6" height="38" width="38"
                fill="#f2f5e9" fill-opacity="0.5" stroke="#606060" stroke-width="1.0"/>
           <path id="arrow"
             d="M 11.500037,31.436501 C 11.940474,20.09759 22.043105,11.32322 32.158766,21.979434 L 37.068811,17.246167 C 37.068811,17.246167 37.088388,32 37.088388,32 L 22.160133,31.978069 C 22.160133,31.978069 26.997745,27.140456 26.997745,27.140456 C 18.528582,18.264221 13.291696,25.230495 11.500037,31.436501 z"
             style="fill:#404040;"/>
          </a>
         </g>
        </svg>
</svg>
