<?xml version="1.0" encoding="UTF-8" standalone="no"?>
<!DOCTYPE svg PUBLIC "-//W3C//DTD SVG 1.1//EN"
 "http://www.w3.org/Graphics/SVG/1.1/DTD/svg11.dtd">
<!-- Generated by graphviz version 3.0.0 (20220226.1711)
 -->
<!-- Title: BodyBag.GetMaxBodies Pages: 1 -->
<svg width="1412pt" height="197pt"
 viewBox="0.00 0.00 1412.00 196.81" xmlns="http://www.w3.org/2000/svg" xmlns:xlink="http://www.w3.org/1999/xlink">
<g id="graph0" class="graph" transform="scale(1 1) rotate(0) translate(4 192.81)">
<title>BodyBag.GetMaxBodies</title>
<polygon fill="white" stroke="transparent" points="-4,4 -4,-192.81 1408,-192.81 1408,4 -4,4"/>
<!-- Node1 -->
<g id="node1" class="node">
<title>Node1</title>
<g id="a_node1"><a xlink:title="Gets the max bodies that can be carried/collected in one night">
<polygon fill="#bfbfbf" stroke="black" points="1280,-94.81 1280,-113.81 1404,-113.81 1404,-94.81 1280,-94.81"/>
<text text-anchor="middle" x="1342" y="-101.81" font-family="Helvetica,sans-Serif" font-size="10.00">BodyBag.GetMaxBodies</text>
</a>
</g>
</g>
<!-- Node2 -->
<g id="node2" class="node">
<title>Node2</title>
<g id="a_node2"><a xlink:href="../../da/d83/class_grave_info_refactor.html#a51b5d4b740c5da7a8e212288a28c68bc" target="_top" xlink:title="grabs the body from the grave and adds it to the game manager, then it calles empty grave to clean up...">
<polygon fill="white" stroke="black" points="1105,-113.81 1105,-132.81 1244,-132.81 1244,-113.81 1105,-113.81"/>
<text text-anchor="middle" x="1174.5" y="-120.81" font-family="Helvetica,sans-Serif" font-size="10.00">GraveInfoRefactor.GrabBody</text>
</a>
</g>
</g>
<!-- Node1&#45;&gt;Node2 -->
<g id="edge1" class="edge">
<title>Node1&#45;&gt;Node2</title>
<path fill="none" stroke="midnightblue" d="M1269.65,-112.5C1261.22,-113.47 1252.62,-114.46 1244.21,-115.42"/>
<polygon fill="midnightblue" stroke="midnightblue" points="1270.31,-115.95 1279.84,-111.33 1269.51,-108.99 1270.31,-115.95"/>
</g>
<!-- Node4 -->
<g id="node4" class="node">
<title>Node4</title>
<g id="a_node4"><a xlink:href="../../db/d69/class_inventory_bag.html#af4c1ed3c7e8359dba77f3f825893aa74" target="_top" xlink:title="Dynamically generates the bag to include the size of the current body bag and then update to keep any...">
<polygon fill="white" stroke="black" points="1118,-75.81 1118,-94.81 1231,-94.81 1231,-75.81 1118,-75.81"/>
<text text-anchor="middle" x="1174.5" y="-82.81" font-family="Helvetica,sans-Serif" font-size="10.00">InventoryBag.Populate</text>
</a>
</g>
</g>
<!-- Node1&#45;&gt;Node4 -->
<g id="edge3" class="edge">
<title>Node1&#45;&gt;Node4</title>
<path fill="none" stroke="midnightblue" d="M1269.63,-96.12C1256.77,-94.64 1243.54,-93.12 1231.21,-91.71"/>
<polygon fill="midnightblue" stroke="midnightblue" points="1269.51,-99.63 1279.84,-97.29 1270.31,-92.67 1269.51,-99.63"/>
</g>
<!-- Node3 -->
<g id="node3" class="node">
<title>Node3</title>
<g id="a_node3"><a xlink:href="../../da/d83/class_grave_info_refactor.html#a413583b66e49d5e54f395f1746c8ac98" target="_top" xlink:title="This is how you interact with the grave it flips a bool true to allow you to interact with the traps">
<polygon fill="white" stroke="black" points="921.5,-113.81 921.5,-132.81 1047.5,-132.81 1047.5,-113.81 921.5,-113.81"/>
<text text-anchor="middle" x="984.5" y="-120.81" font-family="Helvetica,sans-Serif" font-size="10.00">GraveInfoRefactor.Update</text>
</a>
</g>
</g>
<!-- Node2&#45;&gt;Node3 -->
<g id="edge2" class="edge">
<title>Node2&#45;&gt;Node3</title>
<path fill="none" stroke="midnightblue" d="M1094.64,-123.31C1078.99,-123.31 1062.76,-123.31 1047.75,-123.31"/>
<polygon fill="midnightblue" stroke="midnightblue" points="1094.83,-126.81 1104.83,-123.31 1094.83,-119.81 1094.83,-126.81"/>
</g>
<!-- Node5 -->
<g id="node5" class="node">
<title>Node5</title>
<g id="a_node5"><a xlink:href="../../da/d9d/class_upgrade_manager.html#ace07916b537615eeb092432d31b9bb81" target="_top" xlink:title="Upgrades the body bag level to the given level">
<polygon fill="white" stroke="black" points="900,-75.81 900,-94.81 1069,-94.81 1069,-75.81 900,-75.81"/>
<text text-anchor="middle" x="984.5" y="-82.81" font-family="Helvetica,sans-Serif" font-size="10.00">UpgradeManager.UpgradeBodyBag</text>
</a>
</g>
</g>
<!-- Node4&#45;&gt;Node5 -->
<g id="edge4" class="edge">
<title>Node4&#45;&gt;Node5</title>
<path fill="none" stroke="midnightblue" d="M1107.63,-85.31C1095.22,-85.31 1082.09,-85.31 1069.22,-85.31"/>
<polygon fill="midnightblue" stroke="midnightblue" points="1107.86,-88.81 1117.86,-85.31 1107.86,-81.81 1107.86,-88.81"/>
</g>
<!-- Node6 -->
<g id="node6" class="node">
<title>Node6</title>
<g id="a_node6"><a xlink:href="../../db/dac/class_selling_screen_script.html#a1d94ae7dd2d5fc4611c0c25b428276ab" target="_top" xlink:title="Sets up the buy screen for the body bag upgrades">
<polygon fill="white" stroke="black" points="721,-92.31 721,-122.31 864,-122.31 864,-92.31 721,-92.31"/>
<text text-anchor="start" x="729" y="-110.31" font-family="Helvetica,sans-Serif" font-size="10.00">SellingScreenScript.Body</text>
<text text-anchor="middle" x="792.5" y="-99.31" font-family="Helvetica,sans-Serif" font-size="10.00">BagBuyUpgradeScreenSetup</text>
</a>
</g>
</g>
<!-- Node5&#45;&gt;Node6 -->
<g id="edge5" class="edge">
<title>Node5&#45;&gt;Node6</title>
<path fill="none" stroke="midnightblue" d="M891.1,-96.01C882.07,-97.05 873,-98.1 864.24,-99.12"/>
<polygon fill="midnightblue" stroke="midnightblue" points="891.74,-99.46 901.27,-94.83 890.93,-92.5 891.74,-99.46"/>
</g>
<!-- Node7 -->
<g id="node7" class="node">
<title>Node7</title>
<g id="a_node7"><a xlink:href="../../db/dac/class_selling_screen_script.html#a7be5423228e510781538a465d01cb007" target="_top" xlink:title="Sets up the buying screen for a specific item">
<polygon fill="white" stroke="black" points="554,-92.31 554,-122.31 685,-122.31 685,-92.31 554,-92.31"/>
<text text-anchor="start" x="562" y="-110.31" font-family="Helvetica,sans-Serif" font-size="10.00">SellingScreenScript.Setup</text>
<text text-anchor="middle" x="619.5" y="-99.31" font-family="Helvetica,sans-Serif" font-size="10.00">Screen</text>
</a>
</g>
</g>
<!-- Node6&#45;&gt;Node7 -->
<g id="edge6" class="edge">
<title>Node6&#45;&gt;Node7</title>
<path fill="none" stroke="midnightblue" d="M710.87,-107.31C702.24,-107.31 693.53,-107.31 685.12,-107.31"/>
<polygon fill="midnightblue" stroke="midnightblue" points="710.96,-110.81 720.96,-107.31 710.96,-103.81 710.96,-110.81"/>
</g>
<!-- Node8 -->
<g id="node8" class="node">
<title>Node8</title>
<g id="a_node8"><a xlink:href="../../db/dac/class_selling_screen_script.html#a6f3a5794037efbc23910df86b380077f" target="_top" xlink:title="Updates the screen after a change">
<polygon fill="white" stroke="black" points="382,-48.31 382,-78.31 518,-78.31 518,-48.31 382,-48.31"/>
<text text-anchor="start" x="390" y="-66.31" font-family="Helvetica,sans-Serif" font-size="10.00">SellingScreenScript.Update</text>
<text text-anchor="middle" x="450" y="-55.31" font-family="Helvetica,sans-Serif" font-size="10.00">Screen</text>
</a>
</g>
</g>
<!-- Node7&#45;&gt;Node8 -->
<g id="edge7" class="edge">
<title>Node7&#45;&gt;Node8</title>
<path fill="none" stroke="midnightblue" d="M551.52,-89.72C537.17,-85.95 522.14,-82 508.2,-78.34"/>
<polygon fill="midnightblue" stroke="midnightblue" points="550.76,-93.14 561.32,-92.29 552.54,-86.36 550.76,-93.14"/>
</g>
<!-- Node8&#45;&gt;Node5 -->
<g id="edge8" class="edge">
<title>Node8&#45;&gt;Node5</title>
<path fill="none" stroke="midnightblue" d="M528.51,-66.51C627.42,-70.6 797.87,-77.64 899.71,-81.85"/>
<polygon fill="midnightblue" stroke="midnightblue" points="528.42,-63.01 518.28,-66.09 528.13,-70 528.42,-63.01"/>
</g>
<!-- Node9 -->
<g id="node9" class="node">
<title>Node9</title>
<g id="a_node9"><a xlink:href="../../da/d9d/class_upgrade_manager.html#ae480ebe9e6b219adb20e0b410bc69cc7" target="_top" xlink:title="Upgrades the boltcutters level to the given level">
<polygon fill="white" stroke="black" points="194,-136.31 194,-166.31 340,-166.31 340,-136.31 194,-136.31"/>
<text text-anchor="start" x="202" y="-154.31" font-family="Helvetica,sans-Serif" font-size="10.00">UpgradeManager.UpgradeBolt</text>
<text text-anchor="middle" x="267" y="-143.31" font-family="Helvetica,sans-Serif" font-size="10.00">Cutter</text>
</a>
</g>
</g>
<!-- Node8&#45;&gt;Node9 -->
<g id="edge9" class="edge">
<title>Node8&#45;&gt;Node9</title>
<path fill="none" stroke="midnightblue" d="M408.49,-83.01C375.37,-99.11 329.24,-121.54 299.01,-136.23"/>
<polygon fill="midnightblue" stroke="midnightblue" points="410.42,-85.96 417.88,-78.44 407.36,-79.66 410.42,-85.96"/>
</g>
<!-- Node11 -->
<g id="node11" class="node">
<title>Node11</title>
<g id="a_node11"><a xlink:href="../../da/d9d/class_upgrade_manager.html#aebf049454001984ca3ac1fe79c851d2d" target="_top" xlink:title="Upgrades the shoes level to the given level">
<polygon fill="white" stroke="black" points="188.5,-59.81 188.5,-78.81 345.5,-78.81 345.5,-59.81 188.5,-59.81"/>
<text text-anchor="middle" x="267" y="-66.81" font-family="Helvetica,sans-Serif" font-size="10.00">UpgradeManager.UpgradeShoes</text>
</a>
</g>
</g>
<!-- Node8&#45;&gt;Node11 -->
<g id="edge12" class="edge">
<title>Node8&#45;&gt;Node11</title>
<path fill="none" stroke="midnightblue" d="M371.81,-65.87C363.17,-66.15 354.37,-66.45 345.72,-66.73"/>
<polygon fill="midnightblue" stroke="midnightblue" points="371.98,-69.36 381.86,-65.54 371.75,-62.37 371.98,-69.36"/>
</g>
<!-- Node13 -->
<g id="node13" class="node">
<title>Node13</title>
<g id="a_node13"><a xlink:href="../../da/d9d/class_upgrade_manager.html#a366539e3c1c5a211c0ec5cac77ccbd58" target="_top" xlink:title="Upgrades the shovel level to the given level">
<polygon fill="white" stroke="black" points="188,-21.81 188,-40.81 346,-40.81 346,-21.81 188,-21.81"/>
<text text-anchor="middle" x="267" y="-28.81" font-family="Helvetica,sans-Serif" font-size="10.00">UpgradeManager.UpgradeShovel</text>
</a>
</g>
</g>
<!-- Node8&#45;&gt;Node13 -->
<g id="edge15" class="edge">
<title>Node8&#45;&gt;Node13</title>
<path fill="none" stroke="midnightblue" d="M371.99,-49.7C355.08,-46.71 337.52,-43.6 321.76,-40.81"/>
<polygon fill="midnightblue" stroke="midnightblue" points="371.4,-53.15 381.86,-51.44 372.62,-46.25 371.4,-53.15"/>
</g>
<!-- Node10 -->
<g id="node10" class="node">
<title>Node10</title>
<g id="a_node10"><a xlink:href="../../db/dac/class_selling_screen_script.html#a6f21d721a89c56c7039d62ce65f63f19" target="_top" xlink:title="Sets up the buy screen for the boltcutter upgrades">
<polygon fill="white" stroke="black" points="0,-158.31 0,-188.31 152,-188.31 152,-158.31 0,-158.31"/>
<text text-anchor="start" x="8" y="-176.31" font-family="Helvetica,sans-Serif" font-size="10.00">SellingScreenScript.Bolt</text>
<text text-anchor="middle" x="76" y="-165.31" font-family="Helvetica,sans-Serif" font-size="10.00">CutterBuyUpgradeScreenSetup</text>
</a>
</g>
</g>
<!-- Node9&#45;&gt;Node10 -->
<g id="edge10" class="edge">
<title>Node9&#45;&gt;Node10</title>
<path fill="none" stroke="midnightblue" d="M183.72,-160.89C173.19,-162.11 162.45,-163.36 152.04,-164.57"/>
<polygon fill="midnightblue" stroke="midnightblue" points="184.21,-164.35 193.74,-159.72 183.4,-157.4 184.21,-164.35"/>
</g>
<!-- Node10&#45;&gt;Node7 -->
<g id="edge11" class="edge">
<title>Node10&#45;&gt;Node7</title>
<path fill="none" stroke="midnightblue" d="M162.37,-175.85C171.03,-176.04 179.69,-176.2 188,-176.31 258.22,-177.26 276.32,-185 346,-176.31 427.6,-166.14 519.84,-139.46 573.36,-122.42"/>
<polygon fill="midnightblue" stroke="midnightblue" points="162.3,-172.35 152.23,-175.62 162.14,-179.35 162.3,-172.35"/>
</g>
<!-- Node12 -->
<g id="node12" class="node">
<title>Node12</title>
<g id="a_node12"><a xlink:href="../../db/dac/class_selling_screen_script.html#a9646ff5a19f1ba8a96f70ba33b46598d" target="_top" xlink:title="Sets up the buy screen for the shoe upgrades.">
<polygon fill="white" stroke="black" points="9.5,-66.31 9.5,-96.31 142.5,-96.31 142.5,-66.31 9.5,-66.31"/>
<text text-anchor="start" x="17.5" y="-84.31" font-family="Helvetica,sans-Serif" font-size="10.00">SellingScreenScript.Shoes</text>
<text text-anchor="middle" x="76" y="-73.31" font-family="Helvetica,sans-Serif" font-size="10.00">BuyUpgradeScreenSetup</text>
</a>
</g>
</g>
<!-- Node11&#45;&gt;Node12 -->
<g id="edge13" class="edge">
<title>Node11&#45;&gt;Node12</title>
<path fill="none" stroke="midnightblue" d="M178.28,-74.88C166.29,-75.64 154.15,-76.41 142.64,-77.14"/>
<polygon fill="midnightblue" stroke="midnightblue" points="178.55,-78.37 188.31,-74.24 178.11,-71.38 178.55,-78.37"/>
</g>
<!-- Node12&#45;&gt;Node7 -->
<g id="edge14" class="edge">
<title>Node12&#45;&gt;Node7</title>
<path fill="none" stroke="midnightblue" d="M152.95,-86.29C164.68,-87 176.67,-87.7 188,-88.31 317.8,-95.27 469.72,-101.53 553.93,-104.84"/>
<polygon fill="midnightblue" stroke="midnightblue" points="152.92,-82.78 142.73,-85.66 152.49,-89.77 152.92,-82.78"/>
</g>
<!-- Node14 -->
<g id="node14" class="node">
<title>Node14</title>
<g id="a_node14"><a xlink:href="../../db/dac/class_selling_screen_script.html#a3fa55c056600239b67876cea7b018479" target="_top" xlink:title="Sets up the buy screen for the shovel upgrades">
<polygon fill="white" stroke="black" points="9,-4.31 9,-34.31 143,-34.31 143,-4.31 9,-4.31"/>
<text text-anchor="start" x="17" y="-22.31" font-family="Helvetica,sans-Serif" font-size="10.00">SellingScreenScript.Shovel</text>
<text text-anchor="middle" x="76" y="-11.31" font-family="Helvetica,sans-Serif" font-size="10.00">BuyUpgradeScreenSetup</text>
</a>
</g>
</g>
<!-- Node13&#45;&gt;Node14 -->
<g id="edge16" class="edge">
<title>Node13&#45;&gt;Node14</title>
<path fill="none" stroke="midnightblue" d="M177.62,-25.7C166.02,-24.96 154.29,-24.22 143.15,-23.51"/>
<polygon fill="midnightblue" stroke="midnightblue" points="177.56,-29.2 187.76,-26.34 178,-22.22 177.56,-29.2"/>
</g>
<!-- Node14&#45;&gt;Node7 -->
<g id="edge17" class="edge">
<title>Node14&#45;&gt;Node7</title>
<path fill="none" stroke="midnightblue" d="M153.46,-7.93C243.95,2.28 397.54,9.22 518,-38.31 550.48,-51.13 582.84,-76.09 601.74,-92.21"/>
<polygon fill="midnightblue" stroke="midnightblue" points="152.81,-4.48 143.28,-9.12 153.62,-11.43 152.81,-4.48"/>
</g>
</g>
</svg>
