<?xml version="1.0" encoding="UTF-8" standalone="no"?>
<!DOCTYPE svg PUBLIC "-//W3C//DTD SVG 1.1//EN"
 "http://www.w3.org/Graphics/SVG/1.1/DTD/svg11.dtd">
<!-- Generated by graphviz version 3.0.0 (20220226.1711)
 -->
<!-- Title: SellingScreenScript.UpdateScreen Pages: 1 -->
<svg width="704pt" height="226pt"
 viewBox="0.00 0.00 704.00 226.11" xmlns="http://www.w3.org/2000/svg" xmlns:xlink="http://www.w3.org/1999/xlink">
<g id="graph0" class="graph" transform="scale(1 1) rotate(0) translate(4 222.11)">
<title>SellingScreenScript.UpdateScreen</title>
<polygon fill="white" stroke="transparent" points="-4,4 -4,-222.11 700,-222.11 700,4 -4,4"/>
<!-- Node1 -->
<g id="node1" class="node">
<title>Node1</title>
<g id="a_node1"><a xlink:title="Updates the screen after a change">
<polygon fill="#bfbfbf" stroke="black" points="560,-89.61 560,-119.61 696,-119.61 696,-89.61 560,-89.61"/>
<text text-anchor="start" x="568" y="-107.61" font-family="Helvetica,sans-Serif" font-size="10.00">SellingScreenScript.Update</text>
<text text-anchor="middle" x="628" y="-96.61" font-family="Helvetica,sans-Serif" font-size="10.00">Screen</text>
</a>
</g>
</g>
<!-- Node2 -->
<g id="node2" class="node">
<title>Node2</title>
<g id="a_node2"><a xlink:href="../../da/d9d/class_upgrade_manager.html#ace07916b537615eeb092432d31b9bb81" target="_top" xlink:title="Upgrades the body bag level to the given level">
<polygon fill="white" stroke="black" points="355,-189.11 355,-208.11 524,-208.11 524,-189.11 355,-189.11"/>
<text text-anchor="middle" x="439.5" y="-196.11" font-family="Helvetica,sans-Serif" font-size="10.00">UpgradeManager.UpgradeBodyBag</text>
</a>
</g>
</g>
<!-- Node1&#45;&gt;Node2 -->
<g id="edge1" class="edge">
<title>Node1&#45;&gt;Node2</title>
<path fill="none" stroke="midnightblue" d="M601.17,-126.07C581.19,-141.73 552.25,-162.45 524,-175.61 512.14,-181.14 498.7,-185.57 486.12,-189"/>
<polygon fill="midnightblue" stroke="midnightblue" points="603.52,-128.67 609.16,-119.7 599.16,-123.2 603.52,-128.67"/>
</g>
<!-- Node5 -->
<g id="node5" class="node">
<title>Node5</title>
<g id="a_node5"><a xlink:href="../../da/d9d/class_upgrade_manager.html#ae480ebe9e6b219adb20e0b410bc69cc7" target="_top" xlink:title="Upgrades the boltcutters level to the given level">
<polygon fill="white" stroke="black" points="366.5,-135.61 366.5,-165.61 512.5,-165.61 512.5,-135.61 366.5,-135.61"/>
<text text-anchor="start" x="374.5" y="-153.61" font-family="Helvetica,sans-Serif" font-size="10.00">UpgradeManager.UpgradeBolt</text>
<text text-anchor="middle" x="439.5" y="-142.61" font-family="Helvetica,sans-Serif" font-size="10.00">Cutter</text>
</a>
</g>
</g>
<!-- Node1&#45;&gt;Node5 -->
<g id="edge5" class="edge">
<title>Node1&#45;&gt;Node5</title>
<path fill="none" stroke="midnightblue" d="M556.06,-122.11C538.05,-126.55 518.85,-131.29 501.39,-135.59"/>
<polygon fill="midnightblue" stroke="midnightblue" points="557.06,-125.47 565.93,-119.67 555.39,-118.67 557.06,-125.47"/>
</g>
<!-- Node7 -->
<g id="node7" class="node">
<title>Node7</title>
<g id="a_node7"><a xlink:href="../../da/d9d/class_upgrade_manager.html#aebf049454001984ca3ac1fe79c851d2d" target="_top" xlink:title="Upgrades the shoes level to the given level">
<polygon fill="white" stroke="black" points="361,-95.11 361,-114.11 518,-114.11 518,-95.11 361,-95.11"/>
<text text-anchor="middle" x="439.5" y="-102.11" font-family="Helvetica,sans-Serif" font-size="10.00">UpgradeManager.UpgradeShoes</text>
</a>
</g>
</g>
<!-- Node1&#45;&gt;Node7 -->
<g id="edge8" class="edge">
<title>Node1&#45;&gt;Node7</title>
<path fill="none" stroke="midnightblue" d="M549.62,-104.61C539.2,-104.61 528.5,-104.61 518.07,-104.61"/>
<polygon fill="midnightblue" stroke="midnightblue" points="549.93,-108.11 559.93,-104.61 549.93,-101.11 549.93,-108.11"/>
</g>
<!-- Node9 -->
<g id="node9" class="node">
<title>Node9</title>
<g id="a_node9"><a xlink:href="../../da/d9d/class_upgrade_manager.html#a366539e3c1c5a211c0ec5cac77ccbd58" target="_top" xlink:title="Upgrades the shovel level to the given level">
<polygon fill="white" stroke="black" points="360.5,-51.11 360.5,-70.11 518.5,-70.11 518.5,-51.11 360.5,-51.11"/>
<text text-anchor="middle" x="439.5" y="-58.11" font-family="Helvetica,sans-Serif" font-size="10.00">UpgradeManager.UpgradeShovel</text>
</a>
</g>
</g>
<!-- Node1&#45;&gt;Node9 -->
<g id="edge11" class="edge">
<title>Node1&#45;&gt;Node9</title>
<path fill="none" stroke="midnightblue" d="M553.59,-87.29C528.81,-81.45 502.07,-75.14 480.82,-70.12"/>
<polygon fill="midnightblue" stroke="midnightblue" points="552.8,-90.7 563.34,-89.59 554.41,-83.89 552.8,-90.7"/>
</g>
<!-- Node3 -->
<g id="node3" class="node">
<title>Node3</title>
<g id="a_node3"><a xlink:href="../../db/dac/class_selling_screen_script.html#a1d94ae7dd2d5fc4611c0c25b428276ab" target="_top" xlink:title="Sets up the buy screen for the body bag upgrades">
<polygon fill="white" stroke="black" points="171.5,-187.61 171.5,-217.61 314.5,-217.61 314.5,-187.61 171.5,-187.61"/>
<text text-anchor="start" x="179.5" y="-205.61" font-family="Helvetica,sans-Serif" font-size="10.00">SellingScreenScript.Body</text>
<text text-anchor="middle" x="243" y="-194.61" font-family="Helvetica,sans-Serif" font-size="10.00">BagBuyUpgradeScreenSetup</text>
</a>
</g>
</g>
<!-- Node2&#45;&gt;Node3 -->
<g id="edge2" class="edge">
<title>Node2&#45;&gt;Node3</title>
<path fill="none" stroke="midnightblue" d="M344.8,-200.54C334.68,-200.75 324.5,-200.96 314.72,-201.16"/>
<polygon fill="midnightblue" stroke="midnightblue" points="344.96,-204.04 354.89,-200.33 344.82,-197.04 344.96,-204.04"/>
</g>
<!-- Node4 -->
<g id="node4" class="node">
<title>Node4</title>
<g id="a_node4"><a xlink:href="../../db/dac/class_selling_screen_script.html#a7be5423228e510781538a465d01cb007" target="_top" xlink:title="Sets up the buying screen for a specific item">
<polygon fill="white" stroke="black" points="0,-89.61 0,-119.61 131,-119.61 131,-89.61 0,-89.61"/>
<text text-anchor="start" x="8" y="-107.61" font-family="Helvetica,sans-Serif" font-size="10.00">SellingScreenScript.Setup</text>
<text text-anchor="middle" x="65.5" y="-96.61" font-family="Helvetica,sans-Serif" font-size="10.00">Screen</text>
</a>
</g>
</g>
<!-- Node3&#45;&gt;Node4 -->
<g id="edge3" class="edge">
<title>Node3&#45;&gt;Node4</title>
<path fill="none" stroke="midnightblue" d="M177.99,-183.72C174.22,-182.12 170.53,-180.41 167,-178.61 135.16,-162.35 102.61,-136.31 83.5,-119.85"/>
<polygon fill="midnightblue" stroke="midnightblue" points="176.9,-187.05 187.49,-187.49 179.48,-180.54 176.9,-187.05"/>
</g>
<!-- Node4&#45;&gt;Node1 -->
<g id="edge4" class="edge">
<title>Node4&#45;&gt;Node1</title>
<path fill="none" stroke="midnightblue" d="M88.24,-82.44C107.16,-64.83 136.31,-41.58 167,-31.61 317.96,17.43 372.31,5.12 524,-41.61 556.45,-51.61 589.08,-74.18 608.66,-89.41"/>
<polygon fill="midnightblue" stroke="midnightblue" points="85.58,-80.14 80.78,-89.58 90.42,-85.19 85.58,-80.14"/>
</g>
<!-- Node6 -->
<g id="node6" class="node">
<title>Node6</title>
<g id="a_node6"><a xlink:href="../../db/dac/class_selling_screen_script.html#a6f21d721a89c56c7039d62ce65f63f19" target="_top" xlink:title="Sets up the buy screen for the boltcutter upgrades">
<polygon fill="white" stroke="black" points="167,-138.61 167,-168.61 319,-168.61 319,-138.61 167,-138.61"/>
<text text-anchor="start" x="175" y="-156.61" font-family="Helvetica,sans-Serif" font-size="10.00">SellingScreenScript.Bolt</text>
<text text-anchor="middle" x="243" y="-145.61" font-family="Helvetica,sans-Serif" font-size="10.00">CutterBuyUpgradeScreenSetup</text>
</a>
</g>
</g>
<!-- Node5&#45;&gt;Node6 -->
<g id="edge6" class="edge">
<title>Node5&#45;&gt;Node6</title>
<path fill="none" stroke="midnightblue" d="M356.17,-151.88C343.93,-152.07 331.37,-152.26 319.29,-152.45"/>
<polygon fill="midnightblue" stroke="midnightblue" points="356.41,-155.38 366.35,-151.72 356.3,-148.38 356.41,-155.38"/>
</g>
<!-- Node6&#45;&gt;Node4 -->
<g id="edge7" class="edge">
<title>Node6&#45;&gt;Node4</title>
<path fill="none" stroke="midnightblue" d="M178.17,-135.79C159.22,-130.5 138.66,-124.76 120.41,-119.66"/>
<polygon fill="midnightblue" stroke="midnightblue" points="177.34,-139.19 187.91,-138.51 179.22,-132.45 177.34,-139.19"/>
</g>
<!-- Node8 -->
<g id="node8" class="node">
<title>Node8</title>
<g id="a_node8"><a xlink:href="../../db/dac/class_selling_screen_script.html#a9646ff5a19f1ba8a96f70ba33b46598d" target="_top" xlink:title="Sets up the buy screen for the shoe upgrades.">
<polygon fill="white" stroke="black" points="176.5,-89.61 176.5,-119.61 309.5,-119.61 309.5,-89.61 176.5,-89.61"/>
<text text-anchor="start" x="184.5" y="-107.61" font-family="Helvetica,sans-Serif" font-size="10.00">SellingScreenScript.Shoes</text>
<text text-anchor="middle" x="243" y="-96.61" font-family="Helvetica,sans-Serif" font-size="10.00">BuyUpgradeScreenSetup</text>
</a>
</g>
</g>
<!-- Node7&#45;&gt;Node8 -->
<g id="edge9" class="edge">
<title>Node7&#45;&gt;Node8</title>
<path fill="none" stroke="midnightblue" d="M350.39,-104.61C336.7,-104.61 322.77,-104.61 309.7,-104.61"/>
<polygon fill="midnightblue" stroke="midnightblue" points="350.79,-108.11 360.79,-104.61 350.79,-101.11 350.79,-108.11"/>
</g>
<!-- Node8&#45;&gt;Node4 -->
<g id="edge10" class="edge">
<title>Node8&#45;&gt;Node4</title>
<path fill="none" stroke="midnightblue" d="M166.05,-104.61C154.46,-104.61 142.59,-104.61 131.26,-104.61"/>
<polygon fill="midnightblue" stroke="midnightblue" points="166.15,-108.11 176.15,-104.61 166.15,-101.11 166.15,-108.11"/>
</g>
<!-- Node10 -->
<g id="node10" class="node">
<title>Node10</title>
<g id="a_node10"><a xlink:href="../../db/dac/class_selling_screen_script.html#a3fa55c056600239b67876cea7b018479" target="_top" xlink:title="Sets up the buy screen for the shovel upgrades">
<polygon fill="white" stroke="black" points="176,-40.61 176,-70.61 310,-70.61 310,-40.61 176,-40.61"/>
<text text-anchor="start" x="184" y="-58.61" font-family="Helvetica,sans-Serif" font-size="10.00">SellingScreenScript.Shovel</text>
<text text-anchor="middle" x="243" y="-47.61" font-family="Helvetica,sans-Serif" font-size="10.00">BuyUpgradeScreenSetup</text>
</a>
</g>
</g>
<!-- Node9&#45;&gt;Node10 -->
<g id="edge12" class="edge">
<title>Node9&#45;&gt;Node10</title>
<path fill="none" stroke="midnightblue" d="M350.05,-58.34C336.67,-57.99 323.05,-57.64 310.24,-57.32"/>
<polygon fill="midnightblue" stroke="midnightblue" points="350.14,-61.84 360.23,-58.6 350.32,-54.84 350.14,-61.84"/>
</g>
<!-- Node10&#45;&gt;Node4 -->
<g id="edge13" class="edge">
<title>Node10&#45;&gt;Node4</title>
<path fill="none" stroke="midnightblue" d="M178.17,-73.43C159.22,-78.72 138.66,-84.46 120.41,-89.56"/>
<polygon fill="midnightblue" stroke="midnightblue" points="179.22,-76.77 187.91,-70.71 177.34,-70.03 179.22,-76.77"/>
</g>
</g>
</svg>
