<?xml version="1.0" encoding="UTF-8" standalone="no"?>
<!DOCTYPE svg PUBLIC "-//W3C//DTD SVG 1.1//EN"
 "http://www.w3.org/Graphics/SVG/1.1/DTD/svg11.dtd">
<!-- Generated by graphviz version 3.0.0 (20220226.1711)
 -->
<!-- Title: SellingScreenScript.UpdateMoney Pages: 1 -->
<svg width="876pt" height="264pt"
 viewBox="0.00 0.00 876.00 264.00" xmlns="http://www.w3.org/2000/svg" xmlns:xlink="http://www.w3.org/1999/xlink">
<g id="graph0" class="graph" transform="scale(1 1) rotate(0) translate(4 260)">
<title>SellingScreenScript.UpdateMoney</title>
<polygon fill="white" stroke="transparent" points="-4,4 -4,-260 872,-260 872,4 -4,4"/>
<!-- Node1 -->
<g id="node1" class="node">
<title>Node1</title>
<g id="a_node1"><a xlink:title="Updates the text showing the current money">
<polygon fill="#bfbfbf" stroke="black" points="732,-107.5 732,-137.5 868,-137.5 868,-107.5 732,-107.5"/>
<text text-anchor="start" x="740" y="-125.5" font-family="Helvetica,sans-Serif" font-size="10.00">SellingScreenScript.Update</text>
<text text-anchor="middle" x="800" y="-114.5" font-family="Helvetica,sans-Serif" font-size="10.00">Money</text>
</a>
</g>
</g>
<!-- Node2 -->
<g id="node2" class="node">
<title>Node2</title>
<g id="a_node2"><a xlink:href="../../db/dac/class_selling_screen_script.html#a7be5423228e510781538a465d01cb007" target="_top" xlink:title="Sets up the buying screen for a specific item">
<polygon fill="white" stroke="black" points="565,-107.5 565,-137.5 696,-137.5 696,-107.5 565,-107.5"/>
<text text-anchor="start" x="573" y="-125.5" font-family="Helvetica,sans-Serif" font-size="10.00">SellingScreenScript.Setup</text>
<text text-anchor="middle" x="630.5" y="-114.5" font-family="Helvetica,sans-Serif" font-size="10.00">Screen</text>
</a>
</g>
</g>
<!-- Node1&#45;&gt;Node2 -->
<g id="edge1" class="edge">
<title>Node1&#45;&gt;Node2</title>
<path fill="none" stroke="midnightblue" d="M721.56,-122.5C713.09,-122.5 704.53,-122.5 696.23,-122.5"/>
<polygon fill="midnightblue" stroke="midnightblue" points="721.84,-126 731.84,-122.5 721.84,-119 721.84,-126"/>
</g>
<!-- Node3 -->
<g id="node3" class="node">
<title>Node3</title>
<g id="a_node3"><a xlink:href="../../db/dac/class_selling_screen_script.html#a6f3a5794037efbc23910df86b380077f" target="_top" xlink:title="Updates the screen after a change">
<polygon fill="white" stroke="black" points="393,-107.5 393,-137.5 529,-137.5 529,-107.5 393,-107.5"/>
<text text-anchor="start" x="401" y="-125.5" font-family="Helvetica,sans-Serif" font-size="10.00">SellingScreenScript.Update</text>
<text text-anchor="middle" x="461" y="-114.5" font-family="Helvetica,sans-Serif" font-size="10.00">Screen</text>
</a>
</g>
</g>
<!-- Node2&#45;&gt;Node3 -->
<g id="edge2" class="edge">
<title>Node2&#45;&gt;Node3</title>
<path fill="none" stroke="midnightblue" d="M554.49,-122.5C546.03,-122.5 537.44,-122.5 529.08,-122.5"/>
<polygon fill="midnightblue" stroke="midnightblue" points="554.74,-126 564.74,-122.5 554.74,-119 554.74,-126"/>
</g>
<!-- Node4 -->
<g id="node4" class="node">
<title>Node4</title>
<g id="a_node4"><a xlink:href="../../da/d9d/class_upgrade_manager.html#ace07916b537615eeb092432d31b9bb81" target="_top" xlink:title="Upgrades the body bag level to the given level">
<polygon fill="white" stroke="black" points="188,-132 188,-151 357,-151 357,-132 188,-132"/>
<text text-anchor="middle" x="272.5" y="-139" font-family="Helvetica,sans-Serif" font-size="10.00">UpgradeManager.UpgradeBodyBag</text>
</a>
</g>
</g>
<!-- Node3&#45;&gt;Node4 -->
<g id="edge3" class="edge">
<title>Node3&#45;&gt;Node4</title>
<path fill="none" stroke="midnightblue" d="M382.75,-130.37C374.32,-131.23 365.7,-132.11 357.2,-132.97"/>
<polygon fill="midnightblue" stroke="midnightblue" points="383.34,-133.83 392.93,-129.33 382.63,-126.86 383.34,-133.83"/>
</g>
<!-- Node6 -->
<g id="node6" class="node">
<title>Node6</title>
<g id="a_node6"><a xlink:href="../../da/d9d/class_upgrade_manager.html#ae480ebe9e6b219adb20e0b410bc69cc7" target="_top" xlink:title="Upgrades the boltcutters level to the given level">
<polygon fill="white" stroke="black" points="199.5,-170.5 199.5,-200.5 345.5,-200.5 345.5,-170.5 199.5,-170.5"/>
<text text-anchor="start" x="207.5" y="-188.5" font-family="Helvetica,sans-Serif" font-size="10.00">UpgradeManager.UpgradeBolt</text>
<text text-anchor="middle" x="272.5" y="-177.5" font-family="Helvetica,sans-Serif" font-size="10.00">Cutter</text>
</a>
</g>
</g>
<!-- Node3&#45;&gt;Node6 -->
<g id="edge6" class="edge">
<title>Node3&#45;&gt;Node6</title>
<path fill="none" stroke="midnightblue" d="M411.31,-141.17C394.22,-147.54 374.83,-154.55 357,-160.5 346.95,-163.85 336.16,-167.24 325.77,-170.4"/>
<polygon fill="midnightblue" stroke="midnightblue" points="412.94,-144.3 421.08,-137.51 410.48,-137.75 412.94,-144.3"/>
</g>
<!-- Node8 -->
<g id="node8" class="node">
<title>Node8</title>
<g id="a_node8"><a xlink:href="../../da/d9d/class_upgrade_manager.html#aebf049454001984ca3ac1fe79c851d2d" target="_top" xlink:title="Upgrades the shoes level to the given level">
<polygon fill="white" stroke="black" points="194,-56 194,-75 351,-75 351,-56 194,-56"/>
<text text-anchor="middle" x="272.5" y="-63" font-family="Helvetica,sans-Serif" font-size="10.00">UpgradeManager.UpgradeShoes</text>
</a>
</g>
</g>
<!-- Node3&#45;&gt;Node8 -->
<g id="edge9" class="edge">
<title>Node3&#45;&gt;Node8</title>
<path fill="none" stroke="midnightblue" d="M413.31,-103.82C395.81,-97.2 375.65,-90.04 357,-84.5 345.31,-81.03 332.55,-77.83 320.59,-75.09"/>
<polygon fill="midnightblue" stroke="midnightblue" points="412.13,-107.11 422.72,-107.42 414.64,-100.58 412.13,-107.11"/>
</g>
<!-- Node10 -->
<g id="node10" class="node">
<title>Node10</title>
<g id="a_node10"><a xlink:href="../../da/d9d/class_upgrade_manager.html#a366539e3c1c5a211c0ec5cac77ccbd58" target="_top" xlink:title="Upgrades the shovel level to the given level">
<polygon fill="white" stroke="black" points="193.5,-94 193.5,-113 351.5,-113 351.5,-94 193.5,-94"/>
<text text-anchor="middle" x="272.5" y="-101" font-family="Helvetica,sans-Serif" font-size="10.00">UpgradeManager.UpgradeShovel</text>
</a>
</g>
</g>
<!-- Node3&#45;&gt;Node10 -->
<g id="edge12" class="edge">
<title>Node3&#45;&gt;Node10</title>
<path fill="none" stroke="midnightblue" d="M382.78,-114.63C372.52,-113.59 361.99,-112.52 351.71,-111.47"/>
<polygon fill="midnightblue" stroke="midnightblue" points="382.63,-118.14 392.93,-115.67 383.34,-111.17 382.63,-118.14"/>
</g>
<!-- Node5 -->
<g id="node5" class="node">
<title>Node5</title>
<g id="a_node5"><a xlink:href="../../db/dac/class_selling_screen_script.html#a1d94ae7dd2d5fc4611c0c25b428276ab" target="_top" xlink:title="Sets up the buy screen for the body bag upgrades">
<polygon fill="white" stroke="black" points="4.5,-138.5 4.5,-168.5 147.5,-168.5 147.5,-138.5 4.5,-138.5"/>
<text text-anchor="start" x="12.5" y="-156.5" font-family="Helvetica,sans-Serif" font-size="10.00">SellingScreenScript.Body</text>
<text text-anchor="middle" x="76" y="-145.5" font-family="Helvetica,sans-Serif" font-size="10.00">BagBuyUpgradeScreenSetup</text>
</a>
</g>
</g>
<!-- Node4&#45;&gt;Node5 -->
<g id="edge4" class="edge">
<title>Node4&#45;&gt;Node5</title>
<path fill="none" stroke="midnightblue" d="M177.8,-147.28C167.68,-147.91 157.5,-148.53 147.72,-149.14"/>
<polygon fill="midnightblue" stroke="midnightblue" points="178.12,-150.77 187.89,-146.66 177.69,-143.78 178.12,-150.77"/>
</g>
<!-- Node5&#45;&gt;Node2 -->
<g id="edge5" class="edge">
<title>Node5&#45;&gt;Node2</title>
<path fill="none" stroke="midnightblue" d="M107.37,-174.12C128.85,-187.4 158.89,-203.46 188,-210.5 341.46,-247.6 527.63,-171.36 599.34,-137.55"/>
<polygon fill="midnightblue" stroke="midnightblue" points="109.04,-171.03 98.72,-168.63 105.29,-176.94 109.04,-171.03"/>
</g>
<!-- Node7 -->
<g id="node7" class="node">
<title>Node7</title>
<g id="a_node7"><a xlink:href="../../db/dac/class_selling_screen_script.html#a6f21d721a89c56c7039d62ce65f63f19" target="_top" xlink:title="Sets up the buy screen for the boltcutter upgrades">
<polygon fill="white" stroke="black" points="0,-225.5 0,-255.5 152,-255.5 152,-225.5 0,-225.5"/>
<text text-anchor="start" x="8" y="-243.5" font-family="Helvetica,sans-Serif" font-size="10.00">SellingScreenScript.Bolt</text>
<text text-anchor="middle" x="76" y="-232.5" font-family="Helvetica,sans-Serif" font-size="10.00">CutterBuyUpgradeScreenSetup</text>
</a>
</g>
</g>
<!-- Node6&#45;&gt;Node7 -->
<g id="edge7" class="edge">
<title>Node6&#45;&gt;Node7</title>
<path fill="none" stroke="midnightblue" d="M208.48,-203.32C183.16,-210.48 154.3,-218.64 130.08,-225.49"/>
<polygon fill="midnightblue" stroke="midnightblue" points="209.68,-206.62 218.35,-200.53 207.78,-199.88 209.68,-206.62"/>
</g>
<!-- Node7&#45;&gt;Node2 -->
<g id="edge8" class="edge">
<title>Node7&#45;&gt;Node2</title>
<path fill="none" stroke="midnightblue" d="M162.18,-248.88C256.1,-254.61 409.69,-253.49 529,-201.5 563.99,-186.25 597.33,-155.83 615.44,-137.51"/>
<polygon fill="midnightblue" stroke="midnightblue" points="162.36,-245.38 152.16,-248.22 161.91,-252.37 162.36,-245.38"/>
</g>
<!-- Node9 -->
<g id="node9" class="node">
<title>Node9</title>
<g id="a_node9"><a xlink:href="../../db/dac/class_selling_screen_script.html#a9646ff5a19f1ba8a96f70ba33b46598d" target="_top" xlink:title="Sets up the buy screen for the shoe upgrades.">
<polygon fill="white" stroke="black" points="9.5,-0.5 9.5,-30.5 142.5,-30.5 142.5,-0.5 9.5,-0.5"/>
<text text-anchor="start" x="17.5" y="-18.5" font-family="Helvetica,sans-Serif" font-size="10.00">SellingScreenScript.Shoes</text>
<text text-anchor="middle" x="76" y="-7.5" font-family="Helvetica,sans-Serif" font-size="10.00">BuyUpgradeScreenSetup</text>
</a>
</g>
</g>
<!-- Node8&#45;&gt;Node9 -->
<g id="edge10" class="edge">
<title>Node8&#45;&gt;Node9</title>
<path fill="none" stroke="midnightblue" d="M224.59,-53.44C197.87,-46.57 164.16,-37.91 135.71,-30.59"/>
<polygon fill="midnightblue" stroke="midnightblue" points="223.9,-56.88 234.46,-55.98 225.64,-50.1 223.9,-56.88"/>
</g>
<!-- Node9&#45;&gt;Node2 -->
<g id="edge11" class="edge">
<title>Node9&#45;&gt;Node2</title>
<path fill="none" stroke="midnightblue" d="M152.8,-7.48C244.93,-0.63 403.61,1.7 529,-45.5 564.38,-58.82 597.59,-89 615.57,-107.37"/>
<polygon fill="midnightblue" stroke="midnightblue" points="152.43,-4 142.73,-8.27 152.97,-10.98 152.43,-4"/>
</g>
<!-- Node11 -->
<g id="node11" class="node">
<title>Node11</title>
<g id="a_node11"><a xlink:href="../../db/dac/class_selling_screen_script.html#a3fa55c056600239b67876cea7b018479" target="_top" xlink:title="Sets up the buy screen for the shovel upgrades">
<polygon fill="white" stroke="black" points="9,-76.5 9,-106.5 143,-106.5 143,-76.5 9,-76.5"/>
<text text-anchor="start" x="17" y="-94.5" font-family="Helvetica,sans-Serif" font-size="10.00">SellingScreenScript.Shovel</text>
<text text-anchor="middle" x="76" y="-83.5" font-family="Helvetica,sans-Serif" font-size="10.00">BuyUpgradeScreenSetup</text>
</a>
</g>
</g>
<!-- Node10&#45;&gt;Node11 -->
<g id="edge13" class="edge">
<title>Node10&#45;&gt;Node11</title>
<path fill="none" stroke="midnightblue" d="M183.05,-98.04C169.67,-97.22 156.05,-96.38 143.24,-95.59"/>
<polygon fill="midnightblue" stroke="midnightblue" points="183.03,-101.55 193.23,-98.67 183.46,-94.56 183.03,-101.55"/>
</g>
<!-- Node11&#45;&gt;Node2 -->
<g id="edge14" class="edge">
<title>Node11&#45;&gt;Node2</title>
<path fill="none" stroke="midnightblue" d="M114.47,-72.09C135.48,-62.3 162.51,-51.47 188,-46.5 338.2,-17.21 518.31,-77.83 593.63,-107.46"/>
<polygon fill="midnightblue" stroke="midnightblue" points="112.78,-69.02 105.27,-76.49 115.8,-75.33 112.78,-69.02"/>
</g>
</g>
</svg>
