<?xml version="1.0" encoding="UTF-8" standalone="no"?>
<!DOCTYPE svg PUBLIC "-//W3C//DTD SVG 1.1//EN"
 "http://www.w3.org/Graphics/SVG/1.1/DTD/svg11.dtd">
<!-- Generated by graphviz version 3.0.0 (20220226.1711)
 -->
<!-- Title: SellingScreenScript.ShovelBuyUpgradeScreenSetup Pages: 1 -->
<svg width="874pt" height="247pt"
 viewBox="0.00 0.00 874.00 246.50" xmlns="http://www.w3.org/2000/svg" xmlns:xlink="http://www.w3.org/1999/xlink">
<g id="graph0" class="graph" transform="scale(1 1) rotate(0) translate(4 242.5)">
<title>SellingScreenScript.ShovelBuyUpgradeScreenSetup</title>
<polygon fill="white" stroke="transparent" points="-4,4 -4,-242.5 870,-242.5 870,4 -4,4"/>
<!-- Node1 -->
<g id="node1" class="node">
<title>Node1</title>
<g id="a_node1"><a xlink:title="Sets up the buy screen for the shovel upgrades">
<polygon fill="#bfbfbf" stroke="black" points="732,-36 732,-66 866,-66 866,-36 732,-36"/>
<text text-anchor="start" x="740" y="-54" font-family="Helvetica,sans-Serif" font-size="10.00">SellingScreenScript.Shovel</text>
<text text-anchor="middle" x="799" y="-43" font-family="Helvetica,sans-Serif" font-size="10.00">BuyUpgradeScreenSetup</text>
</a>
</g>
</g>
<!-- Node2 -->
<g id="node2" class="node">
<title>Node2</title>
<g id="a_node2"><a xlink:href="../../db/dac/class_selling_screen_script.html#a7be5423228e510781538a465d01cb007" target="_top" xlink:title="Sets up the buying screen for a specific item">
<polygon fill="white" stroke="black" points="565,-93 565,-123 696,-123 696,-93 565,-93"/>
<text text-anchor="start" x="573" y="-111" font-family="Helvetica,sans-Serif" font-size="10.00">SellingScreenScript.Setup</text>
<text text-anchor="middle" x="630.5" y="-100" font-family="Helvetica,sans-Serif" font-size="10.00">Screen</text>
</a>
</g>
</g>
<!-- Node1&#45;&gt;Node2 -->
<g id="edge1" class="edge">
<title>Node1&#45;&gt;Node2</title>
<path fill="none" stroke="midnightblue" d="M744.21,-69.42C722.03,-77.01 696.65,-85.7 675.6,-92.9"/>
<polygon fill="midnightblue" stroke="midnightblue" points="745.49,-72.68 753.82,-66.13 743.22,-66.05 745.49,-72.68"/>
</g>
<!-- Node3 -->
<g id="node3" class="node">
<title>Node3</title>
<g id="a_node3"><a xlink:href="../../db/dac/class_selling_screen_script.html#a6f3a5794037efbc23910df86b380077f" target="_top" xlink:title="Updates the screen after a change">
<polygon fill="white" stroke="black" points="393,-93 393,-123 529,-123 529,-93 393,-93"/>
<text text-anchor="start" x="401" y="-111" font-family="Helvetica,sans-Serif" font-size="10.00">SellingScreenScript.Update</text>
<text text-anchor="middle" x="461" y="-100" font-family="Helvetica,sans-Serif" font-size="10.00">Screen</text>
</a>
</g>
</g>
<!-- Node2&#45;&gt;Node3 -->
<g id="edge2" class="edge">
<title>Node2&#45;&gt;Node3</title>
<path fill="none" stroke="midnightblue" d="M554.49,-108C546.03,-108 537.44,-108 529.08,-108"/>
<polygon fill="midnightblue" stroke="midnightblue" points="554.74,-111.5 564.74,-108 554.74,-104.5 554.74,-111.5"/>
</g>
<!-- Node4 -->
<g id="node4" class="node">
<title>Node4</title>
<g id="a_node4"><a xlink:href="../../da/d9d/class_upgrade_manager.html#ace07916b537615eeb092432d31b9bb81" target="_top" xlink:title="Upgrades the body bag level to the given level">
<polygon fill="white" stroke="black" points="188,-76.5 188,-95.5 357,-95.5 357,-76.5 188,-76.5"/>
<text text-anchor="middle" x="272.5" y="-83.5" font-family="Helvetica,sans-Serif" font-size="10.00">UpgradeManager.UpgradeBodyBag</text>
</a>
</g>
</g>
<!-- Node3&#45;&gt;Node4 -->
<g id="edge3" class="edge">
<title>Node3&#45;&gt;Node4</title>
<path fill="none" stroke="midnightblue" d="M382.82,-98.9C373.4,-97.78 363.76,-96.65 354.29,-95.53"/>
<polygon fill="midnightblue" stroke="midnightblue" points="382.59,-102.39 392.93,-100.09 383.41,-95.44 382.59,-102.39"/>
</g>
<!-- Node6 -->
<g id="node6" class="node">
<title>Node6</title>
<g id="a_node6"><a xlink:href="../../da/d9d/class_upgrade_manager.html#ae480ebe9e6b219adb20e0b410bc69cc7" target="_top" xlink:title="Upgrades the boltcutters level to the given level">
<polygon fill="white" stroke="black" points="199.5,-153 199.5,-183 345.5,-183 345.5,-153 199.5,-153"/>
<text text-anchor="start" x="207.5" y="-171" font-family="Helvetica,sans-Serif" font-size="10.00">UpgradeManager.UpgradeBolt</text>
<text text-anchor="middle" x="272.5" y="-160" font-family="Helvetica,sans-Serif" font-size="10.00">Cutter</text>
</a>
</g>
</g>
<!-- Node3&#45;&gt;Node6 -->
<g id="edge6" class="edge">
<title>Node3&#45;&gt;Node6</title>
<path fill="none" stroke="midnightblue" d="M407.02,-126.42C390.99,-131.88 373.31,-137.79 357,-143 346.62,-146.32 335.48,-149.74 324.82,-152.96"/>
<polygon fill="midnightblue" stroke="midnightblue" points="408.44,-129.63 416.77,-123.08 406.17,-123.01 408.44,-129.63"/>
</g>
<!-- Node8 -->
<g id="node8" class="node">
<title>Node8</title>
<g id="a_node8"><a xlink:href="../../da/d9d/class_upgrade_manager.html#aebf049454001984ca3ac1fe79c851d2d" target="_top" xlink:title="Upgrades the shoes level to the given level">
<polygon fill="white" stroke="black" points="194,-114.5 194,-133.5 351,-133.5 351,-114.5 194,-114.5"/>
<text text-anchor="middle" x="272.5" y="-121.5" font-family="Helvetica,sans-Serif" font-size="10.00">UpgradeManager.UpgradeShoes</text>
</a>
</g>
</g>
<!-- Node3&#45;&gt;Node8 -->
<g id="edge9" class="edge">
<title>Node3&#45;&gt;Node8</title>
<path fill="none" stroke="midnightblue" d="M382.95,-114.61C372.42,-115.51 361.61,-116.44 351.07,-117.34"/>
<polygon fill="midnightblue" stroke="midnightblue" points="383.27,-118.1 392.93,-113.75 382.67,-111.12 383.27,-118.1"/>
</g>
<!-- Node10 -->
<g id="node10" class="node">
<title>Node10</title>
<g id="a_node10"><a xlink:href="../../da/d9d/class_upgrade_manager.html#a366539e3c1c5a211c0ec5cac77ccbd58" target="_top" xlink:title="Upgrades the shovel level to the given level">
<polygon fill="white" stroke="black" points="193.5,-0.5 193.5,-19.5 351.5,-19.5 351.5,-0.5 193.5,-0.5"/>
<text text-anchor="middle" x="272.5" y="-7.5" font-family="Helvetica,sans-Serif" font-size="10.00">UpgradeManager.UpgradeShovel</text>
</a>
</g>
</g>
<!-- Node3&#45;&gt;Node10 -->
<g id="edge12" class="edge">
<title>Node3&#45;&gt;Node10</title>
<path fill="none" stroke="midnightblue" d="M422.17,-88.12C382.53,-67.29 321.93,-35.45 291.81,-19.62"/>
<polygon fill="midnightblue" stroke="midnightblue" points="420.79,-91.35 431.27,-92.9 424.04,-85.15 420.79,-91.35"/>
</g>
<!-- Node5 -->
<g id="node5" class="node">
<title>Node5</title>
<g id="a_node5"><a xlink:href="../../db/dac/class_selling_screen_script.html#a1d94ae7dd2d5fc4611c0c25b428276ab" target="_top" xlink:title="Sets up the buy screen for the body bag upgrades">
<polygon fill="white" stroke="black" points="4.5,-59 4.5,-89 147.5,-89 147.5,-59 4.5,-59"/>
<text text-anchor="start" x="12.5" y="-77" font-family="Helvetica,sans-Serif" font-size="10.00">SellingScreenScript.Body</text>
<text text-anchor="middle" x="76" y="-66" font-family="Helvetica,sans-Serif" font-size="10.00">BagBuyUpgradeScreenSetup</text>
</a>
</g>
</g>
<!-- Node4&#45;&gt;Node5 -->
<g id="edge4" class="edge">
<title>Node4&#45;&gt;Node5</title>
<path fill="none" stroke="midnightblue" d="M177.8,-80.22C167.68,-79.59 157.5,-78.97 147.72,-78.36"/>
<polygon fill="midnightblue" stroke="midnightblue" points="177.69,-83.72 187.89,-80.84 178.12,-76.73 177.69,-83.72"/>
</g>
<!-- Node5&#45;&gt;Node2 -->
<g id="edge5" class="edge">
<title>Node5&#45;&gt;Node2</title>
<path fill="none" stroke="midnightblue" d="M157.83,-68.31C167.98,-67.77 178.23,-67.31 188,-67 339.65,-62.22 379.42,-57.59 529,-83 544.24,-85.59 560.59,-89.26 575.57,-92.99"/>
<polygon fill="midnightblue" stroke="midnightblue" points="157.52,-64.82 147.73,-68.87 157.91,-71.81 157.52,-64.82"/>
</g>
<!-- Node7 -->
<g id="node7" class="node">
<title>Node7</title>
<g id="a_node7"><a xlink:href="../../db/dac/class_selling_screen_script.html#a6f21d721a89c56c7039d62ce65f63f19" target="_top" xlink:title="Sets up the buy screen for the boltcutter upgrades">
<polygon fill="white" stroke="black" points="0,-208 0,-238 152,-238 152,-208 0,-208"/>
<text text-anchor="start" x="8" y="-226" font-family="Helvetica,sans-Serif" font-size="10.00">SellingScreenScript.Bolt</text>
<text text-anchor="middle" x="76" y="-215" font-family="Helvetica,sans-Serif" font-size="10.00">CutterBuyUpgradeScreenSetup</text>
</a>
</g>
</g>
<!-- Node6&#45;&gt;Node7 -->
<g id="edge7" class="edge">
<title>Node6&#45;&gt;Node7</title>
<path fill="none" stroke="midnightblue" d="M208.48,-185.82C183.16,-192.98 154.3,-201.14 130.08,-207.99"/>
<polygon fill="midnightblue" stroke="midnightblue" points="209.68,-189.12 218.35,-183.03 207.78,-182.38 209.68,-189.12"/>
</g>
<!-- Node7&#45;&gt;Node2 -->
<g id="edge8" class="edge">
<title>Node7&#45;&gt;Node2</title>
<path fill="none" stroke="midnightblue" d="M162.08,-231.68C255.92,-237.76 409.43,-237.26 529,-186 563.71,-171.12 596.89,-141.32 615.1,-123.17"/>
<polygon fill="midnightblue" stroke="midnightblue" points="162.29,-228.18 152.07,-230.99 161.8,-235.17 162.29,-228.18"/>
</g>
<!-- Node9 -->
<g id="node9" class="node">
<title>Node9</title>
<g id="a_node9"><a xlink:href="../../db/dac/class_selling_screen_script.html#a9646ff5a19f1ba8a96f70ba33b46598d" target="_top" xlink:title="Sets up the buy screen for the shoe upgrades.">
<polygon fill="white" stroke="black" points="9.5,-121 9.5,-151 142.5,-151 142.5,-121 9.5,-121"/>
<text text-anchor="start" x="17.5" y="-139" font-family="Helvetica,sans-Serif" font-size="10.00">SellingScreenScript.Shoes</text>
<text text-anchor="middle" x="76" y="-128" font-family="Helvetica,sans-Serif" font-size="10.00">BuyUpgradeScreenSetup</text>
</a>
</g>
</g>
<!-- Node8&#45;&gt;Node9 -->
<g id="edge10" class="edge">
<title>Node8&#45;&gt;Node9</title>
<path fill="none" stroke="midnightblue" d="M183.79,-129.41C169.98,-130.26 155.9,-131.13 142.7,-131.95"/>
<polygon fill="midnightblue" stroke="midnightblue" points="184.02,-132.9 193.79,-128.79 183.59,-125.92 184.02,-132.9"/>
</g>
<!-- Node9&#45;&gt;Node2 -->
<g id="edge11" class="edge">
<title>Node9&#45;&gt;Node2</title>
<path fill="none" stroke="midnightblue" d="M107.37,-156.62C128.85,-169.9 158.89,-185.96 188,-193 340.69,-229.91 526.16,-156.26 598.51,-123.07"/>
<polygon fill="midnightblue" stroke="midnightblue" points="109.04,-153.53 98.72,-151.13 105.29,-159.44 109.04,-153.53"/>
</g>
<!-- Node10&#45;&gt;Node1 -->
<g id="edge13" class="edge">
<title>Node10&#45;&gt;Node1</title>
<path fill="none" stroke="midnightblue" d="M362.06,-16.92C466.64,-25.1 638.16,-38.5 731.84,-45.83"/>
<polygon fill="midnightblue" stroke="midnightblue" points="362.09,-13.41 351.84,-16.12 361.54,-20.39 362.09,-13.41"/>
</g>
</g>
</svg>
