<?xml version="1.0" encoding="UTF-8" standalone="no"?>
<!DOCTYPE svg PUBLIC "-//W3C//DTD SVG 1.1//EN"
 "http://www.w3.org/Graphics/SVG/1.1/DTD/svg11.dtd">
<!-- Generated by graphviz version 3.0.0 (20220226.1711)
 -->
<!-- Title: SellingScreenScript.NotEnoughMoneyTalk Pages: 1 -->
<svg width="1266pt" height="298pt"
 viewBox="0.00 0.00 1266.00 298.02" xmlns="http://www.w3.org/2000/svg" xmlns:xlink="http://www.w3.org/1999/xlink">
<g id="graph0" class="graph" transform="scale(1 1) rotate(0) translate(4 294.02)">
<title>SellingScreenScript.NotEnoughMoneyTalk</title>
<polygon fill="white" stroke="transparent" points="-4,4 -4,-294.02 1262,-294.02 1262,4 -4,4"/>
<!-- Node1 -->
<g id="node1" class="node">
<title>Node1</title>
<g id="a_node1"><a xlink:title=" ">
<polygon fill="#bfbfbf" stroke="black" points="1105,-45.02 1105,-75.02 1258,-75.02 1258,-45.02 1105,-45.02"/>
<text text-anchor="start" x="1113" y="-63.02" font-family="Helvetica,sans-Serif" font-size="10.00">SellingScreenScript.NotEnough</text>
<text text-anchor="middle" x="1181.5" y="-52.02" font-family="Helvetica,sans-Serif" font-size="10.00">MoneyTalk</text>
</a>
</g>
</g>
<!-- Node2 -->
<g id="node2" class="node">
<title>Node2</title>
<g id="a_node2"><a xlink:href="../../da/d9d/class_upgrade_manager.html#ace07916b537615eeb092432d31b9bb81" target="_top" xlink:title="Upgrades the body bag level to the given level">
<polygon fill="white" stroke="black" points="900,-72.52 900,-91.52 1069,-91.52 1069,-72.52 900,-72.52"/>
<text text-anchor="middle" x="984.5" y="-79.52" font-family="Helvetica,sans-Serif" font-size="10.00">UpgradeManager.UpgradeBodyBag</text>
</a>
</g>
</g>
<!-- Node1&#45;&gt;Node2 -->
<g id="edge1" class="edge">
<title>Node1&#45;&gt;Node2</title>
<path fill="none" stroke="midnightblue" d="M1094.62,-69.71C1086.18,-70.66 1077.63,-71.63 1069.22,-72.58"/>
<polygon fill="midnightblue" stroke="midnightblue" points="1095.28,-73.16 1104.83,-68.56 1094.5,-66.2 1095.28,-73.16"/>
</g>
<!-- Node6 -->
<g id="node6" class="node">
<title>Node6</title>
<g id="a_node6"><a xlink:href="../../da/d9d/class_upgrade_manager.html#ae480ebe9e6b219adb20e0b410bc69cc7" target="_top" xlink:title="Upgrades the boltcutters level to the given level">
<polygon fill="white" stroke="black" points="194,-193.02 194,-223.02 340,-223.02 340,-193.02 194,-193.02"/>
<text text-anchor="start" x="202" y="-211.02" font-family="Helvetica,sans-Serif" font-size="10.00">UpgradeManager.UpgradeBolt</text>
<text text-anchor="middle" x="267" y="-200.02" font-family="Helvetica,sans-Serif" font-size="10.00">Cutter</text>
</a>
</g>
</g>
<!-- Node1&#45;&gt;Node6 -->
<g id="edge15" class="edge">
<title>Node1&#45;&gt;Node6</title>
<path fill="none" stroke="midnightblue" d="M1160.63,-82.67C1107.42,-140.66 954.74,-290.02 793.5,-290.02 793.5,-290.02 793.5,-290.02 618.5,-290.02 502.26,-290.02 369.91,-246.74 306.21,-223.06"/>
<polygon fill="midnightblue" stroke="midnightblue" points="1163.35,-84.88 1167.47,-75.11 1158.17,-80.18 1163.35,-84.88"/>
</g>
<!-- Node8 -->
<g id="node8" class="node">
<title>Node8</title>
<g id="a_node8"><a xlink:href="../../da/d9d/class_upgrade_manager.html#aebf049454001984ca3ac1fe79c851d2d" target="_top" xlink:title="Upgrades the shoes level to the given level">
<polygon fill="white" stroke="black" points="188.5,-37.52 188.5,-56.52 345.5,-56.52 345.5,-37.52 188.5,-37.52"/>
<text text-anchor="middle" x="267" y="-44.52" font-family="Helvetica,sans-Serif" font-size="10.00">UpgradeManager.UpgradeShoes</text>
</a>
</g>
</g>
<!-- Node1&#45;&gt;Node8 -->
<g id="edge16" class="edge">
<title>Node1&#45;&gt;Node8</title>
<path fill="none" stroke="midnightblue" d="M1131.86,-41.69C1112.55,-35.1 1089.98,-28.27 1069,-24.02 948.53,0.35 916.41,-0.02 793.5,-0.02 793.5,-0.02 793.5,-0.02 618.5,-0.02 506.76,-0.02 376.75,-23.78 310.92,-37.51"/>
<polygon fill="midnightblue" stroke="midnightblue" points="1130.75,-45.01 1141.34,-44.99 1133.05,-38.39 1130.75,-45.01"/>
</g>
<!-- Node10 -->
<g id="node10" class="node">
<title>Node10</title>
<g id="a_node10"><a xlink:href="../../da/d9d/class_upgrade_manager.html#a366539e3c1c5a211c0ec5cac77ccbd58" target="_top" xlink:title="Upgrades the shovel level to the given level">
<polygon fill="white" stroke="black" points="188,-75.52 188,-94.52 346,-94.52 346,-75.52 188,-75.52"/>
<text text-anchor="middle" x="267" y="-82.52" font-family="Helvetica,sans-Serif" font-size="10.00">UpgradeManager.UpgradeShovel</text>
</a>
</g>
</g>
<!-- Node1&#45;&gt;Node10 -->
<g id="edge17" class="edge">
<title>Node1&#45;&gt;Node10</title>
<path fill="none" stroke="midnightblue" d="M1094.63,-52.34C1016.26,-45.99 897.19,-38.02 793.5,-38.02 793.5,-38.02 793.5,-38.02 618.5,-38.02 513.05,-38.02 486.06,-39.96 382,-57.02 365.73,-59.69 362.01,-62.07 346,-66.02 333.42,-69.13 319.68,-72.49 307.29,-75.5"/>
<polygon fill="midnightblue" stroke="midnightblue" points="1094.68,-55.85 1104.93,-53.18 1095.25,-48.88 1094.68,-55.85"/>
</g>
<!-- Node3 -->
<g id="node3" class="node">
<title>Node3</title>
<g id="a_node3"><a xlink:href="../../db/dac/class_selling_screen_script.html#a1d94ae7dd2d5fc4611c0c25b428276ab" target="_top" xlink:title="Sets up the buy screen for the body bag upgrades">
<polygon fill="white" stroke="black" points="721,-111.02 721,-141.02 864,-141.02 864,-111.02 721,-111.02"/>
<text text-anchor="start" x="729" y="-129.02" font-family="Helvetica,sans-Serif" font-size="10.00">SellingScreenScript.Body</text>
<text text-anchor="middle" x="792.5" y="-118.02" font-family="Helvetica,sans-Serif" font-size="10.00">BagBuyUpgradeScreenSetup</text>
</a>
</g>
</g>
<!-- Node2&#45;&gt;Node3 -->
<g id="edge2" class="edge">
<title>Node2&#45;&gt;Node3</title>
<path fill="none" stroke="midnightblue" d="M932.49,-93.84C909.76,-99.1 882.72,-105.36 858.55,-110.96"/>
<polygon fill="midnightblue" stroke="midnightblue" points="933.32,-97.24 942.27,-91.57 931.74,-90.42 933.32,-97.24"/>
</g>
<!-- Node4 -->
<g id="node4" class="node">
<title>Node4</title>
<g id="a_node4"><a xlink:href="../../db/dac/class_selling_screen_script.html#a7be5423228e510781538a465d01cb007" target="_top" xlink:title="Sets up the buying screen for a specific item">
<polygon fill="white" stroke="black" points="554,-111.02 554,-141.02 685,-141.02 685,-111.02 554,-111.02"/>
<text text-anchor="start" x="562" y="-129.02" font-family="Helvetica,sans-Serif" font-size="10.00">SellingScreenScript.Setup</text>
<text text-anchor="middle" x="619.5" y="-118.02" font-family="Helvetica,sans-Serif" font-size="10.00">Screen</text>
</a>
</g>
</g>
<!-- Node3&#45;&gt;Node4 -->
<g id="edge3" class="edge">
<title>Node3&#45;&gt;Node4</title>
<path fill="none" stroke="midnightblue" d="M710.87,-126.02C702.24,-126.02 693.53,-126.02 685.12,-126.02"/>
<polygon fill="midnightblue" stroke="midnightblue" points="710.96,-129.52 720.96,-126.02 710.96,-122.52 710.96,-129.52"/>
</g>
<!-- Node5 -->
<g id="node5" class="node">
<title>Node5</title>
<g id="a_node5"><a xlink:href="../../db/dac/class_selling_screen_script.html#a6f3a5794037efbc23910df86b380077f" target="_top" xlink:title="Updates the screen after a change">
<polygon fill="white" stroke="black" points="382,-67.02 382,-97.02 518,-97.02 518,-67.02 382,-67.02"/>
<text text-anchor="start" x="390" y="-85.02" font-family="Helvetica,sans-Serif" font-size="10.00">SellingScreenScript.Update</text>
<text text-anchor="middle" x="450" y="-74.02" font-family="Helvetica,sans-Serif" font-size="10.00">Screen</text>
</a>
</g>
</g>
<!-- Node4&#45;&gt;Node5 -->
<g id="edge4" class="edge">
<title>Node4&#45;&gt;Node5</title>
<path fill="none" stroke="midnightblue" d="M551.52,-108.43C537.17,-104.66 522.14,-100.71 508.2,-97.05"/>
<polygon fill="midnightblue" stroke="midnightblue" points="550.76,-111.85 561.32,-111 552.54,-105.08 550.76,-111.85"/>
</g>
<!-- Node5&#45;&gt;Node2 -->
<g id="edge5" class="edge">
<title>Node5&#45;&gt;Node2</title>
<path fill="none" stroke="midnightblue" d="M528.51,-82.02C627.42,-82.02 797.87,-82.02 899.71,-82.02"/>
<polygon fill="midnightblue" stroke="midnightblue" points="528.28,-78.52 518.28,-82.02 528.28,-85.52 528.28,-78.52"/>
</g>
<!-- Node5&#45;&gt;Node6 -->
<g id="edge6" class="edge">
<title>Node5&#45;&gt;Node6</title>
<path fill="none" stroke="midnightblue" d="M418.88,-102.99C382.39,-128.39 321.8,-170.57 289.63,-192.97"/>
<polygon fill="midnightblue" stroke="midnightblue" points="420.96,-105.81 427.17,-97.22 416.96,-100.06 420.96,-105.81"/>
</g>
<!-- Node5&#45;&gt;Node8 -->
<g id="edge9" class="edge">
<title>Node5&#45;&gt;Node8</title>
<path fill="none" stroke="midnightblue" d="M371.95,-67.12C353.41,-63.54 334.09,-59.8 317.21,-56.54"/>
<polygon fill="midnightblue" stroke="midnightblue" points="371.38,-70.58 381.86,-69.04 372.71,-63.71 371.38,-70.58"/>
</g>
<!-- Node5&#45;&gt;Node10 -->
<g id="edge12" class="edge">
<title>Node5&#45;&gt;Node10</title>
<path fill="none" stroke="midnightblue" d="M371.62,-83.31C363.15,-83.45 354.51,-83.59 346.03,-83.73"/>
<polygon fill="midnightblue" stroke="midnightblue" points="371.92,-86.8 381.86,-83.14 371.8,-79.8 371.92,-86.8"/>
</g>
<!-- Node7 -->
<g id="node7" class="node">
<title>Node7</title>
<g id="a_node7"><a xlink:href="../../db/dac/class_selling_screen_script.html#a6f21d721a89c56c7039d62ce65f63f19" target="_top" xlink:title="Sets up the buy screen for the boltcutter upgrades">
<polygon fill="white" stroke="black" points="0,-203.02 0,-233.02 152,-233.02 152,-203.02 0,-203.02"/>
<text text-anchor="start" x="8" y="-221.02" font-family="Helvetica,sans-Serif" font-size="10.00">SellingScreenScript.Bolt</text>
<text text-anchor="middle" x="76" y="-210.02" font-family="Helvetica,sans-Serif" font-size="10.00">CutterBuyUpgradeScreenSetup</text>
</a>
</g>
</g>
<!-- Node6&#45;&gt;Node7 -->
<g id="edge7" class="edge">
<title>Node6&#45;&gt;Node7</title>
<path fill="none" stroke="midnightblue" d="M183.72,-212.38C173.19,-212.93 162.45,-213.5 152.04,-214.05"/>
<polygon fill="midnightblue" stroke="midnightblue" points="183.94,-215.87 193.74,-211.85 183.57,-208.88 183.94,-215.87"/>
</g>
<!-- Node7&#45;&gt;Node4 -->
<g id="edge8" class="edge">
<title>Node7&#45;&gt;Node4</title>
<path fill="none" stroke="midnightblue" d="M162.25,-230.72C170.93,-231.66 179.63,-232.46 188,-233.02 258.06,-237.74 277,-246.08 346,-233.02 439.63,-215.3 542.29,-166.14 590.52,-141.1"/>
<polygon fill="midnightblue" stroke="midnightblue" points="162.43,-227.22 152.09,-229.56 161.63,-234.17 162.43,-227.22"/>
</g>
<!-- Node9 -->
<g id="node9" class="node">
<title>Node9</title>
<g id="a_node9"><a xlink:href="../../db/dac/class_selling_screen_script.html#a9646ff5a19f1ba8a96f70ba33b46598d" target="_top" xlink:title="Sets up the buy screen for the shoe upgrades.">
<polygon fill="white" stroke="black" points="9.5,-56.02 9.5,-86.02 142.5,-86.02 142.5,-56.02 9.5,-56.02"/>
<text text-anchor="start" x="17.5" y="-74.02" font-family="Helvetica,sans-Serif" font-size="10.00">SellingScreenScript.Shoes</text>
<text text-anchor="middle" x="76" y="-63.02" font-family="Helvetica,sans-Serif" font-size="10.00">BuyUpgradeScreenSetup</text>
</a>
</g>
</g>
<!-- Node8&#45;&gt;Node9 -->
<g id="edge10" class="edge">
<title>Node8&#45;&gt;Node9</title>
<path fill="none" stroke="midnightblue" d="M180.84,-57.84C168.04,-59.46 155.01,-61.12 142.71,-62.68"/>
<polygon fill="midnightblue" stroke="midnightblue" points="181.55,-61.27 191.03,-56.54 180.67,-54.33 181.55,-61.27"/>
</g>
<!-- Node9&#45;&gt;Node4 -->
<g id="edge11" class="edge">
<title>Node9&#45;&gt;Node4</title>
<path fill="none" stroke="midnightblue" d="M128.57,-89.13C147.08,-94.89 168.26,-100.64 188,-104.02 316.34,-126.06 469.1,-128.3 553.79,-127.48"/>
<polygon fill="midnightblue" stroke="midnightblue" points="129.46,-85.74 118.87,-86.04 127.33,-92.41 129.46,-85.74"/>
</g>
<!-- Node11 -->
<g id="node11" class="node">
<title>Node11</title>
<g id="a_node11"><a xlink:href="../../db/dac/class_selling_screen_script.html#a3fa55c056600239b67876cea7b018479" target="_top" xlink:title="Sets up the buy screen for the shovel upgrades">
<polygon fill="white" stroke="black" points="9,-138.02 9,-168.02 143,-168.02 143,-138.02 9,-138.02"/>
<text text-anchor="start" x="17" y="-156.02" font-family="Helvetica,sans-Serif" font-size="10.00">SellingScreenScript.Shovel</text>
<text text-anchor="middle" x="76" y="-145.02" font-family="Helvetica,sans-Serif" font-size="10.00">BuyUpgradeScreenSetup</text>
</a>
</g>
</g>
<!-- Node10&#45;&gt;Node11 -->
<g id="edge13" class="edge">
<title>Node10&#45;&gt;Node11</title>
<path fill="none" stroke="midnightblue" d="M229.57,-98.13C197.9,-109.52 152.02,-126.03 118.85,-137.97"/>
<polygon fill="midnightblue" stroke="midnightblue" points="231.1,-101.3 239.32,-94.62 228.73,-94.71 231.1,-101.3"/>
</g>
<!-- Node11&#45;&gt;Node4 -->
<g id="edge14" class="edge">
<title>Node11&#45;&gt;Node4</title>
<path fill="none" stroke="midnightblue" d="M153.42,-153.29C241.47,-153.02 390.43,-150.76 518,-140.02 529.59,-139.05 541.88,-137.65 553.74,-136.1"/>
<polygon fill="midnightblue" stroke="midnightblue" points="153.24,-149.79 143.25,-153.32 153.26,-156.79 153.24,-149.79"/>
</g>
</g>
</svg>
