<?xml version="1.0" encoding="UTF-8" standalone="no"?>
<!DOCTYPE svg PUBLIC "-//W3C//DTD SVG 1.1//EN"
 "http://www.w3.org/Graphics/SVG/1.1/DTD/svg11.dtd">
<!-- Generated by graphviz version 3.0.0 (20220226.1711)
 -->
<!-- Title: SellingScreenScript.BoltCutterBuyUpgradeScreenSetup Pages: 1 -->
<svg width="883pt" height="252pt"
 viewBox="0.00 0.00 883.00 252.00" xmlns="http://www.w3.org/2000/svg" xmlns:xlink="http://www.w3.org/1999/xlink">
<g id="graph0" class="graph" transform="scale(1 1) rotate(0) translate(4 248)">
<title>SellingScreenScript.BoltCutterBuyUpgradeScreenSetup</title>
<polygon fill="white" stroke="transparent" points="-4,4 -4,-248 879,-248 879,4 -4,4"/>
<!-- Node1 -->
<g id="node1" class="node">
<title>Node1</title>
<g id="a_node1"><a xlink:title="Sets up the buy screen for the boltcutter upgrades">
<polygon fill="#bfbfbf" stroke="black" points="723,-44.5 723,-74.5 875,-74.5 875,-44.5 723,-44.5"/>
<text text-anchor="start" x="731" y="-62.5" font-family="Helvetica,sans-Serif" font-size="10.00">SellingScreenScript.Bolt</text>
<text text-anchor="middle" x="799" y="-51.5" font-family="Helvetica,sans-Serif" font-size="10.00">CutterBuyUpgradeScreenSetup</text>
</a>
</g>
</g>
<!-- Node2 -->
<g id="node2" class="node">
<title>Node2</title>
<g id="a_node2"><a xlink:href="../../db/dac/class_selling_screen_script.html#a7be5423228e510781538a465d01cb007" target="_top" xlink:title="Sets up the buying screen for a specific item">
<polygon fill="white" stroke="black" points="556,-104.5 556,-134.5 687,-134.5 687,-104.5 556,-104.5"/>
<text text-anchor="start" x="564" y="-122.5" font-family="Helvetica,sans-Serif" font-size="10.00">SellingScreenScript.Setup</text>
<text text-anchor="middle" x="621.5" y="-111.5" font-family="Helvetica,sans-Serif" font-size="10.00">Screen</text>
</a>
</g>
</g>
<!-- Node1&#45;&gt;Node2 -->
<g id="edge1" class="edge">
<title>Node1&#45;&gt;Node2</title>
<path fill="none" stroke="midnightblue" d="M744.05,-77.94C719.16,-86.45 689.99,-96.43 666.47,-104.47"/>
<polygon fill="midnightblue" stroke="midnightblue" points="745.38,-81.19 753.71,-74.64 743.12,-74.56 745.38,-81.19"/>
</g>
<!-- Node3 -->
<g id="node3" class="node">
<title>Node3</title>
<g id="a_node3"><a xlink:href="../../db/dac/class_selling_screen_script.html#a6f3a5794037efbc23910df86b380077f" target="_top" xlink:title="Updates the screen after a change">
<polygon fill="white" stroke="black" points="384,-104.5 384,-134.5 520,-134.5 520,-104.5 384,-104.5"/>
<text text-anchor="start" x="392" y="-122.5" font-family="Helvetica,sans-Serif" font-size="10.00">SellingScreenScript.Update</text>
<text text-anchor="middle" x="452" y="-111.5" font-family="Helvetica,sans-Serif" font-size="10.00">Screen</text>
</a>
</g>
</g>
<!-- Node2&#45;&gt;Node3 -->
<g id="edge2" class="edge">
<title>Node2&#45;&gt;Node3</title>
<path fill="none" stroke="midnightblue" d="M545.49,-119.5C537.03,-119.5 528.44,-119.5 520.08,-119.5"/>
<polygon fill="midnightblue" stroke="midnightblue" points="545.74,-123 555.74,-119.5 545.74,-116 545.74,-123"/>
</g>
<!-- Node4 -->
<g id="node4" class="node">
<title>Node4</title>
<g id="a_node4"><a xlink:href="../../da/d9d/class_upgrade_manager.html#ace07916b537615eeb092432d31b9bb81" target="_top" xlink:title="Upgrades the body bag level to the given level">
<polygon fill="white" stroke="black" points="179,-88 179,-107 348,-107 348,-88 179,-88"/>
<text text-anchor="middle" x="263.5" y="-95" font-family="Helvetica,sans-Serif" font-size="10.00">UpgradeManager.UpgradeBodyBag</text>
</a>
</g>
</g>
<!-- Node3&#45;&gt;Node4 -->
<g id="edge3" class="edge">
<title>Node3&#45;&gt;Node4</title>
<path fill="none" stroke="midnightblue" d="M373.82,-110.4C364.4,-109.28 354.76,-108.15 345.29,-107.03"/>
<polygon fill="midnightblue" stroke="midnightblue" points="373.59,-113.89 383.93,-111.59 374.41,-106.94 373.59,-113.89"/>
</g>
<!-- Node6 -->
<g id="node6" class="node">
<title>Node6</title>
<g id="a_node6"><a xlink:href="../../da/d9d/class_upgrade_manager.html#ae480ebe9e6b219adb20e0b410bc69cc7" target="_top" xlink:title="Upgrades the boltcutters level to the given level">
<polygon fill="white" stroke="black" points="190.5,-0.5 190.5,-30.5 336.5,-30.5 336.5,-0.5 190.5,-0.5"/>
<text text-anchor="start" x="198.5" y="-18.5" font-family="Helvetica,sans-Serif" font-size="10.00">UpgradeManager.UpgradeBolt</text>
<text text-anchor="middle" x="263.5" y="-7.5" font-family="Helvetica,sans-Serif" font-size="10.00">Cutter</text>
</a>
</g>
</g>
<!-- Node3&#45;&gt;Node6 -->
<g id="edge6" class="edge">
<title>Node3&#45;&gt;Node6</title>
<path fill="none" stroke="midnightblue" d="M415.14,-99.5C379.07,-79.39 324.26,-48.83 291.65,-30.64"/>
<polygon fill="midnightblue" stroke="midnightblue" points="413.44,-102.56 423.88,-104.38 416.85,-96.45 413.44,-102.56"/>
</g>
<!-- Node7 -->
<g id="node7" class="node">
<title>Node7</title>
<g id="a_node7"><a xlink:href="../../da/d9d/class_upgrade_manager.html#aebf049454001984ca3ac1fe79c851d2d" target="_top" xlink:title="Upgrades the shoes level to the given level">
<polygon fill="white" stroke="black" points="185,-164 185,-183 342,-183 342,-164 185,-164"/>
<text text-anchor="middle" x="263.5" y="-171" font-family="Helvetica,sans-Serif" font-size="10.00">UpgradeManager.UpgradeShoes</text>
</a>
</g>
</g>
<!-- Node3&#45;&gt;Node7 -->
<g id="edge8" class="edge">
<title>Node3&#45;&gt;Node7</title>
<path fill="none" stroke="midnightblue" d="M400.23,-137.92C383.69,-143.61 365.17,-149.64 348,-154.5 335.84,-157.94 322.55,-161.19 310.22,-164"/>
<polygon fill="midnightblue" stroke="midnightblue" points="401.41,-141.21 409.71,-134.62 399.12,-134.6 401.41,-141.21"/>
</g>
<!-- Node9 -->
<g id="node9" class="node">
<title>Node9</title>
<g id="a_node9"><a xlink:href="../../da/d9d/class_upgrade_manager.html#a366539e3c1c5a211c0ec5cac77ccbd58" target="_top" xlink:title="Upgrades the shovel level to the given level">
<polygon fill="white" stroke="black" points="184.5,-126 184.5,-145 342.5,-145 342.5,-126 184.5,-126"/>
<text text-anchor="middle" x="263.5" y="-133" font-family="Helvetica,sans-Serif" font-size="10.00">UpgradeManager.UpgradeShovel</text>
</a>
</g>
</g>
<!-- Node3&#45;&gt;Node9 -->
<g id="edge11" class="edge">
<title>Node3&#45;&gt;Node9</title>
<path fill="none" stroke="midnightblue" d="M373.78,-126.12C363.52,-127.01 352.99,-127.91 342.71,-128.79"/>
<polygon fill="midnightblue" stroke="midnightblue" points="374.27,-129.6 383.93,-125.25 373.67,-122.62 374.27,-129.6"/>
</g>
<!-- Node5 -->
<g id="node5" class="node">
<title>Node5</title>
<g id="a_node5"><a xlink:href="../../db/dac/class_selling_screen_script.html#a1d94ae7dd2d5fc4611c0c25b428276ab" target="_top" xlink:title="Sets up the buy screen for the body bag upgrades">
<polygon fill="white" stroke="black" points="0,-70.5 0,-100.5 143,-100.5 143,-70.5 0,-70.5"/>
<text text-anchor="start" x="8" y="-88.5" font-family="Helvetica,sans-Serif" font-size="10.00">SellingScreenScript.Body</text>
<text text-anchor="middle" x="71.5" y="-77.5" font-family="Helvetica,sans-Serif" font-size="10.00">BagBuyUpgradeScreenSetup</text>
</a>
</g>
</g>
<!-- Node4&#45;&gt;Node5 -->
<g id="edge4" class="edge">
<title>Node4&#45;&gt;Node5</title>
<path fill="none" stroke="midnightblue" d="M168.77,-91.58C160.12,-91.03 151.47,-90.49 143.08,-89.96"/>
<polygon fill="midnightblue" stroke="midnightblue" points="168.69,-95.08 178.89,-92.22 169.13,-88.1 168.69,-95.08"/>
</g>
<!-- Node5&#45;&gt;Node2 -->
<g id="edge5" class="edge">
<title>Node5&#45;&gt;Node2</title>
<path fill="none" stroke="midnightblue" d="M153.35,-79.63C162,-79.17 170.68,-78.77 179,-78.5 330.64,-73.52 370.42,-69.09 520,-94.5 535.24,-97.09 551.59,-100.76 566.57,-104.49"/>
<polygon fill="midnightblue" stroke="midnightblue" points="153,-76.14 143.22,-80.2 153.4,-83.13 153,-76.14"/>
</g>
<!-- Node6&#45;&gt;Node1 -->
<g id="edge7" class="edge">
<title>Node6&#45;&gt;Node1</title>
<path fill="none" stroke="midnightblue" d="M346.53,-22.27C449.23,-30.74 623.68,-45.12 722.98,-53.31"/>
<polygon fill="midnightblue" stroke="midnightblue" points="346.77,-18.77 336.52,-21.44 346.2,-25.75 346.77,-18.77"/>
</g>
<!-- Node8 -->
<g id="node8" class="node">
<title>Node8</title>
<g id="a_node8"><a xlink:href="../../db/dac/class_selling_screen_script.html#a9646ff5a19f1ba8a96f70ba33b46598d" target="_top" xlink:title="Sets up the buy screen for the shoe upgrades.">
<polygon fill="white" stroke="black" points="5,-213.5 5,-243.5 138,-243.5 138,-213.5 5,-213.5"/>
<text text-anchor="start" x="13" y="-231.5" font-family="Helvetica,sans-Serif" font-size="10.00">SellingScreenScript.Shoes</text>
<text text-anchor="middle" x="71.5" y="-220.5" font-family="Helvetica,sans-Serif" font-size="10.00">BuyUpgradeScreenSetup</text>
</a>
</g>
</g>
<!-- Node7&#45;&gt;Node8 -->
<g id="edge9" class="edge">
<title>Node7&#45;&gt;Node8</title>
<path fill="none" stroke="midnightblue" d="M219.46,-185.96C191.3,-194.11 154.35,-204.81 124.54,-213.43"/>
<polygon fill="midnightblue" stroke="midnightblue" points="220.77,-189.22 229.4,-183.08 218.83,-182.5 220.77,-189.22"/>
</g>
<!-- Node8&#45;&gt;Node2 -->
<g id="edge10" class="edge">
<title>Node8&#45;&gt;Node2</title>
<path fill="none" stroke="midnightblue" d="M148.32,-234C239.64,-237.89 396.19,-235.73 520,-188.5 552.63,-176.05 584.95,-150.99 603.8,-134.74"/>
<polygon fill="midnightblue" stroke="midnightblue" points="148.48,-230.5 138.33,-233.54 148.16,-237.5 148.48,-230.5"/>
</g>
<!-- Node10 -->
<g id="node10" class="node">
<title>Node10</title>
<g id="a_node10"><a xlink:href="../../db/dac/class_selling_screen_script.html#a3fa55c056600239b67876cea7b018479" target="_top" xlink:title="Sets up the buy screen for the shovel upgrades">
<polygon fill="white" stroke="black" points="4.5,-132.5 4.5,-162.5 138.5,-162.5 138.5,-132.5 4.5,-132.5"/>
<text text-anchor="start" x="12.5" y="-150.5" font-family="Helvetica,sans-Serif" font-size="10.00">SellingScreenScript.Shovel</text>
<text text-anchor="middle" x="71.5" y="-139.5" font-family="Helvetica,sans-Serif" font-size="10.00">BuyUpgradeScreenSetup</text>
</a>
</g>
</g>
<!-- Node9&#45;&gt;Node10 -->
<g id="edge12" class="edge">
<title>Node9&#45;&gt;Node10</title>
<path fill="none" stroke="midnightblue" d="M174.39,-141.06C162.41,-141.82 150.29,-142.59 138.78,-143.31"/>
<polygon fill="midnightblue" stroke="midnightblue" points="174.64,-144.56 184.4,-140.43 174.2,-137.57 174.64,-144.56"/>
</g>
<!-- Node10&#45;&gt;Node2 -->
<g id="edge13" class="edge">
<title>Node10&#45;&gt;Node2</title>
<path fill="none" stroke="midnightblue" d="M108.64,-167.04C128.73,-176.79 154.54,-187.55 179,-192.5 328.43,-222.77 508.21,-163.73 584,-134.52"/>
<polygon fill="midnightblue" stroke="midnightblue" points="110.06,-163.84 99.55,-162.51 106.94,-170.1 110.06,-163.84"/>
</g>
</g>
</svg>
