<?xml version="1.0" encoding="UTF-8" standalone="no"?>
<!DOCTYPE svg PUBLIC "-//W3C//DTD SVG 1.1//EN"
 "http://www.w3.org/Graphics/SVG/1.1/DTD/svg11.dtd">
<!-- Generated by graphviz version 3.0.0 (20220226.1711)
 -->
<!-- Title: SellingScreenScript.SetupScreen Pages: 1 -->
<svg width="906pt" height="702pt"
 viewBox="0.00 0.00 906.00 701.86" xmlns="http://www.w3.org/2000/svg" xmlns:xlink="http://www.w3.org/1999/xlink">
<g id="graph0" class="graph" transform="scale(1 1) rotate(0) translate(4 697.86)">
<title>SellingScreenScript.SetupScreen</title>
<polygon fill="white" stroke="transparent" points="-4,4 -4,-697.86 902,-697.86 902,4 -4,4"/>
<!-- Node1 -->
<g id="node1" class="node">
<title>Node1</title>
<g id="a_node1"><a xlink:title="Sets up the buying screen for a specific item">
<polygon fill="#bfbfbf" stroke="black" points="0,-261.36 0,-291.36 131,-291.36 131,-261.36 0,-261.36"/>
<text text-anchor="start" x="8" y="-279.36" font-family="Helvetica,sans-Serif" font-size="10.00">SellingScreenScript.Setup</text>
<text text-anchor="middle" x="65.5" y="-268.36" font-family="Helvetica,sans-Serif" font-size="10.00">Screen</text>
</a>
</g>
</g>
<!-- Node2 -->
<g id="node2" class="node">
<title>Node2</title>
<g id="a_node2"><a xlink:href="../../db/dac/class_selling_screen_script.html#a1d94ae7dd2d5fc4611c0c25b428276ab" target="_top" xlink:title="Sets up the buy screen for the body bag upgrades">
<polygon fill="white" stroke="black" points="171.5,-534.36 171.5,-564.36 314.5,-564.36 314.5,-534.36 171.5,-534.36"/>
<text text-anchor="start" x="179.5" y="-552.36" font-family="Helvetica,sans-Serif" font-size="10.00">SellingScreenScript.Body</text>
<text text-anchor="middle" x="243" y="-541.36" font-family="Helvetica,sans-Serif" font-size="10.00">BagBuyUpgradeScreenSetup</text>
</a>
</g>
</g>
<!-- Node1&#45;&gt;Node2 -->
<g id="edge1" class="edge">
<title>Node1&#45;&gt;Node2</title>
<path fill="none" stroke="midnightblue" d="M73.73,-291.43C89.18,-323.15 127.29,-398.73 167,-457.36 183.74,-482.06 205.54,-508.26 221.32,-526.35"/>
<polygon fill="midnightblue" stroke="midnightblue" points="218.87,-528.87 228.11,-534.06 224.13,-524.24 218.87,-528.87"/>
</g>
<!-- Node17 -->
<g id="node17" class="node">
<title>Node17</title>
<g id="a_node17"><a xlink:href="../../db/dac/class_selling_screen_script.html#a6f21d721a89c56c7039d62ce65f63f19" target="_top" xlink:title="Sets up the buy screen for the boltcutter upgrades">
<polygon fill="white" stroke="black" points="167,-417.36 167,-447.36 319,-447.36 319,-417.36 167,-417.36"/>
<text text-anchor="start" x="175" y="-435.36" font-family="Helvetica,sans-Serif" font-size="10.00">SellingScreenScript.Bolt</text>
<text text-anchor="middle" x="243" y="-424.36" font-family="Helvetica,sans-Serif" font-size="10.00">CutterBuyUpgradeScreenSetup</text>
</a>
</g>
</g>
<!-- Node1&#45;&gt;Node17 -->
<g id="edge18" class="edge">
<title>Node1&#45;&gt;Node17</title>
<path fill="none" stroke="midnightblue" d="M83.65,-291.6C114.92,-319.4 181.31,-378.41 217.4,-410.49"/>
<polygon fill="midnightblue" stroke="midnightblue" points="215.24,-413.25 225.04,-417.28 219.89,-408.02 215.24,-413.25"/>
</g>
<!-- Node21 -->
<g id="node21" class="node">
<title>Node21</title>
<g id="a_node21"><a xlink:href="../../db/dac/class_selling_screen_script.html#a9646ff5a19f1ba8a96f70ba33b46598d" target="_top" xlink:title="Sets up the buy screen for the shoe upgrades.">
<polygon fill="white" stroke="black" points="176.5,-215.36 176.5,-245.36 309.5,-245.36 309.5,-215.36 176.5,-215.36"/>
<text text-anchor="start" x="184.5" y="-233.36" font-family="Helvetica,sans-Serif" font-size="10.00">SellingScreenScript.Shoes</text>
<text text-anchor="middle" x="243" y="-222.36" font-family="Helvetica,sans-Serif" font-size="10.00">BuyUpgradeScreenSetup</text>
</a>
</g>
</g>
<!-- Node1&#45;&gt;Node21 -->
<g id="edge28" class="edge">
<title>Node1&#45;&gt;Node21</title>
<path fill="none" stroke="midnightblue" d="M123.97,-261.29C140.26,-257.02 158.14,-252.34 174.95,-247.93"/>
<polygon fill="midnightblue" stroke="midnightblue" points="175.92,-251.29 184.71,-245.37 174.14,-244.52 175.92,-251.29"/>
</g>
<!-- Node25 -->
<g id="node25" class="node">
<title>Node25</title>
<g id="a_node25"><a xlink:href="../../db/dac/class_selling_screen_script.html#a3fa55c056600239b67876cea7b018479" target="_top" xlink:title="Sets up the buy screen for the shovel upgrades">
<polygon fill="white" stroke="black" points="176,-297.36 176,-327.36 310,-327.36 310,-297.36 176,-297.36"/>
<text text-anchor="start" x="184" y="-315.36" font-family="Helvetica,sans-Serif" font-size="10.00">SellingScreenScript.Shovel</text>
<text text-anchor="middle" x="243" y="-304.36" font-family="Helvetica,sans-Serif" font-size="10.00">BuyUpgradeScreenSetup</text>
</a>
</g>
</g>
<!-- Node1&#45;&gt;Node25 -->
<g id="edge38" class="edge">
<title>Node1&#45;&gt;Node25</title>
<path fill="none" stroke="midnightblue" d="M131.35,-289.66C142.6,-291.97 154.4,-294.39 165.92,-296.75"/>
<polygon fill="midnightblue" stroke="midnightblue" points="165.45,-300.23 175.95,-298.81 166.86,-293.37 165.45,-300.23"/>
</g>
<!-- Node29 -->
<g id="node29" class="node">
<title>Node29</title>
<g id="a_node29"><a xlink:href="../../db/dac/class_selling_screen_script.html#a194e438410be280a13935e1ced513871" target="_top" xlink:title="Updates the text showing the current money">
<polygon fill="white" stroke="black" points="175,-97.36 175,-127.36 311,-127.36 311,-97.36 175,-97.36"/>
<text text-anchor="start" x="183" y="-115.36" font-family="Helvetica,sans-Serif" font-size="10.00">SellingScreenScript.Update</text>
<text text-anchor="middle" x="243" y="-104.36" font-family="Helvetica,sans-Serif" font-size="10.00">Money</text>
</a>
</g>
</g>
<!-- Node1&#45;&gt;Node29 -->
<g id="edge48" class="edge">
<title>Node1&#45;&gt;Node29</title>
<path fill="none" stroke="midnightblue" d="M82.7,-261.22C113.78,-232.18 181.92,-168.5 218.19,-134.61"/>
<polygon fill="midnightblue" stroke="midnightblue" points="220.93,-136.84 225.84,-127.45 216.15,-131.73 220.93,-136.84"/>
</g>
<!-- Node3 -->
<g id="node3" class="node">
<title>Node3</title>
<g id="a_node3"><a xlink:href="../../da/d9d/class_upgrade_manager.html#a83e85066f6b84234378229539bdae5a0" target="_top" xlink:title="Gets the list of Bodybag upgrades">
<polygon fill="white" stroke="black" points="367,-663.36 367,-693.36 521,-693.36 521,-663.36 367,-663.36"/>
<text text-anchor="start" x="375" y="-681.36" font-family="Helvetica,sans-Serif" font-size="10.00">UpgradeManager.GetBodyBags</text>
<text text-anchor="middle" x="444" y="-670.36" font-family="Helvetica,sans-Serif" font-size="10.00">Upgrades</text>
</a>
</g>
</g>
<!-- Node2&#45;&gt;Node3 -->
<g id="edge2" class="edge">
<title>Node2&#45;&gt;Node3</title>
<path fill="none" stroke="midnightblue" d="M257.25,-564.51C276.72,-585.94 315.08,-625.05 355,-648.36 362.21,-652.57 370.11,-656.3 378.11,-659.58"/>
<polygon fill="midnightblue" stroke="midnightblue" points="376.93,-662.88 387.52,-663.22 379.46,-656.35 376.93,-662.88"/>
</g>
<!-- Node4 -->
<g id="node4" class="node">
<title>Node4</title>
<g id="a_node4"><a xlink:href="../../da/d9d/class_upgrade_manager.html#a4310af36b0d04dd2d35615c9cd2929ac" target="_top" xlink:title="Gets the Current BodyBag">
<polygon fill="white" stroke="black" points="758,-622.36 758,-652.36 898,-652.36 898,-622.36 758,-622.36"/>
<text text-anchor="start" x="766" y="-640.36" font-family="Helvetica,sans-Serif" font-size="10.00">UpgradeManager.GetCurrent</text>
<text text-anchor="middle" x="828" y="-629.36" font-family="Helvetica,sans-Serif" font-size="10.00">BodyBag</text>
</a>
</g>
</g>
<!-- Node2&#45;&gt;Node4 -->
<g id="edge3" class="edge">
<title>Node2&#45;&gt;Node4</title>
<path fill="none" stroke="midnightblue" d="M262.67,-564.42C283.7,-580.38 319.57,-604.72 355,-615.36 488.24,-655.33 652.06,-652 747.49,-645.2"/>
<polygon fill="midnightblue" stroke="midnightblue" points="747.93,-648.67 757.64,-644.44 747.41,-641.69 747.93,-648.67"/>
</g>
<!-- Node5 -->
<g id="node5" class="node">
<title>Node5</title>
<g id="a_node5"><a xlink:href="../../dc/d32/class_item.html#a116cf3f2beed353bb1a2c86e55134c45" target="_top" xlink:title="Gets the description of the item">
<polygon fill="white" stroke="black" points="392.5,-400.86 392.5,-419.86 495.5,-419.86 495.5,-400.86 392.5,-400.86"/>
<text text-anchor="middle" x="444" y="-407.86" font-family="Helvetica,sans-Serif" font-size="10.00">Item.GetDescription</text>
</a>
</g>
</g>
<!-- Node2&#45;&gt;Node5 -->
<g id="edge4" class="edge">
<title>Node2&#45;&gt;Node5</title>
<path fill="none" stroke="midnightblue" d="M256.2,-534.2C279.75,-505.31 331.24,-444.02 355,-430.36 363.37,-425.55 372.8,-421.89 382.31,-419.12"/>
<polygon fill="midnightblue" stroke="midnightblue" points="383.41,-422.45 392.2,-416.53 381.64,-415.68 383.41,-422.45"/>
</g>
<!-- Node6 -->
<g id="node6" class="node">
<title>Node6</title>
<g id="a_node6"><a xlink:href="../../dc/d32/class_item.html#ac7b96dade98055fda61c709d1b5a9f43" target="_top" xlink:title="Gets the sprite icon of the item">
<polygon fill="white" stroke="black" points="408,-362.86 408,-381.86 480,-381.86 480,-362.86 408,-362.86"/>
<text text-anchor="middle" x="444" y="-369.86" font-family="Helvetica,sans-Serif" font-size="10.00">Item.GetIcon</text>
</a>
</g>
</g>
<!-- Node2&#45;&gt;Node6 -->
<g id="edge5" class="edge">
<title>Node2&#45;&gt;Node6</title>
<path fill="none" stroke="midnightblue" d="M257.93,-534.09C273.74,-516.37 299.81,-485.92 319,-457.36 337.64,-429.62 328.24,-411.37 355,-391.36 367.2,-382.23 382.88,-377.3 397.61,-374.69"/>
<polygon fill="midnightblue" stroke="midnightblue" points="398.21,-378.14 407.6,-373.24 397.2,-371.22 398.21,-378.14"/>
</g>
<!-- Node7 -->
<g id="node7" class="node">
<title>Node7</title>
<g id="a_node7"><a xlink:href="../../da/d9d/class_upgrade_manager.html#ace07916b537615eeb092432d31b9bb81" target="_top" xlink:title="Upgrades the body bag level to the given level">
<polygon fill="white" stroke="black" points="359.5,-586.86 359.5,-605.86 528.5,-605.86 528.5,-586.86 359.5,-586.86"/>
<text text-anchor="middle" x="444" y="-593.86" font-family="Helvetica,sans-Serif" font-size="10.00">UpgradeManager.UpgradeBodyBag</text>
</a>
</g>
</g>
<!-- Node2&#45;&gt;Node7 -->
<g id="edge6" class="edge">
<title>Node2&#45;&gt;Node7</title>
<path fill="none" stroke="midnightblue" d="M302.09,-564.41C319.11,-568.71 337.78,-573.33 355,-577.36 365.38,-579.79 376.47,-582.27 387.17,-584.6"/>
<polygon fill="midnightblue" stroke="midnightblue" points="386.74,-588.09 397.26,-586.79 388.23,-581.25 386.74,-588.09"/>
</g>
<!-- Node8 -->
<g id="node8" class="node">
<title>Node8</title>
<g id="a_node8"><a xlink:href="../../db/d10/class_game_manager.html#ab5da814aae54d4bceb91cac7f7290b4b" target="_top" xlink:title="Will return the current money/currency that the player has.">
<polygon fill="white" stroke="black" points="581.5,-329.86 581.5,-348.86 709.5,-348.86 709.5,-329.86 581.5,-329.86"/>
<text text-anchor="middle" x="645.5" y="-336.86" font-family="Helvetica,sans-Serif" font-size="10.00">GameManager.GetMoney</text>
</a>
</g>
</g>
<!-- Node7&#45;&gt;Node8 -->
<g id="edge7" class="edge">
<title>Node7&#45;&gt;Node8</title>
<path fill="none" stroke="midnightblue" d="M520.88,-586.71C525.33,-584.17 529.44,-581.09 533,-577.36 599.61,-507.61 505.78,-436.19 569,-363.36 572.27,-359.59 576.12,-356.42 580.33,-353.73"/>
<polygon fill="midnightblue" stroke="midnightblue" points="582.22,-356.69 589.39,-348.89 578.92,-350.52 582.22,-356.69"/>
</g>
<!-- Node9 -->
<g id="node9" class="node">
<title>Node9</title>
<g id="a_node9"><a xlink:href="../../db/dac/class_selling_screen_script.html#a1615d47a31e3c6c70b1e1d05e44cc803" target="_top" xlink:title=" ">
<polygon fill="white" stroke="black" points="569,-420.36 569,-450.36 722,-450.36 722,-420.36 569,-420.36"/>
<text text-anchor="start" x="577" y="-438.36" font-family="Helvetica,sans-Serif" font-size="10.00">SellingScreenScript.NotEnough</text>
<text text-anchor="middle" x="645.5" y="-427.36" font-family="Helvetica,sans-Serif" font-size="10.00">MoneyTalk</text>
</a>
</g>
</g>
<!-- Node7&#45;&gt;Node9 -->
<g id="edge8" class="edge">
<title>Node7&#45;&gt;Node9</title>
<path fill="none" stroke="midnightblue" d="M512.74,-586.83C519.86,-584.36 526.77,-581.25 533,-577.36 579.72,-548.14 614.86,-492.08 632.29,-459.82"/>
<polygon fill="midnightblue" stroke="midnightblue" points="635.56,-461.12 637.12,-450.64 629.37,-457.86 635.56,-461.12"/>
</g>
<!-- Node10 -->
<g id="node10" class="node">
<title>Node10</title>
<g id="a_node10"><a xlink:href="../../db/d69/class_inventory_bag.html#af4c1ed3c7e8359dba77f3f825893aa74" target="_top" xlink:title="Dynamically generates the bag to include the size of the current body bag and then update to keep any...">
<polygon fill="white" stroke="black" points="589,-564.86 589,-583.86 702,-583.86 702,-564.86 589,-564.86"/>
<text text-anchor="middle" x="645.5" y="-571.86" font-family="Helvetica,sans-Serif" font-size="10.00">InventoryBag.Populate</text>
</a>
</g>
</g>
<!-- Node7&#45;&gt;Node10 -->
<g id="edge9" class="edge">
<title>Node7&#45;&gt;Node10</title>
<path fill="none" stroke="midnightblue" d="M528.74,-587.12C545.36,-585.29 562.59,-583.39 578.51,-581.63"/>
<polygon fill="midnightblue" stroke="midnightblue" points="579.22,-585.08 588.77,-580.5 578.45,-578.12 579.22,-585.08"/>
</g>
<!-- Node15 -->
<g id="node15" class="node">
<title>Node15</title>
<g id="a_node15"><a xlink:href="../../db/d10/class_game_manager.html#abb1c222eefb6e7582983de8a59056098" target="_top" xlink:title="Takes the new amount of money and applies it to the total Can be used for both getting and spending m...">
<polygon fill="white" stroke="black" points="574,-372.86 574,-391.86 717,-391.86 717,-372.86 574,-372.86"/>
<text text-anchor="middle" x="645.5" y="-379.86" font-family="Helvetica,sans-Serif" font-size="10.00">GameManager.UpdateMoney</text>
</a>
</g>
</g>
<!-- Node7&#45;&gt;Node15 -->
<g id="edge15" class="edge">
<title>Node7&#45;&gt;Node15</title>
<path fill="none" stroke="midnightblue" d="M520.27,-586.75C524.93,-584.21 529.24,-581.11 533,-577.36 586.41,-524 519.86,-468.67 569,-411.36 574.52,-404.92 581.63,-399.91 589.28,-396"/>
<polygon fill="midnightblue" stroke="midnightblue" points="590.74,-399.19 598.45,-391.91 587.89,-392.79 590.74,-399.19"/>
</g>
<!-- Node16 -->
<g id="node16" class="node">
<title>Node16</title>
<g id="a_node16"><a xlink:href="../../db/dac/class_selling_screen_script.html#a6f3a5794037efbc23910df86b380077f" target="_top" xlink:title="Updates the screen after a change">
<polygon fill="white" stroke="black" points="577.5,-280.36 577.5,-310.36 713.5,-310.36 713.5,-280.36 577.5,-280.36"/>
<text text-anchor="start" x="585.5" y="-298.36" font-family="Helvetica,sans-Serif" font-size="10.00">SellingScreenScript.Update</text>
<text text-anchor="middle" x="645.5" y="-287.36" font-family="Helvetica,sans-Serif" font-size="10.00">Screen</text>
</a>
</g>
</g>
<!-- Node7&#45;&gt;Node16 -->
<g id="edge16" class="edge">
<title>Node7&#45;&gt;Node16</title>
<path fill="none" stroke="midnightblue" d="M521,-586.82C525.42,-584.26 529.49,-581.14 533,-577.36 611.51,-492.86 495.13,-408.93 569,-320.36 569.99,-319.16 571.05,-318.03 572.15,-316.94"/>
<polygon fill="midnightblue" stroke="midnightblue" points="574.51,-319.54 580.11,-310.55 570.12,-314.09 574.51,-319.54"/>
</g>
<!-- Node10&#45;&gt;Node4 -->
<g id="edge11" class="edge">
<title>Node10&#45;&gt;Node4</title>
<path fill="none" stroke="midnightblue" d="M673.91,-583.92C700.48,-593.2 741.48,-607.51 774.36,-618.98"/>
<polygon fill="midnightblue" stroke="midnightblue" points="773.24,-622.3 783.84,-622.29 775.55,-615.69 773.24,-622.3"/>
</g>
<!-- Node11 -->
<g id="node11" class="node">
<title>Node11</title>
<g id="a_node11"><a xlink:href="../../d8/dfa/class_run_manager.html#a9430e7b64dec87034c8dfa732281ae55" target="_top" xlink:title="Getter for the array of bodies that have been retrieved during the run.">
<polygon fill="white" stroke="black" points="768,-469.86 768,-488.86 888,-488.86 888,-469.86 768,-469.86"/>
<text text-anchor="middle" x="828" y="-476.86" font-family="Helvetica,sans-Serif" font-size="10.00">RunManager.GetBodies</text>
</a>
</g>
</g>
<!-- Node10&#45;&gt;Node11 -->
<g id="edge10" class="edge">
<title>Node10&#45;&gt;Node11</title>
<path fill="none" stroke="midnightblue" d="M657.77,-564.78C677.07,-548.83 718.24,-516.76 758,-498.36 763.07,-496.01 768.5,-493.9 773.99,-492.02"/>
<polygon fill="midnightblue" stroke="midnightblue" points="775.42,-495.23 783.89,-488.87 773.3,-488.56 775.42,-495.23"/>
</g>
<!-- Node12 -->
<g id="node12" class="node">
<title>Node12</title>
<g id="a_node12"><a xlink:href="../../d0/dcb/class_body.html#a246a4048f0bf74cf0e396a3720e30f93" target="_top" xlink:title="Getter for the quality of the body.">
<polygon fill="white" stroke="black" points="785,-583.86 785,-602.86 871,-602.86 871,-583.86 785,-583.86"/>
<text text-anchor="middle" x="828" y="-590.86" font-family="Helvetica,sans-Serif" font-size="10.00">Body.GetDecay</text>
</a>
</g>
</g>
<!-- Node10&#45;&gt;Node12 -->
<g id="edge12" class="edge">
<title>Node10&#45;&gt;Node12</title>
<path fill="none" stroke="midnightblue" d="M702.13,-580.21C725.21,-582.64 751.86,-585.45 774.6,-587.84"/>
<polygon fill="midnightblue" stroke="midnightblue" points="774.43,-591.34 784.74,-588.91 775.16,-584.38 774.43,-591.34"/>
</g>
<!-- Node13 -->
<g id="node13" class="node">
<title>Node13</title>
<g id="a_node13"><a xlink:href="../../d0/dcb/class_body.html#a3473865f64494e89c1ec7877fd6ca8cf" target="_top" xlink:title="Getter for the body sprite&#39;s material.">
<polygon fill="white" stroke="black" points="782,-545.86 782,-564.86 874,-564.86 874,-545.86 782,-545.86"/>
<text text-anchor="middle" x="828" y="-552.86" font-family="Helvetica,sans-Serif" font-size="10.00">Body.GetMaterial</text>
</a>
</g>
</g>
<!-- Node10&#45;&gt;Node13 -->
<g id="edge13" class="edge">
<title>Node10&#45;&gt;Node13</title>
<path fill="none" stroke="midnightblue" d="M702.13,-568.5C724.22,-566.18 749.56,-563.51 771.63,-561.19"/>
<polygon fill="midnightblue" stroke="midnightblue" points="772.26,-564.64 781.84,-560.11 771.52,-557.68 772.26,-564.64"/>
</g>
<!-- Node14 -->
<g id="node14" class="node">
<title>Node14</title>
<g id="a_node14"><a xlink:href="../../d3/d42/class_body_bag.html#aff384d0668e9dfe4c31ee2dac68a9e9a" target="_top" xlink:title="Gets the max bodies that can be carried/collected in one night">
<polygon fill="white" stroke="black" points="766,-507.86 766,-526.86 890,-526.86 890,-507.86 766,-507.86"/>
<text text-anchor="middle" x="828" y="-514.86" font-family="Helvetica,sans-Serif" font-size="10.00">BodyBag.GetMaxBodies</text>
</a>
</g>
</g>
<!-- Node10&#45;&gt;Node14 -->
<g id="edge14" class="edge">
<title>Node10&#45;&gt;Node14</title>
<path fill="none" stroke="midnightblue" d="M672.94,-564.85C695.44,-556.88 728.68,-545.38 758,-536.36 765.35,-534.09 773.18,-531.82 780.82,-529.66"/>
<polygon fill="midnightblue" stroke="midnightblue" points="782.02,-532.96 790.71,-526.91 780.14,-526.22 782.02,-532.96"/>
</g>
<!-- Node16&#45;&gt;Node1 -->
<g id="edge17" class="edge">
<title>Node16&#45;&gt;Node1</title>
<path fill="none" stroke="midnightblue" d="M642.93,-280.18C637.45,-235.88 614.77,-106.62 533,-54.36 395.35,33.63 299.06,7.81 167,-88.36 111.13,-129.04 83.29,-210.41 72.32,-251.46"/>
<polygon fill="midnightblue" stroke="midnightblue" points="68.91,-250.65 69.83,-261.21 75.7,-252.38 68.91,-250.65"/>
</g>
<!-- Node17&#45;&gt;Node5 -->
<g id="edge21" class="edge">
<title>Node17&#45;&gt;Node5</title>
<path fill="none" stroke="midnightblue" d="M319.23,-424.04C340.04,-421.74 362.36,-419.27 382.23,-417.07"/>
<polygon fill="midnightblue" stroke="midnightblue" points="382.82,-420.53 392.38,-415.95 382.05,-413.57 382.82,-420.53"/>
</g>
<!-- Node17&#45;&gt;Node6 -->
<g id="edge22" class="edge">
<title>Node17&#45;&gt;Node6</title>
<path fill="none" stroke="midnightblue" d="M280.82,-417.27C302.22,-408.88 329.85,-398.68 355,-391.36 368.77,-387.35 383.97,-383.77 397.81,-380.84"/>
<polygon fill="midnightblue" stroke="midnightblue" points="398.52,-384.26 407.6,-378.81 397.1,-377.41 398.52,-384.26"/>
</g>
<!-- Node18 -->
<g id="node18" class="node">
<title>Node18</title>
<g id="a_node18"><a xlink:href="../../da/d9d/class_upgrade_manager.html#aecd5407174be3d14fe37025b9ae9fefd" target="_top" xlink:title="Gets the list of Boltcutter upgrades">
<polygon fill="white" stroke="black" points="365,-537.36 365,-567.36 523,-567.36 523,-537.36 365,-537.36"/>
<text text-anchor="start" x="373" y="-555.36" font-family="Helvetica,sans-Serif" font-size="10.00">UpgradeManager.GetBoltCutters</text>
<text text-anchor="middle" x="444" y="-544.36" font-family="Helvetica,sans-Serif" font-size="10.00">Upgrades</text>
</a>
</g>
</g>
<!-- Node17&#45;&gt;Node18 -->
<g id="edge19" class="edge">
<title>Node17&#45;&gt;Node18</title>
<path fill="none" stroke="midnightblue" d="M257.16,-447.37C276.52,-468.52 314.75,-506.91 355,-528.36 358.52,-530.23 362.19,-531.97 365.96,-533.58"/>
<polygon fill="midnightblue" stroke="midnightblue" points="364.89,-536.92 375.48,-537.32 367.45,-530.4 364.89,-536.92"/>
</g>
<!-- Node19 -->
<g id="node19" class="node">
<title>Node19</title>
<g id="a_node19"><a xlink:href="../../da/d9d/class_upgrade_manager.html#add748c93ae6903a107661f23fd414bda" target="_top" xlink:title="Gets the Current BoltCutters">
<polygon fill="white" stroke="black" points="374,-488.36 374,-518.36 514,-518.36 514,-488.36 374,-488.36"/>
<text text-anchor="start" x="382" y="-506.36" font-family="Helvetica,sans-Serif" font-size="10.00">UpgradeManager.GetCurrent</text>
<text text-anchor="middle" x="444" y="-495.36" font-family="Helvetica,sans-Serif" font-size="10.00">BolltCutters</text>
</a>
</g>
</g>
<!-- Node17&#45;&gt;Node19 -->
<g id="edge20" class="edge">
<title>Node17&#45;&gt;Node19</title>
<path fill="none" stroke="midnightblue" d="M276.58,-447.52C298.46,-457.36 328.11,-470.04 355,-479.36 360.99,-481.43 367.26,-483.44 373.57,-485.36"/>
<polygon fill="midnightblue" stroke="midnightblue" points="372.91,-488.82 383.5,-488.3 374.9,-482.11 372.91,-488.82"/>
</g>
<!-- Node20 -->
<g id="node20" class="node">
<title>Node20</title>
<g id="a_node20"><a xlink:href="../../da/d9d/class_upgrade_manager.html#ae480ebe9e6b219adb20e0b410bc69cc7" target="_top" xlink:title="Upgrades the boltcutters level to the given level">
<polygon fill="white" stroke="black" points="371,-439.36 371,-469.36 517,-469.36 517,-439.36 371,-439.36"/>
<text text-anchor="start" x="379" y="-457.36" font-family="Helvetica,sans-Serif" font-size="10.00">UpgradeManager.UpgradeBolt</text>
<text text-anchor="middle" x="444" y="-446.36" font-family="Helvetica,sans-Serif" font-size="10.00">Cutter</text>
</a>
</g>
</g>
<!-- Node17&#45;&gt;Node20 -->
<g id="edge23" class="edge">
<title>Node17&#45;&gt;Node20</title>
<path fill="none" stroke="midnightblue" d="M319.23,-440.67C332.87,-442.18 347.16,-443.76 360.98,-445.29"/>
<polygon fill="midnightblue" stroke="midnightblue" points="360.63,-448.77 370.95,-446.39 361.4,-441.81 360.63,-448.77"/>
</g>
<!-- Node20&#45;&gt;Node8 -->
<g id="edge24" class="edge">
<title>Node20&#45;&gt;Node8</title>
<path fill="none" stroke="midnightblue" d="M517.06,-439.25C522.75,-436.49 528.16,-433.22 533,-429.36 559.1,-408.5 543.22,-384.62 569,-363.36 574.01,-359.22 579.75,-355.8 585.77,-352.96"/>
<polygon fill="midnightblue" stroke="midnightblue" points="587.5,-356.03 595.4,-348.96 584.82,-349.56 587.5,-356.03"/>
</g>
<!-- Node20&#45;&gt;Node9 -->
<g id="edge25" class="edge">
<title>Node20&#45;&gt;Node9</title>
<path fill="none" stroke="midnightblue" d="M517.02,-447.5C530.59,-446.21 544.89,-444.84 558.82,-443.52"/>
<polygon fill="midnightblue" stroke="midnightblue" points="559.26,-446.99 568.88,-442.56 558.6,-440.02 559.26,-446.99"/>
</g>
<!-- Node20&#45;&gt;Node15 -->
<g id="edge26" class="edge">
<title>Node20&#45;&gt;Node15</title>
<path fill="none" stroke="midnightblue" d="M503.73,-439.33C513.61,-436.33 523.67,-432.98 533,-429.36 549.68,-422.88 552.63,-418.57 569,-411.36 581.57,-405.81 595.56,-400.27 608.05,-395.54"/>
<polygon fill="midnightblue" stroke="midnightblue" points="609.55,-398.72 617.69,-391.93 607.1,-392.16 609.55,-398.72"/>
</g>
<!-- Node20&#45;&gt;Node16 -->
<g id="edge27" class="edge">
<title>Node20&#45;&gt;Node16</title>
<path fill="none" stroke="midnightblue" d="M517,-440.61C522.85,-437.57 528.3,-433.86 533,-429.36 569.83,-394.05 532.94,-356.45 569,-320.36 570.46,-318.89 572.02,-317.51 573.64,-316.21"/>
<polygon fill="midnightblue" stroke="midnightblue" points="575.96,-318.87 582.29,-310.37 572.05,-313.07 575.96,-318.87"/>
</g>
<!-- Node21&#45;&gt;Node5 -->
<g id="edge30" class="edge">
<title>Node21&#45;&gt;Node5</title>
<path fill="none" stroke="midnightblue" d="M270.44,-245.36C286.46,-255.63 306.2,-270.6 319,-288.36 347.35,-327.7 318.66,-359.25 355,-391.36 362.81,-398.26 372.52,-402.85 382.62,-405.87"/>
<polygon fill="midnightblue" stroke="midnightblue" points="381.81,-409.28 392.36,-408.31 383.51,-402.49 381.81,-409.28"/>
</g>
<!-- Node21&#45;&gt;Node6 -->
<g id="edge31" class="edge">
<title>Node21&#45;&gt;Node6</title>
<path fill="none" stroke="midnightblue" d="M268.38,-245.44C284.17,-256.06 304.42,-271.37 319,-288.36 340.5,-313.42 328.49,-333.67 355,-353.36 367.23,-362.44 382.91,-367.36 397.64,-369.97"/>
<polygon fill="midnightblue" stroke="midnightblue" points="397.23,-373.45 407.63,-371.44 398.24,-366.53 397.23,-373.45"/>
</g>
<!-- Node22 -->
<g id="node22" class="node">
<title>Node22</title>
<g id="a_node22"><a xlink:href="../../da/d9d/class_upgrade_manager.html#af0d243eab40ef16681cda7e18367ce43" target="_top" xlink:title="Gets the Current Shoes">
<polygon fill="white" stroke="black" points="374,-138.36 374,-168.36 514,-168.36 514,-138.36 374,-138.36"/>
<text text-anchor="start" x="382" y="-156.36" font-family="Helvetica,sans-Serif" font-size="10.00">UpgradeManager.GetCurrent</text>
<text text-anchor="middle" x="444" y="-145.36" font-family="Helvetica,sans-Serif" font-size="10.00">Shoes</text>
</a>
</g>
</g>
<!-- Node21&#45;&gt;Node22 -->
<g id="edge29" class="edge">
<title>Node21&#45;&gt;Node22</title>
<path fill="none" stroke="midnightblue" d="M273.13,-215.13C295.2,-203.98 326.49,-189 355,-178.36 361.4,-175.97 368.13,-173.67 374.9,-171.51"/>
<polygon fill="midnightblue" stroke="midnightblue" points="376.3,-174.75 384.82,-168.45 374.23,-168.06 376.3,-174.75"/>
</g>
<!-- Node23 -->
<g id="node23" class="node">
<title>Node23</title>
<g id="a_node23"><a xlink:href="../../da/d9d/class_upgrade_manager.html#ad55538552884c9d76e05c730e38580b4" target="_top" xlink:title="Gets the list of shoe upgrades">
<polygon fill="white" stroke="black" points="355,-187.86 355,-206.86 533,-206.86 533,-187.86 355,-187.86"/>
<text text-anchor="middle" x="444" y="-194.86" font-family="Helvetica,sans-Serif" font-size="10.00">UpgradeManager.GetShoesUpgrades</text>
</a>
</g>
</g>
<!-- Node21&#45;&gt;Node23 -->
<g id="edge32" class="edge">
<title>Node21&#45;&gt;Node23</title>
<path fill="none" stroke="midnightblue" d="M309.71,-219.46C330.92,-215.94 354.45,-212.04 375.77,-208.51"/>
<polygon fill="midnightblue" stroke="midnightblue" points="376.42,-211.95 385.71,-206.86 375.27,-205.04 376.42,-211.95"/>
</g>
<!-- Node24 -->
<g id="node24" class="node">
<title>Node24</title>
<g id="a_node24"><a xlink:href="../../da/d9d/class_upgrade_manager.html#aebf049454001984ca3ac1fe79c851d2d" target="_top" xlink:title="Upgrades the shoes level to the given level">
<polygon fill="white" stroke="black" points="365.5,-99.86 365.5,-118.86 522.5,-118.86 522.5,-99.86 365.5,-99.86"/>
<text text-anchor="middle" x="444" y="-106.86" font-family="Helvetica,sans-Serif" font-size="10.00">UpgradeManager.UpgradeShoes</text>
</a>
</g>
</g>
<!-- Node21&#45;&gt;Node24 -->
<g id="edge33" class="edge">
<title>Node21&#45;&gt;Node24</title>
<path fill="none" stroke="midnightblue" d="M256.23,-215.05C275.01,-192.63 313.19,-151.17 355,-129.36 360.47,-126.5 366.34,-124.05 372.35,-121.95"/>
<polygon fill="midnightblue" stroke="midnightblue" points="373.42,-125.29 381.89,-118.93 371.3,-118.61 373.42,-125.29"/>
</g>
<!-- Node24&#45;&gt;Node8 -->
<g id="edge34" class="edge">
<title>Node24&#45;&gt;Node8</title>
<path fill="none" stroke="midnightblue" d="M519.19,-119.06C524.28,-121.8 528.98,-125.18 533,-129.36 592.94,-191.56 509.78,-257.46 569,-320.36 570.24,-321.68 571.56,-322.91 572.95,-324.06"/>
<polygon fill="midnightblue" stroke="midnightblue" points="571.26,-327.15 581.51,-329.82 575.16,-321.34 571.26,-327.15"/>
</g>
<!-- Node24&#45;&gt;Node9 -->
<g id="edge35" class="edge">
<title>Node24&#45;&gt;Node9</title>
<path fill="none" stroke="midnightblue" d="M519.85,-119.05C524.73,-121.8 529.2,-125.19 533,-129.36 615.18,-219.45 496.21,-303.52 569,-401.36 572.89,-406.58 577.76,-411.02 583.15,-414.79"/>
<polygon fill="midnightblue" stroke="midnightblue" points="581.62,-417.95 591.98,-420.17 585.26,-411.98 581.62,-417.95"/>
</g>
<!-- Node24&#45;&gt;Node15 -->
<g id="edge36" class="edge">
<title>Node24&#45;&gt;Node15</title>
<path fill="none" stroke="midnightblue" d="M519.33,-118.93C524.39,-121.69 529.04,-125.12 533,-129.36 603.35,-204.63 501.88,-280.19 569,-358.36 572.19,-362.07 575.96,-365.22 580.08,-367.89"/>
<polygon fill="midnightblue" stroke="midnightblue" points="578.49,-371.01 588.95,-372.7 581.83,-364.86 578.49,-371.01"/>
</g>
<!-- Node24&#45;&gt;Node16 -->
<g id="edge37" class="edge">
<title>Node24&#45;&gt;Node16</title>
<path fill="none" stroke="midnightblue" d="M512.15,-118.92C519.54,-121.6 526.67,-125.01 533,-129.36 585.07,-165.09 619.44,-233.85 634.97,-270.66"/>
<polygon fill="midnightblue" stroke="midnightblue" points="631.82,-272.22 638.85,-280.15 638.3,-269.57 631.82,-272.22"/>
</g>
<!-- Node25&#45;&gt;Node5 -->
<g id="edge40" class="edge">
<title>Node25&#45;&gt;Node5</title>
<path fill="none" stroke="midnightblue" d="M260.71,-327.62C281.33,-345.61 318.21,-375.12 355,-391.36 363.51,-395.11 372.81,-398.15 382.08,-400.59"/>
<polygon fill="midnightblue" stroke="midnightblue" points="381.55,-404.06 392.09,-403.02 383.2,-397.26 381.55,-404.06"/>
</g>
<!-- Node25&#45;&gt;Node6 -->
<g id="edge41" class="edge">
<title>Node25&#45;&gt;Node6</title>
<path fill="none" stroke="midnightblue" d="M280.82,-327.44C302.22,-335.84 329.85,-346.04 355,-353.36 368.77,-357.36 383.97,-360.94 397.81,-363.88"/>
<polygon fill="midnightblue" stroke="midnightblue" points="397.1,-367.3 407.6,-365.9 398.52,-360.45 397.1,-367.3"/>
</g>
<!-- Node26 -->
<g id="node26" class="node">
<title>Node26</title>
<g id="a_node26"><a xlink:href="../../da/d9d/class_upgrade_manager.html#a344e78fbeb73a4ad119febe603a5780b" target="_top" xlink:title="Gets the Current Shovel">
<polygon fill="white" stroke="black" points="374,-226.36 374,-256.36 514,-256.36 514,-226.36 374,-226.36"/>
<text text-anchor="start" x="382" y="-244.36" font-family="Helvetica,sans-Serif" font-size="10.00">UpgradeManager.GetCurrent</text>
<text text-anchor="middle" x="444" y="-233.36" font-family="Helvetica,sans-Serif" font-size="10.00">Shovel</text>
</a>
</g>
</g>
<!-- Node25&#45;&gt;Node26 -->
<g id="edge39" class="edge">
<title>Node25&#45;&gt;Node26</title>
<path fill="none" stroke="midnightblue" d="M277.61,-297.23C299.42,-287.71 328.6,-275.54 355,-266.36 361.91,-263.95 369.18,-261.6 376.46,-259.37"/>
<polygon fill="midnightblue" stroke="midnightblue" points="377.79,-262.62 386.36,-256.4 375.78,-255.92 377.79,-262.62"/>
</g>
<!-- Node27 -->
<g id="node27" class="node">
<title>Node27</title>
<g id="a_node27"><a xlink:href="../../da/d9d/class_upgrade_manager.html#ad7b9edf00b9e970af51c1b72c5d24a2f" target="_top" xlink:title="Gets the list of shovel upgrades">
<polygon fill="white" stroke="black" points="375.5,-275.36 375.5,-305.36 512.5,-305.36 512.5,-275.36 375.5,-275.36"/>
<text text-anchor="start" x="383.5" y="-293.36" font-family="Helvetica,sans-Serif" font-size="10.00">UpgradeManager.GetShovel</text>
<text text-anchor="middle" x="444" y="-282.36" font-family="Helvetica,sans-Serif" font-size="10.00">Upgrades</text>
</a>
</g>
</g>
<!-- Node25&#45;&gt;Node27 -->
<g id="edge42" class="edge">
<title>Node25&#45;&gt;Node27</title>
<path fill="none" stroke="midnightblue" d="M310.26,-305.03C327.91,-303.08 347.14,-300.95 365.34,-298.94"/>
<polygon fill="midnightblue" stroke="midnightblue" points="365.77,-302.42 375.33,-297.84 365,-295.46 365.77,-302.42"/>
</g>
<!-- Node28 -->
<g id="node28" class="node">
<title>Node28</title>
<g id="a_node28"><a xlink:href="../../da/d9d/class_upgrade_manager.html#a366539e3c1c5a211c0ec5cac77ccbd58" target="_top" xlink:title="Upgrades the shovel level to the given level">
<polygon fill="white" stroke="black" points="365,-324.86 365,-343.86 523,-343.86 523,-324.86 365,-324.86"/>
<text text-anchor="middle" x="444" y="-331.86" font-family="Helvetica,sans-Serif" font-size="10.00">UpgradeManager.UpgradeShovel</text>
</a>
</g>
</g>
<!-- Node25&#45;&gt;Node28 -->
<g id="edge43" class="edge">
<title>Node25&#45;&gt;Node28</title>
<path fill="none" stroke="midnightblue" d="M310.26,-319.68C324.5,-321.26 339.77,-322.94 354.69,-324.59"/>
<polygon fill="midnightblue" stroke="midnightblue" points="354.63,-328.11 364.95,-325.73 355.4,-321.15 354.63,-328.11"/>
</g>
<!-- Node28&#45;&gt;Node8 -->
<g id="edge44" class="edge">
<title>Node28&#45;&gt;Node8</title>
<path fill="none" stroke="midnightblue" d="M523.28,-336.32C539.04,-336.71 555.55,-337.13 571.13,-337.52"/>
<polygon fill="midnightblue" stroke="midnightblue" points="571.14,-341.02 581.22,-337.77 571.31,-334.02 571.14,-341.02"/>
</g>
<!-- Node28&#45;&gt;Node9 -->
<g id="edge45" class="edge">
<title>Node28&#45;&gt;Node9</title>
<path fill="none" stroke="midnightblue" d="M513.28,-343.9C520.23,-346.38 526.95,-349.48 533,-353.36 555.45,-367.75 548.18,-384.69 569,-401.36 575.93,-406.91 583.91,-411.76 592.03,-415.92"/>
<polygon fill="midnightblue" stroke="midnightblue" points="590.68,-419.16 601.21,-420.34 593.71,-412.85 590.68,-419.16"/>
</g>
<!-- Node28&#45;&gt;Node15 -->
<g id="edge46" class="edge">
<title>Node28&#45;&gt;Node15</title>
<path fill="none" stroke="midnightblue" d="M491.21,-343.95C504.71,-346.86 519.47,-350.14 533,-353.36 554.97,-358.58 579.26,-364.84 599.54,-370.2"/>
<polygon fill="midnightblue" stroke="midnightblue" points="598.88,-373.65 609.44,-372.84 600.68,-366.89 598.88,-373.65"/>
</g>
<!-- Node28&#45;&gt;Node16 -->
<g id="edge47" class="edge">
<title>Node28&#45;&gt;Node16</title>
<path fill="none" stroke="midnightblue" d="M493.8,-324.82C515.91,-320.5 542.57,-315.28 567.29,-310.45"/>
<polygon fill="midnightblue" stroke="midnightblue" points="568.23,-313.83 577.37,-308.48 566.89,-306.96 568.23,-313.83"/>
</g>
<!-- Node29&#45;&gt;Node8 -->
<g id="edge49" class="edge">
<title>Node29&#45;&gt;Node8</title>
<path fill="none" stroke="midnightblue" d="M274.94,-97.34C333.08,-71.55 459.4,-27.38 533,-90.36 611.62,-157.62 499.25,-243.93 569,-320.36 570.22,-321.69 571.52,-322.95 572.89,-324.11"/>
<polygon fill="midnightblue" stroke="midnightblue" points="571.16,-327.17 581.38,-329.94 575.12,-321.4 571.16,-327.17"/>
</g>
</g>
</svg>
