<?xml version="1.0" encoding="UTF-8" standalone="no"?>
<!DOCTYPE svg PUBLIC "-//W3C//DTD SVG 1.1//EN"
 "http://www.w3.org/Graphics/SVG/1.1/DTD/svg11.dtd">
<!-- Generated by graphviz version 3.0.0 (20220226.1711)
 -->
<!-- Title: StealthManager.GetPatrolSpeed Pages: 1 -->
<svg width="473pt" height="104pt"
 viewBox="0.00 0.00 473.00 104.00" xmlns="http://www.w3.org/2000/svg" xmlns:xlink="http://www.w3.org/1999/xlink">
<g id="graph0" class="graph" transform="scale(1 1) rotate(0) translate(4 100)">
<title>StealthManager.GetPatrolSpeed</title>
<polygon fill="white" stroke="transparent" points="-4,4 -4,-100 469,-100 469,4 -4,4"/>
<!-- Node1 -->
<g id="node1" class="node">
<title>Node1</title>
<g id="a_node1"><a xlink:title=" ">
<polygon fill="#bfbfbf" stroke="black" points="336,-33 336,-63 465,-63 465,-33 336,-33"/>
<text text-anchor="start" x="344" y="-51" font-family="Helvetica,sans-Serif" font-size="10.00">StealthManager.GetPatrol</text>
<text text-anchor="middle" x="400.5" y="-40" font-family="Helvetica,sans-Serif" font-size="10.00">Speed</text>
</a>
</g>
</g>
<!-- Node2 -->
<g id="node2" class="node">
<title>Node2</title>
<g id="a_node2"><a xlink:href="../../d3/d01/class_guard.html#a2a059890b97500153a34d923b8b4f07c" target="_top" xlink:title=" ">
<polygon fill="white" stroke="black" points="162,-76.5 162,-95.5 300,-95.5 300,-76.5 162,-76.5"/>
<text text-anchor="middle" x="231" y="-83.5" font-family="Helvetica,sans-Serif" font-size="10.00">Guard.BribedReturnToRoute</text>
</a>
</g>
</g>
<!-- Node1&#45;&gt;Node2 -->
<g id="edge1" class="edge">
<title>Node1&#45;&gt;Node2</title>
<path fill="none" stroke="midnightblue" d="M325.93,-64.69C308.19,-68.71 289.84,-72.88 274.11,-76.45"/>
<polygon fill="midnightblue" stroke="midnightblue" points="326.72,-68.1 335.7,-62.47 325.17,-61.27 326.72,-68.1"/>
</g>
<!-- Node3 -->
<g id="node3" class="node">
<title>Node3</title>
<g id="a_node3"><a xlink:href="../../d9/d96/class_tutorial_guard.html#aa5842edec90269073a985d2af9200222" target="_top" xlink:title="Calls the caught functionality if the guard manages to find the player.">
<polygon fill="white" stroke="black" points="177,-38.5 177,-57.5 285,-57.5 285,-38.5 177,-38.5"/>
<text text-anchor="middle" x="231" y="-45.5" font-family="Helvetica,sans-Serif" font-size="10.00">TutorialGuard.Caught</text>
</a>
</g>
</g>
<!-- Node1&#45;&gt;Node3 -->
<g id="edge2" class="edge">
<title>Node1&#45;&gt;Node3</title>
<path fill="none" stroke="midnightblue" d="M325.39,-48C311.78,-48 297.83,-48 285,-48"/>
<polygon fill="midnightblue" stroke="midnightblue" points="325.7,-51.5 335.7,-48 325.7,-44.5 325.7,-51.5"/>
</g>
<!-- Node5 -->
<g id="node5" class="node">
<title>Node5</title>
<g id="a_node5"><a xlink:href="../../d3/d01/class_guard.html#aa6c0ea1e7a6023056627100992161ada" target="_top" xlink:title="Changes guard&#39;s navmesh agent destination to next goal.">
<polygon fill="white" stroke="black" points="176,-0.5 176,-19.5 286,-19.5 286,-0.5 176,-0.5"/>
<text text-anchor="middle" x="231" y="-7.5" font-family="Helvetica,sans-Serif" font-size="10.00">Guard.ShortGoalStop</text>
</a>
</g>
</g>
<!-- Node1&#45;&gt;Node5 -->
<g id="edge4" class="edge">
<title>Node1&#45;&gt;Node5</title>
<path fill="none" stroke="midnightblue" d="M325.93,-31.31C308.19,-27.29 289.84,-23.12 274.11,-19.55"/>
<polygon fill="midnightblue" stroke="midnightblue" points="325.17,-34.73 335.7,-33.53 326.72,-27.9 325.17,-34.73"/>
</g>
<!-- Node4 -->
<g id="node4" class="node">
<title>Node4</title>
<g id="a_node4"><a xlink:href="../../d9/d96/class_tutorial_guard.html#ab272cab873799244d5dbd6f28f207d0d" target="_top" xlink:title="Guard will move along route from checkpoint to checkpoint. ALERT: State changes to alert upon having ...">
<polygon fill="white" stroke="black" points="0,-38.5 0,-57.5 126,-57.5 126,-38.5 0,-38.5"/>
<text text-anchor="middle" x="63" y="-45.5" font-family="Helvetica,sans-Serif" font-size="10.00">TutorialGuard.PatrolState</text>
</a>
</g>
</g>
<!-- Node3&#45;&gt;Node4 -->
<g id="edge3" class="edge">
<title>Node3&#45;&gt;Node4</title>
<path fill="none" stroke="midnightblue" d="M166.56,-48C153.26,-48 139.25,-48 126.01,-48"/>
<polygon fill="midnightblue" stroke="midnightblue" points="166.56,-51.5 176.56,-48 166.56,-44.5 166.56,-51.5"/>
</g>
</g>
</svg>
