<?xml version="1.0" encoding="UTF-8" standalone="no"?>
<!DOCTYPE svg PUBLIC "-//W3C//DTD SVG 1.1//EN"
 "http://www.w3.org/Graphics/SVG/1.1/DTD/svg11.dtd">
<!-- Generated by graphviz version 3.0.0 (20220226.1711)
 -->
<!-- Title: Item.GetDescription Pages: 1 -->
<svg width="1022pt" height="365pt"
 viewBox="0.00 0.00 1022.00 365.39" xmlns="http://www.w3.org/2000/svg" xmlns:xlink="http://www.w3.org/1999/xlink">
<g id="graph0" class="graph" transform="scale(1 1) rotate(0) translate(4 361.39)">
<title>Item.GetDescription</title>
<polygon fill="white" stroke="transparent" points="-4,4 -4,-361.39 1018,-361.39 1018,4 -4,4"/>
<!-- Node1 -->
<g id="node1" class="node">
<title>Node1</title>
<g id="a_node1"><a xlink:title="Gets the description of the item">
<polygon fill="#bfbfbf" stroke="black" points="911,-107.5 911,-126.5 1014,-126.5 1014,-107.5 911,-107.5"/>
<text text-anchor="middle" x="962.5" y="-114.5" font-family="Helvetica,sans-Serif" font-size="10.00">Item.GetDescription</text>
</a>
</g>
</g>
<!-- Node2 -->
<g id="node2" class="node">
<title>Node2</title>
<g id="a_node2"><a xlink:href="../../db/dac/class_selling_screen_script.html#a1d94ae7dd2d5fc4611c0c25b428276ab" target="_top" xlink:title="Sets up the buy screen for the body bag upgrades">
<polygon fill="white" stroke="black" points="732,-142 732,-172 875,-172 875,-142 732,-142"/>
<text text-anchor="start" x="740" y="-160" font-family="Helvetica,sans-Serif" font-size="10.00">SellingScreenScript.Body</text>
<text text-anchor="middle" x="803.5" y="-149" font-family="Helvetica,sans-Serif" font-size="10.00">BagBuyUpgradeScreenSetup</text>
</a>
</g>
</g>
<!-- Node1&#45;&gt;Node2 -->
<g id="edge1" class="edge">
<title>Node1&#45;&gt;Node2</title>
<path fill="none" stroke="midnightblue" d="M913.81,-129.15C897.97,-133.18 880.15,-137.73 863.57,-141.95"/>
<polygon fill="midnightblue" stroke="midnightblue" points="915.07,-132.44 923.89,-126.58 913.34,-125.66 915.07,-132.44"/>
</g>
<!-- Node7 -->
<g id="node7" class="node">
<title>Node7</title>
<g id="a_node7"><a xlink:href="../../db/dac/class_selling_screen_script.html#a6f21d721a89c56c7039d62ce65f63f19" target="_top" xlink:title="Sets up the buy screen for the boltcutter upgrades">
<polygon fill="white" stroke="black" points="0,-99 0,-129 152,-129 152,-99 0,-99"/>
<text text-anchor="start" x="8" y="-117" font-family="Helvetica,sans-Serif" font-size="10.00">SellingScreenScript.Bolt</text>
<text text-anchor="middle" x="76" y="-106" font-family="Helvetica,sans-Serif" font-size="10.00">CutterBuyUpgradeScreenSetup</text>
</a>
</g>
</g>
<!-- Node1&#45;&gt;Node7 -->
<g id="edge15" class="edge">
<title>Node1&#45;&gt;Node7</title>
<path fill="none" stroke="midnightblue" d="M900.34,-116.79C742.91,-116.26 324.06,-114.84 152.2,-114.26"/>
<polygon fill="midnightblue" stroke="midnightblue" points="900.76,-120.29 910.77,-116.83 900.78,-113.29 900.76,-120.29"/>
</g>
<!-- Node9 -->
<g id="node9" class="node">
<title>Node9</title>
<g id="a_node9"><a xlink:href="../../db/dac/class_selling_screen_script.html#a9646ff5a19f1ba8a96f70ba33b46598d" target="_top" xlink:title="Sets up the buy screen for the shoe upgrades.">
<polygon fill="white" stroke="black" points="9.5,-263 9.5,-293 142.5,-293 142.5,-263 9.5,-263"/>
<text text-anchor="start" x="17.5" y="-281" font-family="Helvetica,sans-Serif" font-size="10.00">SellingScreenScript.Shoes</text>
<text text-anchor="middle" x="76" y="-270" font-family="Helvetica,sans-Serif" font-size="10.00">BuyUpgradeScreenSetup</text>
</a>
</g>
</g>
<!-- Node1&#45;&gt;Node9 -->
<g id="edge16" class="edge">
<title>Node1&#45;&gt;Node9</title>
<path fill="none" stroke="midnightblue" d="M949.25,-135.05C910.05,-190.4 781.53,-354 631.5,-354 631.5,-354 631.5,-354 460,-354 338.82,-354 304.73,-367.57 188,-335 155.45,-325.92 121.35,-306.74 99.68,-293.14"/>
<polygon fill="midnightblue" stroke="midnightblue" points="952.3,-136.79 955.14,-126.58 946.55,-132.79 952.3,-136.79"/>
</g>
<!-- Node11 -->
<g id="node11" class="node">
<title>Node11</title>
<g id="a_node11"><a xlink:href="../../db/dac/class_selling_screen_script.html#a3fa55c056600239b67876cea7b018479" target="_top" xlink:title="Sets up the buy screen for the shovel upgrades">
<polygon fill="white" stroke="black" points="9,-23 9,-53 143,-53 143,-23 9,-23"/>
<text text-anchor="start" x="17" y="-41" font-family="Helvetica,sans-Serif" font-size="10.00">SellingScreenScript.Shovel</text>
<text text-anchor="middle" x="76" y="-30" font-family="Helvetica,sans-Serif" font-size="10.00">BuyUpgradeScreenSetup</text>
</a>
</g>
</g>
<!-- Node1&#45;&gt;Node11 -->
<g id="edge17" class="edge">
<title>Node1&#45;&gt;Node11</title>
<path fill="none" stroke="midnightblue" d="M937.73,-102.21C884.84,-70.73 752.49,0 631.5,0 631.5,0 631.5,0 460,0 348.41,0 219.42,-16.17 143.23,-27.41"/>
<polygon fill="midnightblue" stroke="midnightblue" points="936.01,-105.25 946.38,-107.43 939.63,-99.26 936.01,-105.25"/>
</g>
<!-- Node3 -->
<g id="node3" class="node">
<title>Node3</title>
<g id="a_node3"><a xlink:href="../../db/dac/class_selling_screen_script.html#a7be5423228e510781538a465d01cb007" target="_top" xlink:title="Sets up the buying screen for a specific item">
<polygon fill="white" stroke="black" points="565,-142 565,-172 696,-172 696,-142 565,-142"/>
<text text-anchor="start" x="573" y="-160" font-family="Helvetica,sans-Serif" font-size="10.00">SellingScreenScript.Setup</text>
<text text-anchor="middle" x="630.5" y="-149" font-family="Helvetica,sans-Serif" font-size="10.00">Screen</text>
</a>
</g>
</g>
<!-- Node2&#45;&gt;Node3 -->
<g id="edge2" class="edge">
<title>Node2&#45;&gt;Node3</title>
<path fill="none" stroke="midnightblue" d="M721.87,-157C713.24,-157 704.53,-157 696.12,-157"/>
<polygon fill="midnightblue" stroke="midnightblue" points="721.96,-160.5 731.96,-157 721.96,-153.5 721.96,-160.5"/>
</g>
<!-- Node4 -->
<g id="node4" class="node">
<title>Node4</title>
<g id="a_node4"><a xlink:href="../../db/dac/class_selling_screen_script.html#a6f3a5794037efbc23910df86b380077f" target="_top" xlink:title="Updates the screen after a change">
<polygon fill="white" stroke="black" points="393,-181 393,-211 529,-211 529,-181 393,-181"/>
<text text-anchor="start" x="401" y="-199" font-family="Helvetica,sans-Serif" font-size="10.00">SellingScreenScript.Update</text>
<text text-anchor="middle" x="461" y="-188" font-family="Helvetica,sans-Serif" font-size="10.00">Screen</text>
</a>
</g>
</g>
<!-- Node3&#45;&gt;Node4 -->
<g id="edge3" class="edge">
<title>Node3&#45;&gt;Node4</title>
<path fill="none" stroke="midnightblue" d="M554.96,-174.36C545.5,-176.56 535.88,-178.8 526.59,-180.96"/>
<polygon fill="midnightblue" stroke="midnightblue" points="555.79,-177.76 564.74,-172.08 554.21,-170.94 555.79,-177.76"/>
</g>
<!-- Node5 -->
<g id="node5" class="node">
<title>Node5</title>
<g id="a_node5"><a xlink:href="../../da/d9d/class_upgrade_manager.html#ace07916b537615eeb092432d31b9bb81" target="_top" xlink:title="Upgrades the body bag level to the given level">
<polygon fill="white" stroke="black" points="188,-306.5 188,-325.5 357,-325.5 357,-306.5 188,-306.5"/>
<text text-anchor="middle" x="272.5" y="-313.5" font-family="Helvetica,sans-Serif" font-size="10.00">UpgradeManager.UpgradeBodyBag</text>
</a>
</g>
</g>
<!-- Node4&#45;&gt;Node5 -->
<g id="edge4" class="edge">
<title>Node4&#45;&gt;Node5</title>
<path fill="none" stroke="midnightblue" d="M427.88,-216.67C387.08,-242.92 318.38,-287.12 288.33,-306.46"/>
<polygon fill="midnightblue" stroke="midnightblue" points="429.86,-219.55 436.38,-211.2 426.08,-213.67 429.86,-219.55"/>
</g>
<!-- Node6 -->
<g id="node6" class="node">
<title>Node6</title>
<g id="a_node6"><a xlink:href="../../da/d9d/class_upgrade_manager.html#ae480ebe9e6b219adb20e0b410bc69cc7" target="_top" xlink:title="Upgrades the boltcutters level to the given level">
<polygon fill="white" stroke="black" points="199.5,-181 199.5,-211 345.5,-211 345.5,-181 199.5,-181"/>
<text text-anchor="start" x="207.5" y="-199" font-family="Helvetica,sans-Serif" font-size="10.00">UpgradeManager.UpgradeBolt</text>
<text text-anchor="middle" x="272.5" y="-188" font-family="Helvetica,sans-Serif" font-size="10.00">Cutter</text>
</a>
</g>
</g>
<!-- Node4&#45;&gt;Node6 -->
<g id="edge6" class="edge">
<title>Node4&#45;&gt;Node6</title>
<path fill="none" stroke="midnightblue" d="M382.73,-196C370.45,-196 357.8,-196 345.65,-196"/>
<polygon fill="midnightblue" stroke="midnightblue" points="382.93,-199.5 392.93,-196 382.93,-192.5 382.93,-199.5"/>
</g>
<!-- Node8 -->
<g id="node8" class="node">
<title>Node8</title>
<g id="a_node8"><a xlink:href="../../da/d9d/class_upgrade_manager.html#aebf049454001984ca3ac1fe79c851d2d" target="_top" xlink:title="Upgrades the shoes level to the given level">
<polygon fill="white" stroke="black" points="194,-230.5 194,-249.5 351,-249.5 351,-230.5 194,-230.5"/>
<text text-anchor="middle" x="272.5" y="-237.5" font-family="Helvetica,sans-Serif" font-size="10.00">UpgradeManager.UpgradeShoes</text>
</a>
</g>
</g>
<!-- Node4&#45;&gt;Node8 -->
<g id="edge9" class="edge">
<title>Node4&#45;&gt;Node8</title>
<path fill="none" stroke="midnightblue" d="M389,-213.37C378.28,-215.96 367.35,-218.57 357,-221 343.69,-224.13 329.16,-227.46 316.01,-230.45"/>
<polygon fill="midnightblue" stroke="midnightblue" points="389.86,-216.77 398.76,-211.02 388.22,-209.96 389.86,-216.77"/>
</g>
<!-- Node10 -->
<g id="node10" class="node">
<title>Node10</title>
<g id="a_node10"><a xlink:href="../../da/d9d/class_upgrade_manager.html#a366539e3c1c5a211c0ec5cac77ccbd58" target="_top" xlink:title="Upgrades the shovel level to the given level">
<polygon fill="white" stroke="black" points="193.5,-142.5 193.5,-161.5 351.5,-161.5 351.5,-142.5 193.5,-142.5"/>
<text text-anchor="middle" x="272.5" y="-149.5" font-family="Helvetica,sans-Serif" font-size="10.00">UpgradeManager.UpgradeShovel</text>
</a>
</g>
</g>
<!-- Node4&#45;&gt;Node10 -->
<g id="edge12" class="edge">
<title>Node4&#45;&gt;Node10</title>
<path fill="none" stroke="midnightblue" d="M386.59,-178.68C361.81,-172.84 335.07,-166.53 313.82,-161.51"/>
<polygon fill="midnightblue" stroke="midnightblue" points="385.8,-182.09 396.34,-180.98 387.41,-175.28 385.8,-182.09"/>
</g>
<!-- Node5&#45;&gt;Node2 -->
<g id="edge5" class="edge">
<title>Node5&#45;&gt;Node2</title>
<path fill="none" stroke="midnightblue" d="M327.71,-304.22C379.71,-292.55 460.25,-273.49 529,-253 613.64,-227.77 710.77,-192.02 763.48,-172.02"/>
<polygon fill="midnightblue" stroke="midnightblue" points="326.7,-300.86 317.7,-306.45 328.22,-307.69 326.7,-300.86"/>
</g>
<!-- Node6&#45;&gt;Node7 -->
<g id="edge7" class="edge">
<title>Node6&#45;&gt;Node7</title>
<path fill="none" stroke="midnightblue" d="M206.07,-177.67C199.91,-175.57 193.8,-173.34 188,-171 158.06,-158.95 125.37,-141.62 103.27,-129.23"/>
<polygon fill="midnightblue" stroke="midnightblue" points="205.17,-181.06 215.76,-180.87 207.36,-174.41 205.17,-181.06"/>
</g>
<!-- Node7&#45;&gt;Node3 -->
<g id="edge8" class="edge">
<title>Node7&#45;&gt;Node3</title>
<path fill="none" stroke="midnightblue" d="M162.34,-119.34C217.82,-122.93 291.72,-127.91 357,-133 428.14,-138.55 509.64,-145.85 564.84,-150.94"/>
<polygon fill="midnightblue" stroke="midnightblue" points="162.4,-115.84 152.2,-118.69 161.95,-122.83 162.4,-115.84"/>
</g>
<!-- Node8&#45;&gt;Node9 -->
<g id="edge10" class="edge">
<title>Node8&#45;&gt;Node9</title>
<path fill="none" stroke="midnightblue" d="M212.77,-251.47C190.68,-255.79 165.44,-260.72 142.76,-265.15"/>
<polygon fill="midnightblue" stroke="midnightblue" points="213.53,-254.89 222.67,-249.54 212.18,-248.02 213.53,-254.89"/>
</g>
<!-- Node9&#45;&gt;Node3 -->
<g id="edge11" class="edge">
<title>Node9&#45;&gt;Node3</title>
<path fill="none" stroke="midnightblue" d="M152.71,-280.42C245.07,-280.73 404.31,-272.58 529,-221 559.39,-208.43 590.8,-186.78 610.24,-172.19"/>
<polygon fill="midnightblue" stroke="midnightblue" points="152.63,-276.92 142.61,-280.35 152.58,-283.92 152.63,-276.92"/>
</g>
<!-- Node10&#45;&gt;Node11 -->
<g id="edge13" class="edge">
<title>Node10&#45;&gt;Node11</title>
<path fill="none" stroke="midnightblue" d="M246.56,-137.38C209.5,-115.66 140.25,-75.07 102.73,-53.08"/>
<polygon fill="midnightblue" stroke="midnightblue" points="244.85,-140.44 255.25,-142.48 248.39,-134.4 244.85,-140.44"/>
</g>
<!-- Node11&#45;&gt;Node3 -->
<g id="edge14" class="edge">
<title>Node11&#45;&gt;Node3</title>
<path fill="none" stroke="midnightblue" d="M152.95,-52.42C242.96,-69.78 397.36,-100.45 529,-131 543.48,-134.36 559.07,-138.26 573.54,-141.99"/>
<polygon fill="midnightblue" stroke="midnightblue" points="153.58,-48.97 143.1,-50.52 152.26,-55.85 153.58,-48.97"/>
</g>
</g>
</svg>
