<?xml version="1.0" encoding="UTF-8" standalone="no"?>
<!DOCTYPE svg PUBLIC "-//W3C//DTD SVG 1.1//EN"
 "http://www.w3.org/Graphics/SVG/1.1/DTD/svg11.dtd">
<!-- Generated by graphviz version 3.0.0 (20220226.1711)
 -->
<!-- Title: TutorialProgression.MentorBushInteraction Pages: 1 -->
<!--zoomable 370 -->
<svg id="main" version="1.1" xmlns="http://www.w3.org/2000/svg" xmlns:xlink="http://www.w3.org/1999/xlink" xml:space="preserve" onload="init(evt)">
<style type="text/css"><![CDATA[
.edge:hover path { stroke: red; }
.edge:hover polygon { stroke: red; fill: red; }
]]></style>
<script type="text/javascript"><![CDATA[
var edges = document.getElementsByTagName('g');
if (edges && edges.length) {
  for (var i=0;i<edges.length;i++) {
    if (edges[i].id.substr(0,4)=='edge') {
      edges[i].setAttribute('class','edge');
    }
  }
}
]]></script>
        <defs>
                <circle id="rim" cx="0" cy="0" r="7"/>
                <circle id="rim2" cx="0" cy="0" r="3.5"/>
                <g id="zoomPlus">
                        <use xlink:href="#rim" fill="#404040">
                                <set attributeName="fill" to="#808080" begin="zoomplus.mouseover" end="zoomplus.mouseout"/>
                        </use>
                        <path d="M-4,0h8M0,-4v8" fill="none" stroke="white" stroke-width="1.5" pointer-events="none"/>
                </g>
                <g id="zoomMin">
                        <use xlink:href="#rim" fill="#404040">
                                <set attributeName="fill" to="#808080" begin="zoomminus.mouseover" end="zoomminus.mouseout"/>
                        </use>
                        <path d="M-4,0h8" fill="none" stroke="white" stroke-width="1.5" pointer-events="none"/>
                </g>
                <g id="dirArrow">
                        <path fill="none" stroke="white" stroke-width="1.5" d="M0,-3.0v7 M-2.5,-0.5L0,-3.0L2.5,-0.5"/>
                </g>
               <g id="resetDef">
                       <use xlink:href="#rim2" fill="#404040">
                               <set attributeName="fill" to="#808080" begin="reset.mouseover" end="reset.mouseout"/>
                       </use>
               </g>
        </defs>

<script type="text/javascript">
var viewWidth = 1027;
var viewHeight = 370;
var sectionId = 'dynsection-3';
</script>
<script xlink:href="../../svgpan.js"/>
<svg id="graph" class="graph">
<g id="viewport">
<title>TutorialProgression.MentorBushInteraction</title>
<polygon fill="white" stroke="transparent" points="-4,4 -4,-366 1023,-366 1023,4 -4,4"/>
<!-- Node1 -->
<g id="node1" class="node">
<title>Node1</title>
<g id="a_node1"><a xlink:title="Fourth interaction for guard with stealth bushes.">
<polygon fill="#bfbfbf" stroke="black" points="0,-185 0,-215 133,-215 133,-185 0,-185"/>
<text text-anchor="start" x="8" y="-203" font-family="Helvetica,sans-Serif" font-size="10.00">TutorialProgression.Mentor</text>
<text text-anchor="middle" x="66.5" y="-192" font-family="Helvetica,sans-Serif" font-size="10.00">BushInteraction</text>
</a>
</g>
</g>
<!-- Node2 -->
<g id="node2" class="node">
<title>Node2</title>
<g id="a_node2"><a xlink:href="../../d7/d75/class_u_i_manager.html#a17806b23ba774855b49f980ad6ed919e" target="_top" xlink:title="Disables the dialogue box.">
<polygon fill="white" stroke="black" points="180,-323.5 180,-342.5 316,-342.5 316,-323.5 180,-323.5"/>
<text text-anchor="middle" x="248" y="-330.5" font-family="Helvetica,sans-Serif" font-size="10.00">UIManager.DialogueDisable</text>
</a>
</g>
</g>
<!-- Node1&#45;&gt;Node2 -->
<g id="edge1" class="edge">
<title>Node1&#45;&gt;Node2</title>
<path fill="none" stroke="midnightblue" d="M77.5,-215.02C93.89,-238.48 128.68,-283.74 169,-309 176.16,-313.49 184.22,-317.19 192.37,-320.22"/>
<polygon fill="midnightblue" stroke="midnightblue" points="191.34,-323.57 201.93,-323.49 193.6,-316.94 191.34,-323.57"/>
</g>
<!-- Node3 -->
<g id="node3" class="node">
<title>Node3</title>
<g id="a_node3"><a xlink:href="../../d7/d75/class_u_i_manager.html#aecab9bf874fbf9fe5f997d6453d50efe" target="_top" xlink:title="Enables the dialogue box.">
<polygon fill="white" stroke="black" points="181,-247.5 181,-266.5 315,-266.5 315,-247.5 181,-247.5"/>
<text text-anchor="middle" x="248" y="-254.5" font-family="Helvetica,sans-Serif" font-size="10.00">UIManager.DialogueEnable</text>
</a>
</g>
</g>
<!-- Node1&#45;&gt;Node3 -->
<g id="edge2" class="edge">
<title>Node1&#45;&gt;Node3</title>
<path fill="none" stroke="midnightblue" d="M113.18,-215.02C130.62,-220.71 150.72,-227.21 169,-233 180.93,-236.77 193.9,-240.8 205.79,-244.45"/>
<polygon fill="midnightblue" stroke="midnightblue" points="204.88,-247.83 215.46,-247.42 206.93,-241.14 204.88,-247.83"/>
</g>
<!-- Node4 -->
<g id="node4" class="node">
<title>Node4</title>
<g id="a_node4"><a xlink:href="../../d0/d9d/class_dialogue.html#a8eeaf735355b1740a29711ff6206a9c0" target="_top" xlink:title="Will reset the line number and UI to be back at the start of the dialogue">
<polygon fill="white" stroke="black" points="374.5,-247.5 374.5,-266.5 494.5,-266.5 494.5,-247.5 374.5,-247.5"/>
<text text-anchor="middle" x="434.5" y="-254.5" font-family="Helvetica,sans-Serif" font-size="10.00">Dialogue.ResetDialogue</text>
</a>
</g>
</g>
<!-- Node1&#45;&gt;Node4 -->
<g id="edge25" class="edge">
<title>Node1&#45;&gt;Node4</title>
<path fill="none" stroke="midnightblue" d="M81.51,-215.32C99.61,-233.84 133.07,-264.04 169,-276 245.33,-301.41 340.69,-283.28 393.54,-269.21"/>
<polygon fill="midnightblue" stroke="midnightblue" points="394.5,-272.58 403.21,-266.55 392.64,-265.83 394.5,-272.58"/>
</g>
<!-- Node7 -->
<g id="node7" class="node">
<title>Node7</title>
<g id="a_node7"><a xlink:href="../../df/d5c/class_map_commands.html#a08cb7f81e5179c66f90b4f24994fa52b" target="_top" xlink:title=" ">
<polygon fill="white" stroke="black" points="175,-133.5 175,-152.5 321,-152.5 321,-133.5 175,-133.5"/>
<text text-anchor="middle" x="248" y="-140.5" font-family="Helvetica,sans-Serif" font-size="10.00">MapCommands.FreezeScene</text>
</a>
</g>
</g>
<!-- Node1&#45;&gt;Node7 -->
<g id="edge6" class="edge">
<title>Node1&#45;&gt;Node7</title>
<path fill="none" stroke="midnightblue" d="M113.18,-184.98C130.62,-179.29 150.72,-172.79 169,-167 180.93,-163.23 193.9,-159.2 205.79,-155.55"/>
<polygon fill="midnightblue" stroke="midnightblue" points="206.93,-158.86 215.46,-152.58 204.88,-152.17 206.93,-158.86"/>
</g>
<!-- Node9 -->
<g id="node9" class="node">
<title>Node9</title>
<g id="a_node9"><a xlink:href="../../d1/d99/class_tutorial_map_gen.html#a5e9d0f3f4bb7dab0ec50ef0bf58eaedd" target="_top" xlink:title="Uses navmesh to move mentor to passed in position.">
<polygon fill="white" stroke="black" points="178,-57.5 178,-76.5 318,-76.5 318,-57.5 178,-57.5"/>
<text text-anchor="middle" x="248" y="-64.5" font-family="Helvetica,sans-Serif" font-size="10.00">TutorialMapGen.MoveMentor</text>
</a>
</g>
</g>
<!-- Node1&#45;&gt;Node9 -->
<g id="edge8" class="edge">
<title>Node1&#45;&gt;Node9</title>
<path fill="none" stroke="midnightblue" d="M76.64,-184.79C92.32,-160.06 126.75,-111.39 169,-86 172.63,-83.82 176.49,-81.89 180.49,-80.18"/>
<polygon fill="midnightblue" stroke="midnightblue" points="181.88,-83.39 190,-76.58 179.41,-76.85 181.88,-83.39"/>
</g>
<!-- Node10 -->
<g id="node10" class="node">
<title>Node10</title>
<g id="a_node10"><a xlink:href="../../d0/d9d/class_dialogue.html#a1c7cb3b4f4ff488cbf3d069ae1a13124" target="_top" xlink:title="If not on last line update to the next line in the script">
<polygon fill="white" stroke="black" points="387,-171.5 387,-190.5 482,-190.5 482,-171.5 387,-171.5"/>
<text text-anchor="middle" x="434.5" y="-178.5" font-family="Helvetica,sans-Serif" font-size="10.00">Dialogue.NextLine</text>
</a>
</g>
</g>
<!-- Node1&#45;&gt;Node10 -->
<g id="edge9" class="edge">
<title>Node1&#45;&gt;Node10</title>
<path fill="none" stroke="midnightblue" d="M133.36,-196.58C202.71,-192.98 310.78,-187.37 376.57,-183.96"/>
<polygon fill="midnightblue" stroke="midnightblue" points="376.95,-187.44 386.75,-183.43 376.58,-180.45 376.95,-187.44"/>
</g>
<!-- Node24 -->
<g id="node24" class="node">
<title>Node24</title>
<g id="a_node24"><a xlink:href="../../d0/d9d/class_dialogue.html#a69133b8f8cd3875f2d0ddf3acdfb05b1" target="_top" xlink:title="Will set the dialogue script based on what is passed">
<polygon fill="white" stroke="black" points="385.5,-209.5 385.5,-228.5 483.5,-228.5 483.5,-209.5 385.5,-209.5"/>
<text text-anchor="middle" x="434.5" y="-216.5" font-family="Helvetica,sans-Serif" font-size="10.00">Dialogue.SetScript</text>
</a>
</g>
</g>
<!-- Node1&#45;&gt;Node24 -->
<g id="edge26" class="edge">
<title>Node1&#45;&gt;Node24</title>
<path fill="none" stroke="midnightblue" d="M133.36,-203.42C202.22,-206.99 309.26,-212.55 375.17,-215.97"/>
<polygon fill="midnightblue" stroke="midnightblue" points="375.22,-219.48 385.39,-216.5 375.58,-212.49 375.22,-219.48"/>
</g>
<!-- Node25 -->
<g id="node25" class="node">
<title>Node25</title>
<g id="a_node25"><a xlink:href="../../df/d5c/class_map_commands.html#a854dd377ca7c5568bb1584d32a133a76" target="_top" xlink:title=" ">
<polygon fill="white" stroke="black" points="169,-95.5 169,-114.5 327,-114.5 327,-95.5 169,-95.5"/>
<text text-anchor="middle" x="248" y="-102.5" font-family="Helvetica,sans-Serif" font-size="10.00">MapCommands.UnFreezeScene</text>
</a>
</g>
</g>
<!-- Node1&#45;&gt;Node25 -->
<g id="edge29" class="edge">
<title>Node1&#45;&gt;Node25</title>
<path fill="none" stroke="midnightblue" d="M83.38,-184.83C102.29,-167.58 135.55,-139.78 169,-124 174.04,-121.62 179.41,-119.52 184.89,-117.67"/>
<polygon fill="midnightblue" stroke="midnightblue" points="186.28,-120.91 194.8,-114.61 184.21,-114.22 186.28,-120.91"/>
</g>
<!-- Node3&#45;&gt;Node4 -->
<g id="edge3" class="edge">
<title>Node3&#45;&gt;Node4</title>
<path fill="none" stroke="midnightblue" d="M315.09,-257C330.95,-257 347.94,-257 363.95,-257"/>
<polygon fill="midnightblue" stroke="midnightblue" points="364.31,-260.5 374.31,-257 364.31,-253.5 364.31,-260.5"/>
</g>
<!-- Node5 -->
<g id="node5" class="node">
<title>Node5</title>
<g id="a_node5"><a xlink:href="../../de/d1f/class_script.html#a407ddfa4eec54558554a2982f30226a4" target="_top" xlink:title="Will get a line based on index">
<polygon fill="white" stroke="black" points="571.5,-247.5 571.5,-266.5 650.5,-266.5 650.5,-247.5 571.5,-247.5"/>
<text text-anchor="middle" x="611" y="-254.5" font-family="Helvetica,sans-Serif" font-size="10.00">Script.GetLine</text>
</a>
</g>
</g>
<!-- Node4&#45;&gt;Node5 -->
<g id="edge4" class="edge">
<title>Node4&#45;&gt;Node5</title>
<path fill="none" stroke="midnightblue" d="M494.58,-257C516.23,-257 540.48,-257 561.14,-257"/>
<polygon fill="midnightblue" stroke="midnightblue" points="561.27,-260.5 571.27,-257 561.27,-253.5 561.27,-260.5"/>
</g>
<!-- Node6 -->
<g id="node6" class="node">
<title>Node6</title>
<g id="a_node6"><a xlink:href="../../d0/d9d/class_dialogue.html#afef8d4afc2a211e77f21471041884a11" target="_top" xlink:title="Updates the Dialogue UI based on the current line passed in">
<polygon fill="white" stroke="black" points="551.5,-209.5 551.5,-228.5 670.5,-228.5 670.5,-209.5 551.5,-209.5"/>
<text text-anchor="middle" x="611" y="-216.5" font-family="Helvetica,sans-Serif" font-size="10.00">Dialogue.SetDialogueUI</text>
</a>
</g>
</g>
<!-- Node4&#45;&gt;Node6 -->
<g id="edge5" class="edge">
<title>Node4&#45;&gt;Node6</title>
<path fill="none" stroke="midnightblue" d="M479.53,-247.41C502.87,-242.33 531.73,-236.04 556.37,-230.68"/>
<polygon fill="midnightblue" stroke="midnightblue" points="557.26,-234.07 566.28,-228.52 555.77,-227.23 557.26,-234.07"/>
</g>
<!-- Node8 -->
<g id="node8" class="node">
<title>Node8</title>
<g id="a_node8"><a xlink:href="../../d1/d3d/class_map_generation.html#a104770fdbaca3852446c54f9f6ec3f00" target="_top" xlink:title=" ">
<polygon fill="white" stroke="black" points="363,-114.5 363,-133.5 506,-133.5 506,-114.5 363,-114.5"/>
<text text-anchor="middle" x="434.5" y="-121.5" font-family="Helvetica,sans-Serif" font-size="10.00">MapGeneration.GetGuardList</text>
</a>
</g>
</g>
<!-- Node7&#45;&gt;Node8 -->
<g id="edge7" class="edge">
<title>Node7&#45;&gt;Node8</title>
<path fill="none" stroke="midnightblue" d="M321.13,-135.57C331.54,-134.5 342.32,-133.39 352.89,-132.3"/>
<polygon fill="midnightblue" stroke="midnightblue" points="353.35,-135.77 362.94,-131.27 352.63,-128.81 353.35,-135.77"/>
</g>
<!-- Node10&#45;&gt;Node5 -->
<g id="edge22" class="edge">
<title>Node10&#45;&gt;Node5</title>
<path fill="none" stroke="midnightblue" d="M482.11,-189.66C490.4,-192.27 498.71,-195.65 506,-200 525.98,-211.92 522.08,-225.99 542,-238 548,-241.61 554.7,-244.56 561.5,-246.96"/>
<polygon fill="midnightblue" stroke="midnightblue" points="560.87,-250.43 571.46,-250.09 562.97,-243.75 560.87,-250.43"/>
</g>
<!-- Node10&#45;&gt;Node6 -->
<g id="edge24" class="edge">
<title>Node10&#45;&gt;Node6</title>
<path fill="none" stroke="midnightblue" d="M479.53,-190.59C502.87,-195.67 531.73,-201.96 556.37,-207.32"/>
<polygon fill="midnightblue" stroke="midnightblue" points="555.77,-210.77 566.28,-209.48 557.26,-203.93 555.77,-210.77"/>
</g>
<!-- Node11 -->
<g id="node11" class="node">
<title>Node11</title>
<g id="a_node11"><a xlink:href="../../db/d10/class_game_manager.html#ac681e0723423ffcdd52b64404d1b63ab" target="_top" xlink:title="Will take the index of what quest will be added Then will be passed to the quest manager.">
<polygon fill="white" stroke="black" points="542,-171.5 542,-190.5 680,-190.5 680,-171.5 542,-171.5"/>
<text text-anchor="middle" x="611" y="-178.5" font-family="Helvetica,sans-Serif" font-size="10.00">GameManager.CreateQuest</text>
</a>
</g>
</g>
<!-- Node10&#45;&gt;Node11 -->
<g id="edge10" class="edge">
<title>Node10&#45;&gt;Node11</title>
<path fill="none" stroke="midnightblue" d="M482.26,-181C497.4,-181 514.61,-181 531.4,-181"/>
<polygon fill="midnightblue" stroke="midnightblue" points="531.78,-184.5 541.78,-181 531.78,-177.5 531.78,-184.5"/>
</g>
<!-- Node23 -->
<g id="node23" class="node">
<title>Node23</title>
<g id="a_node23"><a xlink:href="../../de/d1f/class_script.html#a6133f97485f996a3c2acf5e004925e98" target="_top" xlink:title="Getter for the total number of lines in the list of lines">
<polygon fill="white" stroke="black" points="559,-133.5 559,-152.5 663,-152.5 663,-133.5 559,-133.5"/>
<text text-anchor="middle" x="611" y="-140.5" font-family="Helvetica,sans-Serif" font-size="10.00">Script.GetNumLines</text>
</a>
</g>
</g>
<!-- Node10&#45;&gt;Node23 -->
<g id="edge23" class="edge">
<title>Node10&#45;&gt;Node23</title>
<path fill="none" stroke="midnightblue" d="M479.53,-171.41C502.87,-166.33 531.73,-160.04 556.37,-154.68"/>
<polygon fill="midnightblue" stroke="midnightblue" points="557.26,-158.07 566.28,-152.52 555.77,-151.23 557.26,-158.07"/>
</g>
<!-- Node12 -->
<g id="node12" class="node">
<title>Node12</title>
<g id="a_node12"><a xlink:href="../../da/d2a/class_quest_manager.html#af4e99b4e2c7226a295904bd752701990" target="_top" xlink:title="Takes information from a ScriptableObject Quests, updates the text in a NPC&#39;s quest window and then d...">
<polygon fill="white" stroke="black" points="716,-171.5 716,-190.5 844,-190.5 844,-171.5 716,-171.5"/>
<text text-anchor="middle" x="780" y="-178.5" font-family="Helvetica,sans-Serif" font-size="10.00">QuestManager.NewQuest</text>
</a>
</g>
</g>
<!-- Node11&#45;&gt;Node12 -->
<g id="edge11" class="edge">
<title>Node11&#45;&gt;Node12</title>
<path fill="none" stroke="midnightblue" d="M680.41,-181C688.73,-181 697.26,-181 705.66,-181"/>
<polygon fill="midnightblue" stroke="midnightblue" points="705.8,-184.5 715.8,-181 705.8,-177.5 705.8,-184.5"/>
</g>
<!-- Node13 -->
<g id="node13" class="node">
<title>Node13</title>
<g id="a_node13"><a xlink:href="../../d2/d9c/class_quests.html#aeffdfeffa95e979b76da141d26d1e80e" target="_top" xlink:title=" ">
<polygon fill="white" stroke="black" points="889.5,-342.5 889.5,-361.5 1009.5,-361.5 1009.5,-342.5 889.5,-342.5"/>
<text text-anchor="middle" x="949.5" y="-349.5" font-family="Helvetica,sans-Serif" font-size="10.00">Quests.GetBodyQuality</text>
</a>
</g>
</g>
<!-- Node12&#45;&gt;Node13 -->
<g id="edge12" class="edge">
<title>Node12&#45;&gt;Node13</title>
<path fill="none" stroke="midnightblue" d="M784.42,-190.56C794.52,-217.41 826.89,-294.11 880,-333 882.64,-334.93 885.47,-336.67 888.41,-338.23"/>
<polygon fill="midnightblue" stroke="midnightblue" points="887,-341.43 897.55,-342.4 889.9,-335.06 887,-341.43"/>
</g>
<!-- Node14 -->
<g id="node14" class="node">
<title>Node14</title>
<g id="a_node14"><a xlink:href="../../d2/d9c/class_quests.html#ad0738dc6810034f402639661ef029948" target="_top" xlink:title=" ">
<polygon fill="white" stroke="black" points="891.5,-304.5 891.5,-323.5 1007.5,-323.5 1007.5,-304.5 891.5,-304.5"/>
<text text-anchor="middle" x="949.5" y="-311.5" font-family="Helvetica,sans-Serif" font-size="10.00">Quests.GetDescription</text>
</a>
</g>
</g>
<!-- Node12&#45;&gt;Node14 -->
<g id="edge13" class="edge">
<title>Node12&#45;&gt;Node14</title>
<path fill="none" stroke="midnightblue" d="M786.58,-190.63C799.83,-212.64 835.45,-266.87 880,-295 883.37,-297.13 886.97,-299.02 890.71,-300.7"/>
<polygon fill="midnightblue" stroke="midnightblue" points="889.59,-304.02 900.18,-304.47 892.18,-297.52 889.59,-304.02"/>
</g>
<!-- Node15 -->
<g id="node15" class="node">
<title>Node15</title>
<g id="a_node15"><a xlink:href="../../d8/d63/class_quest.html#af47cdeef38204d5b87a0a5279b6e402d" target="_top" xlink:title=" ">
<polygon fill="white" stroke="black" points="894.5,-266.5 894.5,-285.5 1004.5,-285.5 1004.5,-266.5 894.5,-266.5"/>
<text text-anchor="middle" x="949.5" y="-273.5" font-family="Helvetica,sans-Serif" font-size="10.00">Quest.GetDescription</text>
</a>
</g>
</g>
<!-- Node12&#45;&gt;Node15 -->
<g id="edge14" class="edge">
<title>Node12&#45;&gt;Node15</title>
<path fill="none" stroke="midnightblue" d="M790.8,-190.65C807.63,-206.7 843.74,-238.92 880,-257 884.64,-259.32 889.61,-261.38 894.67,-263.22"/>
<polygon fill="midnightblue" stroke="midnightblue" points="893.85,-266.64 904.44,-266.48 896.06,-260 893.85,-266.64"/>
</g>
<!-- Node16 -->
<g id="node16" class="node">
<title>Node16</title>
<g id="a_node16"><a xlink:href="../../d2/d9c/class_quests.html#a2b148143e147a27d636fe9f6b27f00b2" target="_top" xlink:title=" ">
<polygon fill="white" stroke="black" points="880,-228.5 880,-247.5 1019,-247.5 1019,-228.5 880,-228.5"/>
<text text-anchor="middle" x="949.5" y="-235.5" font-family="Helvetica,sans-Serif" font-size="10.00">Quests.GetRequiredAmount</text>
</a>
</g>
</g>
<!-- Node12&#45;&gt;Node16 -->
<g id="edge15" class="edge">
<title>Node12&#45;&gt;Node16</title>
<path fill="none" stroke="midnightblue" d="M803.98,-190.54C823.9,-198.64 853.6,-210.29 880,-219 887.01,-221.31 894.48,-223.58 901.82,-225.7"/>
<polygon fill="midnightblue" stroke="midnightblue" points="901.11,-229.14 911.69,-228.49 903.02,-222.4 901.11,-229.14"/>
</g>
<!-- Node17 -->
<g id="node17" class="node">
<title>Node17</title>
<g id="a_node17"><a xlink:href="../../d8/d63/class_quest.html#ad5b0f706ced7cbb53b2f2c0c85b2874f" target="_top" xlink:title=" ">
<polygon fill="white" stroke="black" points="882.5,-190.5 882.5,-209.5 1016.5,-209.5 1016.5,-190.5 882.5,-190.5"/>
<text text-anchor="middle" x="949.5" y="-197.5" font-family="Helvetica,sans-Serif" font-size="10.00">Quest.GetRequiredAmount</text>
</a>
</g>
</g>
<!-- Node12&#45;&gt;Node17 -->
<g id="edge16" class="edge">
<title>Node12&#45;&gt;Node17</title>
<path fill="none" stroke="midnightblue" d="M844.32,-188.18C853.44,-189.22 862.9,-190.29 872.24,-191.35"/>
<polygon fill="midnightblue" stroke="midnightblue" points="871.97,-194.84 882.3,-192.49 872.75,-187.89 871.97,-194.84"/>
</g>
<!-- Node18 -->
<g id="node18" class="node">
<title>Node18</title>
<g id="a_node18"><a xlink:href="../../d2/d9c/class_quests.html#a40c6eebeb640111bd0a4690b14d685e6" target="_top" xlink:title=" ">
<polygon fill="white" stroke="black" points="900,-152.5 900,-171.5 999,-171.5 999,-152.5 900,-152.5"/>
<text text-anchor="middle" x="949.5" y="-159.5" font-family="Helvetica,sans-Serif" font-size="10.00">Quests.GetReward</text>
</a>
</g>
</g>
<!-- Node12&#45;&gt;Node18 -->
<g id="edge17" class="edge">
<title>Node12&#45;&gt;Node18</title>
<path fill="none" stroke="midnightblue" d="M844.32,-173.82C859.3,-172.12 875.21,-170.31 889.97,-168.64"/>
<polygon fill="midnightblue" stroke="midnightblue" points="890.43,-172.11 899.97,-167.5 889.64,-165.15 890.43,-172.11"/>
</g>
<!-- Node19 -->
<g id="node19" class="node">
<title>Node19</title>
<g id="a_node19"><a xlink:href="../../d8/d63/class_quest.html#a5d831995ac13b6d64da460f0c1ccc099" target="_top" xlink:title=" ">
<polygon fill="white" stroke="black" points="902.5,-114.5 902.5,-133.5 996.5,-133.5 996.5,-114.5 902.5,-114.5"/>
<text text-anchor="middle" x="949.5" y="-121.5" font-family="Helvetica,sans-Serif" font-size="10.00">Quest.GetReward</text>
</a>
</g>
</g>
<!-- Node12&#45;&gt;Node19 -->
<g id="edge18" class="edge">
<title>Node12&#45;&gt;Node19</title>
<path fill="none" stroke="midnightblue" d="M803.98,-171.46C823.9,-163.36 853.6,-151.71 880,-143 887.01,-140.69 894.48,-138.42 901.82,-136.3"/>
<polygon fill="midnightblue" stroke="midnightblue" points="903.02,-139.6 911.69,-133.51 901.11,-132.86 903.02,-139.6"/>
</g>
<!-- Node20 -->
<g id="node20" class="node">
<title>Node20</title>
<g id="a_node20"><a xlink:href="../../d2/d9c/class_quests.html#ae2b09c686706b40db3fea563b7d16ca7" target="_top" xlink:title="Getter to return the Tag value">
<polygon fill="white" stroke="black" points="908,-76.5 908,-95.5 991,-95.5 991,-76.5 908,-76.5"/>
<text text-anchor="middle" x="949.5" y="-83.5" font-family="Helvetica,sans-Serif" font-size="10.00">Quests.GetTag</text>
</a>
</g>
</g>
<!-- Node12&#45;&gt;Node20 -->
<g id="edge19" class="edge">
<title>Node12&#45;&gt;Node20</title>
<path fill="none" stroke="midnightblue" d="M790.8,-171.35C807.63,-155.3 843.74,-123.08 880,-105 885.65,-102.18 891.78,-99.73 897.98,-97.61"/>
<polygon fill="midnightblue" stroke="midnightblue" points="899.21,-100.89 907.7,-94.55 897.11,-94.22 899.21,-100.89"/>
</g>
<!-- Node21 -->
<g id="node21" class="node">
<title>Node21</title>
<g id="a_node21"><a xlink:href="../../d2/d9c/class_quests.html#a646bd485d5d40e4c6aa6f0996c7cb0b2" target="_top" xlink:title=" ">
<polygon fill="white" stroke="black" points="907,-38.5 907,-57.5 992,-57.5 992,-38.5 907,-38.5"/>
<text text-anchor="middle" x="949.5" y="-45.5" font-family="Helvetica,sans-Serif" font-size="10.00">Quests.GetTitle</text>
</a>
</g>
</g>
<!-- Node12&#45;&gt;Node21 -->
<g id="edge20" class="edge">
<title>Node12&#45;&gt;Node21</title>
<path fill="none" stroke="midnightblue" d="M786.58,-171.37C799.83,-149.36 835.45,-95.13 880,-67 885.27,-63.67 891.13,-60.92 897.14,-58.64"/>
<polygon fill="midnightblue" stroke="midnightblue" points="898.29,-61.95 906.65,-55.44 896.06,-55.31 898.29,-61.95"/>
</g>
<!-- Node22 -->
<g id="node22" class="node">
<title>Node22</title>
<g id="a_node22"><a xlink:href="../../d8/d63/class_quest.html#a4d4cab47f7b82aec091b79bf8fbbda61" target="_top" xlink:title=" ">
<polygon fill="white" stroke="black" points="909.5,-0.5 909.5,-19.5 989.5,-19.5 989.5,-0.5 909.5,-0.5"/>
<text text-anchor="middle" x="949.5" y="-7.5" font-family="Helvetica,sans-Serif" font-size="10.00">Quest.GetTitle</text>
</a>
</g>
</g>
<!-- Node12&#45;&gt;Node22 -->
<g id="edge21" class="edge">
<title>Node12&#45;&gt;Node22</title>
<path fill="none" stroke="midnightblue" d="M784.42,-171.44C794.52,-144.59 826.89,-67.89 880,-29 885.89,-24.69 892.71,-21.36 899.72,-18.78"/>
<polygon fill="midnightblue" stroke="midnightblue" points="900.86,-22.09 909.33,-15.71 898.74,-15.42 900.86,-22.09"/>
</g>
<!-- Node24&#45;&gt;Node5 -->
<g id="edge27" class="edge">
<title>Node24&#45;&gt;Node5</title>
<path fill="none" stroke="midnightblue" d="M479.53,-228.59C504.49,-234.02 535.76,-240.83 561.43,-246.42"/>
<polygon fill="midnightblue" stroke="midnightblue" points="560.81,-249.87 571.33,-248.58 562.3,-243.03 560.81,-249.87"/>
</g>
<!-- Node24&#45;&gt;Node6 -->
<g id="edge28" class="edge">
<title>Node24&#45;&gt;Node6</title>
<path fill="none" stroke="midnightblue" d="M483.64,-219C501.43,-219 521.95,-219 541.21,-219"/>
<polygon fill="midnightblue" stroke="midnightblue" points="541.45,-222.5 551.45,-219 541.45,-215.5 541.45,-222.5"/>
</g>
<!-- Node25&#45;&gt;Node8 -->
<g id="edge30" class="edge">
<title>Node25&#45;&gt;Node8</title>
<path fill="none" stroke="midnightblue" d="M327.24,-113.06C335.62,-113.92 344.16,-114.8 352.57,-115.67"/>
<polygon fill="midnightblue" stroke="midnightblue" points="352.44,-119.17 362.74,-116.71 353.16,-112.21 352.44,-119.17"/>
</g>
</g>
</svg>
        <g id="navigator" transform="translate(0 0)" fill="#404254">
                <rect fill="#f2f5e9" fill-opacity="0.5" stroke="#606060" stroke-width=".5" x="0" y="0" width="60" height="60"/>
                <use id="zoomplus" xlink:href="#zoomPlus" x="17" y="9" onmousedown="handleZoom(evt,'in')"/>
                <use id="zoomminus" xlink:href="#zoomMin" x="42" y="9" onmousedown="handleZoom(evt,'out')"/>
                <use id="reset" xlink:href="#resetDef" x="30" y="36" onmousedown="handleReset()"/>
                <g id="arrowUp" xlink:href="#dirArrow" transform="translate(30 24)" onmousedown="handlePan(0,-1)">
                  <use xlink:href="#rim" fill="#404040">
                        <set attributeName="fill" to="#808080" begin="arrowUp.mouseover" end="arrowUp.mouseout"/>
                  </use>
                  <path fill="none" stroke="white" stroke-width="1.5" d="M0,-3.0v7 M-2.5,-0.5L0,-3.0L2.5,-0.5"/>
                </g>
                <g id="arrowRight" xlink:href="#dirArrow" transform="rotate(90) translate(36 -43)" onmousedown="handlePan(1,0)">
                  <use xlink:href="#rim" fill="#404040">
                        <set attributeName="fill" to="#808080" begin="arrowRight.mouseover" end="arrowRight.mouseout"/>
                  </use>
                  <path fill="none" stroke="white" stroke-width="1.5" d="M0,-3.0v7 M-2.5,-0.5L0,-3.0L2.5,-0.5"/>
                </g>
                <g id="arrowDown" xlink:href="#dirArrow" transform="rotate(180) translate(-30 -48)" onmousedown="handlePan(0,1)">
                  <use xlink:href="#rim" fill="#404040">
                        <set attributeName="fill" to="#808080" begin="arrowDown.mouseover" end="arrowDown.mouseout"/>
                  </use>
                  <path fill="none" stroke="white" stroke-width="1.5" d="M0,-3.0v7 M-2.5,-0.5L0,-3.0L2.5,-0.5"/>
                </g>
                <g id="arrowLeft" xlink:href="#dirArrow" transform="rotate(270) translate(-36 17)" onmousedown="handlePan(-1,0)">
                  <use xlink:href="#rim" fill="#404040">
                        <set attributeName="fill" to="#808080" begin="arrowLeft.mouseover" end="arrowLeft.mouseout"/>
                  </use>
                  <path fill="none" stroke="white" stroke-width="1.5" d="M0,-3.0v7 M-2.5,-0.5L0,-3.0L2.5,-0.5"/>
                </g>
        </g>
        <svg viewBox="0 0 15 15" width="100%" height="30px" preserveAspectRatio="xMaxYMin meet">
         <g id="arrow_out" transform="scale(0.3 0.3)">
          <a xlink:href="class_tutorial_progression_a231523ead6e1a3d466808083b6a07e13_cgraph_org.svg" target="_base">
           <rect id="button" ry="5" rx="5" y="6" x="6" height="38" width="38"
                fill="#f2f5e9" fill-opacity="0.5" stroke="#606060" stroke-width="1.0"/>
           <path id="arrow"
             d="M 11.500037,31.436501 C 11.940474,20.09759 22.043105,11.32322 32.158766,21.979434 L 37.068811,17.246167 C 37.068811,17.246167 37.088388,32 37.088388,32 L 22.160133,31.978069 C 22.160133,31.978069 26.997745,27.140456 26.997745,27.140456 C 18.528582,18.264221 13.291696,25.230495 11.500037,31.436501 z"
             style="fill:#404040;"/>
          </a>
         </g>
        </svg>
</svg>
