<?xml version="1.0" encoding="UTF-8" standalone="no"?>
<!DOCTYPE svg PUBLIC "-//W3C//DTD SVG 1.1//EN"
 "http://www.w3.org/Graphics/SVG/1.1/DTD/svg11.dtd">
<!-- Generated by graphviz version 3.0.0 (20220226.1711)
 -->
<!-- Title: GuardCaughtInteraction.StartBribe Pages: 1 -->
<svg width="632pt" height="142pt"
 viewBox="0.00 0.00 632.00 142.00" xmlns="http://www.w3.org/2000/svg" xmlns:xlink="http://www.w3.org/1999/xlink">
<g id="graph0" class="graph" transform="scale(1 1) rotate(0) translate(4 138)">
<title>GuardCaughtInteraction.StartBribe</title>
<polygon fill="white" stroke="transparent" points="-4,4 -4,-138 628,-138 628,4 -4,4"/>
<!-- Node1 -->
<g id="node1" class="node">
<title>Node1</title>
<g id="a_node1"><a xlink:title="Enable&#39;s the guard&#39;s bribe dialogue and begins bribing sequence.">
<polygon fill="#bfbfbf" stroke="black" points="0,-52 0,-82 143,-82 143,-52 0,-52"/>
<text text-anchor="start" x="8" y="-70" font-family="Helvetica,sans-Serif" font-size="10.00">GuardCaughtInteraction.Start</text>
<text text-anchor="middle" x="71.5" y="-59" font-family="Helvetica,sans-Serif" font-size="10.00">Bribe</text>
</a>
</g>
</g>
<!-- Node2 -->
<g id="node2" class="node">
<title>Node2</title>
<g id="a_node2"><a xlink:href="../../d0/d9d/class_dialogue.html#aef7ce928be67fc788317f82be836399e" target="_top" xlink:title="Adds a new text replacement variable to the list. Replaces it in the list if it already exists.">
<polygon fill="white" stroke="black" points="201.5,-114.5 201.5,-133.5 290.5,-133.5 290.5,-114.5 201.5,-114.5"/>
<text text-anchor="middle" x="246" y="-121.5" font-family="Helvetica,sans-Serif" font-size="10.00">Dialogue.AddVar</text>
</a>
</g>
</g>
<!-- Node1&#45;&gt;Node2 -->
<g id="edge1" class="edge">
<title>Node1&#45;&gt;Node2</title>
<path fill="none" stroke="midnightblue" d="M118.27,-82.13C145.8,-91.22 180.44,-102.67 206.54,-111.29"/>
<polygon fill="midnightblue" stroke="midnightblue" points="205.5,-114.63 216.09,-114.45 207.7,-107.99 205.5,-114.63"/>
</g>
<!-- Node3 -->
<g id="node3" class="node">
<title>Node3</title>
<g id="a_node3"><a xlink:href="../../d7/d75/class_u_i_manager.html#aecab9bf874fbf9fe5f997d6453d50efe" target="_top" xlink:title="Enables the dialogue box.">
<polygon fill="white" stroke="black" points="179,-38.5 179,-57.5 313,-57.5 313,-38.5 179,-38.5"/>
<text text-anchor="middle" x="246" y="-45.5" font-family="Helvetica,sans-Serif" font-size="10.00">UIManager.DialogueEnable</text>
</a>
</g>
</g>
<!-- Node1&#45;&gt;Node3 -->
<g id="edge2" class="edge">
<title>Node1&#45;&gt;Node3</title>
<path fill="none" stroke="midnightblue" d="M143.16,-59.22C151.65,-58.28 160.35,-57.32 168.92,-56.38"/>
<polygon fill="midnightblue" stroke="midnightblue" points="169.34,-59.86 178.89,-55.28 168.57,-52.9 169.34,-59.86"/>
</g>
<!-- Node4 -->
<g id="node4" class="node">
<title>Node4</title>
<g id="a_node4"><a xlink:href="../../d0/d9d/class_dialogue.html#a8eeaf735355b1740a29711ff6206a9c0" target="_top" xlink:title="Will reset the line number and UI to be back at the start of the dialogue">
<polygon fill="white" stroke="black" points="349,-38.5 349,-57.5 469,-57.5 469,-38.5 349,-38.5"/>
<text text-anchor="middle" x="409" y="-45.5" font-family="Helvetica,sans-Serif" font-size="10.00">Dialogue.ResetDialogue</text>
</a>
</g>
</g>
<!-- Node1&#45;&gt;Node4 -->
<g id="edge6" class="edge">
<title>Node1&#45;&gt;Node4</title>
<path fill="none" stroke="midnightblue" d="M143.19,-70.65C191.2,-72.24 256.08,-72.64 313,-67 328.23,-65.49 344.64,-62.66 359.46,-59.62"/>
<polygon fill="midnightblue" stroke="midnightblue" points="360.38,-63.01 369.43,-57.51 358.93,-56.16 360.38,-63.01"/>
</g>
<!-- Node7 -->
<g id="node7" class="node">
<title>Node7</title>
<g id="a_node7"><a xlink:href="../../d0/d9d/class_dialogue.html#a180ac6da7ce18ec4a85787a10107b963" target="_top" xlink:title=" ">
<polygon fill="white" stroke="black" points="350,-0.5 350,-19.5 468,-19.5 468,-0.5 350,-0.5"/>
<text text-anchor="middle" x="409" y="-7.5" font-family="Helvetica,sans-Serif" font-size="10.00">Dialogue.SetScriptVars</text>
</a>
</g>
</g>
<!-- Node1&#45;&gt;Node7 -->
<g id="edge7" class="edge">
<title>Node1&#45;&gt;Node7</title>
<path fill="none" stroke="midnightblue" d="M107.33,-51.98C127.81,-43.81 154.44,-34.31 179,-29 232.29,-17.49 293.95,-12.85 339.85,-11.03"/>
<polygon fill="midnightblue" stroke="midnightblue" points="340.12,-14.52 349.98,-10.67 339.86,-7.53 340.12,-14.52"/>
</g>
<!-- Node3&#45;&gt;Node4 -->
<g id="edge3" class="edge">
<title>Node3&#45;&gt;Node4</title>
<path fill="none" stroke="midnightblue" d="M313.41,-48C321.79,-48 330.37,-48 338.79,-48"/>
<polygon fill="midnightblue" stroke="midnightblue" points="338.95,-51.5 348.95,-48 338.95,-44.5 338.95,-51.5"/>
</g>
<!-- Node5 -->
<g id="node5" class="node">
<title>Node5</title>
<g id="a_node5"><a xlink:href="../../de/d1f/class_script.html#a407ddfa4eec54558554a2982f30226a4" target="_top" xlink:title="Will get a line based on index">
<polygon fill="white" stroke="black" points="525,-38.5 525,-57.5 604,-57.5 604,-38.5 525,-38.5"/>
<text text-anchor="middle" x="564.5" y="-45.5" font-family="Helvetica,sans-Serif" font-size="10.00">Script.GetLine</text>
</a>
</g>
</g>
<!-- Node4&#45;&gt;Node5 -->
<g id="edge4" class="edge">
<title>Node4&#45;&gt;Node5</title>
<path fill="none" stroke="midnightblue" d="M469.35,-48C484.28,-48 500.15,-48 514.51,-48"/>
<polygon fill="midnightblue" stroke="midnightblue" points="514.67,-51.5 524.67,-48 514.67,-44.5 514.67,-51.5"/>
</g>
<!-- Node6 -->
<g id="node6" class="node">
<title>Node6</title>
<g id="a_node6"><a xlink:href="../../d0/d9d/class_dialogue.html#afef8d4afc2a211e77f21471041884a11" target="_top" xlink:title="Updates the Dialogue UI based on the current line passed in">
<polygon fill="white" stroke="black" points="505,-0.5 505,-19.5 624,-19.5 624,-0.5 505,-0.5"/>
<text text-anchor="middle" x="564.5" y="-7.5" font-family="Helvetica,sans-Serif" font-size="10.00">Dialogue.SetDialogueUI</text>
</a>
</g>
</g>
<!-- Node4&#45;&gt;Node6 -->
<g id="edge5" class="edge">
<title>Node4&#45;&gt;Node6</title>
<path fill="none" stroke="midnightblue" d="M448.73,-38.41C468.9,-33.42 493.75,-27.27 515.16,-21.97"/>
<polygon fill="midnightblue" stroke="midnightblue" points="516.18,-25.32 525.04,-19.52 514.5,-18.53 516.18,-25.32"/>
</g>
<!-- Node7&#45;&gt;Node5 -->
<g id="edge8" class="edge">
<title>Node7&#45;&gt;Node5</title>
<path fill="none" stroke="midnightblue" d="M448.73,-19.59C468.9,-24.58 493.75,-30.73 515.16,-36.03"/>
<polygon fill="midnightblue" stroke="midnightblue" points="514.5,-39.47 525.04,-38.48 516.18,-32.68 514.5,-39.47"/>
</g>
<!-- Node7&#45;&gt;Node6 -->
<g id="edge9" class="edge">
<title>Node7&#45;&gt;Node6</title>
<path fill="none" stroke="midnightblue" d="M468.03,-10C476.79,-10 485.9,-10 494.85,-10"/>
<polygon fill="midnightblue" stroke="midnightblue" points="494.88,-13.5 504.88,-10 494.88,-6.5 494.88,-13.5"/>
</g>
</g>
</svg>
