<?xml version="1.0" encoding="UTF-8" standalone="no"?>
<!DOCTYPE svg PUBLIC "-//W3C//DTD SVG 1.1//EN"
 "http://www.w3.org/Graphics/SVG/1.1/DTD/svg11.dtd">
<!-- Generated by graphviz version 3.0.0 (20220226.1711)
 -->
<!-- Title: TorpedoMinigame Pages: 1 -->
<svg width="195pt" height="152pt"
 viewBox="0.00 0.00 194.50 152.00" xmlns="http://www.w3.org/2000/svg" xmlns:xlink="http://www.w3.org/1999/xlink">
<g id="graph0" class="graph" transform="scale(1 1) rotate(0) translate(4 148)">
<title>TorpedoMinigame</title>
<polygon fill="white" stroke="transparent" points="-4,4 -4,-148 190.5,-148 190.5,4 -4,4"/>
<!-- Node1 -->
<g id="node1" class="node">
<title>Node1</title>
<g id="a_node1"><a xlink:title="Controls the Torpedo Minigame">
<polygon fill="#bfbfbf" stroke="black" points="41,-0.5 41,-19.5 134,-19.5 134,-0.5 41,-0.5"/>
<text text-anchor="middle" x="87.5" y="-7.5" font-family="Helvetica,sans-Serif" font-size="10.00">TorpedoMinigame</text>
</a>
</g>
</g>
<!-- Node2 -->
<g id="node2" class="node">
<title>Node2</title>
<g id="a_node2"><a xlink:href="../../d4/d92/class_mini_game.html" target="_top" xlink:title="Base class for minigames">
<polygon fill="white" stroke="black" points="11,-67.5 11,-86.5 72,-86.5 72,-67.5 11,-67.5"/>
<text text-anchor="middle" x="41.5" y="-74.5" font-family="Helvetica,sans-Serif" font-size="10.00">MiniGame</text>
</a>
</g>
</g>
<!-- Node2&#45;&gt;Node1 -->
<g id="edge1" class="edge">
<title>Node2&#45;&gt;Node1</title>
<path fill="none" stroke="midnightblue" d="M53.6,-58.9C62.54,-46.27 74.33,-29.6 81.39,-19.63"/>
<polygon fill="midnightblue" stroke="midnightblue" points="50.62,-57.05 47.7,-67.23 56.34,-61.09 50.62,-57.05"/>
</g>
<!-- Node3 -->
<g id="node3" class="node">
<title>Node3</title>
<g id="a_node3"><a xlink:href="../../da/d01/class_mono_behaviour.html" target="_top" xlink:title=" ">
<polygon fill="white" stroke="black" points="0,-124.5 0,-143.5 83,-143.5 83,-124.5 0,-124.5"/>
<text text-anchor="middle" x="41.5" y="-131.5" font-family="Helvetica,sans-Serif" font-size="10.00">MonoBehaviour</text>
</a>
</g>
</g>
<!-- Node3&#45;&gt;Node2 -->
<g id="edge2" class="edge">
<title>Node3&#45;&gt;Node2</title>
<path fill="none" stroke="midnightblue" d="M41.5,-114.12C41.5,-104.82 41.5,-94.06 41.5,-86.71"/>
<polygon fill="midnightblue" stroke="midnightblue" points="38,-114.41 41.5,-124.41 45,-114.41 38,-114.41"/>
</g>
<!-- Node4 -->
<g id="node4" class="node">
<title>Node4</title>
<g id="a_node4"><a xlink:title=" ">
<polygon fill="white" stroke="black" points="90,-67.5 90,-86.5 119,-86.5 119,-67.5 90,-67.5"/>
<text text-anchor="middle" x="104.5" y="-74.5" font-family="Helvetica,sans-Serif" font-size="10.00">int</text>
</a>
</g>
</g>
<!-- Node4&#45;&gt;Node1 -->
<g id="edge3" class="edge">
<title>Node4&#45;&gt;Node1</title>
<path fill="none" stroke="#9a32cd" stroke-dasharray="5,2" d="M99.64,-57.41C96.39,-44.99 92.26,-29.22 89.76,-19.63"/>
<polygon fill="#9a32cd" stroke="#9a32cd" points="96.29,-58.44 102.21,-67.23 103.06,-56.67 96.29,-58.44"/>
<text text-anchor="middle" x="141.5" y="-41" font-family="Helvetica,sans-Serif" font-size="10.00"> GoalClickedButtons</text>
</g>
</g>
</svg>
