<?xml version="1.0" encoding="UTF-8" standalone="no"?>
<!DOCTYPE svg PUBLIC "-//W3C//DTD SVG 1.1//EN"
 "http://www.w3.org/Graphics/SVG/1.1/DTD/svg11.dtd">
<!-- Generated by graphviz version 3.0.0 (20220226.1711)
 -->
<!-- Title: TripWireMiniGameTrigger Pages: 1 -->
<!--zoomable 219 -->
<svg id="main" version="1.1" xmlns="http://www.w3.org/2000/svg" xmlns:xlink="http://www.w3.org/1999/xlink" xml:space="preserve" onload="init(evt)">
<style type="text/css"><![CDATA[
.edge:hover path { stroke: red; }
.edge:hover polygon { stroke: red; fill: red; }
]]></style>
<script type="text/javascript"><![CDATA[
var edges = document.getElementsByTagName('g');
if (edges && edges.length) {
  for (var i=0;i<edges.length;i++) {
    if (edges[i].id.substr(0,4)=='edge') {
      edges[i].setAttribute('class','edge');
    }
  }
}
]]></script>
        <defs>
                <circle id="rim" cx="0" cy="0" r="7"/>
                <circle id="rim2" cx="0" cy="0" r="3.5"/>
                <g id="zoomPlus">
                        <use xlink:href="#rim" fill="#404040">
                                <set attributeName="fill" to="#808080" begin="zoomplus.mouseover" end="zoomplus.mouseout"/>
                        </use>
                        <path d="M-4,0h8M0,-4v8" fill="none" stroke="white" stroke-width="1.5" pointer-events="none"/>
                </g>
                <g id="zoomMin">
                        <use xlink:href="#rim" fill="#404040">
                                <set attributeName="fill" to="#808080" begin="zoomminus.mouseover" end="zoomminus.mouseout"/>
                        </use>
                        <path d="M-4,0h8" fill="none" stroke="white" stroke-width="1.5" pointer-events="none"/>
                </g>
                <g id="dirArrow">
                        <path fill="none" stroke="white" stroke-width="1.5" d="M0,-3.0v7 M-2.5,-0.5L0,-3.0L2.5,-0.5"/>
                </g>
               <g id="resetDef">
                       <use xlink:href="#rim2" fill="#404040">
                               <set attributeName="fill" to="#808080" begin="reset.mouseover" end="reset.mouseout"/>
                       </use>
               </g>
        </defs>

<script type="text/javascript">
var viewWidth = 676;
var viewHeight = 219;
var sectionId = 'dynsection-1';
</script>
<script xlink:href="../../svgpan.js"/>
<svg id="graph" class="graph">
<g id="viewport">
<title>TripWireMiniGameTrigger</title>
<polygon fill="white" stroke="transparent" points="-4,4 -4,-215 671.5,-215 671.5,4 -4,4"/>
<!-- Node1 -->
<g id="node1" class="node">
<title>Node1</title>
<g id="a_node1"><a xlink:title="detects when the line intsects with the mouse collider and resets the line position">
<polygon fill="#bfbfbf" stroke="black" points="247.5,-0.5 247.5,-19.5 373.5,-19.5 373.5,-0.5 247.5,-0.5"/>
<text text-anchor="middle" x="310.5" y="-7.5" font-family="Helvetica,sans-Serif" font-size="10.00">TripWireMiniGameTrigger</text>
</a>
</g>
</g>
<!-- Node2 -->
<g id="node2" class="node">
<title>Node2</title>
<g id="a_node2"><a xlink:href="../../da/d01/class_mono_behaviour.html" target="_top" xlink:title=" ">
<polygon fill="white" stroke="black" points="0,-191.5 0,-210.5 83,-210.5 83,-191.5 0,-191.5"/>
<text text-anchor="middle" x="41.5" y="-198.5" font-family="Helvetica,sans-Serif" font-size="10.00">MonoBehaviour</text>
</a>
</g>
</g>
<!-- Node2&#45;&gt;Node1 -->
<g id="edge1" class="edge">
<title>Node2&#45;&gt;Node1</title>
<path fill="none" stroke="midnightblue" d="M38.84,-181.27C37.85,-167.03 38.8,-147.63 48.5,-134 98.34,-64.01 198.5,-32.64 259.51,-19.53"/>
<polygon fill="midnightblue" stroke="midnightblue" points="35.38,-181.8 39.93,-191.37 42.34,-181.06 35.38,-181.8"/>
</g>
<!-- Node4 -->
<g id="node4" class="node">
<title>Node4</title>
<g id="a_node4"><a xlink:href="../../d4/d92/class_mini_game.html" target="_top" xlink:title="Base class for minigames">
<polygon fill="white" stroke="black" points="58,-134.5 58,-153.5 119,-153.5 119,-134.5 58,-134.5"/>
<text text-anchor="middle" x="88.5" y="-141.5" font-family="Helvetica,sans-Serif" font-size="10.00">MiniGame</text>
</a>
</g>
</g>
<!-- Node2&#45;&gt;Node4 -->
<g id="edge4" class="edge">
<title>Node2&#45;&gt;Node4</title>
<path fill="none" stroke="midnightblue" d="M55.57,-183.53C63.94,-173.74 74.23,-161.7 81.05,-153.71"/>
<polygon fill="midnightblue" stroke="midnightblue" points="52.68,-181.53 48.84,-191.41 58,-186.08 52.68,-181.53"/>
</g>
<!-- Node3 -->
<g id="node3" class="node">
<title>Node3</title>
<g id="a_node3"><a xlink:href="../../d3/d57/class_trip_wire_mini_game.html" target="_top" xlink:title="Controls the trip wire minigame, V2">
<polygon fill="white" stroke="black" points="262,-67.5 262,-86.5 359,-86.5 359,-67.5 262,-67.5"/>
<text text-anchor="middle" x="310.5" y="-74.5" font-family="Helvetica,sans-Serif" font-size="10.00">TripWireMiniGame</text>
</a>
</g>
</g>
<!-- Node3&#45;&gt;Node1 -->
<g id="edge2" class="edge">
<title>Node3&#45;&gt;Node1</title>
<path fill="none" stroke="#9a32cd" stroke-dasharray="5,2" d="M310.5,-57.04C310.5,-44.67 310.5,-29.12 310.5,-19.63"/>
<polygon fill="#9a32cd" stroke="#9a32cd" points="307,-57.23 310.5,-67.23 314,-57.23 307,-57.23"/>
<text text-anchor="middle" x="334.5" y="-41" font-family="Helvetica,sans-Serif" font-size="10.00"> MiniGame</text>
</g>
<!-- Node4&#45;&gt;Node3 -->
<g id="edge3" class="edge">
<title>Node4&#45;&gt;Node3</title>
<path fill="none" stroke="midnightblue" d="M115.15,-130.1C132.8,-121.98 156.63,-111.78 178.5,-105 205.65,-96.58 236.76,-90.07 261.96,-85.56"/>
<polygon fill="midnightblue" stroke="midnightblue" points="113.61,-126.96 106.04,-134.37 116.58,-133.3 113.61,-126.96"/>
</g>
<!-- Node5 -->
<g id="node5" class="node">
<title>Node5</title>
<g id="a_node5"><a xlink:title=" ">
<polygon fill="white" stroke="black" points="137.5,-134.5 137.5,-153.5 217.5,-153.5 217.5,-134.5 137.5,-134.5"/>
<text text-anchor="middle" x="177.5" y="-141.5" font-family="Helvetica,sans-Serif" font-size="10.00">SphereCollider</text>
</a>
</g>
</g>
<!-- Node5&#45;&gt;Node3 -->
<g id="edge5" class="edge">
<title>Node5&#45;&gt;Node3</title>
<path fill="none" stroke="#9a32cd" stroke-dasharray="5,2" d="M178.92,-124.34C180.38,-117.4 183.17,-110 188.5,-105 199.22,-94.95 232.77,-87.97 261.98,-83.63"/>
<polygon fill="#9a32cd" stroke="#9a32cd" points="175.42,-124.1 177.58,-134.47 182.36,-125.02 175.42,-124.1"/>
<text text-anchor="middle" x="221" y="-108" font-family="Helvetica,sans-Serif" font-size="10.00"> MouseCollider</text>
</g>
<!-- Node6 -->
<g id="node6" class="node">
<title>Node6</title>
<g id="a_node6"><a xlink:title=" ">
<polygon fill="white" stroke="black" points="237,-134.5 237,-153.5 272,-153.5 272,-134.5 237,-134.5"/>
<text text-anchor="middle" x="254.5" y="-141.5" font-family="Helvetica,sans-Serif" font-size="10.00">bool</text>
</a>
</g>
</g>
<!-- Node6&#45;&gt;Node3 -->
<g id="edge6" class="edge">
<title>Node6&#45;&gt;Node3</title>
<path fill="none" stroke="#9a32cd" stroke-dasharray="5,2" d="M254.73,-124.16C255.6,-117.6 257.53,-110.51 261.5,-105 267.41,-96.81 276.6,-90.81 285.44,-86.59"/>
<polygon fill="#9a32cd" stroke="#9a32cd" points="251.22,-124.13 254.07,-134.34 258.21,-124.58 251.22,-124.13"/>
<text text-anchor="middle" x="296" y="-108" font-family="Helvetica,sans-Serif" font-size="10.00"> MousePressed</text>
</g>
<!-- Node7 -->
<g id="node7" class="node">
<title>Node7</title>
<g id="a_node7"><a xlink:title=" ">
<polygon fill="white" stroke="black" points="290.5,-134.5 290.5,-153.5 422.5,-153.5 422.5,-134.5 290.5,-134.5"/>
<text text-anchor="middle" x="356.5" y="-141.5" font-family="Helvetica,sans-Serif" font-size="10.00">List&lt; TripwireStartPoints &gt;</text>
</a>
</g>
</g>
<!-- Node7&#45;&gt;Node3 -->
<g id="edge7" class="edge">
<title>Node7&#45;&gt;Node3</title>
<path fill="none" stroke="#9a32cd" stroke-dasharray="5,2" d="M347.3,-125.41C343.6,-118.83 339.12,-111.39 334.5,-105 329.8,-98.49 323.8,-91.74 318.97,-86.62"/>
<polygon fill="#9a32cd" stroke="#9a32cd" points="344.24,-127.12 352.08,-134.24 350.39,-123.78 344.24,-127.12"/>
<text text-anchor="middle" x="373" y="-108" font-family="Helvetica,sans-Serif" font-size="10.00"> StartingPoints</text>
</g>
<!-- Node8 -->
<g id="node8" class="node">
<title>Node8</title>
<g id="a_node8"><a xlink:title=" ">
<polygon fill="white" stroke="black" points="441,-134.5 441,-153.5 518,-153.5 518,-134.5 441,-134.5"/>
<text text-anchor="middle" x="479.5" y="-141.5" font-family="Helvetica,sans-Serif" font-size="10.00">List&lt; Image &gt;</text>
</a>
</g>
</g>
<!-- Node8&#45;&gt;Node3 -->
<g id="edge8" class="edge">
<title>Node8&#45;&gt;Node3</title>
<path fill="none" stroke="#9a32cd" stroke-dasharray="5,2" d="M457.05,-129.08C443.63,-121.21 426.02,-111.63 409.5,-105 390.49,-97.37 368.58,-91.14 350.21,-86.6"/>
<polygon fill="#9a32cd" stroke="#9a32cd" points="455.64,-132.31 466.01,-134.45 459.24,-126.31 455.64,-132.31"/>
<text text-anchor="middle" x="457" y="-108" font-family="Helvetica,sans-Serif" font-size="10.00"> LineImages</text>
</g>
<!-- Node9 -->
<g id="node9" class="node">
<title>Node9</title>
<g id="a_node9"><a xlink:title=" ">
<polygon fill="white" stroke="black" points="536,-134.5 536,-153.5 571,-153.5 571,-134.5 536,-134.5"/>
<text text-anchor="middle" x="553.5" y="-141.5" font-family="Helvetica,sans-Serif" font-size="10.00">Text</text>
</a>
</g>
</g>
<!-- Node9&#45;&gt;Node3 -->
<g id="edge9" class="edge">
<title>Node9&#45;&gt;Node3</title>
<path fill="none" stroke="#9a32cd" stroke-dasharray="5,2" d="M533.17,-128.63C520.58,-120.44 503.77,-110.69 487.5,-105 437.01,-87.35 421.37,-95.1 368.5,-87 365.48,-86.54 362.37,-86.06 359.23,-85.58"/>
<polygon fill="#9a32cd" stroke="#9a32cd" points="531.27,-131.57 541.52,-134.25 535.17,-125.77 531.27,-131.57"/>
<text text-anchor="middle" x="537" y="-108" font-family="Helvetica,sans-Serif" font-size="10.00"> InstructText</text>
</g>
<!-- Node10 -->
<g id="node10" class="node">
<title>Node10</title>
<g id="a_node10"><a xlink:title=" ">
<polygon fill="white" stroke="black" points="617,-134.5 617,-153.5 646,-153.5 646,-134.5 617,-134.5"/>
<text text-anchor="middle" x="631.5" y="-141.5" font-family="Helvetica,sans-Serif" font-size="10.00">int</text>
</a>
</g>
</g>
<!-- Node10&#45;&gt;Node3 -->
<g id="edge10" class="edge">
<title>Node10&#45;&gt;Node3</title>
<path fill="none" stroke="#9a32cd" stroke-dasharray="5,2" d="M612.4,-128.33C600.45,-119.99 584.37,-110.19 568.5,-105 483.68,-77.24 457.09,-97.85 368.5,-87 365.47,-86.63 362.35,-86.22 359.2,-85.79"/>
<polygon fill="#9a32cd" stroke="#9a32cd" points="610.5,-131.28 620.65,-134.33 614.62,-125.62 610.5,-131.28"/>
<text text-anchor="middle" x="629.5" y="-108" font-family="Helvetica,sans-Serif" font-size="10.00"> CompletedWires</text>
</g>
<!-- Node11 -->
<g id="node11" class="node">
<title>Node11</title>
<g id="a_node11"><a xlink:title=" ">
<polygon fill="white" stroke="black" points="377,-67.5 377,-86.5 418,-86.5 418,-67.5 377,-67.5"/>
<text text-anchor="middle" x="397.5" y="-74.5" font-family="Helvetica,sans-Serif" font-size="10.00">string</text>
</a>
</g>
</g>
<!-- Node11&#45;&gt;Node1 -->
<g id="edge11" class="edge">
<title>Node11&#45;&gt;Node1</title>
<path fill="none" stroke="#9a32cd" stroke-dasharray="5,2" d="M384.57,-59.54C378.39,-52.36 370.59,-44.19 362.5,-38 352.88,-30.65 340.97,-24.3 330.98,-19.61"/>
<polygon fill="#9a32cd" stroke="#9a32cd" points="381.93,-61.85 390.99,-67.34 387.33,-57.4 381.93,-61.85"/>
<text text-anchor="middle" x="413" y="-41" font-family="Helvetica,sans-Serif" font-size="10.00"> CurrentLineName</text>
</g>
</g>
</svg>
        <g id="navigator" transform="translate(0 0)" fill="#404254">
                <rect fill="#f2f5e9" fill-opacity="0.5" stroke="#606060" stroke-width=".5" x="0" y="0" width="60" height="60"/>
                <use id="zoomplus" xlink:href="#zoomPlus" x="17" y="9" onmousedown="handleZoom(evt,'in')"/>
                <use id="zoomminus" xlink:href="#zoomMin" x="42" y="9" onmousedown="handleZoom(evt,'out')"/>
                <use id="reset" xlink:href="#resetDef" x="30" y="36" onmousedown="handleReset()"/>
                <g id="arrowUp" xlink:href="#dirArrow" transform="translate(30 24)" onmousedown="handlePan(0,-1)">
                  <use xlink:href="#rim" fill="#404040">
                        <set attributeName="fill" to="#808080" begin="arrowUp.mouseover" end="arrowUp.mouseout"/>
                  </use>
                  <path fill="none" stroke="white" stroke-width="1.5" d="M0,-3.0v7 M-2.5,-0.5L0,-3.0L2.5,-0.5"/>
                </g>
                <g id="arrowRight" xlink:href="#dirArrow" transform="rotate(90) translate(36 -43)" onmousedown="handlePan(1,0)">
                  <use xlink:href="#rim" fill="#404040">
                        <set attributeName="fill" to="#808080" begin="arrowRight.mouseover" end="arrowRight.mouseout"/>
                  </use>
                  <path fill="none" stroke="white" stroke-width="1.5" d="M0,-3.0v7 M-2.5,-0.5L0,-3.0L2.5,-0.5"/>
                </g>
                <g id="arrowDown" xlink:href="#dirArrow" transform="rotate(180) translate(-30 -48)" onmousedown="handlePan(0,1)">
                  <use xlink:href="#rim" fill="#404040">
                        <set attributeName="fill" to="#808080" begin="arrowDown.mouseover" end="arrowDown.mouseout"/>
                  </use>
                  <path fill="none" stroke="white" stroke-width="1.5" d="M0,-3.0v7 M-2.5,-0.5L0,-3.0L2.5,-0.5"/>
                </g>
                <g id="arrowLeft" xlink:href="#dirArrow" transform="rotate(270) translate(-36 17)" onmousedown="handlePan(-1,0)">
                  <use xlink:href="#rim" fill="#404040">
                        <set attributeName="fill" to="#808080" begin="arrowLeft.mouseover" end="arrowLeft.mouseout"/>
                  </use>
                  <path fill="none" stroke="white" stroke-width="1.5" d="M0,-3.0v7 M-2.5,-0.5L0,-3.0L2.5,-0.5"/>
                </g>
        </g>
        <svg viewBox="0 0 15 15" width="100%" height="30px" preserveAspectRatio="xMaxYMin meet">
         <g id="arrow_out" transform="scale(0.3 0.3)">
          <a xlink:href="class_trip_wire_mini_game_trigger__coll__graph_org.svg" target="_base">
           <rect id="button" ry="5" rx="5" y="6" x="6" height="38" width="38"
                fill="#f2f5e9" fill-opacity="0.5" stroke="#606060" stroke-width="1.0"/>
           <path id="arrow"
             d="M 11.500037,31.436501 C 11.940474,20.09759 22.043105,11.32322 32.158766,21.979434 L 37.068811,17.246167 C 37.068811,17.246167 37.088388,32 37.088388,32 L 22.160133,31.978069 C 22.160133,31.978069 26.997745,27.140456 26.997745,27.140456 C 18.528582,18.264221 13.291696,25.230495 11.500037,31.436501 z"
             style="fill:#404040;"/>
          </a>
         </g>
        </svg>
</svg>
