<?xml version="1.0" encoding="UTF-8" standalone="no"?>
<!DOCTYPE svg PUBLIC "-//W3C//DTD SVG 1.1//EN"
 "http://www.w3.org/Graphics/SVG/1.1/DTD/svg11.dtd">
<!-- Generated by graphviz version 3.0.0 (20220226.1711)
 -->
<!-- Title: TutorialMapGen Pages: 1 -->
<svg width="681pt" height="638pt"
 viewBox="0.00 0.00 681.00 638.02" xmlns="http://www.w3.org/2000/svg" xmlns:xlink="http://www.w3.org/1999/xlink">
<g id="graph0" class="graph" transform="scale(1 1) rotate(0) translate(4 634.02)">
<title>TutorialMapGen</title>
<polygon fill="white" stroke="transparent" points="-4,4 -4,-634.02 677,-634.02 677,4 -4,4"/>
<!-- Node1 -->
<g id="node1" class="node">
<title>Node1</title>
<g id="a_node1"><a xlink:title=" ">
<polygon fill="#bfbfbf" stroke="black" points="588,-315.52 588,-334.52 673,-334.52 673,-315.52 588,-315.52"/>
<text text-anchor="middle" x="630.5" y="-322.52" font-family="Helvetica,sans-Serif" font-size="10.00">TutorialMapGen</text>
</a>
</g>
</g>
<!-- Node2 -->
<g id="node2" class="node">
<title>Node2</title>
<g id="a_node2"><a xlink:href="../../d1/d3d/class_map_generation.html" target="_top" xlink:title="Handles everything for map generation withing a graveyard.">
<polygon fill="white" stroke="black" points="461.5,-315.52 461.5,-334.52 544.5,-334.52 544.5,-315.52 461.5,-315.52"/>
<text text-anchor="middle" x="503" y="-322.52" font-family="Helvetica,sans-Serif" font-size="10.00">MapGeneration</text>
</a>
</g>
</g>
<!-- Node2&#45;&gt;Node1 -->
<g id="edge1" class="edge">
<title>Node2&#45;&gt;Node1</title>
<path fill="none" stroke="midnightblue" d="M554.97,-325.02C565.84,-325.02 577.19,-325.02 587.67,-325.02"/>
<polygon fill="midnightblue" stroke="midnightblue" points="554.75,-321.52 544.75,-325.02 554.75,-328.52 554.75,-321.52"/>
</g>
<!-- Node3 -->
<g id="node3" class="node">
<title>Node3</title>
<g id="a_node3"><a xlink:href="../../da/d01/class_mono_behaviour.html" target="_top" xlink:title=" ">
<polygon fill="white" stroke="black" points="0,-324.52 0,-343.52 83,-343.52 83,-324.52 0,-324.52"/>
<text text-anchor="middle" x="41.5" y="-331.52" font-family="Helvetica,sans-Serif" font-size="10.00">MonoBehaviour</text>
</a>
</g>
</g>
<!-- Node3&#45;&gt;Node2 -->
<g id="edge2" class="edge">
<title>Node3&#45;&gt;Node2</title>
<path fill="none" stroke="midnightblue" d="M51.17,-353.12C67.15,-385.71 104.65,-451.12 159,-478.02 214.38,-505.43 385.67,-517.41 437,-483.02 489,-448.19 499.44,-363.44 501.5,-334.72"/>
<polygon fill="midnightblue" stroke="midnightblue" points="54.19,-351.32 46.75,-343.79 47.87,-354.32 54.19,-351.32"/>
</g>
<!-- Node7 -->
<g id="node7" class="node">
<title>Node7</title>
<g id="a_node7"><a xlink:href="../../d7/d55/class_tile_data.html" target="_top" xlink:title="Stores information on each tile in the map.">
<polygon fill="white" stroke="black" points="211.5,-279.52 211.5,-298.52 263.5,-298.52 263.5,-279.52 211.5,-279.52"/>
<text text-anchor="middle" x="237.5" y="-286.52" font-family="Helvetica,sans-Serif" font-size="10.00">TileData</text>
</a>
</g>
</g>
<!-- Node3&#45;&gt;Node7 -->
<g id="edge7" class="edge">
<title>Node3&#45;&gt;Node7</title>
<path fill="none" stroke="midnightblue" d="M93.03,-322.3C131.01,-313.49 181.44,-301.79 211.28,-294.87"/>
<polygon fill="midnightblue" stroke="midnightblue" points="92.12,-318.92 83.17,-324.59 93.7,-325.74 92.12,-318.92"/>
</g>
<!-- Node13 -->
<g id="node13" class="node">
<title>Node13</title>
<g id="a_node13"><a xlink:href="../../d3/d59/class_unity_engine_1_1_a_i_1_1_nav_mesh_surface.html" target="_top" xlink:title=" ">
<polygon fill="white" stroke="black" points="159,-317.52 159,-336.52 316,-336.52 316,-317.52 159,-317.52"/>
<text text-anchor="middle" x="237.5" y="-324.52" font-family="Helvetica,sans-Serif" font-size="10.00">UnityEngine.AI.NavMeshSurface</text>
</a>
</g>
</g>
<!-- Node3&#45;&gt;Node13 -->
<g id="edge15" class="edge">
<title>Node3&#45;&gt;Node13</title>
<path fill="none" stroke="midnightblue" d="M93.28,-332.19C113.25,-331.47 136.64,-330.63 158.65,-329.83"/>
<polygon fill="midnightblue" stroke="midnightblue" points="93.04,-328.7 83.17,-332.56 93.29,-335.69 93.04,-328.7"/>
</g>
<!-- Node4 -->
<g id="node4" class="node">
<title>Node4</title>
<g id="a_node4"><a xlink:title=" ">
<polygon fill="white" stroke="black" points="202,-588.52 202,-607.52 273,-607.52 273,-588.52 202,-588.52"/>
<text text-anchor="middle" x="237.5" y="-595.52" font-family="Helvetica,sans-Serif" font-size="10.00">GameObject</text>
</a>
</g>
</g>
<!-- Node4&#45;&gt;Node1 -->
<g id="edge19" class="edge">
<title>Node4&#45;&gt;Node1</title>
<path fill="none" stroke="#9a32cd" stroke-dasharray="5,2" d="M274.48,-610.63C316.18,-622.94 385.73,-636.21 437,-609.02 554.61,-546.66 613.59,-376.72 626.67,-334.58"/>
<polygon fill="#9a32cd" stroke="#9a32cd" points="275.35,-607.23 264.76,-607.63 273.28,-613.92 275.35,-607.23"/>
<text text-anchor="middle" x="503" y="-622.02" font-family="Helvetica,sans-Serif" font-size="10.00"> GraveArrow</text>
<text text-anchor="middle" x="503" y="-611.02" font-family="Helvetica,sans-Serif" font-size="10.00">InvisibleWallPrefab</text>
<text text-anchor="middle" x="503" y="-600.02" font-family="Helvetica,sans-Serif" font-size="10.00">MentorPrefab</text>
</g>
<!-- Node4&#45;&gt;Node2 -->
<g id="edge3" class="edge">
<title>Node4&#45;&gt;Node2</title>
<path fill="none" stroke="#9a32cd" stroke-dasharray="5,2" d="M273.3,-585.02C291.28,-578.56 313.66,-570.89 334,-565.02 379.16,-552 402.73,-573.19 437,-541.02 498.68,-483.14 502.55,-369.16 502.25,-334.96"/>
<polygon fill="#9a32cd" stroke="#9a32cd" points="272.01,-581.77 263.81,-588.47 274.4,-588.35 272.01,-581.77"/>
<text text-anchor="middle" x="385.5" y="-601.02" font-family="Helvetica,sans-Serif" font-size="10.00"> Guard</text>
<text text-anchor="middle" x="385.5" y="-590.02" font-family="Helvetica,sans-Serif" font-size="10.00">Headstones</text>
<text text-anchor="middle" x="385.5" y="-579.02" font-family="Helvetica,sans-Serif" font-size="10.00">Parent</text>
<text text-anchor="middle" x="385.5" y="-568.02" font-family="Helvetica,sans-Serif" font-size="10.00">Tiles</text>
</g>
<!-- Node5 -->
<g id="node5" class="node">
<title>Node5</title>
<g id="a_node5"><a xlink:title=" ">
<polygon fill="white" stroke="black" points="185,-411.52 185,-430.52 290,-430.52 290,-411.52 185,-411.52"/>
<text text-anchor="middle" x="237.5" y="-418.52" font-family="Helvetica,sans-Serif" font-size="10.00">List&lt; GameObject &gt;</text>
</a>
</g>
</g>
<!-- Node5&#45;&gt;Node2 -->
<g id="edge4" class="edge">
<title>Node5&#45;&gt;Node2</title>
<path fill="none" stroke="#9a32cd" stroke-dasharray="5,2" d="M300.31,-430.9C341.39,-434.45 395.25,-433.13 437,-411.02 469.09,-394.03 489.87,-353.41 498.06,-334.72"/>
<polygon fill="#9a32cd" stroke="#9a32cd" points="300.45,-427.39 290.15,-429.9 299.76,-434.36 300.45,-427.39"/>
<text text-anchor="middle" x="385.5" y="-435.02" font-family="Helvetica,sans-Serif" font-size="10.00"> GuardList</text>
</g>
<!-- Node6 -->
<g id="node6" class="node">
<title>Node6</title>
<g id="a_node6"><a xlink:title=" ">
<polygon fill="white" stroke="black" points="190,-355.52 190,-374.52 285,-374.52 285,-355.52 190,-355.52"/>
<text text-anchor="middle" x="237.5" y="-362.52" font-family="Helvetica,sans-Serif" font-size="10.00">List&lt; Vector2Int &gt;</text>
</a>
</g>
</g>
<!-- Node6&#45;&gt;Node2 -->
<g id="edge5" class="edge">
<title>Node6&#45;&gt;Node2</title>
<path fill="none" stroke="#9a32cd" stroke-dasharray="5,2" d="M295.15,-357.68C334.91,-352.37 389.28,-344.79 437,-337.02 444.93,-335.73 453.38,-334.25 461.48,-332.78"/>
<polygon fill="#9a32cd" stroke="#9a32cd" points="294.56,-354.23 285.11,-359.02 295.48,-361.17 294.56,-354.23"/>
<text text-anchor="middle" x="385.5" y="-399.02" font-family="Helvetica,sans-Serif" font-size="10.00"> BushList</text>
<text text-anchor="middle" x="385.5" y="-388.02" font-family="Helvetica,sans-Serif" font-size="10.00">GraveClusterCenters</text>
<text text-anchor="middle" x="385.5" y="-377.02" font-family="Helvetica,sans-Serif" font-size="10.00">GraveList</text>
<text text-anchor="middle" x="385.5" y="-366.02" font-family="Helvetica,sans-Serif" font-size="10.00">GuardPathCorners</text>
<text text-anchor="middle" x="385.5" y="-355.02" font-family="Helvetica,sans-Serif" font-size="10.00">TreeList</text>
</g>
<!-- Node7&#45;&gt;Node2 -->
<g id="edge6" class="edge">
<title>Node7&#45;&gt;Node2</title>
<path fill="none" stroke="#9a32cd" stroke-dasharray="5,2" d="M273.71,-291.45C313.52,-294.49 380.21,-300.5 437,-310.02 445.91,-311.52 455.42,-313.49 464.35,-315.52"/>
<polygon fill="#9a32cd" stroke="#9a32cd" points="273.93,-287.96 263.7,-290.7 273.41,-294.94 273.93,-287.96"/>
<text text-anchor="middle" x="385.5" y="-313.02" font-family="Helvetica,sans-Serif" font-size="10.00"> TileDatas</text>
</g>
<!-- Node8 -->
<g id="node8" class="node">
<title>Node8</title>
<g id="a_node8"><a xlink:title=" ">
<polygon fill="white" stroke="black" points="24,-179.52 24,-198.52 59,-198.52 59,-179.52 24,-179.52"/>
<text text-anchor="middle" x="41.5" y="-186.52" font-family="Helvetica,sans-Serif" font-size="10.00">float</text>
</a>
</g>
</g>
<!-- Node8&#45;&gt;Node2 -->
<g id="edge13" class="edge">
<title>Node8&#45;&gt;Node2</title>
<path fill="none" stroke="#9a32cd" stroke-dasharray="5,2" d="M59.89,-172.43C81.25,-153.32 119.53,-123.02 159,-111.02 218.45,-92.96 390.99,-99.26 437,-141.02 490.43,-189.53 499.95,-284.7 501.64,-315.3"/>
<polygon fill="#9a32cd" stroke="#9a32cd" points="57.32,-170.04 52.32,-179.38 62.05,-175.2 57.32,-170.04"/>
<text text-anchor="middle" x="237.5" y="-136.02" font-family="Helvetica,sans-Serif" font-size="10.00"> DetachedGraveChance</text>
<text text-anchor="middle" x="237.5" y="-125.02" font-family="Helvetica,sans-Serif" font-size="10.00">GraveDensity</text>
<text text-anchor="middle" x="237.5" y="-114.02" font-family="Helvetica,sans-Serif" font-size="10.00">TileSize</text>
</g>
<!-- Node8&#45;&gt;Node7 -->
<g id="edge8" class="edge">
<title>Node8&#45;&gt;Node7</title>
<path fill="none" stroke="#9a32cd" stroke-dasharray="5,2" d="M61.07,-205.21C83.02,-223.53 121.34,-253.02 159,-270.02 175.67,-277.55 195.75,-282.36 211.3,-285.26"/>
<polygon fill="#9a32cd" stroke="#9a32cd" points="63.12,-202.36 53.23,-198.56 58.59,-207.7 63.12,-202.36"/>
<text text-anchor="middle" x="121" y="-262.02" font-family="Helvetica,sans-Serif" font-size="10.00"> Noise</text>
</g>
<!-- Node9 -->
<g id="node9" class="node">
<title>Node9</title>
<g id="a_node9"><a xlink:title=" ">
<polygon fill="white" stroke="black" points="15,-273.52 15,-292.52 68,-292.52 68,-273.52 15,-273.52"/>
<text text-anchor="middle" x="41.5" y="-280.52" font-family="Helvetica,sans-Serif" font-size="10.00">TileType</text>
</a>
</g>
</g>
<!-- Node9&#45;&gt;Node7 -->
<g id="edge9" class="edge">
<title>Node9&#45;&gt;Node7</title>
<path fill="none" stroke="#9a32cd" stroke-dasharray="5,2" d="M78.17,-283.02C96.88,-283.12 120.18,-283.37 141,-284.02 164.9,-284.77 192.13,-286.26 211.38,-287.42"/>
<polygon fill="#9a32cd" stroke="#9a32cd" points="78.03,-279.52 68.02,-282.99 78,-286.52 78.03,-279.52"/>
<text text-anchor="middle" x="121" y="-287.02" font-family="Helvetica,sans-Serif" font-size="10.00"> TileType</text>
</g>
<!-- Node10 -->
<g id="node10" class="node">
<title>Node10</title>
<g id="a_node10"><a xlink:title=" ">
<polygon fill="white" stroke="black" points="210,-241.52 210,-260.52 265,-260.52 265,-241.52 210,-241.52"/>
<text text-anchor="middle" x="237.5" y="-248.52" font-family="Helvetica,sans-Serif" font-size="10.00">Direction</text>
</a>
</g>
</g>
<!-- Node10&#45;&gt;Node2 -->
<g id="edge10" class="edge">
<title>Node10&#45;&gt;Node2</title>
<path fill="none" stroke="#9a32cd" stroke-dasharray="5,2" d="M275.18,-251.75C315.98,-253.63 383.25,-260.02 437,-281.02 457.82,-289.16 478.64,-304.93 490.91,-315.21"/>
<polygon fill="#9a32cd" stroke="#9a32cd" points="275.28,-248.25 265.15,-251.35 275,-255.24 275.28,-248.25"/>
<text text-anchor="middle" x="385.5" y="-284.02" font-family="Helvetica,sans-Serif" font-size="10.00"> GraveDirection</text>
</g>
<!-- Node11 -->
<g id="node11" class="node">
<title>Node11</title>
<g id="a_node11"><a xlink:title=" ">
<polygon fill="white" stroke="black" points="223,-153.52 223,-172.52 252,-172.52 252,-153.52 223,-153.52"/>
<text text-anchor="middle" x="237.5" y="-160.52" font-family="Helvetica,sans-Serif" font-size="10.00">int</text>
</a>
</g>
</g>
<!-- Node11&#45;&gt;Node2 -->
<g id="edge11" class="edge">
<title>Node11&#45;&gt;Node2</title>
<path fill="none" stroke="#9a32cd" stroke-dasharray="5,2" d="M262.31,-158.47C308.76,-150.13 409.33,-134.94 437,-154.02 492.69,-192.43 500.71,-285.31 501.83,-315.42"/>
<polygon fill="#9a32cd" stroke="#9a32cd" points="261.45,-155.06 252.25,-160.32 262.72,-161.95 261.45,-155.06"/>
<text text-anchor="middle" x="385.5" y="-245.02" font-family="Helvetica,sans-Serif" font-size="10.00"> BushMinDistance</text>
<text text-anchor="middle" x="385.5" y="-234.02" font-family="Helvetica,sans-Serif" font-size="10.00">GraveClusters</text>
<text text-anchor="middle" x="385.5" y="-223.02" font-family="Helvetica,sans-Serif" font-size="10.00">GraveRNGIncrease</text>
<text text-anchor="middle" x="385.5" y="-212.02" font-family="Helvetica,sans-Serif" font-size="10.00">GraveyardLength</text>
<text text-anchor="middle" x="385.5" y="-201.02" font-family="Helvetica,sans-Serif" font-size="10.00">GraveyardWidth</text>
<text text-anchor="middle" x="385.5" y="-190.02" font-family="Helvetica,sans-Serif" font-size="10.00">GuardNumber</text>
<text text-anchor="middle" x="385.5" y="-179.02" font-family="Helvetica,sans-Serif" font-size="10.00">MaxBushes</text>
<text text-anchor="middle" x="385.5" y="-168.02" font-family="Helvetica,sans-Serif" font-size="10.00">MaxTrees</text>
<text text-anchor="middle" x="385.5" y="-157.02" font-family="Helvetica,sans-Serif" font-size="10.00">TreeMinDistance</text>
</g>
<!-- Node12 -->
<g id="node12" class="node">
<title>Node12</title>
<g id="a_node12"><a xlink:title=" ">
<polygon fill="white" stroke="black" points="207,-3.52 207,-22.52 268,-22.52 268,-3.52 207,-3.52"/>
<text text-anchor="middle" x="237.5" y="-10.52" font-family="Helvetica,sans-Serif" font-size="10.00">Vector2Int</text>
</a>
</g>
</g>
<!-- Node12&#45;&gt;Node1 -->
<g id="edge20" class="edge">
<title>Node12&#45;&gt;Node1</title>
<path fill="none" stroke="#9a32cd" stroke-dasharray="5,2" d="M278.05,-4.94C320.39,1.53 388.09,5.43 437,-23.02 557.39,-93.05 614.48,-271.75 626.87,-315.33"/>
<polygon fill="#9a32cd" stroke="#9a32cd" points="277.41,-1.5 268.11,-6.58 278.55,-8.41 277.41,-1.5"/>
<text text-anchor="middle" x="503" y="-156.02" font-family="Helvetica,sans-Serif" font-size="10.00"> GuardResetPointOne</text>
<text text-anchor="middle" x="503" y="-145.02" font-family="Helvetica,sans-Serif" font-size="10.00">GuardResetPointTwo</text>
</g>
<!-- Node12&#45;&gt;Node2 -->
<g id="edge12" class="edge">
<title>Node12&#45;&gt;Node2</title>
<path fill="none" stroke="#9a32cd" stroke-dasharray="5,2" d="M278.06,-16.41C332.61,-21.44 425.52,-31.43 437,-42.02 478.69,-80.47 497.31,-269.95 501.21,-315.27"/>
<polygon fill="#9a32cd" stroke="#9a32cd" points="278.3,-12.92 268.03,-15.5 277.67,-19.89 278.3,-12.92"/>
<text text-anchor="middle" x="385.5" y="-45.02" font-family="Helvetica,sans-Serif" font-size="10.00"> GraveyardEntrancePos</text>
</g>
<!-- Node13&#45;&gt;Node2 -->
<g id="edge14" class="edge">
<title>Node13&#45;&gt;Node2</title>
<path fill="none" stroke="#9a32cd" stroke-dasharray="5,2" d="M326.28,-326.09C328.88,-326.07 331.46,-326.04 334,-326.02 377.46,-325.67 427.24,-325.39 461.26,-325.21"/>
<polygon fill="#9a32cd" stroke="#9a32cd" points="326.13,-322.59 316.16,-326.18 326.19,-329.59 326.13,-322.59"/>
<text text-anchor="middle" x="385.5" y="-329.02" font-family="Helvetica,sans-Serif" font-size="10.00"> NMSurface</text>
</g>
<!-- Node14 -->
<g id="node14" class="node">
<title>Node14</title>
<g id="a_node14"><a xlink:title=" ">
<polygon fill="white" stroke="black" points="207,-46.52 207,-65.52 268,-65.52 268,-46.52 207,-46.52"/>
<text text-anchor="middle" x="237.5" y="-53.52" font-family="Helvetica,sans-Serif" font-size="10.00">Texture2D</text>
</a>
</g>
</g>
<!-- Node14&#45;&gt;Node2 -->
<g id="edge16" class="edge">
<title>Node14&#45;&gt;Node2</title>
<path fill="none" stroke="#9a32cd" stroke-dasharray="5,2" d="M278.27,-55.07C329.29,-54.69 413.95,-57.21 437,-77.02 474.64,-109.37 496.03,-273.55 500.91,-315.34"/>
<polygon fill="#9a32cd" stroke="#9a32cd" points="278.2,-51.57 268.24,-55.18 278.28,-58.57 278.2,-51.57"/>
<text text-anchor="middle" x="385.5" y="-80.02" font-family="Helvetica,sans-Serif" font-size="10.00"> MapImage</text>
</g>
<!-- Node15 -->
<g id="node15" class="node">
<title>Node15</title>
<g id="a_node15"><a xlink:title=" ">
<polygon fill="white" stroke="black" points="198,-525.52 198,-544.52 277,-544.52 277,-525.52 198,-525.52"/>
<text text-anchor="middle" x="237.5" y="-532.52" font-family="Helvetica,sans-Serif" font-size="10.00">ImageElement</text>
</a>
</g>
</g>
<!-- Node15&#45;&gt;Node2 -->
<g id="edge17" class="edge">
<title>Node15&#45;&gt;Node2</title>
<path fill="none" stroke="#9a32cd" stroke-dasharray="5,2" d="M287.64,-531.01C342.64,-526.1 425.59,-517.3 437,-508.02 492.73,-462.74 500.72,-366.12 501.83,-334.94"/>
<polygon fill="#9a32cd" stroke="#9a32cd" points="287.04,-527.55 277.39,-531.91 287.65,-534.52 287.04,-527.55"/>
<text text-anchor="middle" x="385.5" y="-529.02" font-family="Helvetica,sans-Serif" font-size="10.00"> MapColor</text>
</g>
<!-- Node16 -->
<g id="node16" class="node">
<title>Node16</title>
<g id="a_node16"><a xlink:title=" ">
<polygon fill="white" stroke="black" points="220,-449.52 220,-468.52 255,-468.52 255,-449.52 220,-449.52"/>
<text text-anchor="middle" x="237.5" y="-456.52" font-family="Helvetica,sans-Serif" font-size="10.00">bool</text>
</a>
</g>
</g>
<!-- Node16&#45;&gt;Node2 -->
<g id="edge18" class="edge">
<title>Node16&#45;&gt;Node2</title>
<path fill="none" stroke="#9a32cd" stroke-dasharray="5,2" d="M264.96,-465.02C305.52,-472.65 383.93,-481.1 437,-447.02 478.2,-420.57 495.01,-358.81 500.14,-334.81"/>
<polygon fill="#9a32cd" stroke="#9a32cd" points="265.54,-461.57 255.04,-463.02 264.16,-468.43 265.54,-461.57"/>
<text text-anchor="middle" x="385.5" y="-474.02" font-family="Helvetica,sans-Serif" font-size="10.00"> Prebuilt</text>
</g>
</g>
</svg>
