<?xml version="1.0" encoding="UTF-8" standalone="no"?>
<!DOCTYPE svg PUBLIC "-//W3C//DTD SVG 1.1//EN"
 "http://www.w3.org/Graphics/SVG/1.1/DTD/svg11.dtd">
<!-- Generated by graphviz version 3.0.0 (20220226.1711)
 -->
<!-- Title: SellingScreenScript Pages: 1 -->
<svg width="158pt" height="95pt"
 viewBox="0.00 0.00 157.50 95.00" xmlns="http://www.w3.org/2000/svg" xmlns:xlink="http://www.w3.org/1999/xlink">
<g id="graph0" class="graph" transform="scale(1 1) rotate(0) translate(4 91)">
<title>SellingScreenScript</title>
<polygon fill="white" stroke="transparent" points="-4,4 -4,-91 153.5,-91 153.5,4 -4,4"/>
<!-- Node1 -->
<g id="node1" class="node">
<title>Node1</title>
<g id="a_node1"><a xlink:title="Controls the selling screen">
<polygon fill="#bfbfbf" stroke="black" points="30.5,-0.5 30.5,-19.5 132.5,-19.5 132.5,-0.5 30.5,-0.5"/>
<text text-anchor="middle" x="81.5" y="-7.5" font-family="Helvetica,sans-Serif" font-size="10.00">SellingScreenScript</text>
</a>
</g>
</g>
<!-- Node2 -->
<g id="node2" class="node">
<title>Node2</title>
<g id="a_node2"><a xlink:href="../../da/d01/class_mono_behaviour.html" target="_top" xlink:title=" ">
<polygon fill="white" stroke="black" points="0,-67.5 0,-86.5 83,-86.5 83,-67.5 0,-67.5"/>
<text text-anchor="middle" x="41.5" y="-74.5" font-family="Helvetica,sans-Serif" font-size="10.00">MonoBehaviour</text>
</a>
</g>
</g>
<!-- Node2&#45;&gt;Node1 -->
<g id="edge1" class="edge">
<title>Node2&#45;&gt;Node1</title>
<path fill="none" stroke="midnightblue" d="M52.25,-58.53C59.99,-45.95 70.11,-29.51 76.19,-19.63"/>
<polygon fill="midnightblue" stroke="midnightblue" points="49.15,-56.88 46.89,-67.23 55.12,-60.55 49.15,-56.88"/>
</g>
<!-- Node3 -->
<g id="node3" class="node">
<title>Node3</title>
<g id="a_node3"><a xlink:title=" ">
<polygon fill="white" stroke="black" points="101.5,-67.5 101.5,-86.5 143.5,-86.5 143.5,-67.5 101.5,-67.5"/>
<text text-anchor="middle" x="122.5" y="-74.5" font-family="Helvetica,sans-Serif" font-size="10.00">Sprite</text>
</a>
</g>
</g>
<!-- Node3&#45;&gt;Node1 -->
<g id="edge2" class="edge">
<title>Node3&#45;&gt;Node1</title>
<path fill="none" stroke="#9a32cd" stroke-dasharray="5,2" d="M111.48,-58.53C103.55,-45.95 93.17,-29.51 86.94,-19.63"/>
<polygon fill="#9a32cd" stroke="#9a32cd" points="108.68,-60.64 116.97,-67.23 114.6,-56.91 108.68,-60.64"/>
<text text-anchor="middle" x="126.5" y="-41" font-family="Helvetica,sans-Serif" font-size="10.00"> SellerGuy</text>
</g>
</g>
</svg>
