<?xml version="1.0" encoding="UTF-8" standalone="no"?>
<!DOCTYPE svg PUBLIC "-//W3C//DTD SVG 1.1//EN"
 "http://www.w3.org/Graphics/SVG/1.1/DTD/svg11.dtd">
<!-- Generated by graphviz version 3.0.0 (20220226.1711)
 -->
<!-- Title: UIManager Pages: 1 -->
<svg width="212pt" height="162pt"
 viewBox="0.00 0.00 211.50 162.00" xmlns="http://www.w3.org/2000/svg" xmlns:xlink="http://www.w3.org/1999/xlink">
<g id="graph0" class="graph" transform="scale(1 1) rotate(0) translate(4 158)">
<title>UIManager</title>
<polygon fill="white" stroke="transparent" points="-4,4 -4,-158 207.5,-158 207.5,4 -4,4"/>
<!-- Node1 -->
<g id="node1" class="node">
<title>Node1</title>
<g id="a_node1"><a xlink:title="UIManager will act as the system that controls the UI element changes, such as the coin amount,...">
<polygon fill="#bfbfbf" stroke="black" points="43,-0.5 43,-19.5 106,-19.5 106,-0.5 43,-0.5"/>
<text text-anchor="middle" x="74.5" y="-7.5" font-family="Helvetica,sans-Serif" font-size="10.00">UIManager</text>
</a>
</g>
</g>
<!-- Node2 -->
<g id="node2" class="node">
<title>Node2</title>
<g id="a_node2"><a xlink:href="../../da/d01/class_mono_behaviour.html" target="_top" xlink:title=" ">
<polygon fill="white" stroke="black" points="0,-134.5 0,-153.5 83,-153.5 83,-134.5 0,-134.5"/>
<text text-anchor="middle" x="41.5" y="-141.5" font-family="Helvetica,sans-Serif" font-size="10.00">MonoBehaviour</text>
</a>
</g>
</g>
<!-- Node2&#45;&gt;Node1 -->
<g id="edge1" class="edge">
<title>Node2&#45;&gt;Node1</title>
<path fill="none" stroke="midnightblue" d="M40.3,-123.98C39.84,-108.39 40.37,-85.9 45.5,-67 50.38,-49.04 61.57,-30.24 68.53,-19.63"/>
<polygon fill="midnightblue" stroke="midnightblue" points="36.82,-124.56 40.79,-134.38 43.82,-124.23 36.82,-124.56"/>
</g>
<!-- Node3 -->
<g id="node3" class="node">
<title>Node3</title>
<g id="a_node3"><a xlink:href="../../d8/dfa/class_run_manager.html" target="_top" xlink:title="This class will hold all the temporary information logic for a given instanced run.">
<polygon fill="white" stroke="black" points="55,-67.5 55,-86.5 126,-86.5 126,-67.5 55,-67.5"/>
<text text-anchor="middle" x="90.5" y="-74.5" font-family="Helvetica,sans-Serif" font-size="10.00">RunManager</text>
</a>
</g>
</g>
<!-- Node2&#45;&gt;Node3 -->
<g id="edge3" class="edge">
<title>Node2&#45;&gt;Node3</title>
<path fill="none" stroke="midnightblue" d="M54.39,-125.9C63.91,-113.27 76.48,-96.6 84,-86.63"/>
<polygon fill="midnightblue" stroke="midnightblue" points="51.33,-124.14 48.11,-134.23 56.92,-128.36 51.33,-124.14"/>
</g>
<!-- Node3&#45;&gt;Node1 -->
<g id="edge2" class="edge">
<title>Node3&#45;&gt;Node1</title>
<path fill="none" stroke="#9a32cd" stroke-dasharray="5,2" d="M79.22,-58.51C77.71,-55.44 76.38,-52.21 75.5,-49 72.82,-39.2 73,-27.44 73.57,-19.62"/>
<polygon fill="#9a32cd" stroke="#9a32cd" points="76.35,-60.53 84.36,-67.47 82.42,-57.05 76.35,-60.53"/>
<text text-anchor="middle" x="112" y="-41" font-family="Helvetica,sans-Serif" font-size="10.00"> RunManagerObj</text>
</g>
<!-- Node4 -->
<g id="node4" class="node">
<title>Node4</title>
<g id="a_node4"><a xlink:title=" ">
<polygon fill="white" stroke="black" points="123,-134.5 123,-153.5 158,-153.5 158,-134.5 123,-134.5"/>
<text text-anchor="middle" x="140.5" y="-141.5" font-family="Helvetica,sans-Serif" font-size="10.00">bool</text>
</a>
</g>
</g>
<!-- Node4&#45;&gt;Node1 -->
<g id="edge5" class="edge">
<title>Node4&#45;&gt;Node1</title>
<path fill="none" stroke="#9a32cd" stroke-dasharray="5,2" d="M148.25,-125.08C156.64,-102.6 166.59,-63.86 148.5,-38 138.94,-24.33 121.68,-17.56 106.24,-14.21"/>
<polygon fill="#9a32cd" stroke="#9a32cd" points="144.97,-123.84 144.49,-134.43 151.47,-126.45 144.97,-123.84"/>
<text text-anchor="middle" x="181.5" y="-74.5" font-family="Helvetica,sans-Serif" font-size="10.00"> IsPaused</text>
</g>
<!-- Node4&#45;&gt;Node3 -->
<g id="edge4" class="edge">
<title>Node4&#45;&gt;Node3</title>
<path fill="none" stroke="#9a32cd" stroke-dasharray="5,2" d="M116.97,-128.46C112.39,-124.82 107.94,-120.62 104.5,-116 97.86,-107.09 94.09,-94.7 92.17,-86.53"/>
<polygon fill="#9a32cd" stroke="#9a32cd" points="115.03,-131.37 125.2,-134.37 119.12,-125.69 115.03,-131.37"/>
<text text-anchor="middle" x="126.5" y="-108" font-family="Helvetica,sans-Serif" font-size="10.00"> AutoStop</text>
</g>
</g>
</svg>
