<?xml version="1.0" encoding="UTF-8" standalone="no"?>
<!DOCTYPE svg PUBLIC "-//W3C//DTD SVG 1.1//EN"
 "http://www.w3.org/Graphics/SVG/1.1/DTD/svg11.dtd">
<!-- Generated by graphviz version 3.0.0 (20220226.1711)
 -->
<!-- Title: GameManager Pages: 1 -->
<svg width="543pt" height="594pt"
 viewBox="0.00 0.00 543.00 593.88" xmlns="http://www.w3.org/2000/svg" xmlns:xlink="http://www.w3.org/1999/xlink">
<g id="graph0" class="graph" transform="scale(1 1) rotate(0) translate(4 589.88)">
<title>GameManager</title>
<polygon fill="white" stroke="transparent" points="-4,4 -4,-589.88 539,-589.88 539,4 -4,4"/>
<!-- Node1 -->
<g id="node1" class="node">
<title>Node1</title>
<g id="a_node1"><a xlink:title="The manager that will act as a brain. Will call functions and other scripts for highest level logic....">
<polygon fill="#bfbfbf" stroke="black" points="455,-477.5 455,-496.5 535,-496.5 535,-477.5 455,-477.5"/>
<text text-anchor="middle" x="495" y="-484.5" font-family="Helvetica,sans-Serif" font-size="10.00">GameManager</text>
</a>
</g>
</g>
<!-- Node2 -->
<g id="node2" class="node">
<title>Node2</title>
<g id="a_node2"><a xlink:href="../../da/d01/class_mono_behaviour.html" target="_top" xlink:title=" ">
<polygon fill="white" stroke="black" points="11,-515.5 11,-534.5 94,-534.5 94,-515.5 11,-515.5"/>
<text text-anchor="middle" x="52.5" y="-522.5" font-family="Helvetica,sans-Serif" font-size="10.00">MonoBehaviour</text>
</a>
</g>
</g>
<!-- Node2&#45;&gt;Node1 -->
<g id="edge1" class="edge">
<title>Node2&#45;&gt;Node1</title>
<path fill="none" stroke="midnightblue" d="M78,-539.52C90.98,-546.65 107.43,-554.8 123,-560 212.85,-590.02 240.46,-588 335,-582 380.61,-579.11 397.92,-592.69 437,-569 465.46,-551.74 483.29,-514.25 490.43,-496.58"/>
<polygon fill="midnightblue" stroke="midnightblue" points="79.65,-536.43 69.22,-534.57 76.21,-542.53 79.65,-536.43"/>
</g>
<!-- Node3 -->
<g id="node3" class="node">
<title>Node3</title>
<g id="a_node3"><a xlink:href="../../da/d2a/class_quest_manager.html" target="_top" xlink:title=" ">
<polygon fill="white" stroke="black" points="250,-282.5 250,-301.5 330,-301.5 330,-282.5 250,-282.5"/>
<text text-anchor="middle" x="290" y="-289.5" font-family="Helvetica,sans-Serif" font-size="10.00">QuestManager</text>
</a>
</g>
</g>
<!-- Node2&#45;&gt;Node3 -->
<g id="edge3" class="edge">
<title>Node2&#45;&gt;Node3</title>
<path fill="none" stroke="midnightblue" d="M101.76,-509.44C102.92,-508.37 104,-507.22 105,-506 138.79,-464.53 87.37,-426.9 123,-387 154.88,-351.3 186.03,-383.76 227,-359 251.69,-344.08 272.61,-316.51 282.64,-301.82"/>
<polygon fill="midnightblue" stroke="midnightblue" points="99.38,-506.84 93.27,-515.49 103.45,-512.54 99.38,-506.84"/>
</g>
<!-- Node7 -->
<g id="node7" class="node">
<title>Node7</title>
<g id="a_node7"><a xlink:href="../../d5/d86/class_scene_controller.html" target="_top" xlink:title="Controls the changing of scenes and playing the loading screne">
<polygon fill="white" stroke="black" points="247,-553.5 247,-572.5 333,-572.5 333,-553.5 247,-553.5"/>
<text text-anchor="middle" x="290" y="-560.5" font-family="Helvetica,sans-Serif" font-size="10.00">SceneController</text>
</a>
</g>
</g>
<!-- Node2&#45;&gt;Node7 -->
<g id="edge8" class="edge">
<title>Node2&#45;&gt;Node7</title>
<path fill="none" stroke="midnightblue" d="M104.1,-535.53C110.45,-536.75 116.87,-537.94 123,-539 165.04,-546.27 213.32,-553.08 246.94,-557.57"/>
<polygon fill="midnightblue" stroke="midnightblue" points="104.71,-532.08 94.22,-533.59 103.36,-538.95 104.71,-532.08"/>
</g>
<!-- Node8 -->
<g id="node8" class="node">
<title>Node8</title>
<g id="a_node8"><a xlink:href="../../d8/dfa/class_run_manager.html" target="_top" xlink:title="This class will hold all the temporary information logic for a given instanced run.">
<polygon fill="white" stroke="black" points="254.5,-477.5 254.5,-496.5 325.5,-496.5 325.5,-477.5 254.5,-477.5"/>
<text text-anchor="middle" x="290" y="-484.5" font-family="Helvetica,sans-Serif" font-size="10.00">RunManager</text>
</a>
</g>
</g>
<!-- Node2&#45;&gt;Node8 -->
<g id="edge10" class="edge">
<title>Node2&#45;&gt;Node8</title>
<path fill="none" stroke="midnightblue" d="M104.57,-517.93C139.18,-512.99 185.92,-506.05 227,-499 235.86,-497.48 245.41,-495.7 254.29,-493.99"/>
<polygon fill="midnightblue" stroke="midnightblue" points="103.65,-514.52 94.24,-519.39 104.64,-521.45 103.65,-514.52"/>
</g>
<!-- Node10 -->
<g id="node10" class="node">
<title>Node10</title>
<g id="a_node10"><a xlink:href="../../da/d9d/class_upgrade_manager.html" target="_top" xlink:title="Handles the upgrade system of buying tools">
<polygon fill="white" stroke="black" points="245,-515.5 245,-534.5 335,-534.5 335,-515.5 245,-515.5"/>
<text text-anchor="middle" x="290" y="-522.5" font-family="Helvetica,sans-Serif" font-size="10.00">UpgradeManager</text>
</a>
</g>
</g>
<!-- Node2&#45;&gt;Node10 -->
<g id="edge13" class="edge">
<title>Node2&#45;&gt;Node10</title>
<path fill="none" stroke="midnightblue" d="M104.5,-525C146.31,-525 204.89,-525 244.75,-525"/>
<polygon fill="midnightblue" stroke="midnightblue" points="104.25,-521.5 94.25,-525 104.25,-528.5 104.25,-521.5"/>
</g>
<!-- Node11 -->
<g id="node11" class="node">
<title>Node11</title>
<g id="a_node11"><a xlink:href="../../d0/d9d/class_dialogue.html" target="_top" xlink:title="The controller that manages a single dialgue script.">
<polygon fill="white" stroke="black" points="263,-58.5 263,-77.5 317,-77.5 317,-58.5 263,-58.5"/>
<text text-anchor="middle" x="290" y="-65.5" font-family="Helvetica,sans-Serif" font-size="10.00">Dialogue</text>
</a>
</g>
</g>
<!-- Node2&#45;&gt;Node11 -->
<g id="edge15" class="edge">
<title>Node2&#45;&gt;Node11</title>
<path fill="none" stroke="midnightblue" d="M102.43,-509.07C103.35,-508.1 104.21,-507.08 105,-506 131.95,-469.08 92.63,-129.16 123,-95 141.09,-74.65 220.92,-69.62 262.94,-68.39"/>
<polygon fill="midnightblue" stroke="midnightblue" points="100.12,-506.44 94.42,-515.37 104.44,-511.94 100.12,-506.44"/>
</g>
<!-- Node14 -->
<g id="node14" class="node">
<title>Node14</title>
<g id="a_node14"><a xlink:href="../../db/d69/class_inventory_bag.html" target="_top" xlink:title=" ">
<polygon fill="white" stroke="black" points="254,-439.5 254,-458.5 326,-458.5 326,-439.5 254,-439.5"/>
<text text-anchor="middle" x="290" y="-446.5" font-family="Helvetica,sans-Serif" font-size="10.00">InventoryBag</text>
</a>
</g>
</g>
<!-- Node2&#45;&gt;Node14 -->
<g id="edge19" class="edge">
<title>Node2&#45;&gt;Node14</title>
<path fill="none" stroke="midnightblue" d="M96.61,-511.22C99.55,-509.65 102.38,-507.91 105,-506 115.49,-498.35 111.96,-489.83 123,-483 163.14,-458.14 218.2,-451.09 253.69,-449.29"/>
<polygon fill="midnightblue" stroke="midnightblue" points="95.11,-508.06 87.56,-515.49 98.1,-514.39 95.11,-508.06"/>
</g>
<!-- Node3&#45;&gt;Node1 -->
<g id="edge2" class="edge">
<title>Node3&#45;&gt;Node1</title>
<path fill="none" stroke="#9a32cd" stroke-dasharray="5,2" d="M308.43,-308.75C349.52,-348.21 451.38,-446.06 483.87,-477.27"/>
<polygon fill="#9a32cd" stroke="#9a32cd" points="310.7,-306.07 301.07,-301.67 305.85,-311.12 310.7,-306.07"/>
<text text-anchor="middle" x="395" y="-432" font-family="Helvetica,sans-Serif" font-size="10.00"> _QuestManager</text>
</g>
<!-- Node4 -->
<g id="node4" class="node">
<title>Node4</title>
<g id="a_node4"><a xlink:title=" ">
<polygon fill="white" stroke="black" points="17,-339.5 17,-358.5 88,-358.5 88,-339.5 17,-339.5"/>
<text text-anchor="middle" x="52.5" y="-346.5" font-family="Helvetica,sans-Serif" font-size="10.00">GameObject</text>
</a>
</g>
</g>
<!-- Node4&#45;&gt;Node3 -->
<g id="edge4" class="edge">
<title>Node4&#45;&gt;Node3</title>
<path fill="none" stroke="#9a32cd" stroke-dasharray="5,2" d="M68.79,-331.46C81.7,-318.07 101.48,-300.66 123,-293 164.4,-278.25 215.39,-280.72 249.84,-285.13"/>
<polygon fill="#9a32cd" stroke="#9a32cd" points="65.9,-329.43 61.69,-339.15 71.04,-334.18 65.9,-329.43"/>
<text text-anchor="middle" x="175" y="-351" font-family="Helvetica,sans-Serif" font-size="10.00"> FlyerParent</text>
<text text-anchor="middle" x="175" y="-340" font-family="Helvetica,sans-Serif" font-size="10.00">QuestAcceptWindow</text>
<text text-anchor="middle" x="175" y="-329" font-family="Helvetica,sans-Serif" font-size="10.00">QuestButtonParent</text>
<text text-anchor="middle" x="175" y="-318" font-family="Helvetica,sans-Serif" font-size="10.00">QuestButtonPrefab</text>
<text text-anchor="middle" x="175" y="-307" font-family="Helvetica,sans-Serif" font-size="10.00">QuestJournal</text>
<text text-anchor="middle" x="175" y="-296" font-family="Helvetica,sans-Serif" font-size="10.00">TurnInButton</text>
</g>
<!-- Node4&#45;&gt;Node14 -->
<g id="edge20" class="edge">
<title>Node4&#45;&gt;Node14</title>
<path fill="none" stroke="#9a32cd" stroke-dasharray="5,2" d="M92.79,-361.76C128.42,-373.8 182.1,-393.07 227,-414 243.36,-421.62 261.22,-431.94 273.56,-439.39"/>
<polygon fill="#9a32cd" stroke="#9a32cd" points="93.83,-358.42 83.23,-358.56 91.61,-365.06 93.83,-358.42"/>
<text text-anchor="middle" x="175" y="-439" font-family="Helvetica,sans-Serif" font-size="10.00"> HostObject</text>
<text text-anchor="middle" x="175" y="-428" font-family="Helvetica,sans-Serif" font-size="10.00">InventorySlot</text>
<text text-anchor="middle" x="175" y="-417" font-family="Helvetica,sans-Serif" font-size="10.00">ScrollBar</text>
</g>
<!-- Node5 -->
<g id="node5" class="node">
<title>Node5</title>
<g id="a_node5"><a xlink:title=" ">
<polygon fill="white" stroke="black" points="3.5,-140.5 3.5,-159.5 101.5,-159.5 101.5,-140.5 3.5,-140.5"/>
<text text-anchor="middle" x="52.5" y="-147.5" font-family="Helvetica,sans-Serif" font-size="10.00">TextMeshProUGUI</text>
</a>
</g>
</g>
<!-- Node5&#45;&gt;Node3 -->
<g id="edge5" class="edge">
<title>Node5&#45;&gt;Node3</title>
<path fill="none" stroke="#9a32cd" stroke-dasharray="5,2" d="M102.31,-138.76C139.59,-133.03 190.57,-131.67 227,-156 271.67,-185.83 284.64,-256.34 287.96,-282.24"/>
<polygon fill="#9a32cd" stroke="#9a32cd" points="101.46,-135.35 92.19,-140.47 102.63,-142.25 101.46,-135.35"/>
<text text-anchor="middle" x="175" y="-269" font-family="Helvetica,sans-Serif" font-size="10.00"> AcceptDescriptionText</text>
<text text-anchor="middle" x="175" y="-258" font-family="Helvetica,sans-Serif" font-size="10.00">AcceptRequiredTasks</text>
<text text-anchor="middle" x="175" y="-247" font-family="Helvetica,sans-Serif" font-size="10.00">AcceptRewardText</text>
<text text-anchor="middle" x="175" y="-236" font-family="Helvetica,sans-Serif" font-size="10.00">AcceptTitleText</text>
<text text-anchor="middle" x="175" y="-225" font-family="Helvetica,sans-Serif" font-size="10.00">JournalCurrencyName</text>
<text text-anchor="middle" x="175" y="-214" font-family="Helvetica,sans-Serif" font-size="10.00">JournalDescriptionText</text>
<text text-anchor="middle" x="175" y="-203" font-family="Helvetica,sans-Serif" font-size="10.00">JournalMoneyText</text>
<text text-anchor="middle" x="175" y="-192" font-family="Helvetica,sans-Serif" font-size="10.00">JournalRewardText</text>
<text text-anchor="middle" x="175" y="-181" font-family="Helvetica,sans-Serif" font-size="10.00">JournalTasksCompleted</text>
<text text-anchor="middle" x="175" y="-170" font-family="Helvetica,sans-Serif" font-size="10.00">JournalTitleText</text>
<text text-anchor="middle" x="175" y="-159" font-family="Helvetica,sans-Serif" font-size="10.00">...</text>
</g>
<!-- Node6 -->
<g id="node6" class="node">
<title>Node6</title>
<g id="a_node6"><a xlink:title=" ">
<polygon fill="white" stroke="black" points="0,-102.5 0,-121.5 105,-121.5 105,-102.5 0,-102.5"/>
<text text-anchor="middle" x="52.5" y="-109.5" font-family="Helvetica,sans-Serif" font-size="10.00">List&lt; GameObject &gt;</text>
</a>
</g>
</g>
<!-- Node6&#45;&gt;Node3 -->
<g id="edge6" class="edge">
<title>Node6&#45;&gt;Node3</title>
<path fill="none" stroke="#9a32cd" stroke-dasharray="5,2" d="M102.25,-100.72C139.94,-94.95 191.51,-93.83 227,-120 281.41,-160.13 288.2,-252.55 288.95,-282.47"/>
<polygon fill="#9a32cd" stroke="#9a32cd" points="101.29,-97.33 92.02,-102.45 102.46,-104.23 101.29,-97.33"/>
<text text-anchor="middle" x="175" y="-123" font-family="Helvetica,sans-Serif" font-size="10.00"> QuestFlyers</text>
</g>
<!-- Node7&#45;&gt;Node1 -->
<g id="edge7" class="edge">
<title>Node7&#45;&gt;Node1</title>
<path fill="none" stroke="#9a32cd" stroke-dasharray="5,2" d="M343.33,-556.67C371.96,-551.87 407.5,-543.68 437,-530 455.22,-521.55 473.2,-506.58 483.96,-496.72"/>
<polygon fill="#9a32cd" stroke="#9a32cd" points="342.44,-553.27 333.11,-558.29 343.54,-560.18 342.44,-553.27"/>
<text text-anchor="middle" x="395" y="-557" font-family="Helvetica,sans-Serif" font-size="10.00"> _SceneManager</text>
</g>
<!-- Node8&#45;&gt;Node1 -->
<g id="edge9" class="edge">
<title>Node8&#45;&gt;Node1</title>
<path fill="none" stroke="#9a32cd" stroke-dasharray="5,2" d="M336,-487C371.57,-487 420.71,-487 454.71,-487"/>
<polygon fill="#9a32cd" stroke="#9a32cd" points="335.9,-483.5 325.9,-487 335.9,-490.5 335.9,-483.5"/>
<text text-anchor="middle" x="395" y="-490" font-family="Helvetica,sans-Serif" font-size="10.00"> _RunManager</text>
</g>
<!-- Node9 -->
<g id="node9" class="node">
<title>Node9</title>
<g id="a_node9"><a xlink:title=" ">
<polygon fill="white" stroke="black" points="35,-477.5 35,-496.5 70,-496.5 70,-477.5 35,-477.5"/>
<text text-anchor="middle" x="52.5" y="-484.5" font-family="Helvetica,sans-Serif" font-size="10.00">bool</text>
</a>
</g>
</g>
<!-- Node9&#45;&gt;Node8 -->
<g id="edge11" class="edge">
<title>Node9&#45;&gt;Node8</title>
<path fill="none" stroke="#9a32cd" stroke-dasharray="5,2" d="M80.25,-487C123.04,-487 206.88,-487 254.25,-487"/>
<polygon fill="#9a32cd" stroke="#9a32cd" points="80.06,-483.5 70.06,-487 80.06,-490.5 80.06,-483.5"/>
<text text-anchor="middle" x="175" y="-490" font-family="Helvetica,sans-Serif" font-size="10.00"> AutoStop</text>
</g>
<!-- Node10&#45;&gt;Node1 -->
<g id="edge12" class="edge">
<title>Node10&#45;&gt;Node1</title>
<path fill="none" stroke="#9a32cd" stroke-dasharray="5,2" d="M345.47,-517.08C373,-512.81 406.87,-507.17 437,-501 443.49,-499.67 450.36,-498.12 456.99,-496.53"/>
<polygon fill="#9a32cd" stroke="#9a32cd" points="344.6,-513.67 335.25,-518.64 345.66,-520.59 344.6,-513.67"/>
<text text-anchor="middle" x="395" y="-518" font-family="Helvetica,sans-Serif" font-size="10.00"> _UpgradeManager</text>
</g>
<!-- Node11&#45;&gt;Node1 -->
<g id="edge14" class="edge">
<title>Node11&#45;&gt;Node1</title>
<path fill="none" stroke="#9a32cd" stroke-dasharray="5,2" d="M301.96,-86.51C327.44,-129.92 391.9,-241.98 437,-340 460.23,-390.48 482.46,-453.33 490.67,-477.2"/>
<polygon fill="#9a32cd" stroke="#9a32cd" points="304.84,-84.5 296.75,-77.66 298.81,-88.05 304.84,-84.5"/>
<text text-anchor="middle" x="395" y="-343" font-family="Helvetica,sans-Serif" font-size="10.00"> _DialogueManager</text>
</g>
<!-- Node12 -->
<g id="node12" class="node">
<title>Node12</title>
<g id="a_node12"><a xlink:title=" ">
<polygon fill="white" stroke="black" points="31,-45.5 31,-64.5 74,-64.5 74,-45.5 31,-45.5"/>
<text text-anchor="middle" x="52.5" y="-52.5" font-family="Helvetica,sans-Serif" font-size="10.00">Image</text>
</a>
</g>
</g>
<!-- Node12&#45;&gt;Node11 -->
<g id="edge16" class="edge">
<title>Node12&#45;&gt;Node11</title>
<path fill="none" stroke="#9a32cd" stroke-dasharray="5,2" d="M84.57,-53.45C119.35,-52.12 177.37,-51.1 227,-56 238.89,-57.17 251.9,-59.52 262.91,-61.84"/>
<polygon fill="#9a32cd" stroke="#9a32cd" points="83.97,-49.97 74.13,-53.89 84.27,-56.97 83.97,-49.97"/>
<text text-anchor="middle" x="175" y="-59" font-family="Helvetica,sans-Serif" font-size="10.00"> Portrait</text>
</g>
<!-- Node13 -->
<g id="node13" class="node">
<title>Node13</title>
<g id="a_node13"><a xlink:title=" ">
<polygon fill="white" stroke="black" points="22,-0.5 22,-19.5 83,-19.5 83,-0.5 22,-0.5"/>
<text text-anchor="middle" x="52.5" y="-7.5" font-family="Helvetica,sans-Serif" font-size="10.00">TMP_Text</text>
</a>
</g>
</g>
<!-- Node13&#45;&gt;Node11 -->
<g id="edge17" class="edge">
<title>Node13&#45;&gt;Node11</title>
<path fill="none" stroke="#9a32cd" stroke-dasharray="5,2" d="M93.1,-8.12C129.07,-7.69 183.06,-10.28 227,-26 247.07,-33.18 266.87,-48.4 278.51,-58.41"/>
<polygon fill="#9a32cd" stroke="#9a32cd" points="92.93,-4.63 83,-8.33 93.07,-11.62 92.93,-4.63"/>
<text text-anchor="middle" x="175" y="-40" font-family="Helvetica,sans-Serif" font-size="10.00"> Line</text>
<text text-anchor="middle" x="175" y="-29" font-family="Helvetica,sans-Serif" font-size="10.00">Title</text>
</g>
<!-- Node14&#45;&gt;Node1 -->
<g id="edge18" class="edge">
<title>Node14&#45;&gt;Node1</title>
<path fill="none" stroke="#9a32cd" stroke-dasharray="5,2" d="M336.5,-454.96C365.41,-459.05 403.56,-464.99 437,-472 444.51,-473.58 452.51,-475.52 460.07,-477.47"/>
<polygon fill="#9a32cd" stroke="#9a32cd" points="336.67,-451.45 326.29,-453.54 335.71,-458.38 336.67,-451.45"/>
<text text-anchor="middle" x="395" y="-475" font-family="Helvetica,sans-Serif" font-size="10.00"> Inventory</text>
</g>
</g>
</svg>
