<?xml version="1.0" encoding="UTF-8" standalone="no"?>
<!DOCTYPE svg PUBLIC "-//W3C//DTD SVG 1.1//EN"
 "http://www.w3.org/Graphics/SVG/1.1/DTD/svg11.dtd">
<!-- Generated by graphviz version 3.0.0 (20220226.1711)
 -->
<!-- Title: TripWireMiniGame.MoveCollider Pages: 1 -->
<svg width="527pt" height="66pt"
 viewBox="0.00 0.00 527.00 66.00" xmlns="http://www.w3.org/2000/svg" xmlns:xlink="http://www.w3.org/1999/xlink">
<g id="graph0" class="graph" transform="scale(1 1) rotate(0) translate(4 62)">
<title>TripWireMiniGame.MoveCollider</title>
<polygon fill="white" stroke="transparent" points="-4,4 -4,-62 523,-62 523,4 -4,4"/>
<!-- Node1 -->
<g id="node1" class="node">
<title>Node1</title>
<g id="a_node1"><a xlink:title="moves collider based on given positions">
<polygon fill="#bfbfbf" stroke="black" points="364,-19.5 364,-38.5 519,-38.5 519,-19.5 364,-19.5"/>
<text text-anchor="middle" x="441.5" y="-26.5" font-family="Helvetica,sans-Serif" font-size="10.00">TripWireMiniGame.MoveCollider</text>
</a>
</g>
</g>
<!-- Node2 -->
<g id="node2" class="node">
<title>Node2</title>
<g id="a_node2"><a xlink:href="../../d3/d57/class_trip_wire_mini_game.html#a76af88f846573b67dfda166d638d86c4" target="_top" xlink:title="moves collider based on given positions">
<polygon fill="white" stroke="black" points="188,-19.5 188,-38.5 328,-38.5 328,-19.5 188,-19.5"/>
<text text-anchor="middle" x="258" y="-26.5" font-family="Helvetica,sans-Serif" font-size="10.00">TripWireMiniGame.MoveLine</text>
</a>
</g>
</g>
<!-- Node1&#45;&gt;Node2 -->
<g id="edge1" class="edge">
<title>Node1&#45;&gt;Node2</title>
<path fill="none" stroke="midnightblue" d="M353.77,-29C345.2,-29 336.59,-29 328.23,-29"/>
<polygon fill="midnightblue" stroke="midnightblue" points="353.79,-32.5 363.79,-29 353.79,-25.5 353.79,-32.5"/>
</g>
<!-- Node3 -->
<g id="node3" class="node">
<title>Node3</title>
<g id="a_node3"><a xlink:href="../../d7/d27/class_tripwire_start_points.html#a137ae2bb611ad74df4d7f3fd84931fcc" target="_top" xlink:title="moves the position of the line when moving">
<polygon fill="white" stroke="black" points="9,-38.5 9,-57.5 143,-57.5 143,-38.5 9,-38.5"/>
<text text-anchor="middle" x="76" y="-45.5" font-family="Helvetica,sans-Serif" font-size="10.00">TripwireStartPoints.OnDrag</text>
</a>
</g>
</g>
<!-- Node2&#45;&gt;Node3 -->
<g id="edge2" class="edge">
<title>Node2&#45;&gt;Node3</title>
<path fill="none" stroke="midnightblue" d="M177.85,-37.35C166.29,-38.57 154.49,-39.82 143.23,-41.01"/>
<polygon fill="midnightblue" stroke="midnightblue" points="178.34,-40.82 187.92,-36.29 177.61,-33.86 178.34,-40.82"/>
</g>
<!-- Node4 -->
<g id="node4" class="node">
<title>Node4</title>
<g id="a_node4"><a xlink:href="../../d7/d27/class_tripwire_start_points.html#aef2d3798456451f77615548bad07db12" target="_top" xlink:title="resets position of line when drag is released">
<polygon fill="white" stroke="black" points="0,-0.5 0,-19.5 152,-19.5 152,-0.5 0,-0.5"/>
<text text-anchor="middle" x="76" y="-7.5" font-family="Helvetica,sans-Serif" font-size="10.00">TripwireStartPoints.OnEndDrag</text>
</a>
</g>
</g>
<!-- Node2&#45;&gt;Node4 -->
<g id="edge3" class="edge">
<title>Node2&#45;&gt;Node4</title>
<path fill="none" stroke="midnightblue" d="M177.95,-20.66C169.39,-19.75 160.69,-18.83 152.18,-17.94"/>
<polygon fill="midnightblue" stroke="midnightblue" points="177.61,-24.14 187.92,-21.71 178.34,-17.18 177.61,-24.14"/>
</g>
</g>
</svg>
