<?xml version="1.0" encoding="UTF-8" standalone="no"?>
<!DOCTYPE svg PUBLIC "-//W3C//DTD SVG 1.1//EN"
 "http://www.w3.org/Graphics/SVG/1.1/DTD/svg11.dtd">
<!-- Generated by graphviz version 3.0.0 (20220226.1711)
 -->
<!-- Title: BodyBag Pages: 1 -->
<svg width="64pt" height="84pt"
 viewBox="0.00 0.00 64.00 84.00" xmlns="http://www.w3.org/2000/svg" xmlns:xlink="http://www.w3.org/1999/xlink">
<g id="graph0" class="graph" transform="scale(1 1) rotate(0) translate(4 80)">
<title>BodyBag</title>
<polygon fill="white" stroke="transparent" points="-4,4 -4,-80 60,-80 60,4 -4,4"/>
<!-- Node1 -->
<g id="node1" class="node">
<title>Node1</title>
<g id="a_node1"><a xlink:title="The Item that Carrys the bodies and determines how many can be carryed">
<polygon fill="#bfbfbf" stroke="black" points="0,-0.5 0,-19.5 56,-19.5 56,-0.5 0,-0.5"/>
<text text-anchor="middle" x="28" y="-7.5" font-family="Helvetica,sans-Serif" font-size="10.00">BodyBag</text>
</a>
</g>
</g>
<!-- Node2 -->
<g id="node2" class="node">
<title>Node2</title>
<g id="a_node2"><a xlink:href="../../dc/d32/class_item.html" target="_top" xlink:title="Class to store Item data">
<polygon fill="white" stroke="black" points="10.5,-56.5 10.5,-75.5 45.5,-75.5 45.5,-56.5 10.5,-56.5"/>
<text text-anchor="middle" x="28" y="-63.5" font-family="Helvetica,sans-Serif" font-size="10.00">Item</text>
</a>
</g>
</g>
<!-- Node2&#45;&gt;Node1 -->
<g id="edge1" class="edge">
<title>Node2&#45;&gt;Node1</title>
<path fill="none" stroke="midnightblue" d="M28,-45.8C28,-36.91 28,-26.78 28,-19.75"/>
<polygon fill="midnightblue" stroke="midnightblue" points="24.5,-46.08 28,-56.08 31.5,-46.08 24.5,-46.08"/>
</g>
</g>
</svg>
